<?xml version="1.0" encoding="UTF-8" standalone="no"?>
<!-- Created with Inkscape (http://www.inkscape.org/) -->

<svg
   xmlns:dc="http://purl.org/dc/elements/1.1/"
   xmlns:cc="http://creativecommons.org/ns#"
   xmlns:rdf="http://www.w3.org/1999/02/22-rdf-syntax-ns#"
   xmlns:svg="http://www.w3.org/2000/svg"
   xmlns="http://www.w3.org/2000/svg"
   xmlns:sodipodi="http://sodipodi.sourceforge.net/DTD/sodipodi-0.dtd"
   xmlns:inkscape="http://www.inkscape.org/namespaces/inkscape"
   width="744.09448819"
   height="1052.3622047"
   id="svg3735"
   version="1.1"
   inkscape:version="0.92.3 (2405546, 2018-03-11)"
   sodipodi:docname="Dimension.svg">
  <sodipodi:namedview
     id="base"
     pagecolor="#ffffff"
     bordercolor="#666666"
     borderopacity="1.0"
     inkscape:pageopacity="0.0"
     inkscape:pageshadow="2"
     inkscape:zoom="0.98994949"
     inkscape:cx="275.29523"
     inkscape:cy="634.86269"
     inkscape:document-units="px"
     inkscape:current-layer="layer1"
     showgrid="false"
     showguides="true"
     inkscape:guide-bbox="true"
     inkscape:window-width="1366"
     inkscape:window-height="719"
     inkscape:window-x="0"
     inkscape:window-y="25"
     inkscape:window-maximized="1"
     inkscape:snap-bbox="true">
    <sodipodi:guide
       id="guide4276"
       position="37.142857,350.71429"
       orientation="1,0"
       inkscape:locked="false" />
    <sodipodi:guide
       id="guide4278"
       position="353.55339,340.42141"
       orientation="0,1"
       inkscape:locked="false" />
    <sodipodi:guide
       id="guide4946"
       position="746.50273,739.43167"
       orientation="1,0"
       inkscape:locked="false" />
    <sodipodi:guide
       orientation="1,0"
       position="450.02296,339.91633"
       id="guide6006"
       inkscape:locked="false" />
    <sodipodi:guide
       id="guide7085"
       position="341.42857,840"
       orientation="0,1"
       inkscape:locked="false" />
    <sodipodi:guide
       id="guide7087"
       position="308.09653,893.98501"
       orientation="0,1"
       inkscape:locked="false" />
  </sodipodi:namedview>
  <defs
     id="defs3737">
    <clipPath
       id="clip22">
      <path
         id="path207"
         d="m 48.488281,14.398438 388.113279,0 0,397.113282 -388.113279,0 z m 0,0"
         inkscape:connector-curvature="0" />
    </clipPath>
    <clipPath
       id="clip19">
      <path
         id="path198"
         d="m 368,14.398438 2,0 L 370,411 l -2,0 z m 0,0"
         inkscape:connector-curvature="0" />
    </clipPath>
    <clipPath
       id="clip18">
      <path
         id="path195"
         d="m 271,14.398438 1,0 L 272,411 l -1,0 z m 0,0"
         inkscape:connector-curvature="0" />
    </clipPath>
    <clipPath
       id="clip17">
      <path
         id="path192"
         d="m 173,14.398438 1,0 L 174,411 l -1,0 z m 0,0"
         inkscape:connector-curvature="0" />
    </clipPath>
    <clipPath
       id="clip16">
      <path
         id="path189"
         d="m 75,14.398438 2,0 L 77,411 l -2,0 z m 0,0"
         inkscape:connector-curvature="0" />
    </clipPath>
    <clipPath
       id="clip15">
      <path
         id="path186"
         d="M 48.488281,32 436,32 l 0,1 -387.511719,0 z m 0,0"
         inkscape:connector-curvature="0" />
    </clipPath>
    <clipPath
       id="clip14">
      <path
         id="path183"
         d="M 48.488281,108 436,108 l 0,2 -387.511719,0 z m 0,0"
         inkscape:connector-curvature="0" />
    </clipPath>
    <clipPath
       id="clip13">
      <path
         id="path180"
         d="M 48.488281,185 436,185 l 0,1 -387.511719,0 z m 0,0"
         inkscape:connector-curvature="0" />
    </clipPath>
    <clipPath
       id="clip12">
      <path
         id="path177"
         d="M 48.488281,262 436,262 l 0,1 -387.511719,0 z m 0,0"
         inkscape:connector-curvature="0" />
    </clipPath>
    <clipPath
       id="clip11">
      <path
         id="path174"
         d="M 48.488281,338 436,338 l 0,2 -387.511719,0 z m 0,0"
         inkscape:connector-curvature="0" />
    </clipPath>
    <clipPath
       id="clip10">
      <path
         id="path171"
         d="m 417,14.398438 2,0 0,397.113282 -2,0 z m 0,0"
         inkscape:connector-curvature="0" />
    </clipPath>
    <clipPath
       id="clip9">
      <path
         id="path168"
         d="m 319,14.398438 2,0 0,397.113282 -2,0 z m 0,0"
         inkscape:connector-curvature="0" />
    </clipPath>
    <clipPath
       id="clip8">
      <path
         id="path165"
         d="m 221,14.398438 3,0 0,397.113282 -3,0 z m 0,0"
         inkscape:connector-curvature="0" />
    </clipPath>
    <clipPath
       id="clip7">
      <path
         id="path162"
         d="m 124,14.398438 2,0 0,397.113282 -2,0 z m 0,0"
         inkscape:connector-curvature="0" />
    </clipPath>
    <clipPath
       id="clip6">
      <path
         id="path159"
         d="m 48.488281,70 388.113279,0 0,2 -388.113279,0 z m 0,0"
         inkscape:connector-curvature="0" />
    </clipPath>
    <clipPath
       id="clip5">
      <path
         id="path156"
         d="m 48.488281,146 388.113279,0 0,2 -388.113279,0 z m 0,0"
         inkscape:connector-curvature="0" />
    </clipPath>
    <clipPath
       id="clip4">
      <path
         id="path153"
         d="m 48.488281,223 388.113279,0 0,2 -388.113279,0 z m 0,0"
         inkscape:connector-curvature="0" />
    </clipPath>
    <clipPath
       id="clip3">
      <path
         id="path150"
         d="m 48.488281,300 388.113279,0 0,2 -388.113279,0 z m 0,0"
         inkscape:connector-curvature="0" />
    </clipPath>
    <clipPath
       id="clip2">
      <path
         id="path147"
         d="m 48.488281,376 388.113279,0 0,2 -388.113279,0 z m 0,0"
         inkscape:connector-curvature="0" />
    </clipPath>
    <clipPath
       id="clip1">
      <path
         id="path144"
         d="M 48.488281,14.398438 436,14.398438 436,411 48.488281,411 z m 0,0"
         inkscape:connector-curvature="0" />
    </clipPath>
    <clipPath
       id="clip25">
      <path
         id="path117"
         d="m 48.488281,14.398438 388.113279,0 0,397.113282 -388.113279,0 z m 0,0"
         inkscape:connector-curvature="0" />
    </clipPath>
    <clipPath
       id="clip24">
      <path
         id="path114"
         d="m 48.488281,205 388.113279,0 0,2 -388.113279,0 z m 0,0"
         inkscape:connector-curvature="0" />
    </clipPath>
    <clipPath
       id="clip23">
      <path
         id="path111"
         d="m 227,14.398438 2,0 0,397.113282 -2,0 z m 0,0"
         inkscape:connector-curvature="0" />
    </clipPath>
    <clipPath
       id="clip22-4">
      <path
         id="path108"
         d="m 369,14.398438 1,0 L 370,411 l -1,0 z m 0,0"
         inkscape:connector-curvature="0" />
    </clipPath>
    <clipPath
       id="clip21">
      <path
         id="path105"
         d="m 298,14.398438 2,0 L 300,411 l -2,0 z m 0,0"
         inkscape:connector-curvature="0" />
    </clipPath>
    <clipPath
       id="clip20">
      <path
         id="path102"
         d="m 228,14.398438 1,0 L 229,411 l -1,0 z m 0,0"
         inkscape:connector-curvature="0" />
    </clipPath>
    <clipPath
       id="clip19-7">
      <path
         id="path99"
         d="m 157,14.398438 2,0 L 159,411 l -2,0 z m 0,0"
         inkscape:connector-curvature="0" />
    </clipPath>
    <clipPath
       id="clip18-6">
      <path
         id="path96"
         d="m 87,14.398438 1,0 L 88,411 l -1,0 z m 0,0"
         inkscape:connector-curvature="0" />
    </clipPath>
    <clipPath
       id="clip17-9">
      <path
         id="path93"
         d="M 48.488281,51 436,51 l 0,1 -387.511719,0 z m 0,0"
         inkscape:connector-curvature="0" />
    </clipPath>
    <clipPath
       id="clip16-5">
      <path
         id="path90"
         d="M 48.488281,128 436,128 l 0,1 -387.511719,0 z m 0,0"
         inkscape:connector-curvature="0" />
    </clipPath>
    <clipPath
       id="clip15-3">
      <path
         id="path87"
         d="M 48.488281,205 436,205 l 0,1 -387.511719,0 z m 0,0"
         inkscape:connector-curvature="0" />
    </clipPath>
    <clipPath
       id="clip14-6">
      <path
         id="path84"
         d="M 48.488281,282 436,282 l 0,1 -387.511719,0 z m 0,0"
         inkscape:connector-curvature="0" />
    </clipPath>
    <clipPath
       id="clip13-2">
      <path
         id="path81"
         d="M 48.488281,359 436,359 l 0,1 -387.511719,0 z m 0,0"
         inkscape:connector-curvature="0" />
    </clipPath>
    <clipPath
       id="clip12-8">
      <path
         id="path78"
         d="m 404,14.398438 2,0 0,397.113282 -2,0 z m 0,0"
         inkscape:connector-curvature="0" />
    </clipPath>
    <clipPath
       id="clip11-8">
      <path
         id="path75"
         d="m 333,14.398438 2,0 0,397.113282 -2,0 z m 0,0"
         inkscape:connector-curvature="0" />
    </clipPath>
    <clipPath
       id="clip10-2">
      <path
         id="path72"
         d="m 263,14.398438 2,0 0,397.113282 -2,0 z m 0,0"
         inkscape:connector-curvature="0" />
    </clipPath>
    <clipPath
       id="clip9-8">
      <path
         id="path69"
         d="m 192,14.398438 2,0 0,397.113282 -2,0 z m 0,0"
         inkscape:connector-curvature="0" />
    </clipPath>
    <clipPath
       id="clip8-6">
      <path
         id="path66"
         d="m 122,14.398438 2,0 0,397.113282 -2,0 z m 0,0"
         inkscape:connector-curvature="0" />
    </clipPath>
    <clipPath
       id="clip7-6">
      <path
         id="path63"
         d="m 51,14.398438 2,0 0,397.113282 -2,0 z m 0,0"
         inkscape:connector-curvature="0" />
    </clipPath>
    <clipPath
       id="clip6-6">
      <path
         id="path60"
         d="m 48.488281,89 388.113279,0 0,2 -388.113279,0 z m 0,0"
         inkscape:connector-curvature="0" />
    </clipPath>
    <clipPath
       id="clip5-5">
      <path
         id="path57"
         d="m 48.488281,166 388.113279,0 0,2 -388.113279,0 z m 0,0"
         inkscape:connector-curvature="0" />
    </clipPath>
    <clipPath
       id="clip4-8">
      <path
         id="path54"
         d="m 48.488281,243 388.113279,0 0,2 -388.113279,0 z m 0,0"
         inkscape:connector-curvature="0" />
    </clipPath>
    <clipPath
       id="clip3-1">
      <path
         id="path51"
         d="m 48.488281,320 388.113279,0 0,2 -388.113279,0 z m 0,0"
         inkscape:connector-curvature="0" />
    </clipPath>
    <clipPath
       id="clip2-2">
      <path
         id="path48"
         d="m 48.488281,397 388.113279,0 0,2 -388.113279,0 z m 0,0"
         inkscape:connector-curvature="0" />
    </clipPath>
    <clipPath
       id="clip1-6">
      <path
         id="path45"
         d="M 48.488281,14.398438 436,14.398438 436,411 48.488281,411 z m 0,0"
         inkscape:connector-curvature="0" />
    </clipPath>
    <clipPath
       id="clip22-1">
      <path
         id="path108-7"
         d="m 48.488281,14.398438 312.113279,0 0,321.113282 -312.113279,0 z m 0,0"
         inkscape:connector-curvature="0" />
    </clipPath>
    <clipPath
       id="clip21-5">
      <path
         id="path105-1"
         d="m 48.488281,319 312.113279,0 0,2 -312.113279,0 z m 0,0"
         inkscape:connector-curvature="0" />
    </clipPath>
    <clipPath
       id="clip20-5">
      <path
         id="path102-0"
         d="m 62,14.398438 2,0 0,321.113282 -2,0 z m 0,0"
         inkscape:connector-curvature="0" />
    </clipPath>
    <clipPath
       id="clip19-1">
      <path
         id="path99-3"
         d="m 352,14.398438 1,0 L 353,335 l -1,0 z m 0,0"
         inkscape:connector-curvature="0" />
    </clipPath>
    <clipPath
       id="clip18-9">
      <path
         id="path96-6"
         d="m 279,14.398438 2,0 L 281,335 l -2,0 z m 0,0"
         inkscape:connector-curvature="0" />
    </clipPath>
    <clipPath
       id="clip17-3">
      <path
         id="path93-5"
         d="m 207,14.398438 1,0 L 208,335 l -1,0 z m 0,0"
         inkscape:connector-curvature="0" />
    </clipPath>
    <clipPath
       id="clip16-2">
      <path
         id="path90-5"
         d="m 134,14.398438 2,0 L 136,335 l -2,0 z m 0,0"
         inkscape:connector-curvature="0" />
    </clipPath>
    <clipPath
       id="clip15-6">
      <path
         id="path87-6"
         d="m 62,14.398438 1,0 L 63,335 l -1,0 z m 0,0"
         inkscape:connector-curvature="0" />
    </clipPath>
    <clipPath
       id="clip14-1">
      <path
         id="path84-4"
         d="M 48.488281,28 360,28 l 0,2 -311.511719,0 z m 0,0"
         inkscape:connector-curvature="0" />
    </clipPath>
    <clipPath
       id="clip13-4">
      <path
         id="path81-3"
         d="M 48.488281,101 360,101 l 0,1 -311.511719,0 z m 0,0"
         inkscape:connector-curvature="0" />
    </clipPath>
    <clipPath
       id="clip12-1">
      <path
         id="path78-7"
         d="M 48.488281,174 360,174 l 0,1 -311.511719,0 z m 0,0"
         inkscape:connector-curvature="0" />
    </clipPath>
    <clipPath
       id="clip11-5">
      <path
         id="path75-7"
         d="M 48.488281,247 360,247 l 0,1 -311.511719,0 z m 0,0"
         inkscape:connector-curvature="0" />
    </clipPath>
    <clipPath
       id="clip10-7">
      <path
         id="path72-8"
         d="M 48.488281,319 360,319 l 0,2 -311.511719,0 z m 0,0"
         inkscape:connector-curvature="0" />
    </clipPath>
    <clipPath
       id="clip9-9">
      <path
         id="path69-6"
         d="m 315,14.398438 2,0 0,321.113282 -2,0 z m 0,0"
         inkscape:connector-curvature="0" />
    </clipPath>
    <clipPath
       id="clip8-5">
      <path
         id="path66-9"
         d="m 243,14.398438 2,0 0,321.113282 -2,0 z m 0,0"
         inkscape:connector-curvature="0" />
    </clipPath>
    <clipPath
       id="clip7-3">
      <path
         id="path63-8"
         d="m 170,14.398438 2,0 0,321.113282 -2,0 z m 0,0"
         inkscape:connector-curvature="0" />
    </clipPath>
    <clipPath
       id="clip6-61">
      <path
         id="path60-0"
         d="m 98,14.398438 2,0 0,321.113282 -2,0 z m 0,0"
         inkscape:connector-curvature="0" />
    </clipPath>
    <clipPath
       id="clip5-3">
      <path
         id="path57-1"
         d="m 48.488281,64 312.113279,0 0,2 -312.113279,0 z m 0,0"
         inkscape:connector-curvature="0" />
    </clipPath>
    <clipPath
       id="clip4-3">
      <path
         id="path54-7"
         d="m 48.488281,137 312.113279,0 0,2 -312.113279,0 z m 0,0"
         inkscape:connector-curvature="0" />
    </clipPath>
    <clipPath
       id="clip3-2">
      <path
         id="path51-1"
         d="m 48.488281,210 312.113279,0 0,2 -312.113279,0 z m 0,0"
         inkscape:connector-curvature="0" />
    </clipPath>
    <clipPath
       id="clip2-0">
      <path
         id="path48-7"
         d="m 48.488281,283 312.113279,0 0,2 -312.113279,0 z m 0,0"
         inkscape:connector-curvature="0" />
    </clipPath>
    <clipPath
       id="clip1-3">
      <path
         id="path45-6"
         d="M 48.488281,14.398438 360,14.398438 360,335 48.488281,335 z m 0,0"
         inkscape:connector-curvature="0" />
    </clipPath>
    <clipPath
       id="clip19-5">
      <path
         inkscape:connector-curvature="0"
         d="m 48.488281,14.398438 312.113279,0 0,321.113282 -312.113279,0 z m 0,0"
         id="path93-4" />
    </clipPath>
    <clipPath
       id="clip18-2">
      <path
         inkscape:connector-curvature="0"
         d="m 48.488281,319 312.113279,0 0,2 -312.113279,0 z m 0,0"
         id="path90-8" />
    </clipPath>
    <clipPath
       id="clip17-6">
      <path
         inkscape:connector-curvature="0"
         d="m 62,14.398438 2,0 0,321.113282 -2,0 z m 0,0"
         id="path87-5" />
    </clipPath>
    <clipPath
       id="clip16-0">
      <path
         inkscape:connector-curvature="0"
         d="m 321,14.398438 1,0 L 322,335 l -1,0 z m 0,0"
         id="path84-1" />
    </clipPath>
    <clipPath
       id="clip15-4">
      <path
         inkscape:connector-curvature="0"
         d="m 234,14.398438 2,0 L 236,335 l -2,0 z m 0,0"
         id="path81-4" />
    </clipPath>
    <clipPath
       id="clip14-3">
      <path
         inkscape:connector-curvature="0"
         d="m 148,14.398438 2,0 L 150,335 l -2,0 z m 0,0"
         id="path78-5" />
    </clipPath>
    <clipPath
       id="clip13-48">
      <path
         inkscape:connector-curvature="0"
         d="m 62,14.398438 1,0 L 63,335 l -1,0 z m 0,0"
         id="path75-3" />
    </clipPath>
    <clipPath
       id="clip12-2">
      <path
         inkscape:connector-curvature="0"
         d="M 48.488281,74 360,74 l 0,1 -311.511719,0 z m 0,0"
         id="path72-0" />
    </clipPath>
    <clipPath
       id="clip11-2">
      <path
         inkscape:connector-curvature="0"
         d="M 48.488281,156 360,156 l 0,1 -311.511719,0 z m 0,0"
         id="path69-67" />
    </clipPath>
    <clipPath
       id="clip10-6">
      <path
         inkscape:connector-curvature="0"
         d="M 48.488281,238 360,238 l 0,1 -311.511719,0 z m 0,0"
         id="path66-0" />
    </clipPath>
    <clipPath
       id="clip9-4">
      <path
         inkscape:connector-curvature="0"
         d="M 48.488281,319 360,319 l 0,2 -311.511719,0 z m 0,0"
         id="path63-6" />
    </clipPath>
    <clipPath
       id="clip8-50">
      <path
         inkscape:connector-curvature="0"
         d="m 277,14.398438 2,0 0,321.113282 -2,0 z m 0,0"
         id="path60-6" />
    </clipPath>
    <clipPath
       id="clip7-9">
      <path
         inkscape:connector-curvature="0"
         d="m 191,14.398438 2,0 0,321.113282 -2,0 z m 0,0"
         id="path57-2" />
    </clipPath>
    <clipPath
       id="clip6-1">
      <path
         inkscape:connector-curvature="0"
         d="m 105,14.398438 2,0 0,321.113282 -2,0 z m 0,0"
         id="path54-4" />
    </clipPath>
    <clipPath
       id="clip5-9">
      <path
         inkscape:connector-curvature="0"
         d="m 48.488281,33 312.113279,0 0,2 -312.113279,0 z m 0,0"
         id="path51-7" />
    </clipPath>
    <clipPath
       id="clip4-88">
      <path
         inkscape:connector-curvature="0"
         d="m 48.488281,115 312.113279,0 0,2 -312.113279,0 z m 0,0"
         id="path48-5" />
    </clipPath>
    <clipPath
       id="clip3-6">
      <path
         inkscape:connector-curvature="0"
         d="m 48.488281,196 312.113279,0 0,2 -312.113279,0 z m 0,0"
         id="path45-0" />
    </clipPath>
    <clipPath
       id="clip2-7">
      <path
         inkscape:connector-curvature="0"
         d="m 48.488281,278 312.113279,0 0,2 -312.113279,0 z m 0,0"
         id="path42" />
    </clipPath>
    <clipPath
       id="clip1-0">
      <path
         inkscape:connector-curvature="0"
         d="M 48.488281,14.398438 360,14.398438 360,335 48.488281,335 z m 0,0"
         id="path39" />
    </clipPath>
    <clipPath
       id="clip12-0">
      <path
         inkscape:connector-curvature="0"
         d="m 45.488281,14.398438 241.113279,0 0,321.113282 -241.113279,0 z m 0,0"
         id="path99-0" />
    </clipPath>
    <clipPath
       id="clip11-0">
      <path
         inkscape:connector-curvature="0"
         d="m 219,14.398438 2,0 L 221,335 l -2,0 z m 0,0"
         id="path96-9" />
    </clipPath>
    <clipPath
       id="clip10-66">
      <path
         inkscape:connector-curvature="0"
         d="m 110,14.398438 2,0 L 112,335 l -2,0 z m 0,0"
         id="path93-6" />
    </clipPath>
    <clipPath
       id="clip9-47">
      <path
         inkscape:connector-curvature="0"
         d="M 45.488281,76 286,76 l 0,1 -240.511719,0 z m 0,0"
         id="path90-0" />
    </clipPath>
    <clipPath
       id="clip8-0">
      <path
         inkscape:connector-curvature="0"
         d="M 45.488281,157 286,157 l 0,1 -240.511719,0 z m 0,0"
         id="path87-54" />
    </clipPath>
    <clipPath
       id="clip7-5">
      <path
         inkscape:connector-curvature="0"
         d="M 45.488281,238 286,238 l 0,1 -240.511719,0 z m 0,0"
         id="path84-5" />
    </clipPath>
    <clipPath
       id="clip6-18">
      <path
         inkscape:connector-curvature="0"
         d="M 45.488281,319 286,319 l 0,2 -240.511719,0 z m 0,0"
         id="path81-2" />
    </clipPath>
    <clipPath
       id="clip5-7">
      <path
         inkscape:connector-curvature="0"
         d="m 45.488281,35 241.113279,0 0,2 -241.113279,0 z m 0,0"
         id="path78-50" />
    </clipPath>
    <clipPath
       id="clip4-5">
      <path
         inkscape:connector-curvature="0"
         d="m 45.488281,116 241.113279,0 0,2 -241.113279,0 z m 0,0"
         id="path75-8" />
    </clipPath>
    <clipPath
       id="clip3-15">
      <path
         inkscape:connector-curvature="0"
         d="m 45.488281,197 241.113279,0 0,2 -241.113279,0 z m 0,0"
         id="path72-4" />
    </clipPath>
    <clipPath
       id="clip2-4">
      <path
         inkscape:connector-curvature="0"
         d="m 45.488281,278 241.113279,0 0,2 -241.113279,0 z m 0,0"
         id="path69-64" />
    </clipPath>
    <clipPath
       id="clip1-9">
      <path
         inkscape:connector-curvature="0"
         d="M 45.488281,14.398438 286,14.398438 286,335 45.488281,335 z m 0,0"
         id="path66-97" />
    </clipPath>
    <clipPath
       id="clip12-9">
      <path
         inkscape:connector-curvature="0"
         d="m 42.488281,14.398438 244.113279,0 0,321.113282 -244.113279,0 z m 0,0"
         id="path108-0" />
    </clipPath>
    <clipPath
       id="clip11-7">
      <path
         inkscape:connector-curvature="0"
         d="m 219,14.398438 1,0 L 220,335 l -1,0 z m 0,0"
         id="path105-3" />
    </clipPath>
    <clipPath
       id="clip10-9">
      <path
         inkscape:connector-curvature="0"
         d="m 108,14.398438 1,0 L 109,335 l -1,0 z m 0,0"
         id="path102-5" />
    </clipPath>
    <clipPath
       id="clip9-3">
      <path
         inkscape:connector-curvature="0"
         d="M 42.488281,76 286,76 l 0,1 -243.511719,0 z m 0,0"
         id="path99-9" />
    </clipPath>
    <clipPath
       id="clip8-08">
      <path
         inkscape:connector-curvature="0"
         d="M 42.488281,157 286,157 l 0,1 -243.511719,0 z m 0,0"
         id="path96-66" />
    </clipPath>
    <clipPath
       id="clip7-58">
      <path
         inkscape:connector-curvature="0"
         d="M 42.488281,238 286,238 l 0,1 -243.511719,0 z m 0,0"
         id="path93-57" />
    </clipPath>
    <clipPath
       id="clip6-5">
      <path
         inkscape:connector-curvature="0"
         d="M 42.488281,319 286,319 l 0,2 -243.511719,0 z m 0,0"
         id="path90-01" />
    </clipPath>
    <clipPath
       id="clip5-71">
      <path
         inkscape:connector-curvature="0"
         d="m 42.488281,35 244.113279,0 0,2 -244.113279,0 z m 0,0"
         id="path87-3" />
    </clipPath>
    <clipPath
       id="clip4-2">
      <path
         inkscape:connector-curvature="0"
         d="m 42.488281,116 244.113279,0 0,2 -244.113279,0 z m 0,0"
         id="path84-8" />
    </clipPath>
    <clipPath
       id="clip3-3">
      <path
         inkscape:connector-curvature="0"
         d="m 42.488281,197 244.113279,0 0,2 -244.113279,0 z m 0,0"
         id="path81-7" />
    </clipPath>
    <clipPath
       id="clip2-07">
      <path
         inkscape:connector-curvature="0"
         d="m 42.488281,278 244.113279,0 0,2 -244.113279,0 z m 0,0"
         id="path78-9" />
    </clipPath>
    <clipPath
       id="clip1-2">
      <path
         inkscape:connector-curvature="0"
         d="M 42.488281,14.398438 286,14.398438 286,335 42.488281,335 z m 0,0"
         id="path75-9" />
    </clipPath>
  </defs>
  <metadata
     id="metadata3740">
    <rdf:RDF>
      <cc:Work
         rdf:about="">
        <dc:format>image/svg+xml</dc:format>
        <dc:type
           rdf:resource="http://purl.org/dc/dcmitype/StillImage" />
        <dc:title />
      </cc:Work>
    </rdf:RDF>
  </metadata>
  <g
     id="layer1"
     inkscape:groupmode="layer"
     inkscape:label="Layer 1">
    <g
       id="g3573"
       transform="translate(-326.4286,-872.58861)">
      <g
         clip-path="url(#clip1-9)"
         clip-rule="nonzero"
         id="g108"
         transform="matrix(1.25,0,0,1.25,318.98656,1104.0436)">
        <path
           style="fill:#ffffff;fill-opacity:1;fill-rule:nonzero;stroke:none"
           d="m 45.488281,334.51172 240.113279,0 0,-320.113282 -240.113279,0 z m 0,0"
           id="path110"
           inkscape:connector-curvature="0" />
      </g>
      <g
         clip-path="url(#clip2-4)"
         clip-rule="nonzero"
         id="g112"
         transform="matrix(1.25,0,0,1.25,318.98656,1104.0436)">
        <path
           style="fill:none;stroke:#fafafa;stroke-width:1.06299198;stroke-linecap:butt;stroke-linejoin:round;stroke-miterlimit:10;stroke-opacity:1"
           d="m 45.488281,279.34375 240.113279,0"
           id="path114-2"
           inkscape:connector-curvature="0" />
      </g>
      <g
         clip-path="url(#clip3-15)"
         clip-rule="nonzero"
         id="g116"
         transform="matrix(1.25,0,0,1.25,318.98656,1104.0436)">
        <path
           style="fill:none;stroke:#fafafa;stroke-width:1.06299198;stroke-linecap:butt;stroke-linejoin:round;stroke-miterlimit:10;stroke-opacity:1"
           d="m 45.488281,198.10156 240.113279,0"
           id="path118"
           inkscape:connector-curvature="0" />
      </g>
      <g
         clip-path="url(#clip4-5)"
         clip-rule="nonzero"
         id="g120"
         transform="matrix(1.25,0,0,1.25,318.98656,1104.0436)">
        <path
           style="fill:none;stroke:#fafafa;stroke-width:1.06299198;stroke-linecap:butt;stroke-linejoin:round;stroke-miterlimit:10;stroke-opacity:1"
           d="m 45.488281,116.85938 240.113279,0"
           id="path122"
           inkscape:connector-curvature="0" />
      </g>
      <g
         clip-path="url(#clip5-7)"
         clip-rule="nonzero"
         id="g124"
         transform="matrix(1.25,0,0,1.25,318.98656,1104.0436)">
        <path
           style="fill:none;stroke:#fafafa;stroke-width:1.06299198;stroke-linecap:butt;stroke-linejoin:round;stroke-miterlimit:10;stroke-opacity:1"
           d="m 45.488281,35.617188 240.113279,0"
           id="path126"
           inkscape:connector-curvature="0" />
      </g>
      <g
         clip-path="url(#clip6-18)"
         clip-rule="nonzero"
         id="g128"
         transform="matrix(1.25,0,0,1.25,318.98656,1104.0436)">
        <path
           style="fill:none;stroke:#e3e3e3;stroke-width:0.42519701;stroke-linecap:butt;stroke-linejoin:round;stroke-miterlimit:10;stroke-opacity:1"
           d="m 45.488281,319.96094 240.113279,0"
           id="path130"
           inkscape:connector-curvature="0" />
      </g>
      <g
         clip-path="url(#clip7-5)"
         clip-rule="nonzero"
         id="g132"
         transform="matrix(1.25,0,0,1.25,318.98656,1104.0436)">
        <path
           style="fill:none;stroke:#e3e3e3;stroke-width:0.42519701;stroke-linecap:butt;stroke-linejoin:round;stroke-miterlimit:10;stroke-opacity:1"
           d="m 45.488281,238.72266 240.113279,0"
           id="path134"
           inkscape:connector-curvature="0" />
      </g>
      <g
         clip-path="url(#clip8-0)"
         clip-rule="nonzero"
         id="g136"
         transform="matrix(1.25,0,0,1.25,318.98656,1104.0436)">
        <path
           style="fill:none;stroke:#e3e3e3;stroke-width:0.42519701;stroke-linecap:butt;stroke-linejoin:round;stroke-miterlimit:10;stroke-opacity:1"
           d="m 45.488281,157.48047 240.113279,0"
           id="path138"
           inkscape:connector-curvature="0" />
      </g>
      <g
         clip-path="url(#clip9-47)"
         clip-rule="nonzero"
         id="g140"
         transform="matrix(1.25,0,0,1.25,318.98656,1104.0436)">
        <path
           style="fill:none;stroke:#e3e3e3;stroke-width:0.42519701;stroke-linecap:butt;stroke-linejoin:round;stroke-miterlimit:10;stroke-opacity:1"
           d="m 45.488281,76.238281 240.113279,0"
           id="path142"
           inkscape:connector-curvature="0" />
      </g>
      <g
         clip-path="url(#clip10-66)"
         clip-rule="nonzero"
         id="g144"
         transform="matrix(1.25,0,0,1.25,318.98656,1104.0436)">
        <path
           style="fill:none;stroke:#e3e3e3;stroke-width:0.42519701;stroke-linecap:butt;stroke-linejoin:round;stroke-miterlimit:10;stroke-opacity:1"
           d="m 110.97266,334.51172 0,-320.113282"
           id="path146"
           inkscape:connector-curvature="0" />
      </g>
      <g
         clip-path="url(#clip11-0)"
         clip-rule="nonzero"
         id="g148"
         transform="matrix(1.25,0,0,1.25,318.98656,1104.0436)">
        <path
           style="fill:none;stroke:#e3e3e3;stroke-width:0.42519701;stroke-linecap:butt;stroke-linejoin:round;stroke-miterlimit:10;stroke-opacity:1"
           d="m 220.11328,334.51172 0,-320.113282"
           id="path150-9"
           inkscape:connector-curvature="0" />
      </g>
      <path
         style="fill:#8a5928;fill-opacity:1;fill-rule:nonzero;stroke:none"
         d="m 396.31078,1503.9948 122.78321,0 0,-363.7646 -122.78321,0 z m 0,0"
         id="path152-6"
         inkscape:connector-curvature="0" />
      <path
         style="fill:#8a5928;fill-opacity:1;fill-rule:nonzero;stroke:none"
         d="m 532.73656,1503.9948 122.7832,0 0,-42.4414 -122.7832,0 z m 0,0"
         id="path154"
         inkscape:connector-curvature="0" />
      <g
         clip-path="url(#clip12-0)"
         clip-rule="nonzero"
         id="g156"
         transform="matrix(1.25,0,0,1.25,318.98656,1104.0436)">
        <path
           style="fill:none;stroke:#7d7d7d;stroke-width:1.06299198;stroke-linecap:round;stroke-linejoin:round;stroke-miterlimit:10;stroke-opacity:1"
           d="m 45.488281,334.51172 240.113279,0 0,-320.113282 -240.113279,0 z m 0,0"
           id="path158"
           inkscape:connector-curvature="0" />
      </g>
      <path
         style="fill:none;stroke:#000000;stroke-width:1.32874;stroke-linecap:butt;stroke-linejoin:round;stroke-miterlimit:10;stroke-opacity:1"
         d="m 370.52953,1503.9948 5.31738,0"
         id="path192-0"
         inkscape:connector-curvature="0" />
      <path
         style="fill:none;stroke:#000000;stroke-width:1.32874;stroke-linecap:butt;stroke-linejoin:round;stroke-miterlimit:10;stroke-opacity:1"
         d="m 370.52953,1402.447 5.31738,0"
         id="path194"
         inkscape:connector-curvature="0" />
      <path
         style="fill:none;stroke:#000000;stroke-width:1.32874;stroke-linecap:butt;stroke-linejoin:round;stroke-miterlimit:10;stroke-opacity:1"
         d="m 370.52953,1300.8942 5.31738,0"
         id="path196"
         inkscape:connector-curvature="0" />
      <path
         style="fill:none;stroke:#000000;stroke-width:1.32874;stroke-linecap:butt;stroke-linejoin:round;stroke-miterlimit:10;stroke-opacity:1"
         d="m 370.52953,1199.3415 5.31738,0"
         id="path198-7"
         inkscape:connector-curvature="0" />
      <path
         style="fill:none;stroke:#000000;stroke-width:1.32874;stroke-linecap:butt;stroke-linejoin:round;stroke-miterlimit:10;stroke-opacity:1"
         d="m 457.70238,1527.5007 0,-5.3174"
         id="path200"
         inkscape:connector-curvature="0" />
      <path
         style="fill:none;stroke:#000000;stroke-width:1.32874;stroke-linecap:butt;stroke-linejoin:round;stroke-miterlimit:10;stroke-opacity:1"
         d="m 594.12816,1527.5007 0,-5.3174"
         id="path202"
         inkscape:connector-curvature="0" />
    </g>
    <flowRoot
       xml:space="preserve"
       id="flowRoot3607"
       style="font-style:normal;font-variant:normal;font-weight:normal;font-stretch:normal;line-height:0.01%;font-family:Ubuntu;-inkscape-font-specification:Ubuntu;text-align:start;letter-spacing:0px;word-spacing:0px;writing-mode:lr-tb;text-anchor:start;fill:#4d4d4d;fill-opacity:1;stroke:none;"
       transform="translate(38.40013,-40.10554)"><flowRegion
         id="flowRegion3609"
         style="fill:#4d4d4d;"><rect
           id="rect3611"
           width="161.6244"
           height="104.04572"
           x="75.761444"
           y="694.76819"
           style="fill:#4d4d4d;" /></flowRegion><flowPara
         id="flowPara3613"
         style="font-size:16px;line-height:1.25;fill:#4d4d4d;">Axe 1</flowPara></flowRoot>    <flowRoot
       xml:space="preserve"
       id="flowRoot3607-4"
       style="font-style:normal;font-variant:normal;font-weight:normal;font-stretch:normal;line-height:0.01%;font-family:Ubuntu;-inkscape-font-specification:Ubuntu;text-align:start;letter-spacing:0px;word-spacing:0px;writing-mode:lr-tb;text-anchor:start;fill:#4d4d4d;fill-opacity:1;stroke:none;"
       transform="translate(174.70528,-40.10554)"><flowRegion
         id="flowRegion3609-4"
         style="fill:#4d4d4d;"><rect
           id="rect3611-5"
           width="161.6244"
           height="104.04572"
           x="75.761444"
           y="694.76819"
           style="fill:#4d4d4d;" /></flowRegion><flowPara
         id="flowPara3613-4"
         style="font-size:16px;line-height:1.25;fill:#4d4d4d;">Axe 2</flowPara></flowRoot>    <flowRoot
       xml:space="preserve"
       id="flowRoot3607-5"
       style="font-style:normal;font-variant:normal;font-weight:normal;font-stretch:normal;line-height:0.01%;font-family:Ubuntu;-inkscape-font-specification:Ubuntu;text-align:end;letter-spacing:0px;word-spacing:0px;writing-mode:lr-tb;text-anchor:end;fill:#4d4d4d;fill-opacity:1;stroke:none;"
       transform="translate(-199.42489,-73.908156)"><flowRegion
         id="flowRegion3609-0"
         style="fill:#4d4d4d;"><rect
           id="rect3611-9"
           width="161.6244"
           height="104.04572"
           x="75.761444"
           y="694.76819"
           style="text-align:end;text-anchor:end;fill:#4d4d4d;" /></flowRegion><flowPara
         id="flowPara3613-2"
         style="font-size:16px;line-height:1.25;text-align:end;text-anchor:end;fill:#4d4d4d;">0</flowPara></flowRoot>    <flowRoot
       xml:space="preserve"
       id="flowRoot3607-5-7"
       style="font-style:normal;font-variant:normal;font-weight:normal;font-stretch:normal;line-height:0.01%;font-family:Ubuntu;-inkscape-font-specification:Ubuntu;text-align:end;letter-spacing:0px;word-spacing:0px;writing-mode:lr-tb;text-anchor:end;fill:#4d4d4d;fill-opacity:1;stroke:none;"
       transform="translate(-200.23214,-176.6613)"><flowRegion
         id="flowRegion3609-0-2"
         style="fill:#4d4d4d;"><rect
           id="rect3611-9-2"
           width="161.6244"
           height="104.04572"
           x="75.761444"
           y="694.76819"
           style="text-align:end;text-anchor:end;fill:#4d4d4d;" /></flowRegion><flowPara
         id="flowPara3613-2-2"
         style="font-size:16px;line-height:1.25;text-align:end;text-anchor:end;fill:#4d4d4d;">0,5</flowPara></flowRoot>    <flowRoot
       xml:space="preserve"
       id="flowRoot3607-5-1"
       style="font-style:normal;font-variant:normal;font-weight:normal;font-stretch:normal;line-height:0.01%;font-family:Ubuntu;-inkscape-font-specification:Ubuntu;text-align:end;letter-spacing:0px;word-spacing:0px;writing-mode:lr-tb;text-anchor:end;fill:#4d4d4d;fill-opacity:1;stroke:none;"
       transform="translate(-197.10489,-277.37558)"><flowRegion
         id="flowRegion3609-0-9"
         style="fill:#4d4d4d;"><rect
           id="rect3611-9-26"
           width="161.6244"
           height="104.04572"
           x="75.761444"
           y="694.76819"
           style="text-align:end;text-anchor:end;fill:#4d4d4d;" /></flowRegion><flowPara
         id="flowPara3613-2-0"
         style="font-size:16px;line-height:1.25;text-align:end;text-anchor:end;fill:#4d4d4d;">1</flowPara></flowRoot>    <flowRoot
       xml:space="preserve"
       id="flowRoot3607-5-3"
       style="font-style:normal;font-variant:normal;font-weight:normal;font-stretch:normal;line-height:0.01%;font-family:Ubuntu;-inkscape-font-specification:Ubuntu;text-align:end;letter-spacing:0px;word-spacing:0px;writing-mode:lr-tb;text-anchor:end;fill:#4d4d4d;fill-opacity:1;stroke:none;"
       transform="translate(-200.23214,-378.08987)"><flowRegion
         id="flowRegion3609-0-24"
         style="fill:#4d4d4d;"><rect
           id="rect3611-9-9"
           width="161.6244"
           height="104.04572"
           x="75.761444"
           y="694.76819"
           style="text-align:end;text-anchor:end;fill:#4d4d4d;" /></flowRegion><flowPara
         id="flowPara3613-2-00"
         style="font-size:16px;line-height:1.25;text-align:end;text-anchor:end;fill:#4d4d4d;">1,5</flowPara></flowRoot>    <g
       id="g3839"
       transform="translate(74.5,-1.25)">
      <g
         clip-path="url(#clip1-2)"
         clip-rule="nonzero"
         id="g117"
         transform="matrix(1.25,0,0,1.25,314.30238,232.73103)">
        <path
           style="fill:#ffffff;fill-opacity:1;fill-rule:nonzero;stroke:none"
           d="m 42.488281,334.51172 243.113279,0 0,-320.113282 -243.113279,0 z m 0,0"
           id="path119"
           inkscape:connector-curvature="0" />
      </g>
      <g
         clip-path="url(#clip2-07)"
         clip-rule="nonzero"
         id="g121"
         transform="matrix(1.25,0,0,1.25,314.30238,232.73103)">
        <path
           style="fill:none;stroke:#fafafa;stroke-width:1.06299198;stroke-linecap:butt;stroke-linejoin:round;stroke-miterlimit:10;stroke-opacity:1"
           d="m 42.488281,279.34375 243.113279,0"
           id="path123"
           inkscape:connector-curvature="0" />
      </g>
      <g
         clip-path="url(#clip3-3)"
         clip-rule="nonzero"
         id="g125"
         transform="matrix(1.25,0,0,1.25,314.30238,232.73103)">
        <path
           style="fill:none;stroke:#fafafa;stroke-width:1.06299198;stroke-linecap:butt;stroke-linejoin:round;stroke-miterlimit:10;stroke-opacity:1"
           d="m 42.488281,198.10156 243.113279,0"
           id="path127"
           inkscape:connector-curvature="0" />
      </g>
      <g
         clip-path="url(#clip4-2)"
         clip-rule="nonzero"
         id="g129"
         transform="matrix(1.25,0,0,1.25,314.30238,232.73103)">
        <path
           style="fill:none;stroke:#fafafa;stroke-width:1.06299198;stroke-linecap:butt;stroke-linejoin:round;stroke-miterlimit:10;stroke-opacity:1"
           d="m 42.488281,116.85938 243.113279,0"
           id="path131"
           inkscape:connector-curvature="0" />
      </g>
      <g
         clip-path="url(#clip5-71)"
         clip-rule="nonzero"
         id="g133"
         transform="matrix(1.25,0,0,1.25,314.30238,232.73103)">
        <path
           style="fill:none;stroke:#fafafa;stroke-width:1.06299198;stroke-linecap:butt;stroke-linejoin:round;stroke-miterlimit:10;stroke-opacity:1"
           d="m 42.488281,35.617188 243.113279,0"
           id="path135"
           inkscape:connector-curvature="0" />
      </g>
      <g
         clip-path="url(#clip6-5)"
         clip-rule="nonzero"
         id="g137"
         transform="matrix(1.25,0,0,1.25,314.30238,232.73103)">
        <path
           style="fill:none;stroke:#e3e3e3;stroke-width:0.42519701;stroke-linecap:butt;stroke-linejoin:round;stroke-miterlimit:10;stroke-opacity:1"
           d="m 42.488281,319.96094 243.113279,0"
           id="path139"
           inkscape:connector-curvature="0" />
      </g>
      <g
         clip-path="url(#clip7-58)"
         clip-rule="nonzero"
         id="g141"
         transform="matrix(1.25,0,0,1.25,314.30238,232.73103)">
        <path
           style="fill:none;stroke:#e3e3e3;stroke-width:0.42519701;stroke-linecap:butt;stroke-linejoin:round;stroke-miterlimit:10;stroke-opacity:1"
           d="m 42.488281,238.72266 243.113279,0"
           id="path143"
           inkscape:connector-curvature="0" />
      </g>
      <g
         clip-path="url(#clip8-08)"
         clip-rule="nonzero"
         id="g145"
         transform="matrix(1.25,0,0,1.25,314.30238,232.73103)">
        <path
           style="fill:none;stroke:#e3e3e3;stroke-width:0.42519701;stroke-linecap:butt;stroke-linejoin:round;stroke-miterlimit:10;stroke-opacity:1"
           d="m 42.488281,157.48047 243.113279,0"
           id="path147-0"
           inkscape:connector-curvature="0" />
      </g>
      <g
         clip-path="url(#clip9-3)"
         clip-rule="nonzero"
         id="g149"
         transform="matrix(1.25,0,0,1.25,314.30238,232.73103)">
        <path
           style="fill:none;stroke:#e3e3e3;stroke-width:0.42519701;stroke-linecap:butt;stroke-linejoin:round;stroke-miterlimit:10;stroke-opacity:1"
           d="m 42.488281,76.238281 243.113279,0"
           id="path151"
           inkscape:connector-curvature="0" />
      </g>
      <g
         clip-path="url(#clip10-9)"
         clip-rule="nonzero"
         id="g153"
         transform="matrix(1.25,0,0,1.25,314.30238,232.73103)">
        <path
           style="fill:none;stroke:#e3e3e3;stroke-width:0.42519701;stroke-linecap:butt;stroke-linejoin:round;stroke-miterlimit:10;stroke-opacity:1"
           d="m 108.78906,334.51172 0,-320.113282"
           id="path155"
           inkscape:connector-curvature="0" />
      </g>
      <g
         clip-path="url(#clip11-7)"
         clip-rule="nonzero"
         id="g157"
         transform="matrix(1.25,0,0,1.25,314.30238,232.73103)">
        <path
           style="fill:none;stroke:#e3e3e3;stroke-width:0.42519701;stroke-linecap:butt;stroke-linejoin:round;stroke-miterlimit:10;stroke-opacity:1"
           d="m 219.29687,334.51172 0,-320.113282"
           id="path159-2"
           inkscape:connector-curvature="0" />
      </g>
      <path
         style="fill:#cc853d;fill-opacity:1;fill-rule:nonzero;stroke:none"
         d="m 388.1305,632.68221 124.32129,0 0,-363.76466 -124.32129,0 z m 0,0"
         id="path161"
         inkscape:connector-curvature="0" />
      <path
         style="fill:#cc853d;fill-opacity:1;fill-rule:nonzero;stroke:none"
         d="m 526.26527,632.68221 124.32129,0 0,-42.44141 -124.32129,0 z m 0,0"
         id="path163"
         inkscape:connector-curvature="0" />
      <g
         clip-path="url(#clip12-9)"
         clip-rule="nonzero"
         id="g165"
         transform="matrix(1.25,0,0,1.25,314.30238,232.73103)">
        <path
           style="fill:none;stroke:#7d7d7d;stroke-width:1.06299198;stroke-linecap:round;stroke-linejoin:round;stroke-miterlimit:10;stroke-opacity:1"
           d="m 42.488281,334.51172 243.113279,0 0,-320.113282 -243.113279,0 z m 0,0"
           id="path167"
           inkscape:connector-curvature="0" />
      </g>
      <path
         style="fill:none;stroke:#000000;stroke-width:1.32874;stroke-linecap:butt;stroke-linejoin:round;stroke-miterlimit:10;stroke-opacity:1"
         d="m 362.09535,632.68221 5.31738,0"
         id="path191"
         inkscape:connector-curvature="0" />
      <path
         style="fill:none;stroke:#000000;stroke-width:1.32874;stroke-linecap:butt;stroke-linejoin:round;stroke-miterlimit:10;stroke-opacity:1"
         d="m 362.09535,531.13436 5.31738,0"
         id="path193"
         inkscape:connector-curvature="0" />
      <path
         style="fill:none;stroke:#000000;stroke-width:1.32874;stroke-linecap:butt;stroke-linejoin:round;stroke-miterlimit:10;stroke-opacity:1"
         d="m 362.09535,429.58162 5.31738,0"
         id="path195-7"
         inkscape:connector-curvature="0" />
      <path
         style="fill:none;stroke:#000000;stroke-width:1.32874;stroke-linecap:butt;stroke-linejoin:round;stroke-miterlimit:10;stroke-opacity:1"
         d="m 362.09535,328.02888 5.31738,0"
         id="path197"
         inkscape:connector-curvature="0" />
      <path
         style="fill:none;stroke:#000000;stroke-width:1.32874;stroke-linecap:butt;stroke-linejoin:round;stroke-miterlimit:10;stroke-opacity:1"
         d="m 450.2887,656.18806 0,-5.31738"
         id="path199"
         inkscape:connector-curvature="0" />
      <path
         style="fill:none;stroke:#000000;stroke-width:1.32874;stroke-linecap:butt;stroke-linejoin:round;stroke-miterlimit:10;stroke-opacity:1"
         d="m 588.42347,656.18806 0,-5.31738"
         id="path201"
         inkscape:connector-curvature="0" />
    </g>
    <flowRoot
       xml:space="preserve"
       id="flowRoot3607-3"
       style="font-style:normal;font-variant:normal;font-weight:normal;font-stretch:normal;line-height:0.01%;font-family:Ubuntu;-inkscape-font-specification:Ubuntu;text-align:start;letter-spacing:0px;word-spacing:0px;writing-mode:lr-tb;text-anchor:start;fill:#4d4d4d;fill-opacity:1;stroke:none;"
       transform="translate(431.11524,-40.10554)"><flowRegion
         id="flowRegion3609-44"
         style="fill:#4d4d4d;"><rect
           id="rect3611-6"
           width="161.6244"
           height="104.04572"
           x="75.761444"
           y="694.76819"
           style="fill:#4d4d4d;" /></flowRegion><flowPara
         id="flowPara3613-5"
         style="font-size:16px;line-height:1.25;fill:#4d4d4d;">Axe 1</flowPara></flowRoot>    <flowRoot
       xml:space="preserve"
       id="flowRoot3607-4-6"
       style="font-style:normal;font-variant:normal;font-weight:normal;font-stretch:normal;line-height:0.01%;font-family:Ubuntu;-inkscape-font-specification:Ubuntu;text-align:start;letter-spacing:0px;word-spacing:0px;writing-mode:lr-tb;text-anchor:start;fill:#4d4d4d;fill-opacity:1;stroke:none;"
       transform="translate(567.42039,-40.10554)"><flowRegion
         id="flowRegion3609-4-6"
         style="fill:#4d4d4d;"><rect
           id="rect3611-5-1"
           width="161.6244"
           height="104.04572"
           x="75.761444"
           y="694.76819"
           style="fill:#4d4d4d;" /></flowRegion><flowPara
         id="flowPara3613-4-3"
         style="font-size:16px;line-height:1.25;fill:#4d4d4d;">Axe 2</flowPara></flowRoot>    <flowRoot
       xml:space="preserve"
       id="flowRoot3607-5-19"
       style="font-style:normal;font-variant:normal;font-weight:normal;font-stretch:normal;line-height:0.01%;font-family:Ubuntu;-inkscape-font-specification:Ubuntu;text-align:end;letter-spacing:0px;word-spacing:0px;writing-mode:lr-tb;text-anchor:end;fill:#4d4d4d;fill-opacity:1;stroke:none;"
       transform="translate(194.76966,-74.641118)"><flowRegion
         id="flowRegion3609-0-0"
         style="fill:#4d4d4d;"><rect
           id="rect3611-9-0"
           width="161.6244"
           height="104.04572"
           x="75.761444"
           y="694.76819"
           style="text-align:end;text-anchor:end;fill:#4d4d4d;" /></flowRegion><flowPara
         id="flowPara3613-2-6"
         style="font-size:16px;line-height:1.25;text-align:end;text-anchor:end;fill:#4d4d4d;">0</flowPara></flowRoot>    <flowRoot
       xml:space="preserve"
       id="flowRoot3607-5-7-0"
       style="font-style:normal;font-variant:normal;font-weight:normal;font-stretch:normal;line-height:0.01%;font-family:Ubuntu;-inkscape-font-specification:Ubuntu;text-align:end;letter-spacing:0px;word-spacing:0px;writing-mode:lr-tb;text-anchor:end;fill:#4d4d4d;fill-opacity:1;stroke:none"
       transform="translate(193.96241,-175.39426)"><flowRegion
         id="flowRegion3609-0-2-2"
         style="fill:#4d4d4d"><rect
           id="rect3611-9-2-6"
           width="161.6244"
           height="104.04572"
           x="75.761444"
           y="694.76819"
           style="text-align:end;text-anchor:end;fill:#4d4d4d" /></flowRegion><flowPara
         id="flowPara3613-2-2-2"
         style="font-size:16px;line-height:1.25;text-align:end;text-anchor:end;fill:#4d4d4d">25</flowPara></flowRoot>    <flowRoot
       xml:space="preserve"
       id="flowRoot3607-5-1-5"
       style="font-style:normal;font-variant:normal;font-weight:normal;font-stretch:normal;line-height:0.01%;font-family:Ubuntu;-inkscape-font-specification:Ubuntu;text-align:end;letter-spacing:0px;word-spacing:0px;writing-mode:lr-tb;text-anchor:end;fill:#4d4d4d;fill-opacity:1;stroke:none"
       transform="translate(197.08966,-276.10854)"><flowRegion
         id="flowRegion3609-0-9-8"
         style="fill:#4d4d4d"><rect
           id="rect3611-9-26-2"
           width="161.6244"
           height="104.04572"
           x="75.761444"
           y="694.76819"
           style="text-align:end;text-anchor:end;fill:#4d4d4d" /></flowRegion><flowPara
         id="flowPara3613-2-0-0"
         style="font-size:16px;line-height:1.25;text-align:end;text-anchor:end;fill:#4d4d4d">50</flowPara></flowRoot>    <flowRoot
       xml:space="preserve"
       id="flowRoot3607-5-3-7"
       style="font-style:normal;font-variant:normal;font-weight:normal;font-stretch:normal;line-height:0.01%;font-family:Ubuntu;-inkscape-font-specification:Ubuntu;text-align:end;letter-spacing:0px;word-spacing:0px;writing-mode:lr-tb;text-anchor:end;fill:#4d4d4d;fill-opacity:1;stroke:none"
       transform="translate(194.15181,-377.81268)"><flowRegion
         id="flowRegion3609-0-24-4"
         style="fill:#4d4d4d"><rect
           id="rect3611-9-9-7"
           width="161.6244"
           height="104.04572"
           x="75.761444"
           y="694.76819"
           style="text-align:end;text-anchor:end;fill:#4d4d4d" /></flowRegion><flowPara
         id="flowPara3613-2-00-6"
         style="font-size:16px;line-height:1.25;text-align:end;text-anchor:end;fill:#4d4d4d">75</flowPara></flowRoot>    <flowRoot
       xml:space="preserve"
       id="flowRoot3607-6"
       style="font-style:normal;font-variant:normal;font-weight:normal;font-stretch:normal;line-height:0.01%;font-family:Ubuntu;-inkscape-font-specification:Ubuntu;text-align:start;letter-spacing:0px;word-spacing:0px;writing-mode:lr-tb;text-anchor:start;fill:#4d4d4d;fill-opacity:1;stroke:none;"
       transform="translate(435.30461,-16.02328)"><flowRegion
         id="flowRegion3609-6"
         style="fill:#4d4d4d;"><rect
           id="rect3611-61"
           width="250.91013"
           height="84.045715"
           x="75.761444"
           y="694.76819"
           style="fill:#4d4d4d;" /></flowRegion><flowPara
         id="flowPara3613-51"
         style="font-weight:500;font-size:16px;line-height:1.25;-inkscape-font-specification:'Ubuntu Medium';fill:#4d4d4d;">Composantes (ou axes)</flowPara></flowRoot>    <flowRoot
       xml:space="preserve"
       id="flowRoot3607-6-7"
       style="font-style:normal;font-variant:normal;font-weight:normal;font-stretch:normal;line-height:0.01%;font-family:Ubuntu;-inkscape-font-specification:Ubuntu;text-align:start;letter-spacing:0px;word-spacing:0px;writing-mode:lr-tb;text-anchor:start;fill:#4d4d4d;fill-opacity:1;stroke:none;"
       transform="rotate(-90,157.89788,463.02323)"><flowRegion
         id="flowRegion3609-6-2"
         style="fill:#4d4d4d;"><rect
           id="rect3611-61-8"
           width="250.91013"
           height="84.045715"
           x="75.761444"
           y="694.76819"
           style="fill:#4d4d4d;" /></flowRegion><flowPara
         id="flowPara3613-51-2"
         style="font-weight:500;font-size:16px;line-height:1.25;-inkscape-font-specification:'Ubuntu Medium';fill:#4d4d4d;">Pourcentage de l'inertie (%)</flowPara></flowRoot>    <flowRoot
       xml:space="preserve"
       id="flowRoot3607-6-7-8"
       style="font-style:normal;font-variant:normal;font-weight:normal;font-stretch:normal;line-height:0.01%;font-family:Ubuntu;-inkscape-font-specification:Ubuntu;text-align:start;letter-spacing:0px;word-spacing:0px;writing-mode:lr-tb;text-anchor:start;fill:#4d4d4d;fill-opacity:1;stroke:none;"
       transform="rotate(-90,-41.689525,665.9831)"><flowRegion
         id="flowRegion3609-6-2-4"
         style="fill:#4d4d4d;"><rect
           id="rect3611-61-8-5"
           width="250.91013"
           height="84.045715"
           x="75.761444"
           y="694.76819"
           style="fill:#4d4d4d;" /></flowRegion><flowPara
         id="flowPara3613-51-2-3"
         style="font-weight:500;font-size:16px;line-height:1.25;-inkscape-font-specification:'Ubuntu Medium';fill:#4d4d4d;">Valeurs propres (<flowSpan
   style="font-style:italic;-inkscape-font-specification:'Ubuntu Medium Italic';fill:#4d4d4d;"
   id="flowSpan4029-8">eigenvalues</flowSpan>)</flowPara></flowRoot>    <flowRoot
       xml:space="preserve"
       id="flowRoot3607-6-4"
       style="font-style:normal;font-variant:normal;font-weight:normal;font-stretch:normal;line-height:0.01%;font-family:Ubuntu;-inkscape-font-specification:Ubuntu;text-align:start;letter-spacing:0px;word-spacing:0px;writing-mode:lr-tb;text-anchor:start;fill:#4d4d4d;fill-opacity:1;stroke:none;"
       transform="translate(41.869552,-16.02328)"><flowRegion
         id="flowRegion3609-6-4"
         style="fill:#4d4d4d;"><rect
           id="rect3611-61-80"
           width="250.91013"
           height="84.045715"
           x="75.761444"
           y="694.76819"
           style="fill:#4d4d4d;" /></flowRegion><flowPara
         id="flowPara3613-51-6"
         style="font-weight:500;font-size:16px;line-height:1.25;-inkscape-font-specification:'Ubuntu Medium';fill:#4d4d4d;">Composantes (ou axes)</flowPara></flowRoot>  </g>
</svg>
