<?xml version="1.0" encoding="UTF-8" standalone="no"?>
<!-- Created with Inkscape (http://www.inkscape.org/) -->

<svg
   xmlns:dc="http://purl.org/dc/elements/1.1/"
   xmlns:cc="http://creativecommons.org/ns#"
   xmlns:rdf="http://www.w3.org/1999/02/22-rdf-syntax-ns#"
   xmlns:svg="http://www.w3.org/2000/svg"
   xmlns="http://www.w3.org/2000/svg"
   xmlns:xlink="http://www.w3.org/1999/xlink"
   xmlns:sodipodi="http://sodipodi.sourceforge.net/DTD/sodipodi-0.dtd"
   xmlns:inkscape="http://www.inkscape.org/namespaces/inkscape"
   width="744.09448819"
   height="1052.3622047"
   id="svg2"
   version="1.1"
   inkscape:version="0.92.3 (2405546, 2018-03-11)"
   sodipodi:docname="InfoStat.svg"
   inkscape:export-filename="/home/hc/Documents/ArtProj/40_DijonR/IMAGE/Melt_Cast.png"
   inkscape:export-xdpi="200"
   inkscape:export-ydpi="200">
  <sodipodi:namedview
     id="base"
     pagecolor="#ffffff"
     bordercolor="#666666"
     borderopacity="1.0"
     inkscape:pageopacity="0.0"
     inkscape:pageshadow="2"
     inkscape:zoom="1.4"
     inkscape:cx="340.9959"
     inkscape:cy="686.66692"
     inkscape:document-units="px"
     inkscape:current-layer="layer1"
     showgrid="true"
     inkscape:snap-global="true"
     inkscape:window-width="1366"
     inkscape:window-height="719"
     inkscape:window-x="0"
     inkscape:window-y="25"
     inkscape:window-maximized="1"
     showguides="true"
     inkscape:guide-bbox="true"
     inkscape:snap-bbox="false"
     inkscape:snap-text-baseline="true">
    <inkscape:grid
       dotted="true"
       snapvisiblegridlinesonly="true"
       enabled="true"
       visible="true"
       empspacing="5"
       id="grid2985"
       type="xygrid" />
  </sodipodi:namedview>
  <defs
     id="defs4">
    <linearGradient
       inkscape:collect="always"
       id="linearGradient1435">
      <stop
         style="stop-color:#cccccc;stop-opacity:1;"
         offset="0"
         id="stop1431" />
      <stop
         style="stop-color:#cccccc;stop-opacity:0;"
         offset="1"
         id="stop1433" />
    </linearGradient>
    <marker
       style="overflow:visible"
       id="Arrow2Mstart"
       refX="0.0"
       refY="0.0"
       orient="auto"
       inkscape:stockid="Arrow2Mstart">
      <path
         transform="scale(0.6) translate(0,0)"
         d="M 8.7185878,4.0337352 L -2.2072895,0.016013256 L 8.7185884,-4.0017078 C 6.9730900,-1.6296469 6.9831476,1.6157441 8.7185878,4.0337352 z "
         style="fill-rule:evenodd;stroke-width:0.62500000;stroke-linejoin:round"
         id="path4937" />
    </marker>
    <marker
       style="overflow:visible"
       id="Arrow1Lstart"
       refX="0.0"
       refY="0.0"
       orient="auto"
       inkscape:stockid="Arrow1Lstart">
      <path
         transform="scale(0.8) translate(12.5,0)"
         style="fill-rule:evenodd;stroke:#000000;stroke-width:1.0pt"
         d="M 0.0,0.0 L 5.0,-5.0 L -12.5,0.0 L 5.0,5.0 L 0.0,0.0 z "
         id="path4913" />
    </marker>
    <marker
       style="overflow:visible;"
       id="Arrow2Mend"
       refX="0.0"
       refY="0.0"
       orient="auto"
       inkscape:stockid="Arrow2Mend">
      <path
         transform="scale(0.6) rotate(180) translate(0,0)"
         d="M 8.7185878,4.0337352 L -2.2072895,0.016013256 L 8.7185884,-4.0017078 C 6.9730900,-1.6296469 6.9831476,1.6157441 8.7185878,4.0337352 z "
         style="fill-rule:evenodd;stroke-width:0.62500000;stroke-linejoin:round;"
         id="path4940" />
    </marker>
    <marker
       style="overflow:visible;"
       id="Arrow1Mend"
       refX="0.0"
       refY="0.0"
       orient="auto"
       inkscape:stockid="Arrow1Mend">
      <path
         transform="scale(0.4) rotate(180) translate(10,0)"
         style="fill-rule:evenodd;stroke:#000000;stroke-width:1.0pt;"
         d="M 0.0,0.0 L 5.0,-5.0 L -12.5,0.0 L 5.0,5.0 L 0.0,0.0 z "
         id="path4922" />
    </marker>
    <marker
       style="overflow:visible;"
       id="Arrow2MendR"
       refX="0.0"
       refY="0.0"
       orient="auto"
       inkscape:stockid="Arrow2MendR">
      <path
         transform="scale(0.6) rotate(180) translate(0,0)"
         d="M 8.7185878,4.0337352 L -2.2072895,0.016013256 L 8.7185884,-4.0017078 C 6.9730900,-1.6296469 6.9831476,1.6157441 8.7185878,4.0337352 z "
         style="stroke-linejoin:round;stroke:#4d4d4d;stroke-width:0.62500000;fill:#4d4d4d;fill-rule:evenodd"
         id="path5928" />
    </marker>
    <marker
       style="overflow:visible"
       id="Arrow2Mstart8"
       refX="0.0"
       refY="0.0"
       orient="auto"
       inkscape:stockid="Arrow2Mstart8">
      <path
         transform="scale(0.6) translate(0,0)"
         d="M 8.7185878,4.0337352 L -2.2072895,0.016013256 L 8.7185884,-4.0017078 C 6.9730900,-1.6296469 6.9831476,1.6157441 8.7185878,4.0337352 z "
         style="stroke-linejoin:round;stroke:#4d4d4d;stroke-width:0.62500000;fill:#4d4d4d;fill-rule:evenodd"
         id="path5931" />
    </marker>
    <linearGradient
       inkscape:collect="always"
       xlink:href="#linearGradient1435"
       id="linearGradient1437"
       x1="480"
       y1="292.36218"
       x2="480"
       y2="412.36218"
       gradientUnits="userSpaceOnUse" />
  </defs>
  <metadata
     id="metadata7">
    <rdf:RDF>
      <cc:Work
         rdf:about="">
        <dc:format>image/svg+xml</dc:format>
        <dc:type
           rdf:resource="http://purl.org/dc/dcmitype/StillImage" />
        <dc:title />
      </cc:Work>
    </rdf:RDF>
  </metadata>
  <g
     id="layer1"
     inkscape:groupmode="layer"
     inkscape:label="Layer 1">
    <rect
       y="292.62344"
       x="134.35645"
       height="116.07143"
       width="215.67224"
       id="rect4039-5-6"
       style="fill:#cccccc;stroke:none" />
    <path
       inkscape:connector-curvature="0"
       id="path4809-3-0"
       d="m 133.861,312.62344 218.14033,0"
       style="fill:none;stroke:#ffffff;stroke-width:1.50000012;stroke-linecap:butt;stroke-linejoin:miter;stroke-miterlimit:4;stroke-opacity:1;stroke-dasharray:none" />
    <flowRoot
       transform="translate(5,-1.4611692)"
       style="font-style:normal;font-variant:normal;font-weight:normal;font-stretch:normal;line-height:0.01%;font-family:Ubuntu;-inkscape-font-specification:Ubuntu;text-align:start;letter-spacing:0px;word-spacing:0px;writing-mode:lr-tb;text-anchor:start;fill:#4d4d4d;fill-opacity:1;stroke:none;"
       id="flowRoot3222-1-5-6-9"
       xml:space="preserve"><flowRegion
         id="flowRegion3224-5-2-8-0"
         style="fill:#4d4d4d;"><rect
           style="font-style:normal;font-variant:normal;font-weight:normal;font-stretch:normal;font-size:12px;line-height:125%;font-family:Ubuntu;-inkscape-font-specification:Ubuntu;text-align:start;writing-mode:lr-tb;text-anchor:start;fill:#4d4d4d;"
           y="316.64789"
           x="135"
           height="44.285713"
           width="172.14285"
           id="rect3226-2-2-3-3" /></flowRegion><flowPara
         id="flowPara3228-1-51-9-5"
         style="font-style:normal;font-variant:normal;font-weight:normal;font-stretch:normal;font-size:12px;line-height:125%;font-family:Ubuntu;-inkscape-font-specification:Ubuntu;text-align:start;writing-mode:lr-tb;text-anchor:start;fill:#4d4d4d;">Obs<flowSpan
   style="font-size:65.00091553%;baseline-shift:sub;fill:#4d4d4d;"
   id="flowSpan3263">1</flowSpan></flowPara></flowRoot>    <flowRoot
       transform="translate(5,13.538831)"
       style="font-style:normal;font-variant:normal;font-weight:normal;font-stretch:normal;line-height:0.01%;font-family:Ubuntu;-inkscape-font-specification:Ubuntu;text-align:start;letter-spacing:0px;word-spacing:0px;writing-mode:lr-tb;text-anchor:start;fill:#4d4d4d;fill-opacity:1;stroke:none;"
       id="flowRoot3222-1-5-6-9-3"
       xml:space="preserve"><flowRegion
         id="flowRegion3224-5-2-8-0-2"
         style="fill:#4d4d4d;"><rect
           style="font-style:normal;font-variant:normal;font-weight:normal;font-stretch:normal;font-size:12px;line-height:125%;font-family:Ubuntu;-inkscape-font-specification:Ubuntu;text-align:start;writing-mode:lr-tb;text-anchor:start;fill:#4d4d4d;"
           y="316.64789"
           x="135"
           height="44.285713"
           width="172.14285"
           id="rect3226-2-2-3-3-0" /></flowRegion><flowPara
         id="flowPara3228-1-51-9-5-4"
         style="font-style:normal;font-variant:normal;font-weight:normal;font-stretch:normal;font-size:12px;line-height:125%;font-family:Ubuntu;-inkscape-font-specification:Ubuntu;text-align:start;writing-mode:lr-tb;text-anchor:start;fill:#4d4d4d;">Obs<flowSpan
   style="font-size:65.00091553%;baseline-shift:sub;fill:#4d4d4d;"
   id="flowSpan3265">2</flowSpan></flowPara></flowRoot>    <flowRoot
       transform="translate(-73.078115,30.566681)"
       style="font-style:normal;font-variant:normal;font-weight:normal;font-stretch:normal;line-height:0.01%;font-family:'Liberation Sans';-inkscape-font-specification:'Liberation Sans';text-align:center;letter-spacing:0px;word-spacing:0px;writing-mode:lr-tb;text-anchor:middle;fill:#4d4d4d;fill-opacity:1;stroke:none;"
       id="flowRoot3222-1-5-6-9-6"
       xml:space="preserve"><flowRegion
         id="flowRegion3224-5-2-8-0-6"
         style="fill:#4d4d4d;"><rect
           style="text-align:center;text-anchor:middle;fill:#4d4d4d;"
           y="316.64789"
           x="135"
           height="44.285713"
           width="172.14285"
           id="rect3226-2-2-3-3-3" /></flowRegion><flowPara
         id="flowPara3228-1-51-9-5-8"
         style="font-style:normal;font-variant:normal;font-weight:normal;font-stretch:normal;font-size:10px;line-height:1.25;font-family:Ubuntu;-inkscape-font-specification:Ubuntu;fill:#4d4d4d;"> </flowPara></flowRoot>    <flowRoot
       transform="translate(-73.078115,60.56668)"
       style="font-style:normal;font-variant:normal;font-weight:normal;font-stretch:normal;line-height:0.01%;font-family:'Liberation Sans';-inkscape-font-specification:'Liberation Sans';text-align:center;letter-spacing:0px;word-spacing:0px;writing-mode:lr-tb;text-anchor:middle;fill:#4d4d4d;fill-opacity:1;stroke:none;"
       id="flowRoot3222-1-5-6-9-6-9"
       xml:space="preserve"><flowRegion
         id="flowRegion3224-5-2-8-0-6-0"
         style="fill:#4d4d4d;"><rect
           style="text-align:center;text-anchor:middle;fill:#4d4d4d;"
           y="316.64789"
           x="135"
           height="44.285713"
           width="172.14285"
           id="rect3226-2-2-3-3-3-0" /></flowRegion><flowPara
         id="flowPara3228-1-51-9-5-8-5"
         style="font-style:normal;font-variant:normal;font-weight:normal;font-stretch:normal;font-size:10px;line-height:1.25;font-family:Ubuntu;-inkscape-font-specification:Ubuntu;fill:#4d4d4d;"> </flowPara></flowRoot>    <flowRoot
       transform="translate(5,43.538831)"
       style="font-style:normal;font-variant:normal;font-weight:normal;font-stretch:normal;line-height:0.01%;font-family:Ubuntu;-inkscape-font-specification:Ubuntu;text-align:start;letter-spacing:0px;word-spacing:0px;writing-mode:lr-tb;text-anchor:start;fill:#4d4d4d;fill-opacity:1;stroke:none;"
       id="flowRoot3222-1-5-6-9-3-3-6"
       xml:space="preserve"><flowRegion
         id="flowRegion3224-5-2-8-0-2-4-3"
         style="fill:#4d4d4d;"><rect
           style="font-style:normal;font-variant:normal;font-weight:normal;font-stretch:normal;font-size:12px;line-height:125%;font-family:Ubuntu;-inkscape-font-specification:Ubuntu;text-align:start;writing-mode:lr-tb;text-anchor:start;fill:#4d4d4d;"
           y="316.64789"
           x="135"
           height="44.285713"
           width="172.14285"
           id="rect3226-2-2-3-3-0-3-6" /></flowRegion><flowPara
         id="flowPara3228-1-51-9-5-4-3-1"
         style="font-style:normal;font-variant:normal;font-weight:normal;font-stretch:normal;font-size:12px;line-height:125%;font-family:Ubuntu;-inkscape-font-specification:Ubuntu;text-align:start;writing-mode:lr-tb;text-anchor:start;fill:#4d4d4d;">Obs<flowSpan
   style="font-size:65.00091553%;baseline-shift:sub;fill:#4d4d4d;"
   id="flowSpan3269">i</flowSpan></flowPara></flowRoot>    <flowRoot
       xml:space="preserve"
       id="flowRoot3395-5-7-6"
       style="font-style:normal;font-variant:normal;font-weight:normal;font-stretch:normal;line-height:0.01%;font-family:Ubuntu;-inkscape-font-specification:Ubuntu;text-align:start;letter-spacing:0px;word-spacing:0px;writing-mode:lr-tb;text-anchor:start;fill:#4d4d4d;fill-opacity:1;stroke:none;"
       transform="rotate(90,258.23058,250.93652)"><flowRegion
         id="flowRegion3397-24-5-5"
         style="fill:#4d4d4d;"><rect
           id="rect3399-1-5-8"
           width="80.35714"
           height="51.785713"
           x="354.64285"
           y="347.00504"
           style="font-style:normal;font-variant:normal;font-weight:normal;font-stretch:normal;font-size:12px;line-height:125%;font-family:Ubuntu;-inkscape-font-specification:Ubuntu;text-align:start;writing-mode:lr-tb;text-anchor:start;fill:#4d4d4d;" /></flowRegion><flowPara
         id="flowPara3401-4-1-8"
         style="font-style:normal;font-variant:normal;font-weight:normal;font-stretch:normal;font-size:12px;line-height:125%;font-family:Ubuntu;-inkscape-font-specification:Ubuntu;text-align:start;writing-mode:lr-tb;text-anchor:start;fill:#4d4d4d;">...</flowPara></flowRoot>    <flowRoot
       transform="translate(5,73.538831)"
       style="font-style:normal;font-variant:normal;font-weight:normal;font-stretch:normal;line-height:0.01%;font-family:Ubuntu;-inkscape-font-specification:Ubuntu;text-align:start;letter-spacing:0px;word-spacing:0px;writing-mode:lr-tb;text-anchor:start;fill:#4d4d4d;fill-opacity:1;stroke:none;"
       id="flowRoot3222-1-5-6-9-3-3-6-4"
       xml:space="preserve"><flowRegion
         id="flowRegion3224-5-2-8-0-2-4-3-8"
         style="fill:#4d4d4d;"><rect
           style="font-style:normal;font-variant:normal;font-weight:normal;font-stretch:normal;font-size:12px;line-height:125%;font-family:Ubuntu;-inkscape-font-specification:Ubuntu;text-align:start;writing-mode:lr-tb;text-anchor:start;fill:#4d4d4d;"
           y="316.64789"
           x="135"
           height="44.285713"
           width="172.14285"
           id="rect3226-2-2-3-3-0-3-6-3" /></flowRegion><flowPara
         id="flowPara3228-1-51-9-5-4-3-1-2"
         style="font-style:normal;font-variant:normal;font-weight:normal;font-stretch:normal;font-size:12px;line-height:125%;font-family:Ubuntu;-inkscape-font-specification:Ubuntu;text-align:start;writing-mode:lr-tb;text-anchor:start;fill:#4d4d4d;">Obs<flowSpan
   style="font-size:65.00091553%;baseline-shift:sub;fill:#4d4d4d;"
   id="flowSpan3269-7">n</flowSpan></flowPara></flowRoot>    <flowRoot
       xml:space="preserve"
       id="flowRoot3395-5-7-6-7"
       style="font-style:normal;font-variant:normal;font-weight:normal;font-stretch:normal;line-height:0.01%;font-family:Ubuntu;-inkscape-font-specification:Ubuntu;text-align:start;letter-spacing:0px;word-spacing:0px;writing-mode:lr-tb;text-anchor:start;fill:#4d4d4d;fill-opacity:1;stroke:none;"
       transform="rotate(90,242.23058,266.93652)"><flowRegion
         id="flowRegion3397-24-5-5-3"
         style="fill:#4d4d4d;"><rect
           id="rect3399-1-5-8-3"
           width="80.35714"
           height="51.785713"
           x="354.64285"
           y="347.00504"
           style="font-style:normal;font-variant:normal;font-weight:normal;font-stretch:normal;font-size:12px;line-height:125%;font-family:Ubuntu;-inkscape-font-specification:Ubuntu;text-align:start;writing-mode:lr-tb;text-anchor:start;fill:#4d4d4d;" /></flowRegion><flowPara
         id="flowPara3401-4-1-8-1"
         style="font-style:normal;font-variant:normal;font-weight:normal;font-stretch:normal;font-size:12px;line-height:125%;font-family:Ubuntu;-inkscape-font-specification:Ubuntu;text-align:start;writing-mode:lr-tb;text-anchor:start;fill:#4d4d4d;">...</flowPara></flowRoot>    <flowRoot
       transform="translate(50,-21.461169)"
       style="font-style:normal;font-variant:normal;font-weight:normal;font-stretch:normal;line-height:0.01%;font-family:Ubuntu;-inkscape-font-specification:Ubuntu;text-align:start;letter-spacing:0px;word-spacing:0px;writing-mode:lr-tb;text-anchor:start;fill:#4d4d4d;fill-opacity:1;stroke:none;"
       id="flowRoot3222-1-5-6-9-3-3-6-4-4"
       xml:space="preserve"><flowRegion
         id="flowRegion3224-5-2-8-0-2-4-3-8-0"
         style="fill:#4d4d4d;"><rect
           style="font-style:normal;font-variant:normal;font-weight:normal;font-stretch:normal;font-size:12px;line-height:125%;font-family:Ubuntu;-inkscape-font-specification:Ubuntu;text-align:start;writing-mode:lr-tb;text-anchor:start;fill:#4d4d4d;"
           y="316.64789"
           x="135"
           height="44.285713"
           width="172.14285"
           id="rect3226-2-2-3-3-0-3-6-3-2" /></flowRegion><flowPara
         id="flowPara3228-1-51-9-5-4-3-1-2-3"
         style="font-style:normal;font-variant:normal;font-weight:normal;font-stretch:normal;font-size:12px;line-height:125%;font-family:Ubuntu;-inkscape-font-specification:Ubuntu;text-align:start;writing-mode:lr-tb;text-anchor:start;fill:#4d4d4d;">Var<flowSpan
   style="font-size:65.00091553%;baseline-shift:sub;fill:#4d4d4d;"
   id="flowSpan3269-7-9">1</flowSpan></flowPara></flowRoot>    <flowRoot
       transform="translate(85,-21.461169)"
       style="font-style:normal;font-variant:normal;font-weight:normal;font-stretch:normal;line-height:0.01%;font-family:Ubuntu;-inkscape-font-specification:Ubuntu;text-align:start;letter-spacing:0px;word-spacing:0px;writing-mode:lr-tb;text-anchor:start;fill:#4d4d4d;fill-opacity:1;stroke:none;"
       id="flowRoot3222-1-5-6-9-3-3-6-4-4-1"
       xml:space="preserve"><flowRegion
         id="flowRegion3224-5-2-8-0-2-4-3-8-0-4"
         style="fill:#4d4d4d;"><rect
           style="font-style:normal;font-variant:normal;font-weight:normal;font-stretch:normal;font-size:12px;line-height:125%;font-family:Ubuntu;-inkscape-font-specification:Ubuntu;text-align:start;writing-mode:lr-tb;text-anchor:start;fill:#4d4d4d;"
           y="316.64789"
           x="135"
           height="44.285713"
           width="172.14285"
           id="rect3226-2-2-3-3-0-3-6-3-2-8" /></flowRegion><flowPara
         id="flowPara3228-1-51-9-5-4-3-1-2-3-9"
         style="font-style:normal;font-variant:normal;font-weight:normal;font-stretch:normal;font-size:12px;line-height:125%;font-family:Ubuntu;-inkscape-font-specification:Ubuntu;text-align:start;writing-mode:lr-tb;text-anchor:start;fill:#4d4d4d;">Var<flowSpan
   style="font-size:65.00091553%;baseline-shift:sub;fill:#4d4d4d;"
   id="flowSpan3269-7-9-5">2</flowSpan></flowPara></flowRoot>    <flowRoot
       transform="translate(134,-21.461169)"
       style="font-style:normal;font-variant:normal;font-weight:normal;font-stretch:normal;line-height:0.01%;font-family:Ubuntu;-inkscape-font-specification:Ubuntu;text-align:start;letter-spacing:0px;word-spacing:0px;writing-mode:lr-tb;text-anchor:start;fill:#4d4d4d;fill-opacity:1;stroke:none;"
       id="flowRoot3222-1-5-6-9-3-3-6-4-4-6"
       xml:space="preserve"><flowRegion
         id="flowRegion3224-5-2-8-0-2-4-3-8-0-2"
         style="fill:#4d4d4d;"><rect
           style="font-style:normal;font-variant:normal;font-weight:normal;font-stretch:normal;font-size:12px;line-height:125%;font-family:Ubuntu;-inkscape-font-specification:Ubuntu;text-align:start;writing-mode:lr-tb;text-anchor:start;fill:#4d4d4d;"
           y="316.64789"
           x="135"
           height="44.285713"
           width="172.14285"
           id="rect3226-2-2-3-3-0-3-6-3-2-2" /></flowRegion><flowPara
         id="flowPara3228-1-51-9-5-4-3-1-2-3-5"
         style="font-style:normal;font-variant:normal;font-weight:normal;font-stretch:normal;font-size:12px;line-height:125%;font-family:Ubuntu;-inkscape-font-specification:Ubuntu;text-align:start;writing-mode:lr-tb;text-anchor:start;fill:#4d4d4d;">Var<flowSpan
   style="font-size:65.00091553%;baseline-shift:sub;fill:#4d4d4d;"
   id="flowSpan3269-7-9-6">j</flowSpan></flowPara></flowRoot>    <flowRoot
       transform="translate(180,-21.461169)"
       style="font-style:normal;font-variant:normal;font-weight:normal;font-stretch:normal;line-height:0.01%;font-family:Ubuntu;-inkscape-font-specification:Ubuntu;text-align:start;letter-spacing:0px;word-spacing:0px;writing-mode:lr-tb;text-anchor:start;fill:#4d4d4d;fill-opacity:1;stroke:none;"
       id="flowRoot3222-1-5-6-9-3-3-6-4-4-4"
       xml:space="preserve"><flowRegion
         id="flowRegion3224-5-2-8-0-2-4-3-8-0-3"
         style="fill:#4d4d4d;"><rect
           style="font-style:normal;font-variant:normal;font-weight:normal;font-stretch:normal;font-size:12px;line-height:125%;font-family:Ubuntu;-inkscape-font-specification:Ubuntu;text-align:start;writing-mode:lr-tb;text-anchor:start;fill:#4d4d4d;"
           y="316.64789"
           x="135"
           height="44.285713"
           width="172.14285"
           id="rect3226-2-2-3-3-0-3-6-3-2-7" /></flowRegion><flowPara
         id="flowPara3228-1-51-9-5-4-3-1-2-3-0"
         style="font-style:normal;font-variant:normal;font-weight:normal;font-stretch:normal;font-size:12px;line-height:125%;font-family:Ubuntu;-inkscape-font-specification:Ubuntu;text-align:start;writing-mode:lr-tb;text-anchor:start;fill:#4d4d4d;">Var<flowSpan
   style="font-size:65.00091553%;baseline-shift:sub;fill:#4d4d4d;"
   id="flowSpan3269-7-9-69">p</flowSpan></flowPara></flowRoot>    <flowRoot
       xml:space="preserve"
       id="flowRoot3395-5-7-6-72"
       style="font-style:normal;font-variant:normal;font-weight:normal;font-stretch:normal;line-height:0.01%;font-family:Ubuntu;-inkscape-font-specification:Ubuntu;text-align:start;letter-spacing:0px;word-spacing:0px;writing-mode:lr-tb;text-anchor:start;fill:#4d4d4d;fill-opacity:1;stroke:none;"
       transform="rotate(180,307.32812,331.26464)"><flowRegion
         id="flowRegion3397-24-5-5-9"
         style="fill:#4d4d4d;"><rect
           id="rect3399-1-5-8-0"
           width="80.35714"
           height="51.785713"
           x="354.64285"
           y="347.00504"
           style="font-style:normal;font-variant:normal;font-weight:normal;font-stretch:normal;font-size:12px;line-height:125%;font-family:Ubuntu;-inkscape-font-specification:Ubuntu;text-align:start;writing-mode:lr-tb;text-anchor:start;fill:#4d4d4d;" /></flowRegion><flowPara
         id="flowPara3401-4-1-8-6"
         style="font-style:normal;font-variant:normal;font-weight:normal;font-stretch:normal;font-size:12px;line-height:125%;font-family:Ubuntu;-inkscape-font-specification:Ubuntu;text-align:start;writing-mode:lr-tb;text-anchor:start;fill:#4d4d4d;">...</flowPara></flowRoot>    <flowRoot
       xml:space="preserve"
       id="flowRoot3395-5-7-6-72-9"
       style="font-style:normal;font-variant:normal;font-weight:normal;font-stretch:normal;line-height:0.01%;font-family:Ubuntu;-inkscape-font-specification:Ubuntu;text-align:start;letter-spacing:0px;word-spacing:0px;writing-mode:lr-tb;text-anchor:start;fill:#4d4d4d;fill-opacity:1;stroke:none;"
       transform="rotate(180,329.82812,331.26464)"><flowRegion
         id="flowRegion3397-24-5-5-9-9"
         style="fill:#4d4d4d;"><rect
           id="rect3399-1-5-8-0-9"
           width="80.35714"
           height="51.785713"
           x="354.64285"
           y="347.00504"
           style="font-style:normal;font-variant:normal;font-weight:normal;font-stretch:normal;font-size:12px;line-height:125%;font-family:Ubuntu;-inkscape-font-specification:Ubuntu;text-align:start;writing-mode:lr-tb;text-anchor:start;fill:#4d4d4d;" /></flowRegion><flowPara
         id="flowPara3401-4-1-8-6-4"
         style="font-style:normal;font-variant:normal;font-weight:normal;font-stretch:normal;font-size:12px;line-height:125%;font-family:Ubuntu;-inkscape-font-specification:Ubuntu;text-align:start;writing-mode:lr-tb;text-anchor:start;fill:#4d4d4d;">...</flowPara></flowRoot>    <flowRoot
       transform="translate(54,-1.4611692)"
       style="font-style:normal;font-variant:normal;font-weight:normal;font-stretch:normal;line-height:0.01%;font-family:Ubuntu;-inkscape-font-specification:Ubuntu;text-align:start;letter-spacing:0px;word-spacing:0px;writing-mode:lr-tb;text-anchor:start;fill:#4d4d4d;fill-opacity:1;stroke:none;"
       id="flowRoot3222-1-5-6-9-3-3-6-4-4-0"
       xml:space="preserve"><flowRegion
         id="flowRegion3224-5-2-8-0-2-4-3-8-0-6"
         style="fill:#4d4d4d;"><rect
           style="font-style:normal;font-variant:normal;font-weight:normal;font-stretch:normal;font-size:12px;line-height:125%;font-family:Ubuntu;-inkscape-font-specification:Ubuntu;text-align:start;writing-mode:lr-tb;text-anchor:start;fill:#4d4d4d;"
           y="316.64789"
           x="135"
           height="44.285713"
           width="172.14285"
           id="rect3226-2-2-3-3-0-3-6-3-2-4" /></flowRegion><flowPara
         id="flowPara3228-1-51-9-5-4-3-1-2-3-2"
         style="font-style:normal;font-variant:normal;font-weight:normal;font-stretch:normal;font-size:12px;line-height:125%;font-family:Ubuntu;-inkscape-font-specification:Ubuntu;text-align:start;writing-mode:lr-tb;text-anchor:start;fill:#4d4d4d;">x<flowSpan
   style="font-size:65.00091553%;baseline-shift:sub;fill:#4d4d4d;"
   id="flowSpan3269-7-9-9">11</flowSpan></flowPara></flowRoot>    <flowRoot
       transform="translate(139,43.538831)"
       style="font-style:normal;font-variant:normal;font-weight:normal;font-stretch:normal;line-height:0.01%;font-family:Ubuntu;-inkscape-font-specification:Ubuntu;text-align:start;letter-spacing:0px;word-spacing:0px;writing-mode:lr-tb;text-anchor:start;fill:#4d4d4d;fill-opacity:1;stroke:none;"
       id="flowRoot3222-1-5-6-9-3-3-6-4-4-0-3"
       xml:space="preserve"><flowRegion
         id="flowRegion3224-5-2-8-0-2-4-3-8-0-6-4"
         style="fill:#4d4d4d;"><rect
           style="font-style:normal;font-variant:normal;font-weight:normal;font-stretch:normal;font-size:12px;line-height:125%;font-family:Ubuntu;-inkscape-font-specification:Ubuntu;text-align:start;writing-mode:lr-tb;text-anchor:start;fill:#4d4d4d;"
           y="316.64789"
           x="135"
           height="44.285713"
           width="172.14285"
           id="rect3226-2-2-3-3-0-3-6-3-2-4-4" /></flowRegion><flowPara
         id="flowPara3228-1-51-9-5-4-3-1-2-3-2-2"
         style="font-style:normal;font-variant:normal;font-weight:normal;font-stretch:normal;font-size:12px;line-height:125%;font-family:Ubuntu;-inkscape-font-specification:Ubuntu;text-align:start;writing-mode:lr-tb;text-anchor:start;fill:#4d4d4d;">x<flowSpan
   style="font-size:65.00091553%;baseline-shift:sub;fill:#4d4d4d;"
   id="flowSpan3532">ij</flowSpan></flowPara></flowRoot>    <flowRoot
       transform="translate(90,-1.4611692)"
       style="font-style:normal;font-variant:normal;font-weight:normal;font-stretch:normal;line-height:0.01%;font-family:Ubuntu;-inkscape-font-specification:Ubuntu;text-align:start;letter-spacing:0px;word-spacing:0px;writing-mode:lr-tb;text-anchor:start;fill:#4d4d4d;fill-opacity:1;stroke:none;"
       id="flowRoot3222-1-5-6-9-3-3-6-4-4-0-9"
       xml:space="preserve"><flowRegion
         id="flowRegion3224-5-2-8-0-2-4-3-8-0-6-8"
         style="fill:#4d4d4d;"><rect
           style="font-style:normal;font-variant:normal;font-weight:normal;font-stretch:normal;font-size:12px;line-height:125%;font-family:Ubuntu;-inkscape-font-specification:Ubuntu;text-align:start;writing-mode:lr-tb;text-anchor:start;fill:#4d4d4d;"
           y="316.64789"
           x="135"
           height="44.285713"
           width="172.14285"
           id="rect3226-2-2-3-3-0-3-6-3-2-4-0" /></flowRegion><flowPara
         id="flowPara3228-1-51-9-5-4-3-1-2-3-2-3"
         style="font-style:normal;font-variant:normal;font-weight:normal;font-stretch:normal;font-size:12px;line-height:125%;font-family:Ubuntu;-inkscape-font-specification:Ubuntu;text-align:start;writing-mode:lr-tb;text-anchor:start;fill:#4d4d4d;">x<flowSpan
   style="font-size:65.00091553%;baseline-shift:sub;fill:#4d4d4d;"
   id="flowSpan3269-7-9-9-6">12</flowSpan></flowPara></flowRoot>    <flowRoot
       transform="translate(90,13.538831)"
       style="font-style:normal;font-variant:normal;font-weight:normal;font-stretch:normal;line-height:0.01%;font-family:Ubuntu;-inkscape-font-specification:Ubuntu;text-align:start;letter-spacing:0px;word-spacing:0px;writing-mode:lr-tb;text-anchor:start;fill:#4d4d4d;fill-opacity:1;stroke:none;"
       id="flowRoot3222-1-5-6-9-3-3-6-4-4-0-9-6"
       xml:space="preserve"><flowRegion
         id="flowRegion3224-5-2-8-0-2-4-3-8-0-6-8-0"
         style="fill:#4d4d4d;"><rect
           style="font-style:normal;font-variant:normal;font-weight:normal;font-stretch:normal;font-size:12px;line-height:125%;font-family:Ubuntu;-inkscape-font-specification:Ubuntu;text-align:start;writing-mode:lr-tb;text-anchor:start;fill:#4d4d4d;"
           y="316.64789"
           x="135"
           height="44.285713"
           width="172.14285"
           id="rect3226-2-2-3-3-0-3-6-3-2-4-0-9" /></flowRegion><flowPara
         id="flowPara3228-1-51-9-5-4-3-1-2-3-2-3-5"
         style="font-style:normal;font-variant:normal;font-weight:normal;font-stretch:normal;font-size:12px;line-height:125%;font-family:Ubuntu;-inkscape-font-specification:Ubuntu;text-align:start;writing-mode:lr-tb;text-anchor:start;fill:#4d4d4d;">x<flowSpan
   style="font-size:65.00091553%;baseline-shift:sub;fill:#4d4d4d;"
   id="flowSpan3269-7-9-9-6-2">22</flowSpan></flowPara></flowRoot>    <flowRoot
       transform="translate(54,13.538831)"
       style="font-style:normal;font-variant:normal;font-weight:normal;font-stretch:normal;line-height:0.01%;font-family:Ubuntu;-inkscape-font-specification:Ubuntu;text-align:start;letter-spacing:0px;word-spacing:0px;writing-mode:lr-tb;text-anchor:start;fill:#4d4d4d;fill-opacity:1;stroke:none;"
       id="flowRoot3222-1-5-6-9-3-3-6-4-4-0-9-7"
       xml:space="preserve"><flowRegion
         id="flowRegion3224-5-2-8-0-2-4-3-8-0-6-8-6"
         style="fill:#4d4d4d;"><rect
           style="font-style:normal;font-variant:normal;font-weight:normal;font-stretch:normal;font-size:12px;line-height:125%;font-family:Ubuntu;-inkscape-font-specification:Ubuntu;text-align:start;writing-mode:lr-tb;text-anchor:start;fill:#4d4d4d;"
           y="316.64789"
           x="135"
           height="44.285713"
           width="172.14285"
           id="rect3226-2-2-3-3-0-3-6-3-2-4-0-91" /></flowRegion><flowPara
         id="flowPara3228-1-51-9-5-4-3-1-2-3-2-3-6"
         style="font-style:normal;font-variant:normal;font-weight:normal;font-stretch:normal;font-size:12px;line-height:125%;font-family:Ubuntu;-inkscape-font-specification:Ubuntu;text-align:start;writing-mode:lr-tb;text-anchor:start;fill:#4d4d4d;">x<flowSpan
   style="font-size:65.00091553%;baseline-shift:sub;fill:#4d4d4d;"
   id="flowSpan3269-7-9-9-6-1">21</flowSpan></flowPara></flowRoot>    <rect
       y="292.36218"
       x="370"
       height="105.00002"
       width="215.67224"
       id="rect4039-5-6-3"
       style="fill:url(#linearGradient1437);stroke:none;stroke-width:1;fill-opacity:1" />
    <path
       inkscape:connector-curvature="0"
       id="path4809-3-0-6"
       d="M 369.50455,312.36218 H 587.64488"
       style="fill:none;stroke:#ffffff;stroke-width:1.50000012;stroke-linecap:butt;stroke-linejoin:miter;stroke-miterlimit:4;stroke-dasharray:none;stroke-opacity:1" />
    <flowRoot
       transform="translate(245,-0.47616123)"
       style="font-style:normal;font-variant:normal;font-weight:normal;font-stretch:normal;line-height:0.01%;font-family:Ubuntu;-inkscape-font-specification:Ubuntu;text-align:start;letter-spacing:0px;word-spacing:0px;writing-mode:lr-tb;text-anchor:start;fill:#4d4d4d;fill-opacity:1;stroke:none"
       id="flowRoot3222-1-5-6-9-7"
       xml:space="preserve"><flowRegion
         id="flowRegion3224-5-2-8-0-5"
         style="fill:#4d4d4d"><rect
           style="font-style:normal;font-variant:normal;font-weight:normal;font-stretch:normal;font-size:12px;line-height:125%;font-family:Ubuntu;-inkscape-font-specification:Ubuntu;text-align:start;writing-mode:lr-tb;text-anchor:start;fill:#4d4d4d"
           y="316.64789"
           x="135"
           height="44.285713"
           width="172.14285"
           id="rect3226-2-2-3-3-35" /></flowRegion><flowPara
         id="flowPara3228-1-51-9-5-6"
         style="font-style:normal;font-variant:normal;font-weight:normal;font-stretch:normal;font-size:12px;line-height:125%;font-family:Ubuntu;-inkscape-font-specification:Ubuntu;text-align:start;writing-mode:lr-tb;text-anchor:start;fill:#4d4d4d">Alabama<flowSpan
   style="font-size:65.00091553%;baseline-shift:sub;fill:#4d4d4d"
   id="flowSpan3263-2" /></flowPara></flowRoot>    <flowRoot
       transform="translate(245,14.523839)"
       style="font-style:normal;font-variant:normal;font-weight:normal;font-stretch:normal;line-height:0.01%;font-family:Ubuntu;-inkscape-font-specification:Ubuntu;text-align:start;letter-spacing:0px;word-spacing:0px;writing-mode:lr-tb;text-anchor:start;fill:#4d4d4d;fill-opacity:1;stroke:none"
       id="flowRoot3222-1-5-6-9-3-9"
       xml:space="preserve"><flowRegion
         id="flowRegion3224-5-2-8-0-2-1"
         style="fill:#4d4d4d"><rect
           style="font-style:normal;font-variant:normal;font-weight:normal;font-stretch:normal;font-size:12px;line-height:125%;font-family:Ubuntu;-inkscape-font-specification:Ubuntu;text-align:start;writing-mode:lr-tb;text-anchor:start;fill:#4d4d4d"
           y="316.64789"
           x="135"
           height="44.285713"
           width="172.14285"
           id="rect3226-2-2-3-3-0-2" /></flowRegion><flowPara
         id="flowPara3228-1-51-9-5-4-7"
         style="font-style:normal;font-variant:normal;font-weight:normal;font-stretch:normal;font-size:12px;line-height:125%;font-family:Ubuntu;-inkscape-font-specification:Ubuntu;text-align:start;writing-mode:lr-tb;text-anchor:start;fill:#4d4d4d">Alaska<flowSpan
   style="font-size:65.00091553%;baseline-shift:sub;fill:#4d4d4d"
   id="flowSpan3265-0" /></flowPara></flowRoot>    <flowRoot
       transform="translate(0,-40.476161)"
       style="font-style:normal;font-variant:normal;font-weight:normal;font-stretch:normal;line-height:0.01%;font-family:Ubuntu;-inkscape-font-specification:Ubuntu;text-align:start;letter-spacing:0px;word-spacing:0px;writing-mode:lr-tb;text-anchor:start;fill:#4d4d4d;fill-opacity:1;stroke:none"
       id="flowRoot3222-1-5-6-9-3-3-6-4-4-17"
       xml:space="preserve"><flowRegion
         id="flowRegion3224-5-2-8-0-2-4-3-8-0-27"
         style="fill:#4d4d4d"><rect
           style="font-style:normal;font-variant:normal;font-weight:normal;font-stretch:normal;font-size:12px;line-height:125%;font-family:Ubuntu;-inkscape-font-specification:Ubuntu;text-align:start;writing-mode:lr-tb;text-anchor:start;fill:#4d4d4d"
           y="316.64789"
           x="135"
           height="44.285713"
           width="172.14285"
           id="rect3226-2-2-3-3-0-3-6-3-2-22" /></flowRegion><flowPara
         id="flowPara3228-1-51-9-5-4-3-1-2-3-6"
         style="font-style:normal;font-variant:normal;font-weight:500;font-stretch:normal;font-size:12px;line-height:125%;font-family:Ubuntu;-inkscape-font-specification:'Ubuntu Medium';text-align:start;writing-mode:lr-tb;text-anchor:start;fill:#4d4d4d">Notation générique</flowPara></flowRoot>    <flowRoot
       transform="translate(235,-40.476161)"
       style="font-style:normal;font-variant:normal;font-weight:normal;font-stretch:normal;line-height:0.01%;font-family:Ubuntu;-inkscape-font-specification:Ubuntu;text-align:start;letter-spacing:0px;word-spacing:0px;writing-mode:lr-tb;text-anchor:start;fill:#4d4d4d;fill-opacity:1;stroke:none"
       id="flowRoot3222-1-5-6-9-3-3-6-4-4-17-0"
       xml:space="preserve"><flowRegion
         id="flowRegion3224-5-2-8-0-2-4-3-8-0-27-6"
         style="fill:#4d4d4d"><rect
           style="font-style:normal;font-variant:normal;font-weight:normal;font-stretch:normal;font-size:12px;line-height:125%;font-family:Ubuntu;-inkscape-font-specification:Ubuntu;text-align:start;writing-mode:lr-tb;text-anchor:start;fill:#4d4d4d"
           y="316.64789"
           x="135"
           height="36.190456"
           width="210"
           id="rect3226-2-2-3-3-0-3-6-3-2-22-1" /></flowRegion><flowPara
         id="flowPara3228-1-51-9-5-4-3-1-2-3-6-5"
         style="font-style:normal;font-variant:normal;font-weight:500;font-stretch:normal;font-size:12px;line-height:125%;font-family:Ubuntu;-inkscape-font-specification:'Ubuntu Medium';text-align:start;writing-mode:lr-tb;text-anchor:start;fill:#4d4d4d">Exemple (arrestations, USA 1973)</flowPara></flowRoot>    <flowRoot
       transform="translate(245,29.523839)"
       style="font-style:normal;font-variant:normal;font-weight:normal;font-stretch:normal;line-height:0.01%;font-family:Ubuntu;-inkscape-font-specification:Ubuntu;text-align:start;letter-spacing:0px;word-spacing:0px;writing-mode:lr-tb;text-anchor:start;fill:#4d4d4d;fill-opacity:1;stroke:none"
       id="flowRoot3222-1-5-6-9-3-9-9"
       xml:space="preserve"><flowRegion
         id="flowRegion3224-5-2-8-0-2-1-4"
         style="fill:#4d4d4d"><rect
           style="font-style:normal;font-variant:normal;font-weight:normal;font-stretch:normal;font-size:12px;line-height:125%;font-family:Ubuntu;-inkscape-font-specification:Ubuntu;text-align:start;writing-mode:lr-tb;text-anchor:start;fill:#4d4d4d"
           y="316.64789"
           x="135"
           height="44.285713"
           width="172.14285"
           id="rect3226-2-2-3-3-0-2-9" /></flowRegion><flowPara
         id="flowPara3228-1-51-9-5-4-7-0"
         style="font-style:normal;font-variant:normal;font-weight:normal;font-stretch:normal;font-size:12px;line-height:125%;font-family:Ubuntu;-inkscape-font-specification:Ubuntu;text-align:start;writing-mode:lr-tb;text-anchor:start;fill:#4d4d4d">Arizona</flowPara></flowRoot>    <flowRoot
       transform="translate(245,64.523839)"
       style="font-style:normal;font-variant:normal;font-weight:normal;font-stretch:normal;line-height:0.01%;font-family:Ubuntu;-inkscape-font-specification:Ubuntu;text-align:start;letter-spacing:0px;word-spacing:0px;writing-mode:lr-tb;text-anchor:start;fill:#4d4d4d;fill-opacity:1;stroke:none"
       id="flowRoot3222-1-5-6-9-3-9-1"
       xml:space="preserve"><flowRegion
         id="flowRegion3224-5-2-8-0-2-1-7"
         style="fill:#4d4d4d"><rect
           style="font-style:normal;font-variant:normal;font-weight:normal;font-stretch:normal;font-size:12px;line-height:125%;font-family:Ubuntu;-inkscape-font-specification:Ubuntu;text-align:start;writing-mode:lr-tb;text-anchor:start;fill:#4d4d4d"
           y="316.64789"
           x="135"
           height="44.285713"
           width="172.14285"
           id="rect3226-2-2-3-3-0-2-7" /></flowRegion><flowPara
         id="flowPara3228-1-51-9-5-4-7-1"
         style="font-style:normal;font-variant:normal;font-weight:normal;font-stretch:normal;font-size:12px;line-height:125%;font-family:Ubuntu;-inkscape-font-specification:Ubuntu;text-align:start;writing-mode:lr-tb;text-anchor:start;fill:#4d4d4d">etc.</flowPara></flowRoot>    <flowRoot
       transform="translate(177.85742,-20.476161)"
       style="font-style:normal;font-variant:normal;font-weight:normal;font-stretch:normal;line-height:0.01%;font-family:Ubuntu;-inkscape-font-specification:Ubuntu;text-align:end;letter-spacing:0px;word-spacing:0px;writing-mode:lr-tb;text-anchor:end;fill:#4d4d4d;fill-opacity:1;stroke:none"
       id="flowRoot3222-1-5-6-9-7-3"
       xml:space="preserve"><flowRegion
         id="flowRegion3224-5-2-8-0-5-6"
         style="text-align:end;text-anchor:end;fill:#4d4d4d"><rect
           style="font-style:normal;font-variant:normal;font-weight:normal;font-stretch:normal;font-size:12px;line-height:125%;font-family:Ubuntu;-inkscape-font-specification:Ubuntu;text-align:end;writing-mode:lr-tb;text-anchor:end;fill:#4d4d4d"
           y="316.64789"
           x="135"
           height="44.285713"
           width="172.14285"
           id="rect3226-2-2-3-3-35-7" /></flowRegion><flowPara
         id="flowPara3228-1-51-9-5-6-5"
         style="font-style:normal;font-variant:normal;font-weight:normal;font-stretch:normal;font-size:12px;line-height:125%;font-family:Ubuntu;-inkscape-font-specification:Ubuntu;text-align:end;writing-mode:lr-tb;text-anchor:end;fill:#4d4d4d">Murder</flowPara></flowRoot>    <flowRoot
       transform="translate(227.85742,-20.476161)"
       style="font-style:normal;font-variant:normal;font-weight:normal;font-stretch:normal;line-height:0.01%;font-family:Ubuntu;-inkscape-font-specification:Ubuntu;text-align:end;letter-spacing:0px;word-spacing:0px;writing-mode:lr-tb;text-anchor:end;fill:#4d4d4d;fill-opacity:1;stroke:none"
       id="flowRoot3222-1-5-6-9-7-5"
       xml:space="preserve"><flowRegion
         id="flowRegion3224-5-2-8-0-5-62"
         style="text-align:end;text-anchor:end;fill:#4d4d4d"><rect
           style="font-style:normal;font-variant:normal;font-weight:normal;font-stretch:normal;font-size:12px;line-height:125%;font-family:Ubuntu;-inkscape-font-specification:Ubuntu;text-align:end;writing-mode:lr-tb;text-anchor:end;fill:#4d4d4d"
           y="316.64789"
           x="135"
           height="44.285713"
           width="172.14285"
           id="rect3226-2-2-3-3-35-9" /></flowRegion><flowPara
         id="flowPara3228-1-51-9-5-6-1"
         style="font-style:normal;font-variant:normal;font-weight:normal;font-stretch:normal;font-size:12px;line-height:125%;font-family:Ubuntu;-inkscape-font-specification:Ubuntu;text-align:end;writing-mode:lr-tb;text-anchor:end;fill:#4d4d4d">Assault</flowPara></flowRoot>    <flowRoot
       transform="translate(267.85742,-20.476161)"
       style="font-style:normal;font-variant:normal;font-weight:normal;font-stretch:normal;line-height:0.01%;font-family:Ubuntu;-inkscape-font-specification:Ubuntu;text-align:end;letter-spacing:0px;word-spacing:0px;writing-mode:lr-tb;text-anchor:end;fill:#4d4d4d;fill-opacity:1;stroke:none"
       id="flowRoot3222-1-5-6-9-7-7"
       xml:space="preserve"><flowRegion
         id="flowRegion3224-5-2-8-0-5-0"
         style="text-align:end;text-anchor:end;fill:#4d4d4d"><rect
           style="font-style:normal;font-variant:normal;font-weight:normal;font-stretch:normal;font-size:12px;line-height:125%;font-family:Ubuntu;-inkscape-font-specification:Ubuntu;text-align:end;writing-mode:lr-tb;text-anchor:end;fill:#4d4d4d"
           y="316.64789"
           x="135"
           height="44.285713"
           width="172.14285"
           id="rect3226-2-2-3-3-35-93" /></flowRegion><flowPara
         id="flowPara3228-1-51-9-5-6-6"
         style="font-style:normal;font-variant:normal;font-weight:normal;font-stretch:normal;font-size:12px;line-height:125%;font-family:Ubuntu;-inkscape-font-specification:Ubuntu;text-align:end;writing-mode:lr-tb;text-anchor:end;fill:#4d4d4d">Rape</flowPara></flowRoot>    <flowRoot
       transform="translate(177.85742,-0.47616123)"
       style="font-style:normal;font-variant:normal;font-weight:normal;font-stretch:normal;line-height:0.01%;font-family:Ubuntu;-inkscape-font-specification:Ubuntu;text-align:end;letter-spacing:0px;word-spacing:0px;writing-mode:lr-tb;text-anchor:end;fill:#4d4d4d;fill-opacity:1;stroke:none"
       id="flowRoot3222-1-5-6-9-7-7-6"
       xml:space="preserve"><flowRegion
         id="flowRegion3224-5-2-8-0-5-0-2"
         style="text-align:end;text-anchor:end;fill:#4d4d4d"><rect
           style="font-style:normal;font-variant:normal;font-weight:normal;font-stretch:normal;font-size:12px;line-height:125%;font-family:Ubuntu;-inkscape-font-specification:Ubuntu;text-align:end;writing-mode:lr-tb;text-anchor:end;fill:#4d4d4d"
           y="316.64789"
           x="135"
           height="44.285713"
           width="172.14285"
           id="rect3226-2-2-3-3-35-93-6" /></flowRegion><flowPara
         id="flowPara3228-1-51-9-5-6-6-1"
         style="font-style:normal;font-variant:normal;font-weight:normal;font-stretch:normal;font-size:12px;line-height:125%;font-family:Ubuntu;-inkscape-font-specification:Ubuntu;text-align:end;writing-mode:lr-tb;text-anchor:end;fill:#4d4d4d">13,2</flowPara></flowRoot>    <flowRoot
       transform="translate(177.85742,14.523839)"
       style="font-style:normal;font-variant:normal;font-weight:normal;font-stretch:normal;line-height:0.01%;font-family:Ubuntu;-inkscape-font-specification:Ubuntu;text-align:end;letter-spacing:0px;word-spacing:0px;writing-mode:lr-tb;text-anchor:end;fill:#4d4d4d;fill-opacity:1;stroke:none"
       id="flowRoot3222-1-5-6-9-7-7-8"
       xml:space="preserve"><flowRegion
         id="flowRegion3224-5-2-8-0-5-0-7"
         style="text-align:end;text-anchor:end;fill:#4d4d4d"><rect
           style="font-style:normal;font-variant:normal;font-weight:normal;font-stretch:normal;font-size:12px;line-height:125%;font-family:Ubuntu;-inkscape-font-specification:Ubuntu;text-align:end;writing-mode:lr-tb;text-anchor:end;fill:#4d4d4d"
           y="316.64789"
           x="135"
           height="44.285713"
           width="172.14285"
           id="rect3226-2-2-3-3-35-93-9" /></flowRegion><flowPara
         id="flowPara3228-1-51-9-5-6-6-2"
         style="font-style:normal;font-variant:normal;font-weight:normal;font-stretch:normal;font-size:12px;line-height:125%;font-family:Ubuntu;-inkscape-font-specification:Ubuntu;text-align:end;writing-mode:lr-tb;text-anchor:end;fill:#4d4d4d">10,0</flowPara></flowRoot>    <flowRoot
       transform="translate(177.85742,29.523839)"
       style="font-style:normal;font-variant:normal;font-weight:normal;font-stretch:normal;line-height:0.01%;font-family:Ubuntu;-inkscape-font-specification:Ubuntu;text-align:end;letter-spacing:0px;word-spacing:0px;writing-mode:lr-tb;text-anchor:end;fill:#4d4d4d;fill-opacity:1;stroke:none"
       id="flowRoot3222-1-5-6-9-7-7-0"
       xml:space="preserve"><flowRegion
         id="flowRegion3224-5-2-8-0-5-0-23"
         style="text-align:end;text-anchor:end;fill:#4d4d4d"><rect
           style="font-style:normal;font-variant:normal;font-weight:normal;font-stretch:normal;font-size:12px;line-height:125%;font-family:Ubuntu;-inkscape-font-specification:Ubuntu;text-align:end;writing-mode:lr-tb;text-anchor:end;fill:#4d4d4d"
           y="316.64789"
           x="135"
           height="44.285713"
           width="172.14285"
           id="rect3226-2-2-3-3-35-93-7" /></flowRegion><flowPara
         id="flowPara3228-1-51-9-5-6-6-5"
         style="font-style:normal;font-variant:normal;font-weight:normal;font-stretch:normal;font-size:12px;line-height:125%;font-family:Ubuntu;-inkscape-font-specification:Ubuntu;text-align:end;writing-mode:lr-tb;text-anchor:end;fill:#4d4d4d">8,1</flowPara></flowRoot>    <flowRoot
       transform="translate(175.85742,62.523839)"
       style="font-style:normal;font-variant:normal;font-weight:normal;font-stretch:normal;line-height:0.01%;font-family:Ubuntu;-inkscape-font-specification:Ubuntu;text-align:end;letter-spacing:0px;word-spacing:0px;writing-mode:lr-tb;text-anchor:end;fill:#4d4d4d;fill-opacity:1;stroke:none"
       id="flowRoot3222-1-5-6-9-7-7-0-9"
       xml:space="preserve"><flowRegion
         id="flowRegion3224-5-2-8-0-5-0-23-2"
         style="text-align:end;text-anchor:end;fill:#4d4d4d"><rect
           style="font-style:normal;font-variant:normal;font-weight:normal;font-stretch:normal;font-size:12px;line-height:125%;font-family:Ubuntu;-inkscape-font-specification:Ubuntu;text-align:end;writing-mode:lr-tb;text-anchor:end;fill:#4d4d4d"
           y="316.64789"
           x="135"
           height="44.285713"
           width="172.14285"
           id="rect3226-2-2-3-3-35-93-7-2" /></flowRegion><flowPara
         id="flowPara3228-1-51-9-5-6-6-5-8"
         style="font-style:normal;font-variant:normal;font-weight:normal;font-stretch:normal;font-size:12px;line-height:125%;font-family:Ubuntu;-inkscape-font-specification:Ubuntu;text-align:end;writing-mode:lr-tb;text-anchor:end;fill:#4d4d4d">...</flowPara></flowRoot>    <flowRoot
       transform="translate(227.85742,-0.476161)"
       style="font-style:normal;font-variant:normal;font-weight:normal;font-stretch:normal;line-height:0.01%;font-family:Ubuntu;-inkscape-font-specification:Ubuntu;text-align:end;letter-spacing:0px;word-spacing:0px;writing-mode:lr-tb;text-anchor:end;fill:#4d4d4d;fill-opacity:1;stroke:none"
       id="flowRoot3222-1-5-6-9-7-7-6-9"
       xml:space="preserve"><flowRegion
         id="flowRegion3224-5-2-8-0-5-0-2-7"
         style="text-align:end;text-anchor:end;fill:#4d4d4d"><rect
           style="font-style:normal;font-variant:normal;font-weight:normal;font-stretch:normal;font-size:12px;line-height:125%;font-family:Ubuntu;-inkscape-font-specification:Ubuntu;text-align:end;writing-mode:lr-tb;text-anchor:end;fill:#4d4d4d"
           y="316.64789"
           x="135"
           height="44.285713"
           width="172.14285"
           id="rect3226-2-2-3-3-35-93-6-3" /></flowRegion><flowPara
         id="flowPara3228-1-51-9-5-6-6-1-6"
         style="font-style:normal;font-variant:normal;font-weight:normal;font-stretch:normal;font-size:12px;line-height:125%;font-family:Ubuntu;-inkscape-font-specification:Ubuntu;text-align:end;writing-mode:lr-tb;text-anchor:end;fill:#4d4d4d">236</flowPara></flowRoot>    <flowRoot
       transform="translate(227.85742,14.523839)"
       style="font-style:normal;font-variant:normal;font-weight:normal;font-stretch:normal;line-height:0.01%;font-family:Ubuntu;-inkscape-font-specification:Ubuntu;text-align:end;letter-spacing:0px;word-spacing:0px;writing-mode:lr-tb;text-anchor:end;fill:#4d4d4d;fill-opacity:1;stroke:none"
       id="flowRoot3222-1-5-6-9-7-7-8-1"
       xml:space="preserve"><flowRegion
         id="flowRegion3224-5-2-8-0-5-0-7-2"
         style="text-align:end;text-anchor:end;fill:#4d4d4d"><rect
           style="font-style:normal;font-variant:normal;font-weight:normal;font-stretch:normal;font-size:12px;line-height:125%;font-family:Ubuntu;-inkscape-font-specification:Ubuntu;text-align:end;writing-mode:lr-tb;text-anchor:end;fill:#4d4d4d"
           y="316.64789"
           x="135"
           height="44.285713"
           width="172.14285"
           id="rect3226-2-2-3-3-35-93-9-9" /></flowRegion><flowPara
         id="flowPara3228-1-51-9-5-6-6-2-3"
         style="font-style:normal;font-variant:normal;font-weight:normal;font-stretch:normal;font-size:12px;line-height:125%;font-family:Ubuntu;-inkscape-font-specification:Ubuntu;text-align:end;writing-mode:lr-tb;text-anchor:end;fill:#4d4d4d">263</flowPara></flowRoot>    <flowRoot
       transform="translate(227.85742,29.523839)"
       style="font-style:normal;font-variant:normal;font-weight:normal;font-stretch:normal;line-height:0.01%;font-family:Ubuntu;-inkscape-font-specification:Ubuntu;text-align:end;letter-spacing:0px;word-spacing:0px;writing-mode:lr-tb;text-anchor:end;fill:#4d4d4d;fill-opacity:1;stroke:none"
       id="flowRoot3222-1-5-6-9-7-7-0-1"
       xml:space="preserve"><flowRegion
         id="flowRegion3224-5-2-8-0-5-0-23-9"
         style="text-align:end;text-anchor:end;fill:#4d4d4d"><rect
           style="font-style:normal;font-variant:normal;font-weight:normal;font-stretch:normal;font-size:12px;line-height:125%;font-family:Ubuntu;-inkscape-font-specification:Ubuntu;text-align:end;writing-mode:lr-tb;text-anchor:end;fill:#4d4d4d"
           y="316.64789"
           x="135"
           height="44.285713"
           width="172.14285"
           id="rect3226-2-2-3-3-35-93-7-4" /></flowRegion><flowPara
         id="flowPara3228-1-51-9-5-6-6-5-7"
         style="font-style:normal;font-variant:normal;font-weight:normal;font-stretch:normal;font-size:12px;line-height:125%;font-family:Ubuntu;-inkscape-font-specification:Ubuntu;text-align:end;writing-mode:lr-tb;text-anchor:end;fill:#4d4d4d">294</flowPara></flowRoot>    <flowRoot
       transform="translate(267.85742,-0.476161)"
       style="font-style:normal;font-variant:normal;font-weight:normal;font-stretch:normal;line-height:0.01%;font-family:Ubuntu;-inkscape-font-specification:Ubuntu;text-align:end;letter-spacing:0px;word-spacing:0px;writing-mode:lr-tb;text-anchor:end;fill:#4d4d4d;fill-opacity:1;stroke:none"
       id="flowRoot3222-1-5-6-9-7-7-6-8"
       xml:space="preserve"><flowRegion
         id="flowRegion3224-5-2-8-0-5-0-2-4"
         style="text-align:end;text-anchor:end;fill:#4d4d4d"><rect
           style="font-style:normal;font-variant:normal;font-weight:normal;font-stretch:normal;font-size:12px;line-height:125%;font-family:Ubuntu;-inkscape-font-specification:Ubuntu;text-align:end;writing-mode:lr-tb;text-anchor:end;fill:#4d4d4d"
           y="316.64789"
           x="135"
           height="44.285713"
           width="172.14285"
           id="rect3226-2-2-3-3-35-93-6-5" /></flowRegion><flowPara
         id="flowPara3228-1-51-9-5-6-6-1-0"
         style="font-style:normal;font-variant:normal;font-weight:normal;font-stretch:normal;font-size:12px;line-height:125%;font-family:Ubuntu;-inkscape-font-specification:Ubuntu;text-align:end;writing-mode:lr-tb;text-anchor:end;fill:#4d4d4d">21,2</flowPara></flowRoot>    <flowRoot
       transform="translate(267.85742,14.523839)"
       style="font-style:normal;font-variant:normal;font-weight:normal;font-stretch:normal;line-height:0.01%;font-family:Ubuntu;-inkscape-font-specification:Ubuntu;text-align:end;letter-spacing:0px;word-spacing:0px;writing-mode:lr-tb;text-anchor:end;fill:#4d4d4d;fill-opacity:1;stroke:none"
       id="flowRoot3222-1-5-6-9-7-7-8-3"
       xml:space="preserve"><flowRegion
         id="flowRegion3224-5-2-8-0-5-0-7-6"
         style="text-align:end;text-anchor:end;fill:#4d4d4d"><rect
           style="font-style:normal;font-variant:normal;font-weight:normal;font-stretch:normal;font-size:12px;line-height:125%;font-family:Ubuntu;-inkscape-font-specification:Ubuntu;text-align:end;writing-mode:lr-tb;text-anchor:end;fill:#4d4d4d"
           y="316.64789"
           x="135"
           height="44.285713"
           width="172.14285"
           id="rect3226-2-2-3-3-35-93-9-1" /></flowRegion><flowPara
         id="flowPara3228-1-51-9-5-6-6-2-0"
         style="font-style:normal;font-variant:normal;font-weight:normal;font-stretch:normal;font-size:12px;line-height:125%;font-family:Ubuntu;-inkscape-font-specification:Ubuntu;text-align:end;writing-mode:lr-tb;text-anchor:end;fill:#4d4d4d">44,5</flowPara></flowRoot>    <flowRoot
       transform="translate(267.85742,29.523839)"
       style="font-style:normal;font-variant:normal;font-weight:normal;font-stretch:normal;line-height:0.01%;font-family:Ubuntu;-inkscape-font-specification:Ubuntu;text-align:end;letter-spacing:0px;word-spacing:0px;writing-mode:lr-tb;text-anchor:end;fill:#4d4d4d;fill-opacity:1;stroke:none"
       id="flowRoot3222-1-5-6-9-7-7-0-6"
       xml:space="preserve"><flowRegion
         id="flowRegion3224-5-2-8-0-5-0-23-3"
         style="text-align:end;text-anchor:end;fill:#4d4d4d"><rect
           style="font-style:normal;font-variant:normal;font-weight:normal;font-stretch:normal;font-size:12px;line-height:125%;font-family:Ubuntu;-inkscape-font-specification:Ubuntu;text-align:end;writing-mode:lr-tb;text-anchor:end;fill:#4d4d4d"
           y="316.64789"
           x="135"
           height="44.285713"
           width="172.14285"
           id="rect3226-2-2-3-3-35-93-7-20" /></flowRegion><flowPara
         id="flowPara3228-1-51-9-5-6-6-5-6"
         style="font-style:normal;font-variant:normal;font-weight:normal;font-stretch:normal;font-size:12px;line-height:125%;font-family:Ubuntu;-inkscape-font-specification:Ubuntu;text-align:end;writing-mode:lr-tb;text-anchor:end;fill:#4d4d4d">31,0</flowPara></flowRoot>    <flowRoot
       transform="translate(237,84.523839)"
       style="font-style:normal;font-variant:normal;font-weight:normal;font-stretch:normal;line-height:0.01%;font-family:Ubuntu;-inkscape-font-specification:Ubuntu;text-align:start;letter-spacing:0px;word-spacing:0px;writing-mode:lr-tb;text-anchor:start;fill:#4d4d4d;fill-opacity:1;stroke:none"
       id="flowRoot3222-1-5-6-9-7-3-1"
       xml:space="preserve"><flowRegion
         id="flowRegion3224-5-2-8-0-5-6-5"
         style="text-align:start;text-anchor:start;fill:#4d4d4d"><rect
           style="font-style:normal;font-variant:normal;font-weight:normal;font-stretch:normal;font-size:12px;line-height:125%;font-family:Ubuntu;-inkscape-font-specification:Ubuntu;text-align:start;writing-mode:lr-tb;text-anchor:start;fill:#4d4d4d"
           y="316.64789"
           x="135"
           height="21.190454"
           width="215"
           id="rect3226-2-2-3-3-35-7-5" /></flowRegion><flowPara
         id="flowPara3228-1-51-9-5-6-5-4"
         style="font-style:italic;font-variant:normal;font-weight:normal;font-stretch:normal;font-size:8px;line-height:125%;font-family:Ubuntu;-inkscape-font-specification:'Ubuntu Italic';text-align:start;writing-mode:lr-tb;text-anchor:start;fill:#4d4d4d">Variables exprimées en rapport pour 100 000 habitants</flowPara></flowRoot>    <flowRoot
       transform="translate(225.85742,62.523839)"
       style="font-style:normal;font-variant:normal;font-weight:normal;font-stretch:normal;line-height:0.01%;font-family:Ubuntu;-inkscape-font-specification:Ubuntu;text-align:end;letter-spacing:0px;word-spacing:0px;writing-mode:lr-tb;text-anchor:end;fill:#4d4d4d;fill-opacity:1;stroke:none"
       id="flowRoot3222-1-5-6-9-7-7-0-9-7"
       xml:space="preserve"><flowRegion
         id="flowRegion3224-5-2-8-0-5-0-23-2-6"
         style="text-align:end;text-anchor:end;fill:#4d4d4d"><rect
           style="font-style:normal;font-variant:normal;font-weight:normal;font-stretch:normal;font-size:12px;line-height:125%;font-family:Ubuntu;-inkscape-font-specification:Ubuntu;text-align:end;writing-mode:lr-tb;text-anchor:end;fill:#4d4d4d"
           y="316.64789"
           x="135"
           height="44.285713"
           width="172.14285"
           id="rect3226-2-2-3-3-35-93-7-2-5" /></flowRegion><flowPara
         id="flowPara3228-1-51-9-5-6-6-5-8-6"
         style="font-style:normal;font-variant:normal;font-weight:normal;font-stretch:normal;font-size:12px;line-height:125%;font-family:Ubuntu;-inkscape-font-specification:Ubuntu;text-align:end;writing-mode:lr-tb;text-anchor:end;fill:#4d4d4d">...</flowPara></flowRoot>    <flowRoot
       transform="translate(265.85742,62.523839)"
       style="font-style:normal;font-variant:normal;font-weight:normal;font-stretch:normal;line-height:0.01%;font-family:Ubuntu;-inkscape-font-specification:Ubuntu;text-align:end;letter-spacing:0px;word-spacing:0px;writing-mode:lr-tb;text-anchor:end;fill:#4d4d4d;fill-opacity:1;stroke:none"
       id="flowRoot3222-1-5-6-9-7-7-0-9-9"
       xml:space="preserve"><flowRegion
         id="flowRegion3224-5-2-8-0-5-0-23-2-3"
         style="text-align:end;text-anchor:end;fill:#4d4d4d"><rect
           style="font-style:normal;font-variant:normal;font-weight:normal;font-stretch:normal;font-size:12px;line-height:125%;font-family:Ubuntu;-inkscape-font-specification:Ubuntu;text-align:end;writing-mode:lr-tb;text-anchor:end;fill:#4d4d4d"
           y="316.64789"
           x="135"
           height="44.285713"
           width="172.14285"
           id="rect3226-2-2-3-3-35-93-7-2-7" /></flowRegion><flowPara
         id="flowPara3228-1-51-9-5-6-6-5-8-4"
         style="font-style:normal;font-variant:normal;font-weight:normal;font-stretch:normal;font-size:12px;line-height:125%;font-family:Ubuntu;-inkscape-font-specification:Ubuntu;text-align:end;writing-mode:lr-tb;text-anchor:end;fill:#4d4d4d">...</flowPara></flowRoot>    <flowRoot
       transform="translate(245,44.523839)"
       style="font-style:normal;font-variant:normal;font-weight:normal;font-stretch:normal;line-height:0.01%;font-family:Ubuntu;-inkscape-font-specification:Ubuntu;text-align:start;letter-spacing:0px;word-spacing:0px;writing-mode:lr-tb;text-anchor:start;fill:#4d4d4d;fill-opacity:1;stroke:none"
       id="flowRoot3222-1-5-6-9-3-9-9-5"
       xml:space="preserve"><flowRegion
         id="flowRegion3224-5-2-8-0-2-1-4-2"
         style="fill:#4d4d4d"><rect
           style="font-style:normal;font-variant:normal;font-weight:normal;font-stretch:normal;font-size:12px;line-height:125%;font-family:Ubuntu;-inkscape-font-specification:Ubuntu;text-align:start;writing-mode:lr-tb;text-anchor:start;fill:#4d4d4d"
           y="316.64789"
           x="135"
           height="44.285713"
           width="172.14285"
           id="rect3226-2-2-3-3-0-2-9-5" /></flowRegion><flowPara
         id="flowPara3228-1-51-9-5-4-7-0-4"
         style="font-style:normal;font-variant:normal;font-weight:normal;font-stretch:normal;font-size:12px;line-height:125%;font-family:Ubuntu;-inkscape-font-specification:Ubuntu;text-align:start;writing-mode:lr-tb;text-anchor:start;fill:#4d4d4d">Arkansas</flowPara></flowRoot>    <flowRoot
       transform="translate(177.85742,44.523839)"
       style="font-style:normal;font-variant:normal;font-weight:normal;font-stretch:normal;line-height:0.01%;font-family:Ubuntu;-inkscape-font-specification:Ubuntu;text-align:end;letter-spacing:0px;word-spacing:0px;writing-mode:lr-tb;text-anchor:end;fill:#4d4d4d;fill-opacity:1;stroke:none"
       id="flowRoot3222-1-5-6-9-7-7-0-7"
       xml:space="preserve"><flowRegion
         id="flowRegion3224-5-2-8-0-5-0-23-4"
         style="text-align:end;text-anchor:end;fill:#4d4d4d"><rect
           style="font-style:normal;font-variant:normal;font-weight:normal;font-stretch:normal;font-size:12px;line-height:125%;font-family:Ubuntu;-inkscape-font-specification:Ubuntu;text-align:end;writing-mode:lr-tb;text-anchor:end;fill:#4d4d4d"
           y="316.64789"
           x="135"
           height="44.285713"
           width="172.14285"
           id="rect3226-2-2-3-3-35-93-7-43" /></flowRegion><flowPara
         id="flowPara3228-1-51-9-5-6-6-5-0"
         style="font-style:normal;font-variant:normal;font-weight:normal;font-stretch:normal;font-size:12px;line-height:125%;font-family:Ubuntu;-inkscape-font-specification:Ubuntu;text-align:end;writing-mode:lr-tb;text-anchor:end;fill:#4d4d4d">8,8</flowPara></flowRoot>    <flowRoot
       transform="translate(227.85742,44.523839)"
       style="font-style:normal;font-variant:normal;font-weight:normal;font-stretch:normal;line-height:0.01%;font-family:Ubuntu;-inkscape-font-specification:Ubuntu;text-align:end;letter-spacing:0px;word-spacing:0px;writing-mode:lr-tb;text-anchor:end;fill:#4d4d4d;fill-opacity:1;stroke:none"
       id="flowRoot3222-1-5-6-9-7-7-0-1-7"
       xml:space="preserve"><flowRegion
         id="flowRegion3224-5-2-8-0-5-0-23-9-8"
         style="text-align:end;text-anchor:end;fill:#4d4d4d"><rect
           style="font-style:normal;font-variant:normal;font-weight:normal;font-stretch:normal;font-size:12px;line-height:125%;font-family:Ubuntu;-inkscape-font-specification:Ubuntu;text-align:end;writing-mode:lr-tb;text-anchor:end;fill:#4d4d4d"
           y="316.64789"
           x="135"
           height="44.285713"
           width="172.14285"
           id="rect3226-2-2-3-3-35-93-7-4-6" /></flowRegion><flowPara
         id="flowPara3228-1-51-9-5-6-6-5-7-8"
         style="font-style:normal;font-variant:normal;font-weight:normal;font-stretch:normal;font-size:12px;line-height:125%;font-family:Ubuntu;-inkscape-font-specification:Ubuntu;text-align:end;writing-mode:lr-tb;text-anchor:end;fill:#4d4d4d">190</flowPara></flowRoot>    <flowRoot
       transform="translate(267.85742,44.523839)"
       style="font-style:normal;font-variant:normal;font-weight:normal;font-stretch:normal;line-height:0.01%;font-family:Ubuntu;-inkscape-font-specification:Ubuntu;text-align:end;letter-spacing:0px;word-spacing:0px;writing-mode:lr-tb;text-anchor:end;fill:#4d4d4d;fill-opacity:1;stroke:none"
       id="flowRoot3222-1-5-6-9-7-7-0-6-8"
       xml:space="preserve"><flowRegion
         id="flowRegion3224-5-2-8-0-5-0-23-3-4"
         style="text-align:end;text-anchor:end;fill:#4d4d4d"><rect
           style="font-style:normal;font-variant:normal;font-weight:normal;font-stretch:normal;font-size:12px;line-height:125%;font-family:Ubuntu;-inkscape-font-specification:Ubuntu;text-align:end;writing-mode:lr-tb;text-anchor:end;fill:#4d4d4d"
           y="316.64789"
           x="135"
           height="44.285713"
           width="172.14285"
           id="rect3226-2-2-3-3-35-93-7-20-3" /></flowRegion><flowPara
         id="flowPara3228-1-51-9-5-6-6-5-6-1"
         style="font-style:normal;font-variant:normal;font-weight:normal;font-stretch:normal;font-size:12px;line-height:125%;font-family:Ubuntu;-inkscape-font-specification:Ubuntu;text-align:end;writing-mode:lr-tb;text-anchor:end;fill:#4d4d4d">19,5</flowPara></flowRoot>  </g>
</svg>
