<?xml version="1.0" encoding="UTF-8" standalone="no"?>
<svg
   xmlns:dc="http://purl.org/dc/elements/1.1/"
   xmlns:cc="http://creativecommons.org/ns#"
   xmlns:rdf="http://www.w3.org/1999/02/22-rdf-syntax-ns#"
   xmlns:svg="http://www.w3.org/2000/svg"
   xmlns="http://www.w3.org/2000/svg"
   xmlns:sodipodi="http://sodipodi.sourceforge.net/DTD/sodipodi-0.dtd"
   xmlns:inkscape="http://www.inkscape.org/namespaces/inkscape"
   width="599pt"
   height="374pt"
   viewBox="0 0 599 374"
   version="1.1"
   id="svg2"
   inkscape:version="0.92.2 (5c3e80d, 2017-08-06)"
   sodipodi:docname="Deciles.svg">
  <metadata
     id="metadata775">
    <rdf:RDF>
      <cc:Work
         rdf:about="">
        <dc:format>image/svg+xml</dc:format>
        <dc:type
           rdf:resource="http://purl.org/dc/dcmitype/StillImage" />
        <dc:title />
      </cc:Work>
    </rdf:RDF>
  </metadata>
  <sodipodi:namedview
     pagecolor="#ffffff"
     bordercolor="#666666"
     borderopacity="1"
     objecttolerance="10"
     gridtolerance="10"
     guidetolerance="10"
     inkscape:pageopacity="0"
     inkscape:pageshadow="2"
     inkscape:window-width="1920"
     inkscape:window-height="1031"
     id="namedview773"
     showgrid="false"
     showguides="true"
     inkscape:guide-bbox="true"
     inkscape:zoom="1.1937001"
     inkscape:cx="315.44352"
     inkscape:cy="277.39217"
     inkscape:window-x="0"
     inkscape:window-y="25"
     inkscape:window-maximized="1"
     inkscape:current-layer="svg2">
    <sodipodi:guide
       orientation="0,1"
       position="327.55295,27.645134"
       id="guide4052"
       inkscape:locked="false" />
    <sodipodi:guide
       orientation="1,0"
       position="64.505313,-13.403701"
       id="guide4240"
       inkscape:locked="false" />
    <sodipodi:guide
       orientation="1,0"
       position="597.10443,141.57536"
       id="guide4467"
       inkscape:locked="false" />
  </sodipodi:namedview>
  <defs
     id="defs4">
    <g
       id="g6">
      <symbol
         overflow="visible"
         id="glyph0-0">
        <path
           style="stroke:none;"
           d=""
           id="path9" />
      </symbol>
      <symbol
         overflow="visible"
         id="glyph0-1">
        <path
           style="stroke:none;"
           d="M 3.46875 -0.125 L 3.46875 -7.0625 L 2.671875 -7.0625 C 2.328125 -5.890625 2.28125 -5.875 0.828125 -5.6875 L 0.828125 -4.84375 L 2.34375 -4.84375 L 2.34375 0 L 3.46875 0 Z M 3.46875 -0.125 "
           id="path12" />
      </symbol>
      <symbol
         overflow="visible"
         id="glyph0-2">
        <path
           style="stroke:none;"
           d="M 5 -3.390625 C 5 -5.75 4.109375 -7.0625 2.640625 -7.0625 C 1.171875 -7.0625 0.265625 -5.734375 0.265625 -3.453125 C 0.265625 -1.15625 1.1875 0.140625 2.640625 0.140625 C 4.078125 0.140625 5 -1.15625 5 -3.390625 Z M 3.859375 -3.46875 C 3.859375 -1.546875 3.5625 -0.8125 2.625 -0.8125 C 1.734375 -0.8125 1.40625 -1.578125 1.40625 -3.4375 C 1.40625 -5.3125 1.734375 -6.046875 2.640625 -6.046875 C 3.546875 -6.046875 3.859375 -5.296875 3.859375 -3.46875 Z M 3.859375 -3.46875 "
           id="path15" />
      </symbol>
      <symbol
         overflow="visible"
         id="glyph0-3">
        <path
           style="stroke:none;"
           d="M 5.0625 -2.375 C 5.0625 -3.71875 4.03125 -4.734375 2.71875 -4.734375 C 2.25 -4.734375 1.75 -4.578125 1.65625 -4.5 L 1.859375 -5.828125 L 4.703125 -5.828125 L 4.703125 -6.921875 L 0.9375 -6.921875 L 0.390625 -3.09375 L 1.375 -3.09375 C 1.8125 -3.609375 2.046875 -3.734375 2.578125 -3.734375 C 3.484375 -3.734375 3.921875 -3.265625 3.921875 -2.265625 C 3.921875 -1.28125 3.484375 -0.859375 2.578125 -0.859375 C 1.828125 -0.859375 1.515625 -1.109375 1.28125 -2 L 0.15625 -2 C 0.46875 -0.515625 1.375 0.140625 2.59375 0.140625 C 3.96875 0.140625 5.0625 -0.9375 5.0625 -2.375 Z M 5.0625 -2.375 "
           id="path18" />
      </symbol>
      <symbol
         overflow="visible"
         id="glyph0-4">
        <path
           style="stroke:none;"
           d="M 5.03125 -4.9375 C 5.03125 -6.078125 4.015625 -7.0625 2.71875 -7.0625 C 1.328125 -7.0625 0.390625 -6.21875 0.328125 -4.4375 L 1.453125 -4.4375 C 1.53125 -5.703125 1.859375 -6.0625 2.703125 -6.0625 C 3.46875 -6.0625 3.890625 -5.640625 3.890625 -4.90625 C 3.890625 -4.375 3.609375 -4.015625 3.015625 -3.671875 L 2.125 -3.171875 C 0.703125 -2.359375 0.265625 -1.625 0.171875 0 L 4.984375 0 L 4.984375 -1.09375 L 1.421875 -1.09375 C 1.5 -1.515625 1.765625 -1.78125 2.59375 -2.28125 L 3.5625 -2.796875 C 4.515625 -3.296875 5.03125 -4.09375 5.03125 -4.9375 Z M 5.03125 -4.9375 "
           id="path21" />
      </symbol>
      <symbol
         overflow="visible"
         id="glyph0-5">
        <path
           style="stroke:none;"
           d="M 4.984375 -2.09375 C 4.984375 -2.921875 4.515625 -3.546875 3.703125 -3.8125 L 3.703125 -3.5625 C 4.34375 -3.8125 4.78125 -4.375 4.78125 -5.0625 C 4.78125 -6.21875 3.875 -7.0625 2.578125 -7.0625 C 1.203125 -7.0625 0.328125 -6.1875 0.3125 -4.609375 L 1.421875 -4.609375 C 1.453125 -5.734375 1.734375 -6.0625 2.59375 -6.0625 C 3.34375 -6.0625 3.640625 -5.75 3.640625 -5.03125 C 3.640625 -4.296875 3.46875 -4.140625 1.96875 -4.140625 L 1.96875 -3.171875 L 2.578125 -3.171875 C 3.515625 -3.171875 3.84375 -2.84375 3.84375 -2.09375 C 3.84375 -1.234375 3.46875 -0.859375 2.578125 -0.859375 C 1.65625 -0.859375 1.34375 -1.1875 1.28125 -2.3125 L 0.15625 -2.3125 C 0.265625 -0.65625 1.15625 0.140625 2.546875 0.140625 C 3.953125 0.140625 4.984375 -0.8125 4.984375 -2.09375 Z M 4.984375 -2.09375 "
           id="path24" />
      </symbol>
      <symbol
         overflow="visible"
         id="glyph0-6">
        <path
           style="stroke:none;"
           d="M 5.125 -1.75 L 5.125 -2.640625 L 4.109375 -2.640625 L 4.109375 -7.0625 L 3.28125 -7.0625 L 0.125 -2.6875 L 0.125 -1.625 L 3 -1.625 L 3 0 L 4.109375 0 L 4.109375 -1.625 L 5.125 -1.625 Z M 3.140625 -2.640625 L 1.25 -2.640625 L 3.234375 -5.40625 L 3 -5.484375 L 3 -2.640625 Z M 3.140625 -2.640625 "
           id="path27" />
      </symbol>
      <symbol
         overflow="visible"
         id="glyph0-7">
        <path
           style="stroke:none;"
           d="M 5.015625 -3.6875 C 5.015625 -5.8125 4.140625 -7.0625 2.59375 -7.0625 C 1.296875 -7.0625 0.21875 -6 0.21875 -4.671875 C 0.21875 -3.40625 1.234375 -2.421875 2.453125 -2.421875 C 3.09375 -2.421875 3.671875 -2.703125 4.109375 -3.21875 L 3.859375 -3.3125 C 3.859375 -1.65625 3.46875 -0.859375 2.5 -0.859375 C 1.90625 -0.859375 1.625 -1.109375 1.453125 -1.890625 L 0.34375 -1.890625 C 0.53125 -0.640625 1.40625 0.140625 2.4375 0.140625 C 4.03125 0.140625 5.015625 -1.328125 5.015625 -3.6875 Z M 3.8125 -4.6875 C 3.8125 -3.859375 3.375 -3.4375 2.546875 -3.4375 C 1.734375 -3.4375 1.359375 -3.828125 1.359375 -4.734375 C 1.359375 -5.609375 1.796875 -6.0625 2.578125 -6.0625 C 3.375 -6.0625 3.8125 -5.578125 3.8125 -4.6875 Z M 3.8125 -4.6875 "
           id="path30" />
      </symbol>
      <symbol
         overflow="visible"
         id="glyph0-8">
        <path
           style="stroke:none;"
           d="M 5.0625 -2.234375 C 5.0625 -3.5 4.0625 -4.484375 2.84375 -4.484375 C 2.171875 -4.484375 1.53125 -4.1875 1.171875 -3.6875 L 1.40625 -3.59375 C 1.421875 -5.25 1.828125 -6.046875 2.796875 -6.046875 C 3.390625 -6.046875 3.65625 -5.796875 3.8125 -5.03125 L 4.9375 -5.03125 C 4.75 -6.265625 3.890625 -7.0625 2.84375 -7.0625 C 1.265625 -7.0625 0.265625 -5.59375 0.265625 -3.21875 C 0.265625 -1.109375 1.140625 0.140625 2.703125 0.140625 C 3.984375 0.140625 5.0625 -0.90625 5.0625 -2.234375 Z M 3.921875 -2.171875 C 3.921875 -1.3125 3.484375 -0.859375 2.703125 -0.859375 C 1.921875 -0.859375 1.453125 -1.34375 1.453125 -2.21875 C 1.453125 -3.0625 1.90625 -3.484375 2.734375 -3.484375 C 3.546875 -3.484375 3.921875 -3.078125 3.921875 -2.171875 Z M 3.921875 -2.171875 "
           id="path33" />
      </symbol>
      <symbol
         overflow="visible"
         id="glyph0-9">
        <path
           style="stroke:none;"
           d="M 5.0625 -2.046875 C 5.0625 -2.796875 4.53125 -3.46875 4.015625 -3.71875 C 4.546875 -4.03125 4.8125 -4.46875 4.8125 -5.109375 C 4.8125 -6.171875 3.84375 -7.0625 2.640625 -7.0625 C 1.4375 -7.0625 0.453125 -6.171875 0.453125 -5.109375 C 0.453125 -4.484375 0.71875 -4.046875 1.25 -3.71875 C 0.734375 -3.46875 0.21875 -2.796875 0.21875 -2.046875 C 0.21875 -0.8125 1.296875 0.140625 2.640625 0.140625 C 3.984375 0.140625 5.0625 -0.8125 5.0625 -2.046875 Z M 3.671875 -5.09375 C 3.671875 -4.46875 3.34375 -4.171875 2.640625 -4.171875 C 1.921875 -4.171875 1.59375 -4.46875 1.59375 -5.109375 C 1.59375 -5.75 1.921875 -6.046875 2.640625 -6.046875 C 3.359375 -6.046875 3.671875 -5.75 3.671875 -5.09375 Z M 3.921875 -2.03125 C 3.921875 -1.234375 3.484375 -0.859375 2.625 -0.859375 C 1.796875 -0.859375 1.359375 -1.234375 1.359375 -2.03125 C 1.359375 -2.828125 1.796875 -3.203125 2.640625 -3.203125 C 3.484375 -3.203125 3.921875 -2.828125 3.921875 -2.03125 Z M 3.921875 -2.03125 "
           id="path36" />
      </symbol>
      <symbol
         overflow="visible"
         id="glyph0-10">
        <path
           style="stroke:none;"
           d="M 6.5 -2.8125 L 5.453125 -2.8125 C 5.21875 -1.359375 4.8125 -0.875 3.625 -0.875 C 2.234375 -0.875 1.484375 -1.796875 1.484375 -3.546875 C 1.484375 -5.34375 2.203125 -6.375 3.546875 -6.375 C 4.640625 -6.375 5.078125 -6.015625 5.328125 -4.828125 L 6.515625 -4.828125 C 6.203125 -6.484375 5.1875 -7.421875 3.65625 -7.421875 C 1.53125 -7.421875 0.3125 -5.578125 0.3125 -3.546875 C 0.3125 -1.5 1.5625 0.171875 3.609375 0.171875 C 5.328125 0.171875 6.421875 -0.859375 6.65625 -2.8125 Z M 6.5 -2.8125 "
           id="path39" />
      </symbol>
      <symbol
         overflow="visible"
         id="glyph0-11">
        <path
           style="stroke:none;"
           d="M 6.53125 -3.625 C 6.53125 -5.796875 5.328125 -7.25 3.546875 -7.25 L 0.703125 -7.25 L 0.703125 0 L 3.546875 0 C 5.3125 0 6.53125 -1.453125 6.53125 -3.625 Z M 5.359375 -3.609375 C 5.359375 -1.859375 4.78125 -1.046875 3.390625 -1.046875 L 1.875 -1.046875 L 1.875 -6.203125 L 3.390625 -6.203125 C 4.78125 -6.203125 5.359375 -5.40625 5.359375 -3.609375 Z M 5.359375 -3.609375 "
           id="path42" />
      </symbol>
      <symbol
         overflow="visible"
         id="glyph1-0">
        <path
           style="stroke:none;"
           d=""
           id="path45" />
      </symbol>
      <symbol
         overflow="visible"
         id="glyph1-1">
        <path
           style="stroke:none;"
           d="M 7.96875 -0.125 L 4.84375 -9.015625 L 3.234375 -9.015625 L 0.015625 0 L 1.46875 0 L 2.40625 -2.625 L 5.59375 -2.625 L 6.484375 0 L 8.015625 0 Z M 5.375 -3.828125 L 2.765625 -3.828125 L 4.15625 -7.6875 L 3.890625 -7.6875 L 5.1875 -3.828125 Z M 5.375 -3.828125 "
           id="path48" />
      </symbol>
      <symbol
         overflow="visible"
         id="glyph1-2">
        <path
           style="stroke:none;"
           d="M 5.96875 -0.125 L 5.96875 -4.890625 C 5.96875 -5.921875 5.0625 -6.734375 3.859375 -6.734375 C 2.921875 -6.734375 2.203125 -6.34375 1.65625 -5.453125 L 1.890625 -5.359375 L 1.890625 -6.546875 L 0.703125 -6.546875 L 0.703125 0 L 1.96875 0 L 1.96875 -3.59375 C 1.96875 -4.890625 2.53125 -5.59375 3.546875 -5.59375 C 4.34375 -5.59375 4.703125 -5.25 4.703125 -4.484375 L 4.703125 0 L 5.96875 0 Z M 5.96875 -0.125 "
           id="path51" />
      </symbol>
      <symbol
         overflow="visible"
         id="glyph1-3">
        <path
           style="stroke:none;"
           d="M 6.28125 -2.984375 C 6.28125 -3.90625 6.21875 -4.46875 6.03125 -4.9375 C 5.625 -5.96875 4.53125 -6.734375 3.359375 -6.734375 C 1.609375 -6.734375 0.34375 -5.296875 0.34375 -3.234375 C 0.34375 -1.171875 1.578125 0.1875 3.34375 0.1875 C 4.78125 0.1875 5.90625 -0.765625 6.1875 -2.171875 L 4.921875 -2.171875 C 4.59375 -1.21875 4.171875 -1.015625 3.375 -1.015625 C 2.328125 -1.015625 1.6875 -1.546875 1.65625 -2.859375 L 6.28125 -2.859375 Z M 5.1875 -3.78125 C 5.1875 -3.78125 4.984375 -3.921875 4.984375 -3.9375 L 1.6875 -3.9375 C 1.765625 -4.921875 2.34375 -5.546875 3.34375 -5.546875 C 4.328125 -5.546875 4.9375 -4.859375 4.9375 -3.875 Z M 5.515625 -9.015625 L 4.078125 -9.015625 L 2.75 -6.96875 L 3.765625 -6.96875 L 5.609375 -8.78125 Z M 5.515625 -9.015625 "
           id="path54" />
      </symbol>
      <symbol
         overflow="visible"
         id="glyph1-4">
        <path
           style="stroke:none;"
           d="M 6.28125 -2.984375 C 6.28125 -3.90625 6.21875 -4.46875 6.03125 -4.9375 C 5.625 -5.96875 4.53125 -6.734375 3.359375 -6.734375 C 1.609375 -6.734375 0.34375 -5.296875 0.34375 -3.234375 C 0.34375 -1.171875 1.578125 0.1875 3.34375 0.1875 C 4.78125 0.1875 5.90625 -0.765625 6.1875 -2.171875 L 4.921875 -2.171875 C 4.59375 -1.21875 4.171875 -1.015625 3.375 -1.015625 C 2.328125 -1.015625 1.6875 -1.546875 1.65625 -2.859375 L 6.28125 -2.859375 Z M 5.1875 -3.78125 C 5.1875 -3.78125 4.984375 -3.921875 4.984375 -3.9375 L 1.6875 -3.9375 C 1.765625 -4.921875 2.34375 -5.546875 3.34375 -5.546875 C 4.328125 -5.546875 4.9375 -4.859375 4.9375 -3.875 Z M 5.1875 -3.78125 "
           id="path57" />
      </symbol>
      <symbol
         overflow="visible"
         id="glyph2-0">
        <path
           style="stroke:none;"
           d=""
           id="path60" />
      </symbol>
      <symbol
         overflow="visible"
         id="glyph2-1">
        <path
           style="stroke:none;"
           d="M -0.125 -7.890625 L -9.015625 -7.890625 L -9.015625 -6.546875 L -1.734375 -6.546875 L -1.828125 -6.796875 L -9.015625 -2.1875 L -9.015625 -0.765625 L 0 -0.765625 L 0 -2.09375 L -7.21875 -2.09375 L -7.125 -1.859375 L 0 -6.421875 L 0 -7.890625 Z M -0.125 -7.890625 "
           id="path63" />
      </symbol>
      <symbol
         overflow="visible"
         id="glyph2-2">
        <path
           style="stroke:none;"
           d="M -0.125 -1.96875 L -6.546875 -1.96875 L -6.546875 -0.703125 L 0 -0.703125 L 0 -1.96875 Z M -7.375 -2.09375 L -8.75 -2.09375 L -8.75 -0.578125 L -7.234375 -0.578125 L -7.234375 -2.09375 Z M -7.375 -2.09375 "
           id="path66" />
      </symbol>
      <symbol
         overflow="visible"
         id="glyph2-3">
        <path
           style="stroke:none;"
           d="M -6.546875 -5.828125 L -6.546875 -4.609375 L -1.3125 -2.78125 L -1.3125 -3.0625 L -6.546875 -1.328125 L -6.546875 0.078125 L 0 -2.234375 L 0 -3.5 L -6.546875 -6.015625 Z M -6.546875 -5.828125 "
           id="path69" />
      </symbol>
      <symbol
         overflow="visible"
         id="glyph2-4">
        <path
           style="stroke:none;"
           d="M -2.984375 -6.28125 C -3.90625 -6.28125 -4.46875 -6.21875 -4.9375 -6.03125 C -5.96875 -5.625 -6.734375 -4.53125 -6.734375 -3.359375 C -6.734375 -1.609375 -5.296875 -0.34375 -3.234375 -0.34375 C -1.171875 -0.34375 0.1875 -1.578125 0.1875 -3.34375 C 0.1875 -4.78125 -0.765625 -5.90625 -2.171875 -6.1875 L -2.171875 -4.921875 C -1.21875 -4.59375 -1.015625 -4.171875 -1.015625 -3.375 C -1.015625 -2.328125 -1.546875 -1.6875 -2.859375 -1.65625 L -2.859375 -6.28125 Z M -3.78125 -5.1875 C -3.78125 -5.1875 -3.921875 -4.984375 -3.9375 -4.984375 L -3.9375 -1.6875 C -4.921875 -1.765625 -5.546875 -2.34375 -5.546875 -3.34375 C -5.546875 -4.328125 -4.859375 -4.9375 -3.875 -4.9375 Z M -3.78125 -5.1875 "
           id="path72" />
      </symbol>
      <symbol
         overflow="visible"
         id="glyph2-5">
        <path
           style="stroke:none;"
           d="M -0.15625 -6.546875 L -1.078125 -6.546875 C -1.015625 -6.3125 -1.015625 -6.265625 -1.015625 -6.203125 C -1.015625 -5.859375 -1.0625 -5.796875 -1.375 -5.796875 L -4.890625 -5.796875 C -6 -5.796875 -6.734375 -4.84375 -6.734375 -3.296875 C -6.734375 -1.78125 -6.015625 -0.703125 -4.421875 -0.640625 L -4.421875 -1.90625 C -5.328125 -2 -5.546875 -2.328125 -5.546875 -3.265625 C -5.546875 -4.15625 -5.34375 -4.53125 -4.734375 -4.53125 L -4.46875 -4.53125 C -4.0625 -4.53125 -4.015625 -4.421875 -3.90625 -3.625 C -3.734375 -2.203125 -3.6875 -1.984375 -3.53125 -1.609375 C -3.234375 -0.875 -2.53125 -0.359375 -1.765625 -0.359375 C -0.625 -0.359375 0.1875 -1.296875 0.1875 -2.5625 C 0.1875 -3.375 -0.1875 -4.25 -0.59375 -4.625 C -0.390625 -4.671875 0.078125 -5.25 0.078125 -5.734375 C 0.078125 -5.9375 0.0625 -6.09375 -0.046875 -6.546875 Z M -2.296875 -4.53125 C -1.40625 -4.53125 -0.953125 -3.75 -0.953125 -2.78125 C -0.953125 -2 -1.109375 -1.6875 -1.78125 -1.6875 C -2.453125 -1.6875 -2.609375 -1.984375 -2.765625 -3.0625 C -2.90625 -4.109375 -2.953125 -4.328125 -3.03125 -4.53125 Z M -2.296875 -4.53125 "
           id="path75" />
      </symbol>
      <symbol
         overflow="visible"
         id="glyph2-6">
        <path
           style="stroke:none;"
           d="M -0.125 -5.921875 L -6.546875 -5.921875 L -6.546875 -4.640625 L -2.953125 -4.640625 C -1.671875 -4.640625 -0.953125 -4.109375 -0.953125 -3.078125 C -0.953125 -2.28125 -1.3125 -1.90625 -2.0625 -1.90625 L -6.546875 -1.90625 L -6.546875 -0.640625 L -1.671875 -0.640625 C -0.625 -0.640625 0.1875 -1.5625 0.1875 -2.78125 C 0.1875 -3.703125 -0.1875 -4.390625 -1.015625 -4.984375 L -1.109375 -4.734375 L 0 -4.734375 L 0 -5.921875 Z M -0.125 -5.921875 "
           id="path78" />
      </symbol>
      <symbol
         overflow="visible"
         id="glyph2-7">
        <path
           style="stroke:none;"
           d=""
           id="path81" />
      </symbol>
      <symbol
         overflow="visible"
         id="glyph2-8">
        <path
           style="stroke:none;"
           d="M -0.125 -6.078125 L -9.015625 -6.078125 L -9.015625 -4.796875 L -5.625 -4.796875 L -5.71875 -5.046875 C -6.359375 -4.625 -6.734375 -3.859375 -6.734375 -3.015625 C -6.734375 -1.375 -5.34375 -0.171875 -3.34375 -0.171875 C -1.21875 -0.171875 0.1875 -1.359375 0.1875 -3.046875 C 0.1875 -3.90625 -0.1875 -4.609375 -0.953125 -5.140625 L -1.0625 -4.90625 L 0 -4.90625 L 0 -6.078125 Z M -3.25 -4.796875 C -1.796875 -4.796875 -1.015625 -4.25 -1.015625 -3.1875 C -1.015625 -2.09375 -1.8125 -1.484375 -3.28125 -1.484375 C -4.734375 -1.484375 -5.53125 -2.09375 -5.53125 -3.1875 C -5.53125 -4.265625 -4.703125 -4.796875 -3.25 -4.796875 Z M -3.25 -4.796875 "
           id="path84" />
      </symbol>
      <symbol
         overflow="visible"
         id="glyph2-9">
        <path
           style="stroke:none;"
           d="M 2.3125 -3.59375 C 0.59375 -2.53125 -1.3125 -1.984375 -3.234375 -1.984375 C -5.140625 -1.984375 -7.078125 -2.53125 -9.015625 -3.734375 L -9.015625 -2.765625 C -7.40625 -1.53125 -5.125 -0.734375 -3.234375 -0.734375 C -1.34375 -0.734375 0.9375 -1.53125 2.546875 -2.765625 L 2.546875 -3.734375 Z M 2.3125 -3.59375 "
           id="path87" />
      </symbol>
      <symbol
         overflow="visible"
         id="glyph2-10">
        <path
           style="stroke:none;"
           d="M -5.546875 -3.984375 L -6.6875 -3.984375 C -6.71875 -3.6875 -6.734375 -3.59375 -6.734375 -3.46875 C -6.734375 -2.8125 -6.3125 -2.21875 -5.375 -1.640625 L -5.28125 -1.890625 L -6.546875 -1.890625 L -6.546875 -0.703125 L 0 -0.703125 L 0 -1.96875 L -3.390625 -1.96875 C -4.8125 -1.96875 -5.390625 -2.296875 -5.40625 -3.984375 Z M -5.546875 -3.984375 "
           id="path90" />
      </symbol>
      <symbol
         overflow="visible"
         id="glyph2-11">
        <path
           style="stroke:none;"
           d="M -3.234375 -6.25 C -5.40625 -6.25 -6.734375 -5.078125 -6.734375 -3.265625 C -6.734375 -1.5 -5.390625 -0.28125 -3.28125 -0.28125 C -1.15625 -0.28125 0.1875 -1.484375 0.1875 -3.28125 C 0.1875 -5.046875 -1.15625 -6.25 -3.234375 -6.25 Z M -3.234375 -4.9375 C -1.765625 -4.9375 -1.015625 -4.375 -1.015625 -3.28125 C -1.015625 -2.15625 -1.75 -1.609375 -3.28125 -1.609375 C -4.78125 -1.609375 -5.546875 -2.15625 -5.546875 -3.28125 C -5.546875 -4.40625 -4.796875 -4.9375 -3.234375 -4.9375 Z M -3.234375 -4.9375 "
           id="path93" />
      </symbol>
      <symbol
         overflow="visible"
         id="glyph2-12">
        <path
           style="stroke:none;"
           d="M -1.890625 -5.640625 C -2.828125 -5.640625 -3.4375 -4.984375 -3.734375 -3.734375 L -3.953125 -2.765625 C -4.15625 -1.953125 -4.28125 -1.734375 -4.734375 -1.734375 C -5.296875 -1.734375 -5.546875 -2.125 -5.546875 -2.9375 C -5.546875 -3.75 -5.328125 -4.03125 -4.53125 -4.0625 L -4.53125 -5.390625 C -5.90625 -5.375 -6.734375 -4.421875 -6.734375 -2.96875 C -6.734375 -1.515625 -5.84375 -0.421875 -4.6875 -0.421875 C -3.703125 -0.421875 -3.09375 -1.0625 -2.734375 -2.5625 L -2.515625 -3.484375 C -2.34375 -4.1875 -2.265625 -4.3125 -1.8125 -4.3125 C -1.21875 -4.3125 -1.015625 -3.875 -1.015625 -3 C -1.015625 -2.09375 -1.09375 -1.734375 -2.1875 -1.578125 L -2.1875 -0.265625 C -0.59375 -0.3125 0.1875 -1.265625 0.1875 -2.921875 C 0.1875 -4.5 -0.6875 -5.640625 -1.890625 -5.640625 Z M -1.890625 -5.640625 "
           id="path96" />
      </symbol>
      <symbol
         overflow="visible"
         id="glyph2-13">
        <path
           style="stroke:none;"
           d="M -3.234375 -3.203125 C -5.125 -3.203125 -7.40625 -2.40625 -9.015625 -1.171875 L -9.015625 -0.203125 C -7.0625 -1.40625 -5.140625 -1.953125 -3.234375 -1.953125 C -1.3125 -1.953125 0.609375 -1.40625 2.546875 -0.203125 L 2.546875 -1.171875 C 0.9375 -2.40625 -1.34375 -3.203125 -3.234375 -3.203125 Z M -3.234375 -3.203125 "
           id="path99" />
      </symbol>
      <symbol
         overflow="visible"
         id="glyph3-0">
        <path
           style="stroke:none;"
           d=""
           id="path102" />
      </symbol>
      <symbol
         overflow="visible"
         id="glyph3-1">
        <path
           style="stroke:none;"
           d="M 2.171875 -0.125 L 2.171875 -7.25 L 0.46875 -7.25 L 0.46875 0 L 2.171875 0 Z M 2.171875 -0.125 "
           id="path105" />
      </symbol>
      <symbol
         overflow="visible"
         id="glyph3-2">
        <path
           style="stroke:none;"
           d="M 6.46875 -0.125 L 6.46875 -7.25 L 4.765625 -7.25 L 4.765625 -2.359375 L 4.984375 -2.453125 L 2.203125 -7.25 L 0.515625 -7.25 L 0.515625 0 L 2.21875 0 L 2.21875 -4.953125 L 2 -4.875 L 4.828125 0 L 6.46875 0 Z M 6.46875 -0.125 "
           id="path108" />
      </symbol>
      <symbol
         overflow="visible"
         id="glyph3-3">
        <path
           style="stroke:none;"
           d="M 6.65625 -3.625 C 6.65625 -4.703125 6.328125 -5.75 5.765625 -6.40625 C 5.296875 -6.96875 4.546875 -7.25 3.46875 -7.25 L 0.609375 -7.25 L 0.609375 0 L 3.46875 0 C 4.53125 0 5.28125 -0.28125 5.765625 -0.859375 C 6.3125 -1.5 6.65625 -2.546875 6.65625 -3.625 Z M 4.953125 -3.609375 C 4.953125 -2.078125 4.5625 -1.453125 3.46875 -1.453125 L 2.296875 -1.453125 L 2.296875 -5.796875 L 3.46875 -5.796875 C 4.5625 -5.796875 4.953125 -5.15625 4.953125 -3.609375 Z M 4.953125 -3.609375 "
           id="path111" />
      </symbol>
      <symbol
         overflow="visible"
         id="glyph3-4">
        <path
           style="stroke:none;"
           d="M 6.578125 -2.640625 L 5.046875 -2.640625 C 4.953125 -1.625 4.515625 -1.359375 3.625 -1.359375 C 2.515625 -1.359375 1.984375 -2.078125 1.984375 -3.59375 C 1.984375 -5.140625 2.546875 -5.875 3.671875 -5.875 C 4.453125 -5.875 4.828125 -5.65625 5.0625 -4.625 L 6.671875 -4.625 C 6.546875 -6.359375 5.203125 -7.375 3.625 -7.375 C 1.65625 -7.375 0.28125 -5.875 0.28125 -3.609375 C 0.28125 -1.375 1.640625 0.109375 3.59375 0.109375 C 5.328125 0.109375 6.609375 -0.90625 6.703125 -2.640625 Z M 6.578125 -2.640625 "
           id="path114" />
      </symbol>
      <symbol
         overflow="visible"
         id="glyph3-5">
        <path
           style="stroke:none;"
           d="M 6.875 -0.125 L 4.40625 -7.25 L 2.640625 -7.25 L 0.0625 0 L 1.796875 0 L 2.28125 -1.40625 L 4.703125 -1.40625 L 5.171875 0 L 6.921875 0 Z M 4.40625 -2.875 L 2.765625 -2.875 L 3.625 -5.46875 L 3.375 -5.46875 L 4.234375 -2.875 Z M 4.40625 -2.875 "
           id="path117" />
      </symbol>
      <symbol
         overflow="visible"
         id="glyph3-6">
        <path
           style="stroke:none;"
           d="M 5.859375 -5.921875 L 5.859375 -7.25 L 0 -7.25 L 0 -5.796875 L 2.125 -5.796875 L 2.125 0 L 3.8125 0 L 3.8125 -5.796875 L 5.859375 -5.796875 Z M 5.859375 -5.921875 "
           id="path120" />
      </symbol>
      <symbol
         overflow="visible"
         id="glyph3-7">
        <path
           style="stroke:none;"
           d="M 6.109375 -0.125 L 6.109375 -1.453125 L 2.328125 -1.453125 L 2.328125 -3.015625 L 5.671875 -3.015625 L 5.671875 -4.46875 L 2.328125 -4.46875 L 2.328125 -5.796875 L 5.9375 -5.796875 L 5.9375 -7.25 L 0.625 -7.25 L 0.625 0 L 6.109375 0 Z M 6.109375 -0.125 "
           id="path123" />
      </symbol>
      <symbol
         overflow="visible"
         id="glyph3-8">
        <path
           style="stroke:none;"
           d="M 6.40625 -2.484375 L 6.40625 -7.25 L 4.703125 -7.25 L 4.703125 -2.484375 C 4.703125 -1.640625 4.40625 -1.375 3.5 -1.375 C 2.59375 -1.375 2.296875 -1.640625 2.296875 -2.484375 L 2.296875 -7.25 L 0.59375 -7.25 L 0.59375 -2.484375 C 0.59375 -0.828125 1.90625 0.109375 3.5 0.109375 C 5.109375 0.109375 6.40625 -0.828125 6.40625 -2.484375 Z M 6.40625 -2.484375 "
           id="path126" />
      </symbol>
      <symbol
         overflow="visible"
         id="glyph3-9">
        <path
           style="stroke:none;"
           d="M 6.625 -0.125 L 6.625 -0.453125 C 6.359375 -0.609375 6.3125 -0.65625 6.3125 -0.953125 C 6.28125 -3.015625 6.109375 -3.25 5.21875 -3.640625 L 5.21875 -3.375 C 6 -3.6875 6.53125 -4.375 6.53125 -5.234375 C 6.53125 -6.3125 5.75 -7.25 4.515625 -7.25 L 0.640625 -7.25 L 0.640625 0 L 2.328125 0 L 2.328125 -2.765625 L 3.859375 -2.765625 C 4.484375 -2.765625 4.609375 -2.640625 4.609375 -2.0625 L 4.59375 -1.328125 C 4.59375 -0.671875 4.671875 -0.375 4.875 0 L 6.625 0 Z M 4.828125 -5.03125 C 4.828125 -4.40625 4.765625 -4.234375 3.9375 -4.234375 L 2.328125 -4.234375 L 2.328125 -5.796875 L 3.9375 -5.796875 C 4.734375 -5.796875 4.828125 -5.625 4.828125 -5.03125 Z M 4.828125 -5.03125 "
           id="path129" />
      </symbol>
    </g>
    <clipPath
       id="clip1">
      <path
         d="M 58.488281 14.398438 L 498 14.398438 L 498 335 L 58.488281 335 Z M 58.488281 14.398438 "
         id="path132" />
    </clipPath>
    <clipPath
       id="clip2">
      <path
         d="M 58.488281 319 L 498 319 L 498 321 L 58.488281 321 Z M 58.488281 319 "
         id="path135" />
    </clipPath>
    <clipPath
       id="clip3">
      <path
         d="M 58.488281 283 L 498 283 L 498 285 L 58.488281 285 Z M 58.488281 283 "
         id="path138" />
    </clipPath>
    <clipPath
       id="clip4">
      <path
         d="M 58.488281 248 L 498 248 L 498 250 L 58.488281 250 Z M 58.488281 248 "
         id="path141" />
    </clipPath>
    <clipPath
       id="clip5">
      <path
         d="M 58.488281 212 L 498 212 L 498 214 L 58.488281 214 Z M 58.488281 212 "
         id="path144" />
    </clipPath>
    <clipPath
       id="clip6">
      <path
         d="M 58.488281 176 L 498 176 L 498 178 L 58.488281 178 Z M 58.488281 176 "
         id="path147" />
    </clipPath>
    <clipPath
       id="clip7">
      <path
         d="M 58.488281 141 L 498 141 L 498 143 L 58.488281 143 Z M 58.488281 141 "
         id="path150" />
    </clipPath>
    <clipPath
       id="clip8">
      <path
         d="M 58.488281 105 L 498 105 L 498 107 L 58.488281 107 Z M 58.488281 105 "
         id="path153" />
    </clipPath>
    <clipPath
       id="clip9">
      <path
         d="M 58.488281 70 L 498 70 L 498 72 L 58.488281 72 Z M 58.488281 70 "
         id="path156" />
    </clipPath>
    <clipPath
       id="clip10">
      <path
         d="M 58.488281 34 L 498 34 L 498 36 L 58.488281 36 Z M 58.488281 34 "
         id="path159" />
    </clipPath>
    <clipPath
       id="clip11">
      <path
         d="M 102 14.398438 L 104 14.398438 L 104 335.511719 L 102 335.511719 Z M 102 14.398438 "
         id="path162" />
    </clipPath>
    <clipPath
       id="clip12">
      <path
         d="M 152 14.398438 L 154 14.398438 L 154 335.511719 L 152 335.511719 Z M 152 14.398438 "
         id="path165" />
    </clipPath>
    <clipPath
       id="clip13">
      <path
         d="M 202 14.398438 L 204 14.398438 L 204 335.511719 L 202 335.511719 Z M 202 14.398438 "
         id="path168" />
    </clipPath>
    <clipPath
       id="clip14">
      <path
         d="M 252 14.398438 L 254 14.398438 L 254 335.511719 L 252 335.511719 Z M 252 14.398438 "
         id="path171" />
    </clipPath>
    <clipPath
       id="clip15">
      <path
         d="M 302 14.398438 L 304 14.398438 L 304 335.511719 L 302 335.511719 Z M 302 14.398438 "
         id="path174" />
    </clipPath>
    <clipPath
       id="clip16">
      <path
         d="M 351 14.398438 L 354 14.398438 L 354 335.511719 L 351 335.511719 Z M 351 14.398438 "
         id="path177" />
    </clipPath>
    <clipPath
       id="clip17">
      <path
         d="M 401 14.398438 L 403 14.398438 L 403 335.511719 L 401 335.511719 Z M 401 14.398438 "
         id="path180" />
    </clipPath>
    <clipPath
       id="clip18">
      <path
         d="M 451 14.398438 L 453 14.398438 L 453 335.511719 L 451 335.511719 Z M 451 14.398438 "
         id="path183" />
    </clipPath>
    <clipPath
       id="clip19">
      <path
         d="M 58.488281 301 L 498 301 L 498 303 L 58.488281 303 Z M 58.488281 301 "
         id="path186" />
    </clipPath>
    <clipPath
       id="clip20">
      <path
         d="M 58.488281 266 L 498 266 L 498 267 L 58.488281 267 Z M 58.488281 266 "
         id="path189" />
    </clipPath>
    <clipPath
       id="clip21">
      <path
         d="M 58.488281 230 L 498 230 L 498 231 L 58.488281 231 Z M 58.488281 230 "
         id="path192" />
    </clipPath>
    <clipPath
       id="clip22">
      <path
         d="M 58.488281 195 L 498 195 L 498 196 L 58.488281 196 Z M 58.488281 195 "
         id="path195" />
    </clipPath>
    <clipPath
       id="clip23">
      <path
         d="M 58.488281 159 L 498 159 L 498 160 L 58.488281 160 Z M 58.488281 159 "
         id="path198" />
    </clipPath>
    <clipPath
       id="clip24">
      <path
         d="M 58.488281 123 L 498 123 L 498 125 L 58.488281 125 Z M 58.488281 123 "
         id="path201" />
    </clipPath>
    <clipPath
       id="clip25">
      <path
         d="M 58.488281 88 L 498 88 L 498 89 L 58.488281 89 Z M 58.488281 88 "
         id="path204" />
    </clipPath>
    <clipPath
       id="clip26">
      <path
         d="M 58.488281 52 L 498 52 L 498 54 L 58.488281 54 Z M 58.488281 52 "
         id="path207" />
    </clipPath>
    <clipPath
       id="clip27">
      <path
         d="M 58.488281 17 L 498 17 L 498 18 L 58.488281 18 Z M 58.488281 17 "
         id="path210" />
    </clipPath>
    <clipPath
       id="clip28">
      <path
         d="M 78 14.398438 L 79 14.398438 L 79 335 L 78 335 Z M 78 14.398438 "
         id="path213" />
    </clipPath>
    <clipPath
       id="clip29">
      <path
         d="M 128 14.398438 L 129 14.398438 L 129 335 L 128 335 Z M 128 14.398438 "
         id="path216" />
    </clipPath>
    <clipPath
       id="clip30">
      <path
         d="M 177 14.398438 L 179 14.398438 L 179 335 L 177 335 Z M 177 14.398438 "
         id="path219" />
    </clipPath>
    <clipPath
       id="clip31">
      <path
         d="M 227 14.398438 L 229 14.398438 L 229 335 L 227 335 Z M 227 14.398438 "
         id="path222" />
    </clipPath>
    <clipPath
       id="clip32">
      <path
         d="M 277 14.398438 L 278 14.398438 L 278 335 L 277 335 Z M 277 14.398438 "
         id="path225" />
    </clipPath>
    <clipPath
       id="clip33">
      <path
         d="M 327 14.398438 L 328 14.398438 L 328 335 L 327 335 Z M 327 14.398438 "
         id="path228" />
    </clipPath>
    <clipPath
       id="clip34">
      <path
         d="M 377 14.398438 L 378 14.398438 L 378 335 L 377 335 Z M 377 14.398438 "
         id="path231" />
    </clipPath>
    <clipPath
       id="clip35">
      <path
         d="M 427 14.398438 L 428 14.398438 L 428 335 L 427 335 Z M 427 14.398438 "
         id="path234" />
    </clipPath>
    <clipPath
       id="clip36">
      <path
         d="M 476 14.398438 L 478 14.398438 L 478 335 L 476 335 Z M 476 14.398438 "
         id="path237" />
    </clipPath>
    <clipPath
       id="clip37">
      <path
         d="M 58.488281 14.398438 L 498 14.398438 L 498 335.511719 L 58.488281 335.511719 Z M 58.488281 14.398438 "
         id="path240" />
    </clipPath>
  </defs>
  <g
     id="g249"
     clip-path="url(#clip1)"
     transform="translate(13.5)"
     style="clip-rule:nonzero">
    <path
       inkscape:connector-curvature="0"
       id="path251"
       d="M 58.488281,334.51172 H 497.02734 V 14.398438 H 58.488281 Z m 0,0"
       style="fill:#ffffff;fill-opacity:1;fill-rule:nonzero;stroke:none" />
  </g>
  <g
     id="g253"
     clip-path="url(#clip2)"
     transform="translate(13.5)"
     style="clip-rule:nonzero">
    <path
       inkscape:connector-curvature="0"
       id="path255"
       d="M 58.488281,319.67969 H 497.02734"
       style="fill:none;stroke:#fafafa;stroke-width:1.06299198;stroke-linecap:butt;stroke-linejoin:round;stroke-miterlimit:10;stroke-opacity:1" />
  </g>
  <g
     id="g257"
     clip-path="url(#clip3)"
     transform="translate(13.5)"
     style="clip-rule:nonzero">
    <path
       inkscape:connector-curvature="0"
       id="path259"
       d="M 58.488281,284.12109 H 497.02734"
       style="fill:none;stroke:#fafafa;stroke-width:1.06299198;stroke-linecap:butt;stroke-linejoin:round;stroke-miterlimit:10;stroke-opacity:1" />
  </g>
  <g
     id="g261"
     clip-path="url(#clip4)"
     transform="translate(13.5)"
     style="clip-rule:nonzero">
    <path
       inkscape:connector-curvature="0"
       id="path263"
       d="M 58.488281,248.5625 H 497.02734"
       style="fill:none;stroke:#fafafa;stroke-width:1.06299198;stroke-linecap:butt;stroke-linejoin:round;stroke-miterlimit:10;stroke-opacity:1" />
  </g>
  <g
     id="g265"
     clip-path="url(#clip5)"
     transform="translate(13.5)"
     style="clip-rule:nonzero">
    <path
       inkscape:connector-curvature="0"
       id="path267"
       d="M 58.488281,213.00391 H 497.02734"
       style="fill:none;stroke:#fafafa;stroke-width:1.06299198;stroke-linecap:butt;stroke-linejoin:round;stroke-miterlimit:10;stroke-opacity:1" />
  </g>
  <g
     id="g269"
     clip-path="url(#clip6)"
     transform="translate(13.5)"
     style="clip-rule:nonzero">
    <path
       inkscape:connector-curvature="0"
       id="path271"
       d="M 58.488281,177.44531 H 497.02734"
       style="fill:none;stroke:#fafafa;stroke-width:1.06299198;stroke-linecap:butt;stroke-linejoin:round;stroke-miterlimit:10;stroke-opacity:1" />
  </g>
  <g
     id="g273"
     clip-path="url(#clip7)"
     transform="translate(13.5)"
     style="clip-rule:nonzero">
    <path
       inkscape:connector-curvature="0"
       id="path275"
       d="M 58.488281,141.88672 H 497.02734"
       style="fill:none;stroke:#fafafa;stroke-width:1.06299198;stroke-linecap:butt;stroke-linejoin:round;stroke-miterlimit:10;stroke-opacity:1" />
  </g>
  <g
     id="g277"
     clip-path="url(#clip8)"
     transform="translate(13.5)"
     style="clip-rule:nonzero">
    <path
       inkscape:connector-curvature="0"
       id="path279"
       d="M 58.488281,106.32813 H 497.02734"
       style="fill:none;stroke:#fafafa;stroke-width:1.06299198;stroke-linecap:butt;stroke-linejoin:round;stroke-miterlimit:10;stroke-opacity:1" />
  </g>
  <g
     id="g281"
     clip-path="url(#clip9)"
     transform="translate(13.5)"
     style="clip-rule:nonzero">
    <path
       inkscape:connector-curvature="0"
       id="path283"
       d="M 58.488281,70.769531 H 497.02734"
       style="fill:none;stroke:#fafafa;stroke-width:1.06299198;stroke-linecap:butt;stroke-linejoin:round;stroke-miterlimit:10;stroke-opacity:1" />
  </g>
  <g
     id="g285"
     clip-path="url(#clip10)"
     transform="translate(13.5)"
     style="clip-rule:nonzero">
    <path
       inkscape:connector-curvature="0"
       id="path287"
       d="M 58.488281,35.207031 H 497.02734"
       style="fill:none;stroke:#fafafa;stroke-width:1.06299198;stroke-linecap:butt;stroke-linejoin:round;stroke-miterlimit:10;stroke-opacity:1" />
  </g>
  <g
     id="g289"
     clip-path="url(#clip11)"
     transform="translate(13.5)"
     style="clip-rule:nonzero">
    <path
       inkscape:connector-curvature="0"
       id="path291"
       d="M 103.33594,334.51172 V 14.398438"
       style="fill:none;stroke:#fafafa;stroke-width:1.06299198;stroke-linecap:butt;stroke-linejoin:round;stroke-miterlimit:10;stroke-opacity:1" />
  </g>
  <g
     id="g293"
     clip-path="url(#clip12)"
     transform="translate(13.5)"
     style="clip-rule:nonzero">
    <path
       inkscape:connector-curvature="0"
       id="path295"
       d="M 153.17187,334.51172 V 14.398438"
       style="fill:none;stroke:#fafafa;stroke-width:1.06299198;stroke-linecap:butt;stroke-linejoin:round;stroke-miterlimit:10;stroke-opacity:1" />
  </g>
  <g
     id="g297"
     clip-path="url(#clip13)"
     transform="translate(13.5)"
     style="clip-rule:nonzero">
    <path
       inkscape:connector-curvature="0"
       id="path299"
       d="M 203.00391,334.51172 V 14.398438"
       style="fill:none;stroke:#fafafa;stroke-width:1.06299198;stroke-linecap:butt;stroke-linejoin:round;stroke-miterlimit:10;stroke-opacity:1" />
  </g>
  <g
     id="g301"
     clip-path="url(#clip14)"
     transform="translate(13.5)"
     style="clip-rule:nonzero">
    <path
       inkscape:connector-curvature="0"
       id="path303"
       d="M 252.83984,334.51172 V 14.398438"
       style="fill:none;stroke:#fafafa;stroke-width:1.06299198;stroke-linecap:butt;stroke-linejoin:round;stroke-miterlimit:10;stroke-opacity:1" />
  </g>
  <g
     id="g305"
     clip-path="url(#clip15)"
     transform="translate(13.5)"
     style="clip-rule:nonzero">
    <path
       inkscape:connector-curvature="0"
       id="path307"
       d="M 302.67187,334.51172 V 14.398438"
       style="fill:none;stroke:#fafafa;stroke-width:1.06299198;stroke-linecap:butt;stroke-linejoin:round;stroke-miterlimit:10;stroke-opacity:1" />
  </g>
  <g
     id="g309"
     clip-path="url(#clip16)"
     transform="translate(13.5)"
     style="clip-rule:nonzero">
    <path
       inkscape:connector-curvature="0"
       id="path311"
       d="M 352.50781,334.51172 V 14.398438"
       style="fill:none;stroke:#fafafa;stroke-width:1.06299198;stroke-linecap:butt;stroke-linejoin:round;stroke-miterlimit:10;stroke-opacity:1" />
  </g>
  <g
     id="g313"
     clip-path="url(#clip17)"
     transform="translate(13.5)"
     style="clip-rule:nonzero">
    <path
       inkscape:connector-curvature="0"
       id="path315"
       d="M 402.34375,334.51172 V 14.398438"
       style="fill:none;stroke:#fafafa;stroke-width:1.06299198;stroke-linecap:butt;stroke-linejoin:round;stroke-miterlimit:10;stroke-opacity:1" />
  </g>
  <g
     id="g317"
     clip-path="url(#clip18)"
     transform="translate(13.5)"
     style="clip-rule:nonzero">
    <path
       inkscape:connector-curvature="0"
       id="path319"
       d="M 452.17578,334.51172 V 14.398438"
       style="fill:none;stroke:#fafafa;stroke-width:1.06299198;stroke-linecap:butt;stroke-linejoin:round;stroke-miterlimit:10;stroke-opacity:1" />
  </g>
  <g
     id="g321"
     clip-path="url(#clip19)"
     transform="translate(13.5)"
     style="clip-rule:nonzero">
    <path
       inkscape:connector-curvature="0"
       id="path323"
       d="M 58.488281,301.89844 H 497.02734"
       style="fill:none;stroke:#e3e3e3;stroke-width:0.42519701;stroke-linecap:butt;stroke-linejoin:round;stroke-miterlimit:10;stroke-opacity:1" />
  </g>
  <g
     id="g325"
     clip-path="url(#clip20)"
     transform="translate(13.5)"
     style="clip-rule:nonzero">
    <path
       inkscape:connector-curvature="0"
       id="path327"
       d="M 58.488281,266.33984 H 497.02734"
       style="fill:none;stroke:#e3e3e3;stroke-width:0.42519701;stroke-linecap:butt;stroke-linejoin:round;stroke-miterlimit:10;stroke-opacity:1" />
  </g>
  <g
     id="g329"
     clip-path="url(#clip21)"
     transform="translate(13.5)"
     style="clip-rule:nonzero">
    <path
       inkscape:connector-curvature="0"
       id="path331"
       d="M 58.488281,230.78125 H 497.02734"
       style="fill:none;stroke:#e3e3e3;stroke-width:0.42519701;stroke-linecap:butt;stroke-linejoin:round;stroke-miterlimit:10;stroke-opacity:1" />
  </g>
  <g
     id="g333"
     clip-path="url(#clip22)"
     transform="translate(13.5)"
     style="clip-rule:nonzero">
    <path
       inkscape:connector-curvature="0"
       id="path335"
       d="M 58.488281,195.22266 H 497.02734"
       style="fill:none;stroke:#e3e3e3;stroke-width:0.42519701;stroke-linecap:butt;stroke-linejoin:round;stroke-miterlimit:10;stroke-opacity:1" />
  </g>
  <g
     id="g337"
     clip-path="url(#clip23)"
     transform="translate(13.5)"
     style="clip-rule:nonzero">
    <path
       inkscape:connector-curvature="0"
       id="path339"
       d="M 58.488281,159.66406 H 497.02734"
       style="fill:none;stroke:#e3e3e3;stroke-width:0.42519701;stroke-linecap:butt;stroke-linejoin:round;stroke-miterlimit:10;stroke-opacity:1" />
  </g>
  <g
     id="g341"
     clip-path="url(#clip24)"
     transform="translate(13.5)"
     style="clip-rule:nonzero">
    <path
       inkscape:connector-curvature="0"
       id="path343"
       d="M 58.488281,124.10547 H 497.02734"
       style="fill:none;stroke:#e3e3e3;stroke-width:0.42519701;stroke-linecap:butt;stroke-linejoin:round;stroke-miterlimit:10;stroke-opacity:1" />
  </g>
  <g
     id="g345"
     clip-path="url(#clip25)"
     transform="translate(13.5)"
     style="clip-rule:nonzero">
    <path
       inkscape:connector-curvature="0"
       id="path347"
       d="M 58.488281,88.546875 H 497.02734"
       style="fill:none;stroke:#e3e3e3;stroke-width:0.42519701;stroke-linecap:butt;stroke-linejoin:round;stroke-miterlimit:10;stroke-opacity:1" />
  </g>
  <g
     id="g349"
     clip-path="url(#clip26)"
     transform="translate(13.5)"
     style="clip-rule:nonzero">
    <path
       inkscape:connector-curvature="0"
       id="path351"
       d="M 58.488281,52.988281 H 497.02734"
       style="fill:none;stroke:#e3e3e3;stroke-width:0.42519701;stroke-linecap:butt;stroke-linejoin:round;stroke-miterlimit:10;stroke-opacity:1" />
  </g>
  <g
     id="g353"
     clip-path="url(#clip27)"
     transform="translate(13.5)"
     style="clip-rule:nonzero">
    <path
       inkscape:connector-curvature="0"
       id="path355"
       d="M 58.488281,17.429688 H 497.02734"
       style="fill:none;stroke:#e3e3e3;stroke-width:0.42519701;stroke-linecap:butt;stroke-linejoin:round;stroke-miterlimit:10;stroke-opacity:1" />
  </g>
  <g
     id="g357"
     clip-path="url(#clip28)"
     transform="translate(13.5)"
     style="clip-rule:nonzero">
    <path
       inkscape:connector-curvature="0"
       id="path359"
       d="M 78.421875,334.51172 V 14.398438"
       style="fill:none;stroke:#e3e3e3;stroke-width:0.42519701;stroke-linecap:butt;stroke-linejoin:round;stroke-miterlimit:10;stroke-opacity:1" />
  </g>
  <g
     id="g361"
     clip-path="url(#clip29)"
     transform="translate(13.5)"
     style="clip-rule:nonzero">
    <path
       inkscape:connector-curvature="0"
       id="path363"
       d="M 128.25391,334.51172 V 14.398438"
       style="fill:none;stroke:#e3e3e3;stroke-width:0.42519701;stroke-linecap:butt;stroke-linejoin:round;stroke-miterlimit:10;stroke-opacity:1" />
  </g>
  <g
     id="g365"
     clip-path="url(#clip30)"
     transform="translate(13.5)"
     style="clip-rule:nonzero">
    <path
       inkscape:connector-curvature="0"
       id="path367"
       d="M 178.08984,334.51172 V 14.398438"
       style="fill:none;stroke:#e3e3e3;stroke-width:0.42519701;stroke-linecap:butt;stroke-linejoin:round;stroke-miterlimit:10;stroke-opacity:1" />
  </g>
  <g
     id="g369"
     clip-path="url(#clip31)"
     transform="translate(13.5)"
     style="clip-rule:nonzero">
    <path
       inkscape:connector-curvature="0"
       id="path371"
       d="M 227.92187,334.51172 V 14.398438"
       style="fill:none;stroke:#e3e3e3;stroke-width:0.42519701;stroke-linecap:butt;stroke-linejoin:round;stroke-miterlimit:10;stroke-opacity:1" />
  </g>
  <g
     id="g373"
     clip-path="url(#clip32)"
     transform="translate(13.5)"
     style="clip-rule:nonzero">
    <path
       inkscape:connector-curvature="0"
       id="path375"
       d="M 277.75781,334.51172 V 14.398438"
       style="fill:none;stroke:#e3e3e3;stroke-width:0.42519701;stroke-linecap:butt;stroke-linejoin:round;stroke-miterlimit:10;stroke-opacity:1" />
  </g>
  <g
     id="g377"
     clip-path="url(#clip33)"
     transform="translate(13.5)"
     style="clip-rule:nonzero">
    <path
       inkscape:connector-curvature="0"
       id="path379"
       d="M 327.58984,334.51172 V 14.398438"
       style="fill:none;stroke:#e3e3e3;stroke-width:0.42519701;stroke-linecap:butt;stroke-linejoin:round;stroke-miterlimit:10;stroke-opacity:1" />
  </g>
  <g
     id="g381"
     clip-path="url(#clip34)"
     transform="translate(13.5)"
     style="clip-rule:nonzero">
    <path
       inkscape:connector-curvature="0"
       id="path383"
       d="M 377.42578,334.51172 V 14.398438"
       style="fill:none;stroke:#e3e3e3;stroke-width:0.42519701;stroke-linecap:butt;stroke-linejoin:round;stroke-miterlimit:10;stroke-opacity:1" />
  </g>
  <g
     id="g385"
     clip-path="url(#clip35)"
     transform="translate(13.5)"
     style="clip-rule:nonzero">
    <path
       inkscape:connector-curvature="0"
       id="path387"
       d="M 427.25781,334.51172 V 14.398438"
       style="fill:none;stroke:#e3e3e3;stroke-width:0.42519701;stroke-linecap:butt;stroke-linejoin:round;stroke-miterlimit:10;stroke-opacity:1" />
  </g>
  <g
     id="g389"
     clip-path="url(#clip36)"
     transform="translate(13.5)"
     style="clip-rule:nonzero">
    <path
       inkscape:connector-curvature="0"
       id="path391"
       d="M 477.09375,334.51172 V 14.398438"
       style="fill:none;stroke:#e3e3e3;stroke-width:0.42519701;stroke-linecap:butt;stroke-linejoin:round;stroke-miterlimit:10;stroke-opacity:1" />
  </g>
  <path
     inkscape:connector-curvature="0"
     id="path393"
     d="m 91.921875,319.96094 24.914065,-0.4961 24.91797,-2.48828 24.91796,-1.42187 24.91797,-1.14063 24.91407,-1.77734 24.91796,-2.5586 24.91797,1.35157 24.91797,0.0703 24.91406,0.0703 24.91797,-1.35156 24.91797,-0.85156 24.91797,-0.92578 24.91797,0.5 24.91406,1.34765 24.91797,0.57031 24.91797,1.21094"
     style="fill:none;stroke:#0f4c8a;stroke-width:1.06299198;stroke-linecap:butt;stroke-linejoin:round;stroke-miterlimit:1;stroke-opacity:1" />
  <path
     inkscape:connector-curvature="0"
     id="path395"
     d="m 91.921875,308.65625 24.914065,-0.35547 24.91797,-2.63281 24.91796,-1.63672 24.91797,-1.06641 24.91407,-2.34765 24.91796,-2.5586 24.91797,0.35547 24.91797,-0.14062 24.91406,-0.21485 24.91797,-0.99609 24.91797,-1.49219 24.91797,-1.70703 24.91797,0.92578 24.91406,1.20703 24.91797,0.64063 24.91797,0.92578"
     style="fill:none;stroke:#1985ee;stroke-width:1.06299198;stroke-linecap:butt;stroke-linejoin:round;stroke-miterlimit:1;stroke-opacity:1" />
  <path
     inkscape:connector-curvature="0"
     id="path397"
     d="m 91.921875,218.40625 24.914065,-0.42578 24.91797,-2.5586 24.91796,-2.5625 24.91797,-2.6289 24.91407,-3.76953 24.91796,-4.05469 24.91797,1.42187 24.91797,0.35547 24.91406,-1.63672 24.91797,-3.26953 24.91797,-3.98437 24.91797,-1.27735 24.91797,-2.20703 24.91406,1.4961 24.91797,-0.92578 24.91797,1.84765"
     style="fill:none;stroke:#333333;stroke-width:1.06299198;stroke-linecap:butt;stroke-linejoin:round;stroke-miterlimit:1;stroke-opacity:1" />
  <path
     inkscape:connector-curvature="0"
     id="path399"
     d="m 91.921875,146.86328 24.914065,0.0703 24.91797,-4.26562 24.91796,-7.39844 24.91797,-7.25391 24.91407,-3.1289 24.91796,-6.11328 24.91797,4.19531 24.91797,3.12891 24.91406,-4.125 24.91797,-7.82422 24.91797,-3.41406 24.91797,-5.19141 24.91797,-1.91797 24.91406,3.55469 24.91797,-5.83203 24.91797,5.47656"
     style="fill:none;stroke:#ee2b2b;stroke-width:1.06299198;stroke-linecap:butt;stroke-linejoin:round;stroke-miterlimit:1;stroke-opacity:1" />
  <path
     inkscape:connector-curvature="0"
     id="path401"
     d="m 91.921875,97.222656 24.914065,-1.207031 24.91797,-5.050781 24.91796,-12.660156 24.91797,-9.03125 24.91407,-5.191407 24.91796,-8.675781 24.91797,5.121094 24.91797,1.636718 24.91406,-8.820312 24.91797,-7.113281 24.91797,-4.90625 24.91797,-4.691407 24.91797,-0.855468 24.91406,-0.210938 24.91797,-6.617187 24.91797,10.738281"
     style="fill:none;stroke:#8a1919;stroke-width:1.06299198;stroke-linecap:butt;stroke-linejoin:round;stroke-miterlimit:1;stroke-opacity:1" />
  <g
     id="g403"
     clip-path="url(#clip37)"
     transform="matrix(1.0075552,0,0,1,13.058112,0)"
     style="clip-rule:nonzero">
    <path
       inkscape:connector-curvature="0"
       id="path405"
       d="M 58.488281,334.51172 H 497.02734 V 14.398438 H 58.488281 Z m 0,0"
       style="fill:none;stroke:#7d7d7d;stroke-width:1.05899906;stroke-linecap:round;stroke-linejoin:round;stroke-miterlimit:10;stroke-opacity:1" />
  </g>
  <path
     inkscape:connector-curvature="0"
     id="path515"
     d="m 67.734375,301.89844 h 4.253906"
     style="fill:none;stroke:#000000;stroke-width:1.06299198;stroke-linecap:butt;stroke-linejoin:round;stroke-miterlimit:10;stroke-opacity:1" />
  <path
     inkscape:connector-curvature="0"
     id="path517"
     d="m 67.734375,266.33984 h 4.253906"
     style="fill:none;stroke:#000000;stroke-width:1.06299198;stroke-linecap:butt;stroke-linejoin:round;stroke-miterlimit:10;stroke-opacity:1" />
  <path
     inkscape:connector-curvature="0"
     id="path519"
     d="m 67.734375,230.78125 h 4.253906"
     style="fill:none;stroke:#000000;stroke-width:1.06299198;stroke-linecap:butt;stroke-linejoin:round;stroke-miterlimit:10;stroke-opacity:1" />
  <path
     inkscape:connector-curvature="0"
     id="path521"
     d="m 67.734375,195.22266 h 4.253906"
     style="fill:none;stroke:#000000;stroke-width:1.06299198;stroke-linecap:butt;stroke-linejoin:round;stroke-miterlimit:10;stroke-opacity:1" />
  <path
     inkscape:connector-curvature="0"
     id="path523"
     d="m 67.734375,159.66406 h 4.253906"
     style="fill:none;stroke:#000000;stroke-width:1.06299198;stroke-linecap:butt;stroke-linejoin:round;stroke-miterlimit:10;stroke-opacity:1" />
  <path
     inkscape:connector-curvature="0"
     id="path525"
     d="m 67.734375,124.10547 h 4.253906"
     style="fill:none;stroke:#000000;stroke-width:1.06299198;stroke-linecap:butt;stroke-linejoin:round;stroke-miterlimit:10;stroke-opacity:1" />
  <path
     inkscape:connector-curvature="0"
     id="path527"
     d="m 67.734375,88.546875 h 4.253906"
     style="fill:none;stroke:#000000;stroke-width:1.06299198;stroke-linecap:butt;stroke-linejoin:round;stroke-miterlimit:10;stroke-opacity:1" />
  <path
     inkscape:connector-curvature="0"
     id="path529"
     d="m 67.734375,52.988281 h 4.253906"
     style="fill:none;stroke:#000000;stroke-width:1.06299198;stroke-linecap:butt;stroke-linejoin:round;stroke-miterlimit:10;stroke-opacity:1" />
  <path
     inkscape:connector-curvature="0"
     id="path531"
     d="m 67.734375,17.429688 h 4.253906"
     style="fill:none;stroke:#000000;stroke-width:1.06299198;stroke-linecap:butt;stroke-linejoin:round;stroke-miterlimit:10;stroke-opacity:1" />
  <path
     inkscape:connector-curvature="0"
     id="path533"
     d="m 91.921875,338.76562 v -4.2539"
     style="fill:none;stroke:#000000;stroke-width:1.06299198;stroke-linecap:butt;stroke-linejoin:round;stroke-miterlimit:10;stroke-opacity:1" />
  <path
     inkscape:connector-curvature="0"
     id="path535"
     d="m 141.75391,338.76562 v -4.2539"
     style="fill:none;stroke:#000000;stroke-width:1.06299198;stroke-linecap:butt;stroke-linejoin:round;stroke-miterlimit:10;stroke-opacity:1" />
  <path
     inkscape:connector-curvature="0"
     id="path537"
     d="m 191.58984,338.76562 v -4.2539"
     style="fill:none;stroke:#000000;stroke-width:1.06299198;stroke-linecap:butt;stroke-linejoin:round;stroke-miterlimit:10;stroke-opacity:1" />
  <path
     inkscape:connector-curvature="0"
     id="path539"
     d="m 241.42187,338.76562 v -4.2539"
     style="fill:none;stroke:#000000;stroke-width:1.06299198;stroke-linecap:butt;stroke-linejoin:round;stroke-miterlimit:10;stroke-opacity:1" />
  <path
     inkscape:connector-curvature="0"
     id="path541"
     d="m 291.25781,338.76562 v -4.2539"
     style="fill:none;stroke:#000000;stroke-width:1.06299198;stroke-linecap:butt;stroke-linejoin:round;stroke-miterlimit:10;stroke-opacity:1" />
  <path
     inkscape:connector-curvature="0"
     id="path543"
     d="m 341.08984,338.76562 v -4.2539"
     style="fill:none;stroke:#000000;stroke-width:1.06299198;stroke-linecap:butt;stroke-linejoin:round;stroke-miterlimit:10;stroke-opacity:1" />
  <path
     inkscape:connector-curvature="0"
     id="path545"
     d="m 390.92578,338.76562 v -4.2539"
     style="fill:none;stroke:#000000;stroke-width:1.06299198;stroke-linecap:butt;stroke-linejoin:round;stroke-miterlimit:10;stroke-opacity:1" />
  <path
     inkscape:connector-curvature="0"
     id="path547"
     d="m 440.75781,338.76562 v -4.2539"
     style="fill:none;stroke:#000000;stroke-width:1.06299198;stroke-linecap:butt;stroke-linejoin:round;stroke-miterlimit:10;stroke-opacity:1" />
  <path
     inkscape:connector-curvature="0"
     id="path549"
     d="m 490.59375,338.76562 v -4.2539"
     style="fill:none;stroke:#000000;stroke-width:1.06299198;stroke-linecap:butt;stroke-linejoin:round;stroke-miterlimit:10;stroke-opacity:1" />
  <flowRoot
     xml:space="preserve"
     id="flowRoot4017"
     style="font-style:normal;font-variant:normal;font-weight:normal;font-stretch:normal;line-height:0.01%;font-family:Ubuntu;-inkscape-font-specification:Ubuntu;letter-spacing:0px;word-spacing:0px;fill:#333333;fill-opacity:1;stroke:none"
     transform="matrix(0.8,0,0,0.8,77.192526,-44.902399)"><flowRegion
       id="flowRegion4019"
       style="fill:#333333"><rect
         id="rect4021"
         width="321.68884"
         height="76.233551"
         x="241.26662"
         y="504.36017"
         style="fill:#333333" /></flowRegion><flowPara
       id="flowPara4023"
       style="font-weight:500;font-size:18px;line-height:1.25;-inkscape-font-specification:'Ubuntu Medium';fill:#333333">Année</flowPara></flowRoot>  <flowRoot
     transform="matrix(0.8,0,0,0.8,-113.82255,-62.972069)"
     xml:space="preserve"
     id="flowRoot4017-3"
     style="font-style:normal;font-variant:normal;font-weight:normal;font-stretch:normal;line-height:0.01%;font-family:Ubuntu;-inkscape-font-specification:Ubuntu;letter-spacing:0px;word-spacing:0px;fill:#333333;fill-opacity:1;stroke:none"><flowRegion
       id="flowRegion4019-3"
       style="fill:#333333"><rect
         id="rect4021-2"
         width="321.68884"
         height="76.233551"
         x="241.26662"
         y="504.36017"
         style="fill:#333333" /></flowRegion><flowPara
       id="flowPara4023-2"
       style="font-size:14px;line-height:1.25;fill:#333333">1996</flowPara></flowRoot>  <flowRoot
     transform="matrix(0.8,0,0,0.8,-65.384503,-62.972069)"
     xml:space="preserve"
     id="flowRoot4017-3-2"
     style="font-style:normal;font-variant:normal;font-weight:normal;font-stretch:normal;line-height:0.01%;font-family:Ubuntu;-inkscape-font-specification:Ubuntu;letter-spacing:0px;word-spacing:0px;fill:#333333;fill-opacity:1;stroke:none"><flowRegion
       id="flowRegion4019-3-0"
       style="fill:#333333"><rect
         id="rect4021-2-6"
         width="321.68884"
         height="76.233551"
         x="241.26662"
         y="504.36017"
         style="fill:#333333" /></flowRegion><flowPara
       id="flowPara4023-2-4"
       style="font-size:14px;line-height:1.25;fill:#333333">1998</flowPara></flowRoot>  <flowRoot
     transform="matrix(0.8,0,0,0.8,-14.132185,-62.972069)"
     xml:space="preserve"
     id="flowRoot4017-3-5"
     style="font-style:normal;font-variant:normal;font-weight:normal;font-stretch:normal;line-height:0.01%;font-family:Ubuntu;-inkscape-font-specification:Ubuntu;letter-spacing:0px;word-spacing:0px;fill:#333333;fill-opacity:1;stroke:none"><flowRegion
       id="flowRegion4019-3-2"
       style="fill:#333333"><rect
         id="rect4021-2-7"
         width="321.68884"
         height="76.233551"
         x="241.26662"
         y="504.36017"
         style="fill:#333333" /></flowRegion><flowPara
       id="flowPara4023-2-3"
       style="font-size:14px;line-height:1.25;fill:#333333">2000</flowPara></flowRoot>  <flowRoot
     transform="matrix(0.8,0,0,0.8,35.772789,-62.972069)"
     xml:space="preserve"
     id="flowRoot4017-3-4"
     style="font-style:normal;font-variant:normal;font-weight:normal;font-stretch:normal;line-height:0.01%;font-family:Ubuntu;-inkscape-font-specification:Ubuntu;letter-spacing:0px;word-spacing:0px;fill:#333333;fill-opacity:1;stroke:none"><flowRegion
       id="flowRegion4019-3-1"
       style="fill:#333333"><rect
         id="rect4021-2-4"
         width="321.68884"
         height="76.233551"
         x="241.26662"
         y="504.36017"
         style="fill:#333333" /></flowRegion><flowPara
       id="flowPara4023-2-47"
       style="font-size:14px;line-height:1.25;fill:#333333">2002</flowPara></flowRoot>  <flowRoot
     transform="matrix(0.8,0,0,0.8,85.71736,-62.972069)"
     xml:space="preserve"
     id="flowRoot4017-3-7"
     style="font-style:normal;font-variant:normal;font-weight:normal;font-stretch:normal;line-height:0.01%;font-family:Ubuntu;-inkscape-font-specification:Ubuntu;letter-spacing:0px;word-spacing:0px;fill:#333333;fill-opacity:1;stroke:none"><flowRegion
       id="flowRegion4019-3-01"
       style="fill:#333333"><rect
         id="rect4021-2-5"
         width="321.68884"
         height="76.233551"
         x="241.26662"
         y="504.36017"
         style="fill:#333333" /></flowRegion><flowPara
       id="flowPara4023-2-5"
       style="font-size:14px;line-height:1.25;fill:#333333">2004</flowPara></flowRoot>  <flowRoot
     transform="matrix(0.8,0,0,0.8,135.75348,-62.972069)"
     xml:space="preserve"
     id="flowRoot4017-3-7-8"
     style="font-style:normal;font-variant:normal;font-weight:normal;font-stretch:normal;line-height:0.01%;font-family:Ubuntu;-inkscape-font-specification:Ubuntu;letter-spacing:0px;word-spacing:0px;fill:#333333;fill-opacity:1;stroke:none"><flowRegion
       id="flowRegion4019-3-01-0"
       style="fill:#333333"><rect
         id="rect4021-2-5-9"
         width="321.68884"
         height="76.233551"
         x="241.26662"
         y="504.36017"
         style="fill:#333333" /></flowRegion><flowPara
       id="flowPara4023-2-5-1"
       style="font-size:14px;line-height:1.25;fill:#333333">2006</flowPara></flowRoot>  <flowRoot
     transform="matrix(0.8,0,0,0.8,185.06958,-62.972069)"
     xml:space="preserve"
     id="flowRoot4017-3-7-5"
     style="font-style:normal;font-variant:normal;font-weight:normal;font-stretch:normal;line-height:0.01%;font-family:Ubuntu;-inkscape-font-specification:Ubuntu;letter-spacing:0px;word-spacing:0px;fill:#333333;fill-opacity:1;stroke:none"><flowRegion
       id="flowRegion4019-3-01-7"
       style="fill:#333333"><rect
         id="rect4021-2-5-94"
         width="321.68884"
         height="76.233551"
         x="241.26662"
         y="504.36017"
         style="fill:#333333" /></flowRegion><flowPara
       id="flowPara4023-2-5-9"
       style="font-size:14px;line-height:1.25;fill:#333333">2008</flowPara></flowRoot>  <flowRoot
     transform="matrix(0.8,0,0,0.8,234.70393,-62.972069)"
     xml:space="preserve"
     id="flowRoot4017-3-7-4"
     style="font-style:normal;font-variant:normal;font-weight:normal;font-stretch:normal;line-height:0.01%;font-family:Ubuntu;-inkscape-font-specification:Ubuntu;letter-spacing:0px;word-spacing:0px;fill:#333333;fill-opacity:1;stroke:none"><flowRegion
       id="flowRegion4019-3-01-9"
       style="fill:#333333"><rect
         id="rect4021-2-5-3"
         width="321.68884"
         height="76.233551"
         x="241.26662"
         y="504.36017"
         style="fill:#333333" /></flowRegion><flowPara
       id="flowPara4023-2-5-7"
       style="font-size:14px;line-height:1.25;fill:#333333">2010</flowPara></flowRoot>  <flowRoot
     transform="matrix(0.8,0,0,0.8,285.02819,-62.972069)"
     xml:space="preserve"
     id="flowRoot4017-3-7-1"
     style="font-style:normal;font-variant:normal;font-weight:normal;font-stretch:normal;line-height:0.01%;font-family:Ubuntu;-inkscape-font-specification:Ubuntu;letter-spacing:0px;word-spacing:0px;fill:#333333;fill-opacity:1;stroke:none"><flowRegion
       id="flowRegion4019-3-01-3"
       style="fill:#333333"><rect
         id="rect4021-2-5-37"
         width="321.68884"
         height="76.233551"
         x="241.26662"
         y="504.36017"
         style="fill:#333333" /></flowRegion><flowPara
       id="flowPara4023-2-5-0"
       style="font-size:14px;line-height:1.25;fill:#333333">2012</flowPara></flowRoot>  <flowRoot
     transform="matrix(0,-0.8,0.8,0,-381.07052,454.98327)"
     xml:space="preserve"
     id="flowRoot4017-7"
     style="font-style:normal;font-variant:normal;font-weight:normal;font-stretch:normal;line-height:0.01%;font-family:Ubuntu;-inkscape-font-specification:Ubuntu;letter-spacing:0px;word-spacing:0px;fill:#333333;fill-opacity:1;stroke:none"><flowRegion
       id="flowRegion4019-5"
       style="fill:#333333"><rect
         id="rect4021-4"
         width="321.68884"
         height="76.233551"
         x="241.26662"
         y="504.36017"
         style="fill:#333333" /></flowRegion><flowPara
       id="flowPara4023-1"
       style="font-weight:500;font-size:18px;line-height:1.25;-inkscape-font-specification:'Ubuntu Medium';fill:#333333">Niveau de vie (milliers d'euros)</flowPara></flowRoot>  <flowRoot
     transform="matrix(0.8,0,0,0.8,-187.54575,-110.68992)"
     xml:space="preserve"
     id="flowRoot4017-3-8"
     style="font-style:normal;font-variant:normal;font-weight:normal;font-stretch:normal;line-height:0.01%;font-family:Ubuntu;-inkscape-font-specification:Ubuntu;text-align:end;letter-spacing:0px;word-spacing:0px;text-anchor:end;fill:#333333;fill-opacity:1;stroke:none"><flowRegion
       id="flowRegion4019-3-08"
       style="fill:#333333"><rect
         id="rect4021-2-57"
         width="74.558083"
         height="60.316685"
         x="241.26662"
         y="504.36017"
         style="text-align:end;text-anchor:end;fill:#333333" /></flowRegion><flowPara
       id="flowPara4023-2-8"
       style="font-size:14px;line-height:1.25;text-align:end;text-anchor:end;fill:#333333">10</flowPara></flowRoot>  <flowRoot
     transform="matrix(0.8,0,0,0.8,-187.54575,-145.20445)"
     xml:space="preserve"
     id="flowRoot4017-3-8-9"
     style="font-style:normal;font-variant:normal;font-weight:normal;font-stretch:normal;line-height:0.01%;font-family:Ubuntu;-inkscape-font-specification:Ubuntu;text-align:end;letter-spacing:0px;word-spacing:0px;text-anchor:end;fill:#333333;fill-opacity:1;stroke:none"><flowRegion
       id="flowRegion4019-3-08-4"
       style="fill:#333333"><rect
         id="rect4021-2-57-5"
         width="74.558083"
         height="60.316685"
         x="241.26662"
         y="504.36017"
         style="text-align:end;text-anchor:end;fill:#333333" /></flowRegion><flowPara
       id="flowPara4023-2-8-7"
       style="font-size:14px;line-height:1.25;text-align:end;text-anchor:end;fill:#333333">15</flowPara></flowRoot>  <flowRoot
     transform="matrix(0.8,0,0,0.8,-187.54575,-180.72426)"
     xml:space="preserve"
     id="flowRoot4017-3-8-7"
     style="font-style:normal;font-variant:normal;font-weight:normal;font-stretch:normal;line-height:0.01%;font-family:Ubuntu;-inkscape-font-specification:Ubuntu;text-align:end;letter-spacing:0px;word-spacing:0px;text-anchor:end;fill:#333333;fill-opacity:1;stroke:none"><flowRegion
       id="flowRegion4019-3-08-7"
       style="fill:#333333"><rect
         id="rect4021-2-57-0"
         width="74.558083"
         height="60.316685"
         x="241.26662"
         y="504.36017"
         style="text-align:end;text-anchor:end;fill:#333333" /></flowRegion><flowPara
       id="flowPara4023-2-8-2"
       style="font-size:14px;line-height:1.25;text-align:end;text-anchor:end;fill:#333333">20</flowPara></flowRoot>  <flowRoot
     transform="matrix(0.8,0,0,0.8,-187.54575,-215.90897)"
     xml:space="preserve"
     id="flowRoot4017-3-8-4"
     style="font-style:normal;font-variant:normal;font-weight:normal;font-stretch:normal;line-height:0.01%;font-family:Ubuntu;-inkscape-font-specification:Ubuntu;text-align:end;letter-spacing:0px;word-spacing:0px;text-anchor:end;fill:#333333;fill-opacity:1;stroke:none"><flowRegion
       id="flowRegion4019-3-08-2"
       style="fill:#333333"><rect
         id="rect4021-2-57-8"
         width="74.558083"
         height="60.316685"
         x="241.26662"
         y="504.36017"
         style="text-align:end;text-anchor:end;fill:#333333" /></flowRegion><flowPara
       id="flowPara4023-2-8-5"
       style="font-size:14px;line-height:1.25;text-align:end;text-anchor:end;fill:#333333">25</flowPara></flowRoot>  <flowRoot
     transform="matrix(0.8,0,0,0.8,-187.54575,-251.76388)"
     xml:space="preserve"
     id="flowRoot4017-3-8-6"
     style="font-style:normal;font-variant:normal;font-weight:normal;font-stretch:normal;line-height:0.01%;font-family:Ubuntu;-inkscape-font-specification:Ubuntu;text-align:end;letter-spacing:0px;word-spacing:0px;text-anchor:end;fill:#333333;fill-opacity:1;stroke:none"><flowRegion
       id="flowRegion4019-3-08-78"
       style="fill:#333333"><rect
         id="rect4021-2-57-50"
         width="74.558083"
         height="60.316685"
         x="241.26662"
         y="504.36017"
         style="text-align:end;text-anchor:end;fill:#333333" /></flowRegion><flowPara
       id="flowPara4023-2-8-4"
       style="font-size:14px;line-height:1.25;text-align:end;text-anchor:end;fill:#333333">30</flowPara></flowRoot>  <flowRoot
     transform="matrix(0.8,0,0,0.8,-187.54575,-286.94859)"
     xml:space="preserve"
     id="flowRoot4017-3-8-97"
     style="font-style:normal;font-variant:normal;font-weight:normal;font-stretch:normal;line-height:0.01%;font-family:Ubuntu;-inkscape-font-specification:Ubuntu;text-align:end;letter-spacing:0px;word-spacing:0px;text-anchor:end;fill:#333333;fill-opacity:1;stroke:none"><flowRegion
       id="flowRegion4019-3-08-46"
       style="fill:#333333"><rect
         id="rect4021-2-57-4"
         width="74.558083"
         height="60.316685"
         x="241.26662"
         y="504.36017"
         style="text-align:end;text-anchor:end;fill:#333333" /></flowRegion><flowPara
       id="flowPara4023-2-8-0"
       style="font-size:14px;line-height:1.25;text-align:end;text-anchor:end;fill:#333333">35</flowPara></flowRoot>  <flowRoot
     transform="matrix(0.8,0,0,0.8,-187.54575,-322.8035)"
     xml:space="preserve"
     id="flowRoot4017-3-8-0"
     style="font-style:normal;font-variant:normal;font-weight:normal;font-stretch:normal;line-height:0.01%;font-family:Ubuntu;-inkscape-font-specification:Ubuntu;text-align:end;letter-spacing:0px;word-spacing:0px;text-anchor:end;fill:#333333;fill-opacity:1;stroke:none"><flowRegion
       id="flowRegion4019-3-08-21"
       style="fill:#333333"><rect
         id="rect4021-2-57-80"
         width="74.558083"
         height="60.316685"
         x="241.26662"
         y="504.36017"
         style="text-align:end;text-anchor:end;fill:#333333" /></flowRegion><flowPara
       id="flowPara4023-2-8-8"
       style="font-size:14px;line-height:1.25;text-align:end;text-anchor:end;fill:#333333">40</flowPara></flowRoot>  <flowRoot
     transform="matrix(0.8,0,0,0.8,-187.54575,-358.3233)"
     xml:space="preserve"
     id="flowRoot4017-3-8-8"
     style="font-style:normal;font-variant:normal;font-weight:normal;font-stretch:normal;line-height:0.01%;font-family:Ubuntu;-inkscape-font-specification:Ubuntu;text-align:end;letter-spacing:0px;word-spacing:0px;text-anchor:end;fill:#333333;fill-opacity:1;stroke:none"><flowRegion
       id="flowRegion4019-3-08-9"
       style="fill:#333333"><rect
         id="rect4021-2-57-3"
         width="74.558083"
         height="60.316685"
         x="241.26662"
         y="504.36017"
         style="text-align:end;text-anchor:end;fill:#333333" /></flowRegion><flowPara
       id="flowPara4023-2-8-3"
       style="font-size:14px;line-height:1.25;text-align:end;text-anchor:end;fill:#333333">45</flowPara></flowRoot>  <flowRoot
     transform="matrix(0.8,0,0,0.8,-187.54575,-393.84311)"
     xml:space="preserve"
     id="flowRoot4017-3-8-80"
     style="font-style:normal;font-variant:normal;font-weight:normal;font-stretch:normal;line-height:0.01%;font-family:Ubuntu;-inkscape-font-specification:Ubuntu;text-align:end;letter-spacing:0px;word-spacing:0px;text-anchor:end;fill:#333333;fill-opacity:1;stroke:none"><flowRegion
       id="flowRegion4019-3-08-0"
       style="fill:#333333"><rect
         id="rect4021-2-57-9"
         width="74.558083"
         height="60.316685"
         x="241.26662"
         y="504.36017"
         style="text-align:end;text-anchor:end;fill:#333333" /></flowRegion><flowPara
       id="flowPara4023-2-8-46"
       style="font-size:14px;line-height:1.25;text-align:end;text-anchor:end;fill:#333333">50</flowPara></flowRoot>  <flowRoot
     transform="matrix(0.8,0,0,0.8,298.15854,-371.14799)"
     xml:space="preserve"
     id="flowRoot4017-3-7-1-1"
     style="font-style:italic;font-variant:normal;font-weight:500;font-stretch:normal;line-height:0.01%;font-family:Ubuntu;-inkscape-font-specification:'Ubuntu Medium Italic';text-align:start;letter-spacing:0px;word-spacing:0px;writing-mode:lr-tb;text-anchor:start;fill:#8a1919;fill-opacity:1;stroke:none"><flowRegion
       id="flowRegion4019-3-01-3-2"><rect
         id="rect4021-2-5-37-1"
         width="321.68884"
         height="76.233551"
         x="241.26662"
         y="504.36017"
         style="font-style:italic;font-variant:normal;font-weight:500;font-stretch:normal;font-size:14px;line-height:125%;font-family:Ubuntu;-inkscape-font-specification:'Ubuntu Medium Italic';text-align:start;writing-mode:lr-tb;text-anchor:start;fill:#8a1919" /></flowRegion><flowPara
       id="flowPara4023-2-5-0-9"
       style="font-style:italic;font-variant:normal;font-weight:500;font-stretch:normal;font-size:14px;line-height:125%;font-family:Ubuntu;-inkscape-font-specification:'Ubuntu Medium Italic';text-align:start;writing-mode:lr-tb;text-anchor:start;fill:#8a1919">C95</flowPara></flowRoot>  <flowRoot
     transform="matrix(0.8,0,0,0.8,298.15854,-303.29709)"
     xml:space="preserve"
     id="flowRoot4017-3-7-1-1-9"
     style="font-style:italic;font-variant:normal;font-weight:500;font-stretch:normal;line-height:0.01%;font-family:Ubuntu;-inkscape-font-specification:'Ubuntu Medium Italic';text-align:start;letter-spacing:0px;word-spacing:0px;writing-mode:lr-tb;text-anchor:start;fill:#ee2b2b;fill-opacity:1;stroke:none"><flowRegion
       id="flowRegion4019-3-01-3-2-2"><rect
         id="rect4021-2-5-37-1-5"
         width="321.68884"
         height="76.233551"
         x="241.26662"
         y="504.36017"
         style="font-style:italic;font-variant:normal;font-weight:500;font-stretch:normal;font-size:14px;line-height:125%;font-family:Ubuntu;-inkscape-font-specification:'Ubuntu Medium Italic';text-align:start;writing-mode:lr-tb;text-anchor:start;fill:#ee2b2b" /></flowRegion><flowPara
       id="flowPara4023-2-5-0-9-9"
       style="font-style:italic;font-variant:normal;font-weight:500;font-stretch:normal;font-size:14px;line-height:125%;font-family:Ubuntu;-inkscape-font-specification:'Ubuntu Medium Italic';text-align:start;writing-mode:lr-tb;text-anchor:start;fill:#ee2b2b">D9</flowPara></flowRoot>  <flowRoot
     transform="matrix(0.8,0,0,0.8,298.15854,-216.99828)"
     xml:space="preserve"
     id="flowRoot4017-3-7-1-1-9-6"
     style="font-style:italic;font-variant:normal;font-weight:500;font-stretch:normal;line-height:0.01%;font-family:Ubuntu;-inkscape-font-specification:'Ubuntu Medium Italic';text-align:start;letter-spacing:0px;word-spacing:0px;writing-mode:lr-tb;text-anchor:start;fill:#333333;fill-opacity:1;stroke:none"><flowRegion
       id="flowRegion4019-3-01-3-2-2-6"
       style="fill:#333333"><rect
         id="rect4021-2-5-37-1-5-6"
         width="321.68884"
         height="76.233551"
         x="241.26662"
         y="504.36017"
         style="font-style:italic;font-variant:normal;font-weight:500;font-stretch:normal;font-size:14px;line-height:125%;font-family:Ubuntu;-inkscape-font-specification:'Ubuntu Medium Italic';text-align:start;writing-mode:lr-tb;text-anchor:start;fill:#333333" /></flowRegion><flowPara
       id="flowPara4023-2-5-0-9-9-0"
       style="font-style:italic;font-variant:normal;font-weight:500;font-stretch:normal;font-size:14px;line-height:125%;font-family:Ubuntu;-inkscape-font-specification:'Ubuntu Medium Italic';text-align:start;writing-mode:lr-tb;text-anchor:start;fill:#333333">D5</flowPara></flowRoot>  <flowRoot
     transform="matrix(0.8,0,0,0.8,298.15854,-114.16363)"
     xml:space="preserve"
     id="flowRoot4017-3-7-1-1-9-2"
     style="font-style:italic;font-variant:normal;font-weight:500;font-stretch:normal;line-height:0.01%;font-family:Ubuntu;-inkscape-font-specification:'Ubuntu Medium Italic';text-align:start;letter-spacing:0px;word-spacing:0px;writing-mode:lr-tb;text-anchor:start;fill:#1985ee;fill-opacity:1;stroke:none"><flowRegion
       id="flowRegion4019-3-01-3-2-2-3"><rect
         id="rect4021-2-5-37-1-5-3"
         width="321.68884"
         height="76.233551"
         x="241.26662"
         y="504.36017"
         style="font-style:italic;font-variant:normal;font-weight:500;font-stretch:normal;font-size:14px;line-height:125%;font-family:Ubuntu;-inkscape-font-specification:'Ubuntu Medium Italic';text-align:start;writing-mode:lr-tb;text-anchor:start;fill:#1985ee" /></flowRegion><flowPara
       id="flowPara4023-2-5-0-9-9-4"
       style="font-style:italic;font-variant:normal;font-weight:500;font-stretch:normal;font-size:14px;line-height:125%;font-family:Ubuntu;-inkscape-font-specification:'Ubuntu Medium Italic';text-align:start;writing-mode:lr-tb;text-anchor:start;fill:#1985ee">D1</flowPara></flowRoot>  <flowRoot
     transform="matrix(0.8,0,0,0.8,298.15854,-99.47296)"
     xml:space="preserve"
     id="flowRoot4017-3-7-1-1-9-5"
     style="font-style:italic;font-variant:normal;font-weight:500;font-stretch:normal;line-height:0.01%;font-family:Ubuntu;-inkscape-font-specification:'Ubuntu Medium Italic';text-align:start;letter-spacing:0px;word-spacing:0px;writing-mode:lr-tb;text-anchor:start;fill:#0f4c8a;fill-opacity:1;stroke:none"><flowRegion
       id="flowRegion4019-3-01-3-2-2-4"><rect
         id="rect4021-2-5-37-1-5-2"
         width="321.68884"
         height="76.233551"
         x="241.26662"
         y="504.36017"
         style="font-style:italic;font-variant:normal;font-weight:500;font-stretch:normal;font-size:14px;line-height:125%;font-family:Ubuntu;-inkscape-font-specification:'Ubuntu Medium Italic';text-align:start;writing-mode:lr-tb;text-anchor:start;fill:#0f4c8a" /></flowRegion><flowPara
       id="flowPara4023-2-5-0-9-9-7"
       style="font-style:italic;font-variant:normal;font-weight:500;font-stretch:normal;font-size:14px;line-height:125%;font-family:Ubuntu;-inkscape-font-specification:'Ubuntu Medium Italic';text-align:start;writing-mode:lr-tb;text-anchor:start;fill:#0f4c8a">C5</flowPara></flowRoot>  <flowRoot
     xml:space="preserve"
     id="flowRoot4017-2"
     style="font-style:normal;font-variant:normal;font-weight:normal;font-stretch:normal;line-height:0.01%;font-family:Ubuntu;-inkscape-font-specification:Ubuntu;letter-spacing:0px;word-spacing:0px;fill:#333333;fill-opacity:1;stroke:none"
     transform="matrix(0.8,0,0,0.8,-174.85164,-23.962087)"><flowRegion
       id="flowRegion4019-0"
       style="fill:#333333"><rect
         id="rect4021-6"
         width="506.82745"
         height="39.373402"
         x="241.26662"
         y="504.36017"
         style="fill:#333333" /></flowRegion><flowPara
       id="flowPara4023-7"
       style="font-style:italic;font-size:14px;line-height:1.25;-inkscape-font-specification:'Ubuntu Italic';fill:#333333">Source: Insee, Revenus et patrimoine de ménages, 1996-2012</flowPara></flowRoot>  <rect
     style="fill:#4d4d4d;stroke:#4d4d4d;stroke-width:1.60000002;stroke-linecap:butt;stroke-miterlimit:4;stroke-dasharray:none;stroke-dashoffset:0"
     id="rect3234-7"
     width="518.62909"
     height="22.4"
     x="14.826258"
     y="-20.642054" />
  <rect
     style="fill:none;stroke:#4d4d4d;stroke-width:1.59999967;stroke-linecap:butt;stroke-miterlimit:4;stroke-dasharray:none;stroke-dashoffset:0"
     id="rect3234"
     width="518.62909"
     height="392.65689"
     x="14.826258"
     y="2.5579274" />
  <flowRoot
     xml:space="preserve"
     id="flowRoot3066-7"
     style="font-style:normal;font-variant:normal;font-weight:normal;font-stretch:normal;line-height:0.01%;font-family:Ubuntu;-inkscape-font-specification:Ubuntu;letter-spacing:0px;word-spacing:0px;fill:#ffffff;fill-opacity:1;stroke:none"
     transform="matrix(0.8,0,0,0.8,-59.62373,-262.34802)"><flowRegion
       id="flowRegion3068-3"><rect
         id="rect3070-7"
         width="739.40234"
         height="27.229128"
         x="148.57143"
         y="304.80878"
         style="fill:#ffffff" /></flowRegion><flowPara
       id="flowPara3072-9"
       style="font-weight:500;font-size:22px;line-height:1.25;-inkscape-font-specification:'Ubuntu Medium';fill:#ffffff">DIMINUTION OU AUGMENTATION DES INÉGALITÉS ?</flowPara></flowRoot></svg>
