<?xml version="1.0" encoding="UTF-8" standalone="no"?>
<svg
   xmlns:dc="http://purl.org/dc/elements/1.1/"
   xmlns:cc="http://creativecommons.org/ns#"
   xmlns:rdf="http://www.w3.org/1999/02/22-rdf-syntax-ns#"
   xmlns:svg="http://www.w3.org/2000/svg"
   xmlns="http://www.w3.org/2000/svg"
   xmlns:xlink="http://www.w3.org/1999/xlink"
   xmlns:sodipodi="http://sodipodi.sourceforge.net/DTD/sodipodi-0.dtd"
   xmlns:inkscape="http://www.inkscape.org/namespaces/inkscape"
   width="599pt"
   height="450pt"
   viewBox="0 0 599 450"
   version="1.1"
   id="svg2"
   inkscape:version="0.92.2 (5c3e80d, 2017-08-06)"
   sodipodi:docname="EsperanceVie.svg">
  <metadata
     id="metadata1025">
    <rdf:RDF>
      <cc:Work
         rdf:about="">
        <dc:format>image/svg+xml</dc:format>
        <dc:type
           rdf:resource="http://purl.org/dc/dcmitype/StillImage" />
        <dc:title />
      </cc:Work>
    </rdf:RDF>
  </metadata>
  <sodipodi:namedview
     pagecolor="#ffffff"
     bordercolor="#666666"
     borderopacity="1"
     objecttolerance="10"
     gridtolerance="10"
     guidetolerance="10"
     inkscape:pageopacity="0"
     inkscape:pageshadow="2"
     inkscape:window-width="1920"
     inkscape:window-height="1031"
     id="namedview1023"
     showgrid="true"
     inkscape:zoom="1.4142136"
     inkscape:cx="223.88701"
     inkscape:cy="350.81914"
     inkscape:window-x="0"
     inkscape:window-y="25"
     inkscape:window-maximized="1"
     inkscape:current-layer="svg2"
     inkscape:snap-bbox="true"
     inkscape:snap-text-baseline="true"
     inkscape:snap-global="false">
    <inkscape:grid
       type="xygrid"
       id="grid3488"
       empspacing="5"
       visible="true"
       enabled="true"
       snapvisiblegridlinesonly="true"
       dotted="true" />
  </sodipodi:namedview>
  <defs
     id="defs4">
    <g
       id="g6">
      <symbol
         overflow="visible"
         id="glyph0-0">
        <path
           style="stroke:none;"
           d="M 0.546875 0 L 0.546875 -8.25 L 4.953125 -8.25 L 4.953125 0 Z M 4.40625 -0.546875 L 4.40625 -7.703125 L 1.09375 -7.703125 L 1.09375 -0.546875 Z M 4.40625 -0.546875 "
           id="path9" />
      </symbol>
      <symbol
         overflow="visible"
         id="glyph0-1">
        <path
           style="stroke:none;"
           d="M 1.015625 -6.046875 C 1.441406 -6.210938 1.851562 -6.421875 2.25 -6.671875 C 2.644531 -6.921875 3.003906 -7.238281 3.328125 -7.625 L 4.0625 -7.625 L 4.0625 0 L 3.03125 0 L 3.03125 -6.203125 C 2.945312 -6.117188 2.835938 -6.03125 2.703125 -5.9375 C 2.578125 -5.851562 2.4375 -5.769531 2.28125 -5.6875 C 2.132812 -5.613281 1.976562 -5.539062 1.8125 -5.46875 C 1.65625 -5.394531 1.5 -5.332031 1.34375 -5.28125 Z M 1.015625 -6.046875 "
           id="path12" />
      </symbol>
      <symbol
         overflow="visible"
         id="glyph0-2">
        <path
           style="stroke:none;"
           d="M 5.140625 -5.671875 C 5.140625 -5.410156 5.082031 -5.15625 4.96875 -4.90625 C 4.863281 -4.664062 4.722656 -4.425781 4.546875 -4.1875 C 4.378906 -3.945312 4.179688 -3.710938 3.953125 -3.484375 C 3.734375 -3.253906 3.515625 -3.03125 3.296875 -2.8125 C 3.171875 -2.6875 3.023438 -2.535156 2.859375 -2.359375 C 2.703125 -2.191406 2.546875 -2.015625 2.390625 -1.828125 C 2.242188 -1.648438 2.117188 -1.476562 2.015625 -1.3125 C 1.921875 -1.144531 1.875 -1 1.875 -0.875 L 5.390625 -0.875 L 5.390625 0 L 0.765625 0 C 0.765625 -0.0390625 0.765625 -0.0820312 0.765625 -0.125 C 0.765625 -0.175781 0.765625 -0.21875 0.765625 -0.25 C 0.765625 -0.59375 0.816406 -0.910156 0.921875 -1.203125 C 1.035156 -1.503906 1.1875 -1.785156 1.375 -2.046875 C 1.5625 -2.316406 1.765625 -2.566406 1.984375 -2.796875 C 2.210938 -3.035156 2.4375 -3.265625 2.65625 -3.484375 C 2.84375 -3.660156 3.019531 -3.832031 3.1875 -4 C 3.351562 -4.175781 3.5 -4.347656 3.625 -4.515625 C 3.75 -4.691406 3.847656 -4.867188 3.921875 -5.046875 C 4.003906 -5.234375 4.046875 -5.429688 4.046875 -5.640625 C 4.046875 -5.859375 4.007812 -6.046875 3.9375 -6.203125 C 3.875 -6.359375 3.78125 -6.488281 3.65625 -6.59375 C 3.539062 -6.695312 3.40625 -6.769531 3.25 -6.8125 C 3.09375 -6.863281 2.925781 -6.890625 2.75 -6.890625 C 2.539062 -6.890625 2.347656 -6.859375 2.171875 -6.796875 C 1.992188 -6.734375 1.832031 -6.664062 1.6875 -6.59375 C 1.550781 -6.519531 1.4375 -6.4375 1.34375 -6.34375 C 1.25 -6.257812 1.175781 -6.195312 1.125 -6.15625 L 0.609375 -6.890625 C 0.679688 -6.960938 0.78125 -7.050781 0.90625 -7.15625 C 1.039062 -7.257812 1.195312 -7.359375 1.375 -7.453125 C 1.5625 -7.546875 1.769531 -7.625 2 -7.6875 C 2.226562 -7.757812 2.472656 -7.796875 2.734375 -7.796875 C 3.535156 -7.796875 4.132812 -7.609375 4.53125 -7.234375 C 4.9375 -6.867188 5.140625 -6.347656 5.140625 -5.671875 Z M 5.140625 -5.671875 "
           id="path15" />
      </symbol>
      <symbol
         overflow="visible"
         id="glyph0-3">
        <path
           style="stroke:none;"
           d="M 2.484375 -0.75 C 3.140625 -0.75 3.609375 -0.875 3.890625 -1.125 C 4.171875 -1.382812 4.3125 -1.734375 4.3125 -2.171875 C 4.3125 -2.441406 4.25 -2.671875 4.125 -2.859375 C 4.007812 -3.054688 3.859375 -3.210938 3.671875 -3.328125 C 3.484375 -3.441406 3.257812 -3.519531 3 -3.5625 C 2.75 -3.613281 2.492188 -3.640625 2.234375 -3.640625 L 1.96875 -3.640625 L 1.96875 -4.484375 L 2.328125 -4.484375 C 2.515625 -4.484375 2.703125 -4.5 2.890625 -4.53125 C 3.085938 -4.570312 3.265625 -4.640625 3.421875 -4.734375 C 3.585938 -4.828125 3.722656 -4.957031 3.828125 -5.125 C 3.929688 -5.289062 3.984375 -5.492188 3.984375 -5.734375 C 3.984375 -5.941406 3.945312 -6.117188 3.875 -6.265625 C 3.800781 -6.410156 3.703125 -6.53125 3.578125 -6.625 C 3.460938 -6.726562 3.320312 -6.796875 3.15625 -6.828125 C 3 -6.867188 2.832031 -6.890625 2.65625 -6.890625 C 2.3125 -6.890625 2.015625 -6.835938 1.765625 -6.734375 C 1.515625 -6.640625 1.304688 -6.535156 1.140625 -6.421875 L 0.75 -7.203125 C 0.832031 -7.265625 0.941406 -7.328125 1.078125 -7.390625 C 1.210938 -7.460938 1.363281 -7.523438 1.53125 -7.578125 C 1.707031 -7.640625 1.890625 -7.691406 2.078125 -7.734375 C 2.273438 -7.773438 2.476562 -7.796875 2.6875 -7.796875 C 3.09375 -7.796875 3.441406 -7.742188 3.734375 -7.640625 C 4.035156 -7.546875 4.28125 -7.410156 4.46875 -7.234375 C 4.65625 -7.054688 4.796875 -6.84375 4.890625 -6.59375 C 4.984375 -6.34375 5.03125 -6.078125 5.03125 -5.796875 C 5.03125 -5.398438 4.914062 -5.0625 4.6875 -4.78125 C 4.46875 -4.5 4.195312 -4.285156 3.875 -4.140625 C 4.070312 -4.078125 4.257812 -3.988281 4.4375 -3.875 C 4.625 -3.769531 4.785156 -3.632812 4.921875 -3.46875 C 5.054688 -3.300781 5.164062 -3.101562 5.25 -2.875 C 5.332031 -2.65625 5.375 -2.410156 5.375 -2.140625 C 5.375 -1.816406 5.316406 -1.507812 5.203125 -1.21875 C 5.085938 -0.9375 4.910156 -0.691406 4.671875 -0.484375 C 4.441406 -0.285156 4.144531 -0.125 3.78125 0 C 3.425781 0.113281 3.003906 0.171875 2.515625 0.171875 C 2.316406 0.171875 2.113281 0.15625 1.90625 0.125 C 1.707031 0.09375 1.519531 0.0507812 1.34375 0 C 1.175781 -0.0390625 1.023438 -0.0820312 0.890625 -0.125 C 0.753906 -0.164062 0.660156 -0.203125 0.609375 -0.234375 L 0.796875 -1.125 C 0.921875 -1.0625 1.128906 -0.984375 1.421875 -0.890625 C 1.710938 -0.796875 2.066406 -0.75 2.484375 -0.75 Z M 2.484375 -0.75 "
           id="path18" />
      </symbol>
      <symbol
         overflow="visible"
         id="glyph0-4">
        <path
           style="stroke:none;"
           d="M 0.4375 -2.640625 C 0.582031 -2.960938 0.773438 -3.335938 1.015625 -3.765625 C 1.253906 -4.191406 1.523438 -4.632812 1.828125 -5.09375 C 2.128906 -5.550781 2.453125 -6 2.796875 -6.4375 C 3.148438 -6.875 3.503906 -7.269531 3.859375 -7.625 L 4.84375 -7.625 L 4.84375 -2.78125 L 5.734375 -2.78125 L 5.734375 -1.953125 L 4.84375 -1.953125 L 4.84375 0 L 3.84375 0 L 3.84375 -1.953125 L 0.4375 -1.953125 Z M 3.84375 -6.40625 C 3.625 -6.175781 3.398438 -5.914062 3.171875 -5.625 C 2.953125 -5.332031 2.738281 -5.03125 2.53125 -4.71875 C 2.320312 -4.40625 2.125 -4.082031 1.9375 -3.75 C 1.75 -3.414062 1.582031 -3.09375 1.4375 -2.78125 L 3.84375 -2.78125 Z M 3.84375 -6.40625 "
           id="path21" />
      </symbol>
      <symbol
         overflow="visible"
         id="glyph0-5">
        <path
           style="stroke:none;"
           d="M 5.515625 -4.578125 C 5.515625 -3.066406 5.132812 -1.921875 4.375 -1.140625 C 3.625 -0.367188 2.507812 0.015625 1.03125 0.015625 L 1 -0.84375 C 1.457031 -0.84375 1.875 -0.882812 2.25 -0.96875 C 2.625 -1.050781 2.945312 -1.191406 3.21875 -1.390625 C 3.5 -1.585938 3.734375 -1.835938 3.921875 -2.140625 C 4.109375 -2.453125 4.242188 -2.832031 4.328125 -3.28125 C 4.140625 -3.1875 3.925781 -3.113281 3.6875 -3.0625 C 3.445312 -3.007812 3.195312 -2.984375 2.9375 -2.984375 C 2.5 -2.984375 2.128906 -3.046875 1.828125 -3.171875 C 1.535156 -3.296875 1.289062 -3.46875 1.09375 -3.6875 C 0.90625 -3.90625 0.769531 -4.15625 0.6875 -4.4375 C 0.601562 -4.71875 0.5625 -5.015625 0.5625 -5.328125 C 0.5625 -5.597656 0.609375 -5.878906 0.703125 -6.171875 C 0.796875 -6.460938 0.941406 -6.726562 1.140625 -6.96875 C 1.335938 -7.21875 1.582031 -7.414062 1.875 -7.5625 C 2.175781 -7.71875 2.535156 -7.796875 2.953125 -7.796875 C 3.367188 -7.796875 3.734375 -7.722656 4.046875 -7.578125 C 4.367188 -7.429688 4.640625 -7.21875 4.859375 -6.9375 C 5.078125 -6.65625 5.238281 -6.316406 5.34375 -5.921875 C 5.457031 -5.523438 5.515625 -5.078125 5.515625 -4.578125 Z M 3.046875 -3.8125 C 3.304688 -3.8125 3.546875 -3.832031 3.765625 -3.875 C 3.992188 -3.925781 4.21875 -4.003906 4.4375 -4.109375 C 4.4375 -4.179688 4.4375 -4.253906 4.4375 -4.328125 C 4.4375 -4.410156 4.4375 -4.492188 4.4375 -4.578125 C 4.4375 -4.890625 4.414062 -5.191406 4.375 -5.484375 C 4.332031 -5.773438 4.253906 -6.023438 4.140625 -6.234375 C 4.023438 -6.453125 3.875 -6.625 3.6875 -6.75 C 3.5 -6.882812 3.253906 -6.953125 2.953125 -6.953125 C 2.710938 -6.953125 2.507812 -6.898438 2.34375 -6.796875 C 2.175781 -6.691406 2.035156 -6.5625 1.921875 -6.40625 C 1.816406 -6.25 1.738281 -6.078125 1.6875 -5.890625 C 1.632812 -5.703125 1.609375 -5.519531 1.609375 -5.34375 C 1.609375 -4.84375 1.726562 -4.460938 1.96875 -4.203125 C 2.207031 -3.941406 2.566406 -3.8125 3.046875 -3.8125 Z M 3.046875 -3.8125 "
           id="path24" />
      </symbol>
      <symbol
         overflow="visible"
         id="glyph0-6">
        <path
           style="stroke:none;"
           d="M 0.546875 -3.8125 C 0.546875 -5.09375 0.769531 -6.078125 1.21875 -6.765625 C 1.675781 -7.453125 2.304688 -7.796875 3.109375 -7.796875 C 3.898438 -7.796875 4.519531 -7.453125 4.96875 -6.765625 C 5.425781 -6.078125 5.65625 -5.09375 5.65625 -3.8125 C 5.65625 -2.539062 5.425781 -1.554688 4.96875 -0.859375 C 4.519531 -0.171875 3.898438 0.171875 3.109375 0.171875 C 2.304688 0.171875 1.675781 -0.171875 1.21875 -0.859375 C 0.769531 -1.554688 0.546875 -2.539062 0.546875 -3.8125 Z M 4.578125 -3.8125 C 4.578125 -4.226562 4.550781 -4.625 4.5 -5 C 4.457031 -5.375 4.378906 -5.703125 4.265625 -5.984375 C 4.148438 -6.265625 3.992188 -6.484375 3.796875 -6.640625 C 3.609375 -6.804688 3.378906 -6.890625 3.109375 -6.890625 C 2.828125 -6.890625 2.585938 -6.804688 2.390625 -6.640625 C 2.203125 -6.484375 2.050781 -6.265625 1.9375 -5.984375 C 1.820312 -5.703125 1.738281 -5.375 1.6875 -5 C 1.644531 -4.625 1.625 -4.226562 1.625 -3.8125 C 1.625 -3.394531 1.644531 -3 1.6875 -2.625 C 1.738281 -2.25 1.820312 -1.921875 1.9375 -1.640625 C 2.050781 -1.367188 2.203125 -1.148438 2.390625 -0.984375 C 2.585938 -0.816406 2.828125 -0.734375 3.109375 -0.734375 C 3.378906 -0.734375 3.609375 -0.816406 3.796875 -0.984375 C 3.992188 -1.148438 4.148438 -1.367188 4.265625 -1.640625 C 4.378906 -1.921875 4.457031 -2.25 4.5 -2.625 C 4.550781 -3 4.578125 -3.394531 4.578125 -3.8125 Z M 4.578125 -3.8125 "
           id="path27" />
      </symbol>
      <symbol
         overflow="visible"
         id="glyph0-7">
        <path
           style="stroke:none;"
           d="M 2.1875 -4.6875 C 3.289062 -4.644531 4.101562 -4.398438 4.625 -3.953125 C 5.144531 -3.515625 5.40625 -2.921875 5.40625 -2.171875 C 5.40625 -1.828125 5.347656 -1.507812 5.234375 -1.21875 C 5.117188 -0.9375 4.941406 -0.691406 4.703125 -0.484375 C 4.472656 -0.285156 4.179688 -0.125 3.828125 0 C 3.484375 0.113281 3.066406 0.171875 2.578125 0.171875 C 2.390625 0.171875 2.195312 0.15625 2 0.125 C 1.800781 0.09375 1.617188 0.0507812 1.453125 0 C 1.285156 -0.0390625 1.132812 -0.0820312 1 -0.125 C 0.863281 -0.164062 0.769531 -0.203125 0.71875 -0.234375 L 0.90625 -1.125 C 1.03125 -1.0625 1.234375 -0.984375 1.515625 -0.890625 C 1.804688 -0.796875 2.15625 -0.75 2.5625 -0.75 C 2.894531 -0.75 3.171875 -0.785156 3.390625 -0.859375 C 3.617188 -0.929688 3.800781 -1.03125 3.9375 -1.15625 C 4.070312 -1.28125 4.171875 -1.425781 4.234375 -1.59375 C 4.296875 -1.757812 4.328125 -1.929688 4.328125 -2.109375 C 4.328125 -2.390625 4.28125 -2.632812 4.1875 -2.84375 C 4.09375 -3.0625 3.925781 -3.242188 3.6875 -3.390625 C 3.445312 -3.546875 3.125 -3.660156 2.71875 -3.734375 C 2.3125 -3.804688 1.800781 -3.84375 1.1875 -3.84375 C 1.226562 -4.207031 1.257812 -4.546875 1.28125 -4.859375 C 1.3125 -5.171875 1.335938 -5.476562 1.359375 -5.78125 C 1.378906 -6.082031 1.394531 -6.378906 1.40625 -6.671875 C 1.425781 -6.972656 1.445312 -7.289062 1.46875 -7.625 L 5.140625 -7.625 L 5.140625 -6.75 L 2.359375 -6.75 C 2.347656 -6.644531 2.332031 -6.5 2.3125 -6.3125 C 2.300781 -6.125 2.285156 -5.925781 2.265625 -5.71875 C 2.253906 -5.519531 2.242188 -5.320312 2.234375 -5.125 C 2.222656 -4.9375 2.207031 -4.789062 2.1875 -4.6875 Z M 2.1875 -4.6875 "
           id="path30" />
      </symbol>
      <symbol
         overflow="visible"
         id="glyph0-8">
        <path
           style="stroke:none;"
           d="M 0.6875 -3.0625 C 0.6875 -3.800781 0.789062 -4.453125 1 -5.015625 C 1.207031 -5.585938 1.5 -6.066406 1.875 -6.453125 C 2.25 -6.847656 2.707031 -7.144531 3.25 -7.34375 C 3.789062 -7.539062 4.398438 -7.644531 5.078125 -7.65625 L 5.140625 -6.796875 C 4.710938 -6.785156 4.320312 -6.734375 3.96875 -6.640625 C 3.613281 -6.554688 3.296875 -6.421875 3.015625 -6.234375 C 2.734375 -6.046875 2.5 -5.796875 2.3125 -5.484375 C 2.125 -5.179688 1.976562 -4.804688 1.875 -4.359375 C 2.070312 -4.453125 2.285156 -4.523438 2.515625 -4.578125 C 2.753906 -4.640625 3.003906 -4.671875 3.265625 -4.671875 C 3.703125 -4.671875 4.066406 -4.601562 4.359375 -4.46875 C 4.660156 -4.34375 4.90625 -4.171875 5.09375 -3.953125 C 5.289062 -3.734375 5.429688 -3.484375 5.515625 -3.203125 C 5.597656 -2.921875 5.640625 -2.628906 5.640625 -2.328125 C 5.640625 -2.046875 5.59375 -1.753906 5.5 -1.453125 C 5.40625 -1.160156 5.257812 -0.894531 5.0625 -0.65625 C 4.875 -0.414062 4.628906 -0.21875 4.328125 -0.0625 C 4.023438 0.09375 3.664062 0.171875 3.25 0.171875 C 2.414062 0.171875 1.78125 -0.113281 1.34375 -0.6875 C 0.90625 -1.257812 0.6875 -2.050781 0.6875 -3.0625 Z M 3.15625 -3.84375 C 2.894531 -3.84375 2.65625 -3.816406 2.4375 -3.765625 C 2.21875 -3.722656 2 -3.648438 1.78125 -3.546875 C 1.769531 -3.472656 1.765625 -3.390625 1.765625 -3.296875 C 1.765625 -3.210938 1.765625 -3.132812 1.765625 -3.0625 C 1.765625 -2.738281 1.785156 -2.429688 1.828125 -2.140625 C 1.867188 -1.859375 1.945312 -1.609375 2.0625 -1.390625 C 2.175781 -1.171875 2.328125 -1 2.515625 -0.875 C 2.710938 -0.75 2.957031 -0.6875 3.25 -0.6875 C 3.488281 -0.6875 3.691406 -0.734375 3.859375 -0.828125 C 4.023438 -0.929688 4.160156 -1.0625 4.265625 -1.21875 C 4.378906 -1.382812 4.460938 -1.5625 4.515625 -1.75 C 4.566406 -1.9375 4.59375 -2.117188 4.59375 -2.296875 C 4.59375 -2.796875 4.472656 -3.175781 4.234375 -3.4375 C 3.992188 -3.707031 3.632812 -3.84375 3.15625 -3.84375 Z M 3.15625 -3.84375 "
           id="path33" />
      </symbol>
      <symbol
         overflow="visible"
         id="glyph0-9">
        <path
           style="stroke:none;"
           d="M 1.796875 0 C 1.835938 -0.582031 1.941406 -1.195312 2.109375 -1.84375 C 2.273438 -2.5 2.476562 -3.128906 2.71875 -3.734375 C 2.957031 -4.347656 3.222656 -4.914062 3.515625 -5.4375 C 3.804688 -5.96875 4.085938 -6.398438 4.359375 -6.734375 L 0.65625 -6.734375 L 0.65625 -7.625 L 5.515625 -7.625 L 5.515625 -6.78125 C 5.265625 -6.5 4.992188 -6.113281 4.703125 -5.625 C 4.410156 -5.132812 4.132812 -4.585938 3.875 -3.984375 C 3.613281 -3.378906 3.390625 -2.734375 3.203125 -2.046875 C 3.015625 -1.359375 2.898438 -0.675781 2.859375 0 Z M 1.796875 0 "
           id="path36" />
      </symbol>
      <symbol
         overflow="visible"
         id="glyph0-10">
        <path
           style="stroke:none;"
           d="M 4.359375 -1.0625 C 4.285156 -1.226562 4.1875 -1.445312 4.0625 -1.71875 C 3.945312 -2 3.816406 -2.296875 3.671875 -2.609375 C 3.535156 -2.921875 3.390625 -3.242188 3.234375 -3.578125 C 3.078125 -3.910156 2.925781 -4.222656 2.78125 -4.515625 C 2.644531 -4.816406 2.515625 -5.082031 2.390625 -5.3125 C 2.273438 -5.550781 2.179688 -5.734375 2.109375 -5.859375 C 2.023438 -4.992188 1.957031 -4.054688 1.90625 -3.046875 C 1.863281 -2.046875 1.820312 -1.03125 1.78125 0 L 0.734375 0 C 0.765625 -0.65625 0.796875 -1.316406 0.828125 -1.984375 C 0.867188 -2.660156 0.910156 -3.320312 0.953125 -3.96875 C 1.003906 -4.625 1.054688 -5.257812 1.109375 -5.875 C 1.171875 -6.488281 1.234375 -7.070312 1.296875 -7.625 L 2.234375 -7.625 C 2.429688 -7.300781 2.644531 -6.914062 2.875 -6.46875 C 3.101562 -6.03125 3.328125 -5.570312 3.546875 -5.09375 C 3.773438 -4.613281 3.992188 -4.132812 4.203125 -3.65625 C 4.421875 -3.175781 4.617188 -2.738281 4.796875 -2.34375 C 4.972656 -2.738281 5.164062 -3.175781 5.375 -3.65625 C 5.59375 -4.132812 5.8125 -4.613281 6.03125 -5.09375 C 6.257812 -5.570312 6.488281 -6.03125 6.71875 -6.46875 C 6.945312 -6.914062 7.160156 -7.300781 7.359375 -7.625 L 8.296875 -7.625 C 8.546875 -5.164062 8.734375 -2.625 8.859375 0 L 7.8125 0 C 7.769531 -1.03125 7.722656 -2.046875 7.671875 -3.046875 C 7.617188 -4.054688 7.554688 -4.992188 7.484375 -5.859375 C 7.410156 -5.734375 7.3125 -5.550781 7.1875 -5.3125 C 7.0625 -5.082031 6.929688 -4.816406 6.796875 -4.515625 C 6.660156 -4.222656 6.507812 -3.910156 6.34375 -3.578125 C 6.1875 -3.242188 6.039062 -2.921875 5.90625 -2.609375 C 5.769531 -2.296875 5.640625 -2 5.515625 -1.71875 C 5.390625 -1.445312 5.289062 -1.226562 5.21875 -1.0625 Z M 4.359375 -1.0625 "
           id="path39" />
      </symbol>
      <symbol
         overflow="visible"
         id="glyph0-11">
        <path
           style="stroke:none;"
           d="M 0.953125 0 L 0.953125 -7.625 L 5.59375 -7.625 L 5.59375 -6.703125 L 2.015625 -6.703125 L 2.015625 -4.4375 L 5.203125 -4.4375 L 5.203125 -3.546875 L 2.015625 -3.546875 L 2.015625 -0.90625 L 5.875 -0.90625 L 5.875 0 Z M 0.953125 0 "
           id="path42" />
      </symbol>
      <symbol
         overflow="visible"
         id="glyph0-12">
        <path
           style="stroke:none;"
           d="M 6.03125 0 C 5.914062 -0.332031 5.800781 -0.65625 5.6875 -0.96875 C 5.570312 -1.289062 5.457031 -1.617188 5.34375 -1.953125 L 1.890625 -1.953125 L 1.203125 0 L 0.09375 0 C 0.382812 -0.800781 0.65625 -1.546875 0.90625 -2.234375 C 1.164062 -2.921875 1.414062 -3.570312 1.65625 -4.1875 C 1.90625 -4.800781 2.148438 -5.390625 2.390625 -5.953125 C 2.640625 -6.515625 2.894531 -7.070312 3.15625 -7.625 L 4.140625 -7.625 C 4.398438 -7.070312 4.648438 -6.515625 4.890625 -5.953125 C 5.140625 -5.390625 5.382812 -4.800781 5.625 -4.1875 C 5.875 -3.570312 6.125 -2.921875 6.375 -2.234375 C 6.632812 -1.546875 6.910156 -0.800781 7.203125 0 Z M 5.03125 -2.828125 C 4.800781 -3.460938 4.570312 -4.078125 4.34375 -4.671875 C 4.113281 -5.273438 3.875 -5.851562 3.625 -6.40625 C 3.363281 -5.851562 3.117188 -5.273438 2.890625 -4.671875 C 2.660156 -4.078125 2.429688 -3.460938 2.203125 -2.828125 Z M 5.03125 -2.828125 "
           id="path45" />
      </symbol>
      <symbol
         overflow="visible"
         id="glyph0-13">
        <path
           style="stroke:none;"
           d="M 6.171875 0 C 6.003906 -0.269531 5.816406 -0.570312 5.609375 -0.90625 C 5.398438 -1.25 5.175781 -1.601562 4.9375 -1.96875 C 4.695312 -2.332031 4.445312 -2.695312 4.1875 -3.0625 C 3.925781 -3.4375 3.664062 -3.796875 3.40625 -4.140625 C 3.15625 -4.492188 2.90625 -4.820312 2.65625 -5.125 C 2.414062 -5.4375 2.191406 -5.710938 1.984375 -5.953125 L 1.984375 0 L 0.953125 0 L 0.953125 -7.625 L 1.796875 -7.625 C 2.140625 -7.257812 2.503906 -6.832031 2.890625 -6.34375 C 3.285156 -5.851562 3.675781 -5.347656 4.0625 -4.828125 C 4.445312 -4.316406 4.8125 -3.8125 5.15625 -3.3125 C 5.5 -2.8125 5.785156 -2.367188 6.015625 -1.984375 L 6.015625 -7.625 L 7.0625 -7.625 L 7.0625 0 Z M 6.171875 0 "
           id="path48" />
      </symbol>
      <symbol
         overflow="visible"
         id="glyph0-14">
        <path
           style="stroke:none;"
           d="M 5.734375 -7.625 L 6.8125 -7.625 L 6.8125 0 L 5.734375 0 L 5.734375 -3.515625 L 2.015625 -3.515625 L 2.015625 0 L 0.953125 0 L 0.953125 -7.625 L 2.015625 -7.625 L 2.015625 -4.4375 L 5.734375 -4.4375 Z M 5.734375 -7.625 "
           id="path51" />
      </symbol>
      <symbol
         overflow="visible"
         id="glyph0-15">
        <path
           style="stroke:none;"
           d="M 0.640625 -3.8125 C 0.640625 -4.46875 0.734375 -5.046875 0.921875 -5.546875 C 1.117188 -6.046875 1.382812 -6.460938 1.71875 -6.796875 C 2.050781 -7.128906 2.4375 -7.378906 2.875 -7.546875 C 3.320312 -7.710938 3.796875 -7.796875 4.296875 -7.796875 C 4.785156 -7.796875 5.25 -7.710938 5.6875 -7.546875 C 6.125 -7.378906 6.507812 -7.128906 6.84375 -6.796875 C 7.175781 -6.460938 7.4375 -6.046875 7.625 -5.546875 C 7.820312 -5.046875 7.921875 -4.46875 7.921875 -3.8125 C 7.921875 -3.164062 7.820312 -2.59375 7.625 -2.09375 C 7.4375 -1.59375 7.175781 -1.175781 6.84375 -0.84375 C 6.507812 -0.507812 6.125 -0.253906 5.6875 -0.078125 C 5.25 0.0859375 4.785156 0.171875 4.296875 0.171875 C 3.796875 0.171875 3.320312 0.0859375 2.875 -0.078125 C 2.4375 -0.253906 2.050781 -0.507812 1.71875 -0.84375 C 1.382812 -1.175781 1.117188 -1.59375 0.921875 -2.09375 C 0.734375 -2.59375 0.640625 -3.164062 0.640625 -3.8125 Z M 1.765625 -3.8125 C 1.765625 -3.351562 1.820312 -2.929688 1.9375 -2.546875 C 2.050781 -2.171875 2.21875 -1.851562 2.4375 -1.59375 C 2.65625 -1.332031 2.921875 -1.128906 3.234375 -0.984375 C 3.546875 -0.835938 3.894531 -0.765625 4.28125 -0.765625 C 4.664062 -0.765625 5.007812 -0.835938 5.3125 -0.984375 C 5.625 -1.128906 5.890625 -1.332031 6.109375 -1.59375 C 6.328125 -1.851562 6.492188 -2.171875 6.609375 -2.546875 C 6.722656 -2.929688 6.78125 -3.351562 6.78125 -3.8125 C 6.78125 -4.28125 6.722656 -4.703125 6.609375 -5.078125 C 6.492188 -5.453125 6.328125 -5.769531 6.109375 -6.03125 C 5.890625 -6.300781 5.625 -6.503906 5.3125 -6.640625 C 5.007812 -6.785156 4.664062 -6.859375 4.28125 -6.859375 C 3.894531 -6.859375 3.546875 -6.785156 3.234375 -6.640625 C 2.921875 -6.503906 2.65625 -6.300781 2.4375 -6.03125 C 2.21875 -5.769531 2.050781 -5.453125 1.9375 -5.078125 C 1.820312 -4.703125 1.765625 -4.28125 1.765625 -3.8125 Z M 1.765625 -3.8125 "
           id="path54" />
      </symbol>
      <symbol
         overflow="visible"
         id="glyph0-16">
        <path
           style="stroke:none;"
           d="M 5.109375 -5.171875 C 4.804688 -4.191406 4.492188 -3.28125 4.171875 -2.4375 C 3.859375 -1.601562 3.546875 -0.789062 3.234375 0 L 2.171875 0 C 1.773438 -1.125 1.425781 -2.304688 1.125 -3.546875 C 0.832031 -4.796875 0.5625 -6.15625 0.3125 -7.625 L 1.4375 -7.625 C 1.53125 -7.050781 1.628906 -6.476562 1.734375 -5.90625 C 1.847656 -5.332031 1.960938 -4.773438 2.078125 -4.234375 C 2.203125 -3.703125 2.320312 -3.1875 2.4375 -2.6875 C 2.5625 -2.195312 2.6875 -1.742188 2.8125 -1.328125 C 3.101562 -2.097656 3.410156 -2.941406 3.734375 -3.859375 C 4.066406 -4.785156 4.375 -5.738281 4.65625 -6.71875 L 5.59375 -6.71875 C 5.875 -5.738281 6.179688 -4.785156 6.515625 -3.859375 C 6.859375 -2.941406 7.175781 -2.097656 7.46875 -1.328125 C 7.582031 -1.742188 7.695312 -2.195312 7.8125 -2.6875 C 7.9375 -3.175781 8.054688 -3.6875 8.171875 -4.21875 C 8.285156 -4.757812 8.394531 -5.316406 8.5 -5.890625 C 8.613281 -6.472656 8.722656 -7.050781 8.828125 -7.625 L 9.90625 -7.625 C 9.644531 -6.15625 9.363281 -4.796875 9.0625 -3.546875 C 8.769531 -2.304688 8.429688 -1.125 8.046875 0 L 6.984375 0 C 6.660156 -0.789062 6.34375 -1.601562 6.03125 -2.4375 C 5.726562 -3.28125 5.421875 -4.191406 5.109375 -5.171875 Z M 5.109375 -5.171875 "
           id="path57" />
      </symbol>
      <symbol
         overflow="visible"
         id="glyph0-17">
        <path
           style="stroke:none;"
           d="M 2.765625 0 L 2.765625 -3.0625 C 2.253906 -3.84375 1.773438 -4.613281 1.328125 -5.375 C 0.878906 -6.132812 0.457031 -6.882812 0.0625 -7.625 L 1.3125 -7.625 C 1.59375 -7.019531 1.90625 -6.40625 2.25 -5.78125 C 2.59375 -5.164062 2.953125 -4.570312 3.328125 -4 C 3.679688 -4.570312 4.03125 -5.164062 4.375 -5.78125 C 4.71875 -6.40625 5.035156 -7.019531 5.328125 -7.625 L 6.515625 -7.625 C 6.117188 -6.882812 5.695312 -6.132812 5.25 -5.375 C 4.800781 -4.625 4.328125 -3.859375 3.828125 -3.078125 L 3.828125 0 Z M 2.765625 0 "
           id="path60" />
      </symbol>
      <symbol
         overflow="visible"
         id="glyph0-18">
        <path
           style="stroke:none;"
           d="M 2.71875 -0.765625 C 3.832031 -0.765625 4.390625 -1.144531 4.390625 -1.90625 C 4.390625 -2.132812 4.335938 -2.332031 4.234375 -2.5 C 4.140625 -2.664062 4.007812 -2.804688 3.84375 -2.921875 C 3.675781 -3.046875 3.484375 -3.148438 3.265625 -3.234375 C 3.046875 -3.328125 2.816406 -3.421875 2.578125 -3.515625 C 2.296875 -3.609375 2.03125 -3.710938 1.78125 -3.828125 C 1.53125 -3.953125 1.3125 -4.097656 1.125 -4.265625 C 0.945312 -4.429688 0.800781 -4.625 0.6875 -4.84375 C 0.582031 -5.070312 0.53125 -5.347656 0.53125 -5.671875 C 0.53125 -6.335938 0.757812 -6.859375 1.21875 -7.234375 C 1.675781 -7.609375 2.304688 -7.796875 3.109375 -7.796875 C 3.566406 -7.796875 3.984375 -7.742188 4.359375 -7.640625 C 4.734375 -7.546875 5.007812 -7.441406 5.1875 -7.328125 L 4.84375 -6.453125 C 4.695312 -6.546875 4.46875 -6.640625 4.15625 -6.734375 C 3.851562 -6.828125 3.503906 -6.875 3.109375 -6.875 C 2.898438 -6.875 2.707031 -6.851562 2.53125 -6.8125 C 2.351562 -6.769531 2.195312 -6.703125 2.0625 -6.609375 C 1.9375 -6.523438 1.832031 -6.414062 1.75 -6.28125 C 1.675781 -6.144531 1.640625 -5.984375 1.640625 -5.796875 C 1.640625 -5.585938 1.675781 -5.414062 1.75 -5.28125 C 1.832031 -5.144531 1.945312 -5.019531 2.09375 -4.90625 C 2.25 -4.800781 2.421875 -4.703125 2.609375 -4.609375 C 2.804688 -4.523438 3.019531 -4.441406 3.25 -4.359375 C 3.582031 -4.222656 3.882812 -4.085938 4.15625 -3.953125 C 4.4375 -3.828125 4.675781 -3.671875 4.875 -3.484375 C 5.082031 -3.304688 5.238281 -3.085938 5.34375 -2.828125 C 5.457031 -2.578125 5.515625 -2.269531 5.515625 -1.90625 C 5.515625 -1.238281 5.269531 -0.722656 4.78125 -0.359375 C 4.289062 -0.00390625 3.601562 0.171875 2.71875 0.171875 C 2.414062 0.171875 2.132812 0.148438 1.875 0.109375 C 1.625 0.0664062 1.398438 0.0195312 1.203125 -0.03125 C 1.003906 -0.09375 0.832031 -0.15625 0.6875 -0.21875 C 0.550781 -0.28125 0.441406 -0.332031 0.359375 -0.375 L 0.6875 -1.25 C 0.851562 -1.15625 1.109375 -1.050781 1.453125 -0.9375 C 1.796875 -0.820312 2.21875 -0.765625 2.71875 -0.765625 Z M 2.71875 -0.765625 "
           id="path63" />
      </symbol>
      <symbol
         overflow="visible"
         id="glyph0-19">
        <path
           style="stroke:none;"
           d="M 3.78125 0.171875 C 3.28125 0.171875 2.847656 0.09375 2.484375 -0.0625 C 2.117188 -0.21875 1.816406 -0.425781 1.578125 -0.6875 C 1.347656 -0.957031 1.175781 -1.273438 1.0625 -1.640625 C 0.945312 -2.015625 0.890625 -2.414062 0.890625 -2.84375 L 0.890625 -7.625 L 1.953125 -7.625 L 1.953125 -2.953125 C 1.953125 -2.191406 2.117188 -1.640625 2.453125 -1.296875 C 2.796875 -0.953125 3.238281 -0.78125 3.78125 -0.78125 C 4.050781 -0.78125 4.296875 -0.820312 4.515625 -0.90625 C 4.742188 -0.988281 4.9375 -1.117188 5.09375 -1.296875 C 5.257812 -1.472656 5.382812 -1.695312 5.46875 -1.96875 C 5.5625 -2.25 5.609375 -2.578125 5.609375 -2.953125 L 5.609375 -7.625 L 6.671875 -7.625 L 6.671875 -2.84375 C 6.671875 -2.414062 6.613281 -2.015625 6.5 -1.640625 C 6.394531 -1.273438 6.222656 -0.957031 5.984375 -0.6875 C 5.742188 -0.425781 5.441406 -0.21875 5.078125 -0.0625 C 4.710938 0.09375 4.28125 0.171875 3.78125 0.171875 Z M 3.78125 0.171875 "
           id="path66" />
      </symbol>
      <symbol
         overflow="visible"
         id="glyph1-0">
        <path
           style="stroke:none;"
           d="M 0.703125 0 L 0.703125 -10.5 L 6.296875 -10.5 L 6.296875 0 Z M 5.59375 -0.703125 L 5.59375 -9.796875 L 1.40625 -9.796875 L 1.40625 -0.703125 Z M 5.59375 -0.703125 "
           id="path69" />
      </symbol>
      <symbol
         overflow="visible"
         id="glyph1-1">
        <path
           style="stroke:none;"
           d="M 7.6875 0 C 7.53125 -0.414062 7.378906 -0.828125 7.234375 -1.234375 C 7.097656 -1.640625 6.953125 -2.054688 6.796875 -2.484375 L 2.40625 -2.484375 L 1.53125 0 L 0.109375 0 C 0.484375 -1.03125 0.832031 -1.976562 1.15625 -2.84375 C 1.488281 -3.71875 1.8125 -4.546875 2.125 -5.328125 C 2.4375 -6.117188 2.742188 -6.867188 3.046875 -7.578125 C 3.359375 -8.296875 3.679688 -9.003906 4.015625 -9.703125 L 5.265625 -9.703125 C 5.597656 -9.003906 5.914062 -8.296875 6.21875 -7.578125 C 6.53125 -6.867188 6.84375 -6.117188 7.15625 -5.328125 C 7.46875 -4.546875 7.785156 -3.71875 8.109375 -2.84375 C 8.441406 -1.976562 8.796875 -1.03125 9.171875 0 Z M 6.40625 -3.59375 C 6.113281 -4.40625 5.816406 -5.191406 5.515625 -5.953125 C 5.222656 -6.710938 4.921875 -7.441406 4.609375 -8.140625 C 4.273438 -7.441406 3.960938 -6.710938 3.671875 -5.953125 C 3.378906 -5.191406 3.085938 -4.40625 2.796875 -3.59375 Z M 6.40625 -3.59375 "
           id="path72" />
      </symbol>
      <symbol
         overflow="visible"
         id="glyph1-2">
        <path
           style="stroke:none;"
           d="M 1.125 -7.0625 C 1.414062 -7.144531 1.804688 -7.226562 2.296875 -7.3125 C 2.796875 -7.394531 3.367188 -7.4375 4.015625 -7.4375 C 4.597656 -7.4375 5.078125 -7.351562 5.453125 -7.1875 C 5.835938 -7.019531 6.144531 -6.789062 6.375 -6.5 C 6.601562 -6.207031 6.765625 -5.851562 6.859375 -5.4375 C 6.953125 -5.03125 7 -4.582031 7 -4.09375 L 7 0 L 5.703125 0 L 5.703125 -3.8125 C 5.703125 -4.257812 5.671875 -4.640625 5.609375 -4.953125 C 5.546875 -5.273438 5.441406 -5.53125 5.296875 -5.71875 C 5.160156 -5.914062 4.972656 -6.054688 4.734375 -6.140625 C 4.503906 -6.234375 4.21875 -6.28125 3.875 -6.28125 C 3.738281 -6.28125 3.59375 -6.273438 3.4375 -6.265625 C 3.289062 -6.265625 3.148438 -6.253906 3.015625 -6.234375 C 2.878906 -6.222656 2.753906 -6.207031 2.640625 -6.1875 C 2.535156 -6.164062 2.460938 -6.148438 2.421875 -6.140625 L 2.421875 0 L 1.125 0 Z M 1.125 -7.0625 "
           id="path75" />
      </symbol>
      <symbol
         overflow="visible"
         id="glyph1-3">
        <path
           style="stroke:none;"
           d="M 0.71875 -3.625 C 0.71875 -4.269531 0.8125 -4.832031 1 -5.3125 C 1.1875 -5.789062 1.429688 -6.1875 1.734375 -6.5 C 2.046875 -6.820312 2.398438 -7.0625 2.796875 -7.21875 C 3.203125 -7.382812 3.613281 -7.46875 4.03125 -7.46875 C 5.007812 -7.46875 5.757812 -7.160156 6.28125 -6.546875 C 6.800781 -5.929688 7.0625 -5 7.0625 -3.75 C 7.0625 -3.695312 7.0625 -3.625 7.0625 -3.53125 C 7.0625 -3.445312 7.0625 -3.367188 7.0625 -3.296875 L 2.078125 -3.296875 C 2.128906 -2.535156 2.34375 -1.957031 2.71875 -1.5625 C 3.101562 -1.175781 3.703125 -0.984375 4.515625 -0.984375 C 4.972656 -0.984375 5.359375 -1.019531 5.671875 -1.09375 C 5.984375 -1.175781 6.222656 -1.253906 6.390625 -1.328125 L 6.5625 -0.234375 C 6.40625 -0.148438 6.128906 -0.0625 5.734375 0.03125 C 5.335938 0.125 4.882812 0.171875 4.375 0.171875 C 3.75 0.171875 3.203125 0.078125 2.734375 -0.109375 C 2.273438 -0.304688 1.894531 -0.570312 1.59375 -0.90625 C 1.289062 -1.238281 1.066406 -1.632812 0.921875 -2.09375 C 0.785156 -2.5625 0.71875 -3.070312 0.71875 -3.625 Z M 5.71875 -4.34375 C 5.71875 -4.925781 5.566406 -5.40625 5.265625 -5.78125 C 4.960938 -6.164062 4.546875 -6.359375 4.015625 -6.359375 C 3.710938 -6.359375 3.445312 -6.296875 3.21875 -6.171875 C 3 -6.054688 2.804688 -5.90625 2.640625 -5.71875 C 2.484375 -5.539062 2.359375 -5.328125 2.265625 -5.078125 C 2.179688 -4.835938 2.125 -4.59375 2.09375 -4.34375 Z M 5.40625 -10.03125 L 3.4375 -8.125 L 2.78125 -8.703125 L 4.5625 -10.859375 Z M 5.40625 -10.03125 "
           id="path78" />
      </symbol>
      <symbol
         overflow="visible"
         id="glyph1-4">
        <path
           style="stroke:none;"
           d="M 0.71875 -3.625 C 0.71875 -4.269531 0.8125 -4.832031 1 -5.3125 C 1.1875 -5.789062 1.429688 -6.1875 1.734375 -6.5 C 2.046875 -6.820312 2.398438 -7.0625 2.796875 -7.21875 C 3.203125 -7.382812 3.613281 -7.46875 4.03125 -7.46875 C 5.007812 -7.46875 5.757812 -7.160156 6.28125 -6.546875 C 6.800781 -5.929688 7.0625 -5 7.0625 -3.75 C 7.0625 -3.695312 7.0625 -3.625 7.0625 -3.53125 C 7.0625 -3.445312 7.0625 -3.367188 7.0625 -3.296875 L 2.078125 -3.296875 C 2.128906 -2.535156 2.34375 -1.957031 2.71875 -1.5625 C 3.101562 -1.175781 3.703125 -0.984375 4.515625 -0.984375 C 4.972656 -0.984375 5.359375 -1.019531 5.671875 -1.09375 C 5.984375 -1.175781 6.222656 -1.253906 6.390625 -1.328125 L 6.5625 -0.234375 C 6.40625 -0.148438 6.128906 -0.0625 5.734375 0.03125 C 5.335938 0.125 4.882812 0.171875 4.375 0.171875 C 3.75 0.171875 3.203125 0.078125 2.734375 -0.109375 C 2.273438 -0.304688 1.894531 -0.570312 1.59375 -0.90625 C 1.289062 -1.238281 1.066406 -1.632812 0.921875 -2.09375 C 0.785156 -2.5625 0.71875 -3.070312 0.71875 -3.625 Z M 5.71875 -4.34375 C 5.71875 -4.925781 5.566406 -5.40625 5.265625 -5.78125 C 4.960938 -6.164062 4.546875 -6.359375 4.015625 -6.359375 C 3.710938 -6.359375 3.445312 -6.296875 3.21875 -6.171875 C 3 -6.054688 2.804688 -5.90625 2.640625 -5.71875 C 2.484375 -5.539062 2.359375 -5.328125 2.265625 -5.078125 C 2.179688 -4.835938 2.125 -4.59375 2.09375 -4.34375 Z M 5.71875 -4.34375 "
           id="path81" />
      </symbol>
      <symbol
         overflow="visible"
         id="glyph2-0">
        <path
           style="stroke:none;"
           d="M 0 -0.703125 L -10.5 -0.703125 L -10.5 -6.296875 L 0 -6.296875 Z M -0.703125 -5.59375 L -9.796875 -5.59375 L -9.796875 -1.40625 L -0.703125 -1.40625 Z M -0.703125 -5.59375 "
           id="path84" />
      </symbol>
      <symbol
         overflow="visible"
         id="glyph2-1">
        <path
           style="stroke:none;"
           d="M 0 -7.859375 C -0.34375 -7.648438 -0.726562 -7.410156 -1.15625 -7.140625 C -1.59375 -6.878906 -2.039062 -6.59375 -2.5 -6.28125 C -2.957031 -5.976562 -3.425781 -5.660156 -3.90625 -5.328125 C -4.382812 -4.992188 -4.84375 -4.660156 -5.28125 -4.328125 C -5.726562 -4.003906 -6.144531 -3.6875 -6.53125 -3.375 C -6.925781 -3.070312 -7.273438 -2.789062 -7.578125 -2.53125 L 0 -2.53125 L 0 -1.203125 L -9.703125 -1.203125 L -9.703125 -2.28125 C -9.234375 -2.71875 -8.6875 -3.1875 -8.0625 -3.6875 C -7.445312 -4.1875 -6.8125 -4.679688 -6.15625 -5.171875 C -5.5 -5.660156 -4.851562 -6.117188 -4.21875 -6.546875 C -3.582031 -6.984375 -3.015625 -7.351562 -2.515625 -7.65625 L -9.703125 -7.65625 L -9.703125 -8.984375 L 0 -8.984375 Z M 0 -7.859375 "
           id="path87" />
      </symbol>
      <symbol
         overflow="visible"
         id="glyph2-2">
        <path
           style="stroke:none;"
           d="M -3.640625 -7.546875 C -3.054688 -7.546875 -2.53125 -7.460938 -2.0625 -7.296875 C -1.601562 -7.128906 -1.203125 -6.890625 -0.859375 -6.578125 C -0.523438 -6.273438 -0.265625 -5.914062 -0.078125 -5.5 C 0.0976562 -5.082031 0.1875 -4.625 0.1875 -4.125 C 0.1875 -3.632812 0.0976562 -3.175781 -0.078125 -2.75 C -0.265625 -2.332031 -0.523438 -1.972656 -0.859375 -1.671875 C -1.203125 -1.367188 -1.601562 -1.132812 -2.0625 -0.96875 C -2.53125 -0.800781 -3.054688 -0.71875 -3.640625 -0.71875 C -4.210938 -0.71875 -4.734375 -0.800781 -5.203125 -0.96875 C -5.671875 -1.132812 -6.070312 -1.367188 -6.40625 -1.671875 C -6.75 -1.972656 -7.007812 -2.332031 -7.1875 -2.75 C -7.375 -3.175781 -7.46875 -3.632812 -7.46875 -4.125 C -7.46875 -4.625 -7.375 -5.082031 -7.1875 -5.5 C -7.007812 -5.914062 -6.75 -6.273438 -6.40625 -6.578125 C -6.070312 -6.890625 -5.671875 -7.128906 -5.203125 -7.296875 C -4.734375 -7.460938 -4.210938 -7.546875 -3.640625 -7.546875 Z M -3.640625 -6.1875 C -4.460938 -6.1875 -5.113281 -6 -5.59375 -5.625 C -6.070312 -5.257812 -6.3125 -4.757812 -6.3125 -4.125 C -6.3125 -3.488281 -6.070312 -2.988281 -5.59375 -2.625 C -5.113281 -2.257812 -4.460938 -2.078125 -3.640625 -2.078125 C -2.816406 -2.078125 -2.164062 -2.257812 -1.6875 -2.625 C -1.207031 -2.988281 -0.96875 -3.488281 -0.96875 -4.125 C -0.96875 -4.757812 -1.207031 -5.257812 -1.6875 -5.625 C -2.164062 -6 -2.816406 -6.1875 -3.640625 -6.1875 Z M -3.640625 -6.1875 "
           id="path90" />
      </symbol>
      <symbol
         overflow="visible"
         id="glyph2-3">
        <path
           style="stroke:none;"
           d="M -7.0625 -1.125 C -7.144531 -1.414062 -7.226562 -1.804688 -7.3125 -2.296875 C -7.394531 -2.785156 -7.4375 -3.351562 -7.4375 -4 C -7.4375 -4.46875 -7.375 -4.859375 -7.25 -5.171875 C -7.125 -5.492188 -6.9375 -5.765625 -6.6875 -5.984375 C -6.738281 -6.046875 -6.804688 -6.144531 -6.890625 -6.28125 C -6.972656 -6.425781 -7.050781 -6.597656 -7.125 -6.796875 C -7.207031 -7.003906 -7.28125 -7.234375 -7.34375 -7.484375 C -7.40625 -7.742188 -7.4375 -8.015625 -7.4375 -8.296875 C -7.4375 -8.859375 -7.351562 -9.316406 -7.1875 -9.671875 C -7.019531 -10.023438 -6.785156 -10.300781 -6.484375 -10.5 C -6.191406 -10.707031 -5.835938 -10.84375 -5.421875 -10.90625 C -5.015625 -10.976562 -4.570312 -11.015625 -4.09375 -11.015625 L 0 -11.015625 L 0 -9.71875 L -3.8125 -9.71875 C -4.238281 -9.71875 -4.601562 -9.695312 -4.90625 -9.65625 C -5.21875 -9.613281 -5.472656 -9.53125 -5.671875 -9.40625 C -5.878906 -9.289062 -6.03125 -9.132812 -6.125 -8.9375 C -6.226562 -8.738281 -6.28125 -8.476562 -6.28125 -8.15625 C -6.28125 -7.71875 -6.222656 -7.359375 -6.109375 -7.078125 C -5.992188 -6.796875 -5.890625 -6.601562 -5.796875 -6.5 C -5.554688 -6.570312 -5.289062 -6.625 -5 -6.65625 C -4.707031 -6.695312 -4.40625 -6.71875 -4.09375 -6.71875 L 0 -6.71875 L 0 -5.421875 L -3.8125 -5.421875 C -4.238281 -5.421875 -4.601562 -5.394531 -4.90625 -5.34375 C -5.21875 -5.300781 -5.472656 -5.21875 -5.671875 -5.09375 C -5.878906 -4.976562 -6.03125 -4.820312 -6.125 -4.625 C -6.226562 -4.425781 -6.28125 -4.171875 -6.28125 -3.859375 C -6.28125 -3.734375 -6.273438 -3.59375 -6.265625 -3.4375 C -6.265625 -3.289062 -6.253906 -3.148438 -6.234375 -3.015625 C -6.222656 -2.878906 -6.207031 -2.753906 -6.1875 -2.640625 C -6.164062 -2.535156 -6.148438 -2.460938 -6.140625 -2.421875 L 0 -2.421875 L 0 -1.125 Z M -7.0625 -1.125 "
           id="path93" />
      </symbol>
      <symbol
         overflow="visible"
         id="glyph2-4">
        <path
           style="stroke:none;"
           d="M -6.953125 -2.421875 C -7.054688 -2.578125 -7.164062 -2.816406 -7.28125 -3.140625 C -7.394531 -3.460938 -7.453125 -3.832031 -7.453125 -4.25 C -7.453125 -4.78125 -7.359375 -5.25 -7.171875 -5.65625 C -6.984375 -6.0625 -6.71875 -6.398438 -6.375 -6.671875 C -6.039062 -6.953125 -5.640625 -7.164062 -5.171875 -7.3125 C -4.710938 -7.457031 -4.203125 -7.53125 -3.640625 -7.53125 C -3.054688 -7.53125 -2.523438 -7.441406 -2.046875 -7.265625 C -1.578125 -7.097656 -1.175781 -6.851562 -0.84375 -6.53125 C -0.519531 -6.21875 -0.269531 -5.835938 -0.09375 -5.390625 C 0.0820312 -4.941406 0.171875 -4.4375 0.171875 -3.875 C 0.171875 -3.269531 0.128906 -2.734375 0.046875 -2.265625 C -0.0351562 -1.796875 -0.117188 -1.414062 -0.203125 -1.125 L -10.640625 -1.125 L -10.859375 -2.421875 Z M -1.140625 -2.421875 C -1.097656 -2.554688 -1.0625 -2.738281 -1.03125 -2.96875 C -1 -3.207031 -0.984375 -3.503906 -0.984375 -3.859375 C -0.984375 -4.554688 -1.210938 -5.113281 -1.671875 -5.53125 C -2.128906 -5.957031 -2.785156 -6.171875 -3.640625 -6.171875 C -4.015625 -6.171875 -4.363281 -6.132812 -4.6875 -6.0625 C -5.019531 -5.988281 -5.300781 -5.867188 -5.53125 -5.703125 C -5.769531 -5.535156 -5.957031 -5.316406 -6.09375 -5.046875 C -6.226562 -4.773438 -6.296875 -4.457031 -6.296875 -4.09375 C -6.296875 -3.738281 -6.234375 -3.410156 -6.109375 -3.109375 C -5.992188 -2.804688 -5.867188 -2.578125 -5.734375 -2.421875 Z M -1.140625 -2.421875 "
           id="path96" />
      </symbol>
      <symbol
         overflow="visible"
         id="glyph2-5">
        <path
           style="stroke:none;"
           d="M -7.4375 -3.8125 C -7.4375 -3.914062 -7.425781 -4.039062 -7.40625 -4.1875 C -7.394531 -4.332031 -7.378906 -4.472656 -7.359375 -4.609375 C -7.335938 -4.753906 -7.3125 -4.882812 -7.28125 -5 C -7.257812 -5.125 -7.238281 -5.210938 -7.21875 -5.265625 L -6.09375 -5.046875 C -6.125 -4.941406 -6.164062 -4.769531 -6.21875 -4.53125 C -6.269531 -4.289062 -6.296875 -3.984375 -6.296875 -3.609375 C -6.296875 -3.367188 -6.269531 -3.128906 -6.21875 -2.890625 C -6.164062 -2.648438 -6.132812 -2.492188 -6.125 -2.421875 L 0 -2.421875 L 0 -1.125 L -6.96875 -1.125 C -7.082031 -1.425781 -7.1875 -1.804688 -7.28125 -2.265625 C -7.382812 -2.722656 -7.4375 -3.238281 -7.4375 -3.8125 Z M -7.4375 -3.8125 "
           id="path99" />
      </symbol>
      <symbol
         overflow="visible"
         id="glyph2-6">
        <path
           style="stroke:none;"
           d="M -3.625 -0.71875 C -4.269531 -0.71875 -4.832031 -0.8125 -5.3125 -1 C -5.789062 -1.1875 -6.1875 -1.429688 -6.5 -1.734375 C -6.820312 -2.046875 -7.0625 -2.398438 -7.21875 -2.796875 C -7.382812 -3.203125 -7.46875 -3.613281 -7.46875 -4.03125 C -7.46875 -5.007812 -7.160156 -5.757812 -6.546875 -6.28125 C -5.929688 -6.800781 -5 -7.0625 -3.75 -7.0625 C -3.695312 -7.0625 -3.625 -7.0625 -3.53125 -7.0625 C -3.445312 -7.0625 -3.367188 -7.0625 -3.296875 -7.0625 L -3.296875 -2.078125 C -2.535156 -2.128906 -1.957031 -2.34375 -1.5625 -2.71875 C -1.175781 -3.101562 -0.984375 -3.703125 -0.984375 -4.515625 C -0.984375 -4.972656 -1.019531 -5.359375 -1.09375 -5.671875 C -1.175781 -5.984375 -1.253906 -6.222656 -1.328125 -6.390625 L -0.234375 -6.5625 C -0.148438 -6.40625 -0.0625 -6.128906 0.03125 -5.734375 C 0.125 -5.335938 0.171875 -4.882812 0.171875 -4.375 C 0.171875 -3.75 0.078125 -3.203125 -0.109375 -2.734375 C -0.304688 -2.273438 -0.570312 -1.894531 -0.90625 -1.59375 C -1.238281 -1.289062 -1.632812 -1.066406 -2.09375 -0.921875 C -2.5625 -0.785156 -3.070312 -0.71875 -3.625 -0.71875 Z M -4.34375 -5.71875 C -4.925781 -5.71875 -5.40625 -5.566406 -5.78125 -5.265625 C -6.164062 -4.960938 -6.359375 -4.546875 -6.359375 -4.015625 C -6.359375 -3.710938 -6.296875 -3.445312 -6.171875 -3.21875 C -6.054688 -3 -5.90625 -2.804688 -5.71875 -2.640625 C -5.539062 -2.484375 -5.328125 -2.359375 -5.078125 -2.265625 C -4.835938 -2.179688 -4.59375 -2.125 -4.34375 -2.09375 Z M -4.34375 -5.71875 "
           id="path102" />
      </symbol>
      <symbol
         overflow="visible"
         id="glyph2-7">
        <path
           style="stroke:none;"
           d=""
           id="path105" />
      </symbol>
      <symbol
         overflow="visible"
         id="glyph2-8">
        <path
           style="stroke:none;"
           d="M -5.734375 -5.828125 C -5.867188 -5.671875 -5.992188 -5.441406 -6.109375 -5.140625 C -6.234375 -4.835938 -6.296875 -4.507812 -6.296875 -4.15625 C -6.296875 -3.78125 -6.226562 -3.457031 -6.09375 -3.1875 C -5.957031 -2.925781 -5.769531 -2.710938 -5.53125 -2.546875 C -5.300781 -2.378906 -5.019531 -2.257812 -4.6875 -2.1875 C -4.363281 -2.113281 -4.015625 -2.078125 -3.640625 -2.078125 C -2.785156 -2.078125 -2.128906 -2.285156 -1.671875 -2.703125 C -1.210938 -3.117188 -0.984375 -3.675781 -0.984375 -4.375 C -0.984375 -4.726562 -1 -5.023438 -1.03125 -5.265625 C -1.0625 -5.503906 -1.097656 -5.691406 -1.140625 -5.828125 Z M -10.640625 -5.828125 L -10.859375 -7.125 L -0.203125 -7.125 C -0.117188 -6.820312 -0.0351562 -6.4375 0.046875 -5.96875 C 0.128906 -5.507812 0.171875 -4.976562 0.171875 -4.375 C 0.171875 -3.8125 0.0820312 -3.304688 -0.09375 -2.859375 C -0.269531 -2.410156 -0.519531 -2.023438 -0.84375 -1.703125 C -1.175781 -1.390625 -1.578125 -1.144531 -2.046875 -0.96875 C -2.523438 -0.800781 -3.054688 -0.71875 -3.640625 -0.71875 C -4.203125 -0.71875 -4.710938 -0.785156 -5.171875 -0.921875 C -5.640625 -1.066406 -6.039062 -1.28125 -6.375 -1.5625 C -6.71875 -1.84375 -6.984375 -2.1875 -7.171875 -2.59375 C -7.359375 -3 -7.453125 -3.460938 -7.453125 -3.984375 C -7.453125 -4.410156 -7.394531 -4.785156 -7.28125 -5.109375 C -7.164062 -5.429688 -7.054688 -5.671875 -6.953125 -5.828125 Z M -10.640625 -5.828125 "
           id="path108" />
      </symbol>
      <symbol
         overflow="visible"
         id="glyph2-9">
        <path
           style="stroke:none;"
           d="M -0.203125 -6.921875 C -0.128906 -6.617188 -0.0507812 -6.222656 0.03125 -5.734375 C 0.113281 -5.242188 0.15625 -4.675781 0.15625 -4.03125 C 0.15625 -3.46875 0.0703125 -2.992188 -0.09375 -2.609375 C -0.257812 -2.234375 -0.488281 -1.925781 -0.78125 -1.6875 C -1.082031 -1.457031 -1.4375 -1.289062 -1.84375 -1.1875 C -2.25 -1.082031 -2.695312 -1.03125 -3.1875 -1.03125 L -7.28125 -1.03125 L -7.28125 -2.34375 L -3.46875 -2.34375 C -2.582031 -2.34375 -1.945312 -2.476562 -1.5625 -2.75 C -1.1875 -3.03125 -1 -3.503906 -1 -4.171875 C -1 -4.304688 -1 -4.445312 -1 -4.59375 C -1.007812 -4.75 -1.019531 -4.890625 -1.03125 -5.015625 C -1.050781 -5.148438 -1.066406 -5.269531 -1.078125 -5.375 C -1.097656 -5.488281 -1.117188 -5.566406 -1.140625 -5.609375 L -7.28125 -5.609375 L -7.28125 -6.921875 Z M -0.203125 -6.921875 "
           id="path111" />
      </symbol>
      <symbol
         overflow="visible"
         id="glyph2-10">
        <path
           style="stroke:none;"
           d="M -7.28125 -2.34375 L -7.28125 -5.09375 L -6.1875 -5.09375 L -6.1875 -2.34375 L -2.828125 -2.34375 C -2.460938 -2.34375 -2.160156 -2.367188 -1.921875 -2.421875 C -1.679688 -2.472656 -1.492188 -2.554688 -1.359375 -2.671875 C -1.222656 -2.785156 -1.128906 -2.925781 -1.078125 -3.09375 C -1.023438 -3.257812 -1 -3.457031 -1 -3.6875 C -1 -4.070312 -1.039062 -4.382812 -1.125 -4.625 C -1.21875 -4.863281 -1.28125 -5.03125 -1.3125 -5.125 L -0.234375 -5.375 C -0.171875 -5.25 -0.09375 -5.019531 0 -4.6875 C 0.101562 -4.363281 0.15625 -3.988281 0.15625 -3.5625 C 0.15625 -3.070312 0.09375 -2.664062 -0.03125 -2.34375 C -0.15625 -2.019531 -0.34375 -1.757812 -0.59375 -1.5625 C -0.851562 -1.375 -1.164062 -1.238281 -1.53125 -1.15625 C -1.90625 -1.070312 -2.332031 -1.03125 -2.8125 -1.03125 L -9.3125 -1.03125 L -9.53125 -2.34375 Z M -7.28125 -2.34375 "
           id="path114" />
      </symbol>
      <symbol
         overflow="visible"
         id="glyph2-11">
        <path
           style="stroke:none;"
           d="M -0.9375 -2.8125 C -0.9375 -3.34375 -1.003906 -3.734375 -1.140625 -3.984375 C -1.285156 -4.242188 -1.507812 -4.375 -1.8125 -4.375 C -2.132812 -4.375 -2.390625 -4.25 -2.578125 -4 C -2.765625 -3.75 -2.972656 -3.335938 -3.203125 -2.765625 C -3.316406 -2.484375 -3.429688 -2.210938 -3.546875 -1.953125 C -3.660156 -1.691406 -3.796875 -1.46875 -3.953125 -1.28125 C -4.117188 -1.101562 -4.3125 -0.957031 -4.53125 -0.84375 C -4.757812 -0.726562 -5.035156 -0.671875 -5.359375 -0.671875 C -6.003906 -0.671875 -6.515625 -0.90625 -6.890625 -1.375 C -7.273438 -1.851562 -7.46875 -2.503906 -7.46875 -3.328125 C -7.46875 -3.535156 -7.453125 -3.738281 -7.421875 -3.9375 C -7.398438 -4.144531 -7.375 -4.335938 -7.34375 -4.515625 C -7.3125 -4.691406 -7.273438 -4.847656 -7.234375 -4.984375 C -7.203125 -5.117188 -7.171875 -5.226562 -7.140625 -5.3125 L -6.015625 -5.0625 C -6.085938 -4.925781 -6.164062 -4.707031 -6.25 -4.40625 C -6.332031 -4.113281 -6.375 -3.753906 -6.375 -3.328125 C -6.375 -2.960938 -6.300781 -2.644531 -6.15625 -2.375 C -6.007812 -2.101562 -5.78125 -1.96875 -5.46875 -1.96875 C -5.3125 -1.96875 -5.171875 -2 -5.046875 -2.0625 C -4.929688 -2.125 -4.820312 -2.21875 -4.71875 -2.34375 C -4.625 -2.46875 -4.535156 -2.625 -4.453125 -2.8125 C -4.367188 -3 -4.28125 -3.222656 -4.1875 -3.484375 C -4.050781 -3.828125 -3.921875 -4.132812 -3.796875 -4.40625 C -3.671875 -4.675781 -3.523438 -4.90625 -3.359375 -5.09375 C -3.191406 -5.289062 -2.988281 -5.441406 -2.75 -5.546875 C -2.507812 -5.648438 -2.21875 -5.703125 -1.875 -5.703125 C -1.207031 -5.703125 -0.695312 -5.453125 -0.34375 -4.953125 C 0 -4.453125 0.171875 -3.738281 0.171875 -2.8125 C 0.171875 -2.164062 0.113281 -1.660156 0 -1.296875 C -0.101562 -0.929688 -0.179688 -0.6875 -0.234375 -0.5625 L -1.359375 -0.796875 C -1.304688 -0.941406 -1.222656 -1.175781 -1.109375 -1.5 C -0.992188 -1.832031 -0.9375 -2.269531 -0.9375 -2.8125 Z M -0.9375 -2.8125 "
           id="path117" />
      </symbol>
      <symbol
         overflow="visible"
         id="glyph2-12">
        <path
           style="stroke:none;"
           d="M -0.9375 -3.578125 C -0.9375 -3.890625 -0.941406 -4.164062 -0.953125 -4.40625 C -0.972656 -4.644531 -1 -4.84375 -1.03125 -5 L -3.203125 -5 C -3.253906 -4.90625 -3.296875 -4.753906 -3.328125 -4.546875 C -3.359375 -4.335938 -3.375 -4.082031 -3.375 -3.78125 C -3.375 -3.582031 -3.359375 -3.375 -3.328125 -3.15625 C -3.304688 -2.9375 -3.25 -2.734375 -3.15625 -2.546875 C -3.070312 -2.367188 -2.953125 -2.21875 -2.796875 -2.09375 C -2.640625 -1.976562 -2.4375 -1.921875 -2.1875 -1.921875 C -1.71875 -1.921875 -1.390625 -2.066406 -1.203125 -2.359375 C -1.023438 -2.660156 -0.9375 -3.066406 -0.9375 -3.578125 Z M -7.46875 -3.46875 C -7.46875 -3.988281 -7.398438 -4.425781 -7.265625 -4.78125 C -7.128906 -5.144531 -6.9375 -5.4375 -6.6875 -5.65625 C -6.4375 -5.875 -6.140625 -6.03125 -5.796875 -6.125 C -5.460938 -6.21875 -5.085938 -6.265625 -4.671875 -6.265625 L -0.125 -6.265625 C -0.101562 -6.160156 -0.078125 -6.003906 -0.046875 -5.796875 C -0.015625 -5.597656 0.0078125 -5.375 0.03125 -5.125 C 0.0625 -4.875 0.0859375 -4.597656 0.109375 -4.296875 C 0.140625 -4.003906 0.15625 -3.71875 0.15625 -3.4375 C 0.15625 -3.019531 0.113281 -2.640625 0.03125 -2.296875 C -0.0507812 -1.953125 -0.179688 -1.648438 -0.359375 -1.390625 C -0.546875 -1.140625 -0.789062 -0.945312 -1.09375 -0.8125 C -1.394531 -0.675781 -1.753906 -0.609375 -2.171875 -0.609375 C -2.566406 -0.609375 -2.910156 -0.6875 -3.203125 -0.84375 C -3.492188 -1.007812 -3.726562 -1.234375 -3.90625 -1.515625 C -4.082031 -1.796875 -4.210938 -2.117188 -4.296875 -2.484375 C -4.378906 -2.859375 -4.421875 -3.253906 -4.421875 -3.671875 C -4.421875 -3.796875 -4.410156 -3.925781 -4.390625 -4.0625 C -4.378906 -4.207031 -4.363281 -4.34375 -4.34375 -4.46875 C -4.320312 -4.59375 -4.300781 -4.703125 -4.28125 -4.796875 C -4.257812 -4.890625 -4.242188 -4.957031 -4.234375 -5 L -4.609375 -5 C -4.816406 -5 -5.023438 -4.972656 -5.234375 -4.921875 C -5.453125 -4.878906 -5.640625 -4.796875 -5.796875 -4.671875 C -5.960938 -4.554688 -6.09375 -4.390625 -6.1875 -4.171875 C -6.289062 -3.960938 -6.34375 -3.691406 -6.34375 -3.359375 C -6.34375 -2.929688 -6.3125 -2.554688 -6.25 -2.234375 C -6.1875 -1.910156 -6.125 -1.671875 -6.0625 -1.515625 L -7.140625 -1.359375 C -7.210938 -1.523438 -7.285156 -1.800781 -7.359375 -2.1875 C -7.429688 -2.582031 -7.46875 -3.007812 -7.46875 -3.46875 Z M -7.46875 -3.46875 "
           id="path120" />
      </symbol>
      <symbol
         overflow="visible"
         id="glyph2-13">
        <path
           style="stroke:none;"
           d="M -3.625 -2.078125 C -3.25 -2.078125 -2.898438 -2.113281 -2.578125 -2.1875 C -2.253906 -2.257812 -1.972656 -2.378906 -1.734375 -2.546875 C -1.503906 -2.710938 -1.320312 -2.925781 -1.1875 -3.1875 C -1.050781 -3.457031 -0.984375 -3.78125 -0.984375 -4.15625 C -0.984375 -4.507812 -1.039062 -4.835938 -1.15625 -5.140625 C -1.28125 -5.441406 -1.410156 -5.671875 -1.546875 -5.828125 L -6.125 -5.828125 C -6.164062 -5.691406 -6.195312 -5.515625 -6.21875 -5.296875 C -6.25 -5.078125 -6.265625 -4.769531 -6.265625 -4.375 C -6.265625 -3.675781 -6.035156 -3.117188 -5.578125 -2.703125 C -5.128906 -2.285156 -4.476562 -2.078125 -3.625 -2.078125 Z M -3.625 -0.71875 C -4.21875 -0.71875 -4.75 -0.800781 -5.21875 -0.96875 C -5.6875 -1.144531 -6.082031 -1.390625 -6.40625 -1.703125 C -6.738281 -2.023438 -6.992188 -2.410156 -7.171875 -2.859375 C -7.347656 -3.304688 -7.4375 -3.8125 -7.4375 -4.375 C -7.4375 -4.976562 -7.390625 -5.507812 -7.296875 -5.96875 C -7.210938 -6.425781 -7.132812 -6.8125 -7.0625 -7.125 L 2.59375 -7.125 L 2.59375 -5.828125 L -0.328125 -5.828125 C -0.222656 -5.671875 -0.113281 -5.429688 0 -5.109375 C 0.113281 -4.785156 0.171875 -4.410156 0.171875 -3.984375 C 0.171875 -3.460938 0.078125 -3 -0.109375 -2.59375 C -0.296875 -2.1875 -0.554688 -1.84375 -0.890625 -1.5625 C -1.234375 -1.28125 -1.632812 -1.066406 -2.09375 -0.921875 C -2.5625 -0.785156 -3.070312 -0.71875 -3.625 -0.71875 Z M -3.625 -0.71875 "
           id="path123" />
      </symbol>
      <symbol
         overflow="visible"
         id="glyph2-14">
        <path
           style="stroke:none;"
           d="M -3.625 -0.71875 C -4.269531 -0.71875 -4.832031 -0.8125 -5.3125 -1 C -5.789062 -1.1875 -6.1875 -1.429688 -6.5 -1.734375 C -6.820312 -2.046875 -7.0625 -2.398438 -7.21875 -2.796875 C -7.382812 -3.203125 -7.46875 -3.613281 -7.46875 -4.03125 C -7.46875 -5.007812 -7.160156 -5.757812 -6.546875 -6.28125 C -5.929688 -6.800781 -5 -7.0625 -3.75 -7.0625 C -3.695312 -7.0625 -3.625 -7.0625 -3.53125 -7.0625 C -3.445312 -7.0625 -3.367188 -7.0625 -3.296875 -7.0625 L -3.296875 -2.078125 C -2.535156 -2.128906 -1.957031 -2.34375 -1.5625 -2.71875 C -1.175781 -3.101562 -0.984375 -3.703125 -0.984375 -4.515625 C -0.984375 -4.972656 -1.019531 -5.359375 -1.09375 -5.671875 C -1.175781 -5.984375 -1.253906 -6.222656 -1.328125 -6.390625 L -0.234375 -6.5625 C -0.148438 -6.40625 -0.0625 -6.128906 0.03125 -5.734375 C 0.125 -5.335938 0.171875 -4.882812 0.171875 -4.375 C 0.171875 -3.75 0.078125 -3.203125 -0.109375 -2.734375 C -0.304688 -2.273438 -0.570312 -1.894531 -0.90625 -1.59375 C -1.238281 -1.289062 -1.632812 -1.066406 -2.09375 -0.921875 C -2.5625 -0.785156 -3.070312 -0.71875 -3.625 -0.71875 Z M -4.34375 -5.71875 C -4.925781 -5.71875 -5.40625 -5.566406 -5.78125 -5.265625 C -6.164062 -4.960938 -6.359375 -4.546875 -6.359375 -4.015625 C -6.359375 -3.710938 -6.296875 -3.445312 -6.171875 -3.21875 C -6.054688 -3 -5.90625 -2.804688 -5.71875 -2.640625 C -5.539062 -2.484375 -5.328125 -2.359375 -5.078125 -2.265625 C -4.835938 -2.179688 -4.59375 -2.125 -4.34375 -2.09375 Z M -10.03125 -5.40625 L -8.125 -3.4375 L -8.703125 -2.78125 L -10.859375 -4.5625 Z M -10.03125 -5.40625 "
           id="path126" />
      </symbol>
      <symbol
         overflow="visible"
         id="glyph3-0">
        <path
           style="stroke:none;"
           d="M 0.546875 0 L 0.546875 -8.25 L 4.953125 -8.25 L 4.953125 0 Z M 4.40625 -0.546875 L 4.40625 -7.703125 L 1.09375 -7.703125 L 1.09375 -0.546875 Z M 4.40625 -0.546875 "
           id="path129" />
      </symbol>
      <symbol
         overflow="visible"
         id="glyph3-1">
        <path
           style="stroke:none;"
           d="M 0.875 -7.625 L 2.59375 -7.625 L 2.59375 0 L 0.875 0 Z M 0.875 -7.625 "
           id="path132" />
      </symbol>
      <symbol
         overflow="visible"
         id="glyph3-2">
        <path
           style="stroke:none;"
           d="M 6 0 C 5.507812 -0.875 4.976562 -1.734375 4.40625 -2.578125 C 3.832031 -3.429688 3.222656 -4.238281 2.578125 -5 L 2.578125 0 L 0.875 0 L 0.875 -7.625 L 2.28125 -7.625 C 2.519531 -7.382812 2.785156 -7.085938 3.078125 -6.734375 C 3.367188 -6.378906 3.664062 -6 3.96875 -5.59375 C 4.28125 -5.195312 4.582031 -4.785156 4.875 -4.359375 C 5.175781 -3.929688 5.460938 -3.519531 5.734375 -3.125 L 5.734375 -7.625 L 7.4375 -7.625 L 7.4375 0 Z M 6 0 "
           id="path135" />
      </symbol>
      <symbol
         overflow="visible"
         id="glyph3-3">
        <path
           style="stroke:none;"
           d="M 2.59375 -1.390625 C 2.675781 -1.390625 2.769531 -1.382812 2.875 -1.375 C 2.976562 -1.375 3.101562 -1.375 3.25 -1.375 C 4.113281 -1.375 4.75 -1.585938 5.15625 -2.015625 C 5.570312 -2.453125 5.78125 -3.050781 5.78125 -3.8125 C 5.78125 -4.613281 5.582031 -5.21875 5.1875 -5.625 C 4.789062 -6.039062 4.164062 -6.25 3.3125 -6.25 C 3.195312 -6.25 3.078125 -6.242188 2.953125 -6.234375 C 2.828125 -6.234375 2.707031 -6.226562 2.59375 -6.21875 Z M 7.5625 -3.8125 C 7.5625 -3.15625 7.457031 -2.582031 7.25 -2.09375 C 7.039062 -1.601562 6.75 -1.195312 6.375 -0.875 C 6 -0.550781 5.539062 -0.304688 5 -0.140625 C 4.457031 0.015625 3.847656 0.09375 3.171875 0.09375 C 2.859375 0.09375 2.492188 0.078125 2.078125 0.046875 C 1.671875 0.0234375 1.269531 -0.0195312 0.875 -0.09375 L 0.875 -7.53125 C 1.269531 -7.601562 1.679688 -7.648438 2.109375 -7.671875 C 2.546875 -7.703125 2.914062 -7.71875 3.21875 -7.71875 C 3.875 -7.71875 4.46875 -7.640625 5 -7.484375 C 5.53125 -7.335938 5.984375 -7.109375 6.359375 -6.796875 C 6.742188 -6.484375 7.039062 -6.078125 7.25 -5.578125 C 7.457031 -5.085938 7.5625 -4.5 7.5625 -3.8125 Z M 7.5625 -3.8125 "
           id="path138" />
      </symbol>
      <symbol
         overflow="visible"
         id="glyph3-4">
        <path
           style="stroke:none;"
           d="M 4.359375 0.15625 C 3.117188 0.15625 2.171875 -0.1875 1.515625 -0.875 C 0.867188 -1.5625 0.546875 -2.539062 0.546875 -3.8125 C 0.546875 -4.445312 0.644531 -5.007812 0.84375 -5.5 C 1.039062 -6 1.3125 -6.414062 1.65625 -6.75 C 2 -7.09375 2.410156 -7.351562 2.890625 -7.53125 C 3.367188 -7.707031 3.882812 -7.796875 4.4375 -7.796875 C 4.757812 -7.796875 5.050781 -7.769531 5.3125 -7.71875 C 5.582031 -7.675781 5.816406 -7.625 6.015625 -7.5625 C 6.210938 -7.5 6.375 -7.429688 6.5 -7.359375 C 6.632812 -7.296875 6.734375 -7.25 6.796875 -7.21875 L 6.296875 -5.828125 C 6.066406 -5.953125 5.796875 -6.054688 5.484375 -6.140625 C 5.171875 -6.234375 4.816406 -6.28125 4.421875 -6.28125 C 4.160156 -6.28125 3.898438 -6.234375 3.640625 -6.140625 C 3.390625 -6.054688 3.164062 -5.914062 2.96875 -5.71875 C 2.78125 -5.53125 2.625 -5.28125 2.5 -4.96875 C 2.382812 -4.664062 2.328125 -4.289062 2.328125 -3.84375 C 2.328125 -3.5 2.363281 -3.171875 2.4375 -2.859375 C 2.519531 -2.554688 2.644531 -2.296875 2.8125 -2.078125 C 2.988281 -1.859375 3.21875 -1.679688 3.5 -1.546875 C 3.78125 -1.421875 4.117188 -1.359375 4.515625 -1.359375 C 4.765625 -1.359375 4.988281 -1.375 5.1875 -1.40625 C 5.382812 -1.4375 5.554688 -1.472656 5.703125 -1.515625 C 5.859375 -1.554688 5.992188 -1.601562 6.109375 -1.65625 C 6.234375 -1.707031 6.34375 -1.753906 6.4375 -1.796875 L 6.90625 -0.421875 C 6.664062 -0.273438 6.320312 -0.140625 5.875 -0.015625 C 5.4375 0.0976562 4.929688 0.15625 4.359375 0.15625 Z M 4.359375 0.15625 "
           id="path141" />
      </symbol>
      <symbol
         overflow="visible"
         id="glyph3-5">
        <path
           style="stroke:none;"
           d="M 5.984375 0 C 5.898438 -0.257812 5.804688 -0.53125 5.703125 -0.8125 C 5.609375 -1.09375 5.515625 -1.375 5.421875 -1.65625 L 2.453125 -1.65625 C 2.359375 -1.375 2.257812 -1.09375 2.15625 -0.8125 C 2.0625 -0.53125 1.972656 -0.257812 1.890625 0 L 0.109375 0 C 0.390625 -0.820312 0.660156 -1.582031 0.921875 -2.28125 C 1.179688 -2.976562 1.429688 -3.632812 1.671875 -4.25 C 1.921875 -4.863281 2.164062 -5.445312 2.40625 -6 C 2.644531 -6.550781 2.890625 -7.09375 3.140625 -7.625 L 4.78125 -7.625 C 5.03125 -7.09375 5.273438 -6.550781 5.515625 -6 C 5.765625 -5.445312 6.007812 -4.863281 6.25 -4.25 C 6.5 -3.632812 6.75 -2.976562 7 -2.28125 C 7.257812 -1.582031 7.535156 -0.820312 7.828125 0 Z M 3.921875 -5.890625 C 3.890625 -5.785156 3.835938 -5.632812 3.765625 -5.4375 C 3.691406 -5.25 3.601562 -5.03125 3.5 -4.78125 C 3.40625 -4.53125 3.300781 -4.253906 3.1875 -3.953125 C 3.082031 -3.660156 2.96875 -3.347656 2.84375 -3.015625 L 5.015625 -3.015625 C 4.898438 -3.347656 4.785156 -3.660156 4.671875 -3.953125 C 4.566406 -4.253906 4.460938 -4.53125 4.359375 -4.78125 C 4.265625 -5.03125 4.179688 -5.25 4.109375 -5.4375 C 4.035156 -5.632812 3.972656 -5.785156 3.921875 -5.890625 Z M 3.921875 -5.890625 "
           id="path144" />
      </symbol>
      <symbol
         overflow="visible"
         id="glyph3-6">
        <path
           style="stroke:none;"
           d="M 6.53125 -7.625 L 6.53125 -6.15625 L 4.234375 -6.15625 L 4.234375 0 L 2.515625 0 L 2.515625 -6.15625 L 0.21875 -6.15625 L 0.21875 -7.625 Z M 6.53125 -7.625 "
           id="path147" />
      </symbol>
      <symbol
         overflow="visible"
         id="glyph3-7">
        <path
           style="stroke:none;"
           d="M 0.875 0 L 0.875 -7.625 L 6.03125 -7.625 L 6.03125 -6.1875 L 2.59375 -6.1875 L 2.59375 -4.6875 L 5.640625 -4.6875 L 5.640625 -3.28125 L 2.59375 -3.28125 L 2.59375 -1.4375 L 6.28125 -1.4375 L 6.28125 0 Z M 0.875 0 "
           id="path150" />
      </symbol>
      <symbol
         overflow="visible"
         id="glyph3-8">
        <path
           style="stroke:none;"
           d="M 3.859375 0.15625 C 3.328125 0.15625 2.863281 0.0820312 2.46875 -0.0625 C 2.082031 -0.21875 1.765625 -0.425781 1.515625 -0.6875 C 1.265625 -0.957031 1.078125 -1.28125 0.953125 -1.65625 C 0.828125 -2.03125 0.765625 -2.4375 0.765625 -2.875 L 0.765625 -7.625 L 2.484375 -7.625 L 2.484375 -3.03125 C 2.484375 -2.71875 2.515625 -2.453125 2.578125 -2.234375 C 2.648438 -2.015625 2.75 -1.835938 2.875 -1.703125 C 3 -1.566406 3.144531 -1.46875 3.3125 -1.40625 C 3.488281 -1.351562 3.679688 -1.328125 3.890625 -1.328125 C 4.304688 -1.328125 4.644531 -1.453125 4.90625 -1.703125 C 5.164062 -1.960938 5.296875 -2.40625 5.296875 -3.03125 L 5.296875 -7.625 L 7 -7.625 L 7 -2.875 C 7 -2.4375 6.9375 -2.03125 6.8125 -1.65625 C 6.695312 -1.28125 6.507812 -0.957031 6.25 -0.6875 C 5.988281 -0.414062 5.660156 -0.207031 5.265625 -0.0625 C 4.867188 0.0820312 4.398438 0.15625 3.859375 0.15625 Z M 3.859375 0.15625 "
           id="path153" />
      </symbol>
      <symbol
         overflow="visible"
         id="glyph3-9">
        <path
           style="stroke:none;"
           d="M 3.109375 -7.71875 C 4.253906 -7.71875 5.128906 -7.507812 5.734375 -7.09375 C 6.347656 -6.6875 6.65625 -6.054688 6.65625 -5.203125 C 6.65625 -4.671875 6.53125 -4.238281 6.28125 -3.90625 C 6.039062 -3.570312 5.6875 -3.304688 5.21875 -3.109375 C 5.375 -2.921875 5.535156 -2.703125 5.703125 -2.453125 C 5.878906 -2.210938 6.046875 -1.957031 6.203125 -1.6875 C 6.367188 -1.414062 6.53125 -1.132812 6.6875 -0.84375 C 6.84375 -0.5625 6.984375 -0.28125 7.109375 0 L 5.1875 0 C 5.050781 -0.25 4.910156 -0.5 4.765625 -0.75 C 4.617188 -1.007812 4.472656 -1.257812 4.328125 -1.5 C 4.179688 -1.75 4.03125 -1.976562 3.875 -2.1875 C 3.726562 -2.40625 3.582031 -2.601562 3.4375 -2.78125 L 2.59375 -2.78125 L 2.59375 0 L 0.875 0 L 0.875 -7.515625 C 1.25 -7.585938 1.632812 -7.640625 2.03125 -7.671875 C 2.4375 -7.703125 2.796875 -7.71875 3.109375 -7.71875 Z M 3.21875 -6.25 C 3.09375 -6.25 2.976562 -6.242188 2.875 -6.234375 C 2.78125 -6.222656 2.6875 -6.21875 2.59375 -6.21875 L 2.59375 -4.140625 L 3.078125 -4.140625 C 3.722656 -4.140625 4.1875 -4.21875 4.46875 -4.375 C 4.75 -4.539062 4.890625 -4.820312 4.890625 -5.21875 C 4.890625 -5.59375 4.742188 -5.859375 4.453125 -6.015625 C 4.171875 -6.171875 3.757812 -6.25 3.21875 -6.25 Z M 3.21875 -6.25 "
           id="path156" />
      </symbol>
    </g>
    <clipPath
       id="clip1">
      <path
         d="M 38.488281 14.398438 L 467 14.398438 L 467 411 L 38.488281 411 Z M 38.488281 14.398438 "
         id="path159" />
    </clipPath>
    <clipPath
       id="clip2">
      <path
         d="M 38.488281 316 L 467 316 L 467 318 L 38.488281 318 Z M 38.488281 316 "
         id="path162" />
    </clipPath>
    <clipPath
       id="clip3">
      <path
         d="M 38.488281 222 L 467 222 L 467 224 L 38.488281 224 Z M 38.488281 222 "
         id="path165" />
    </clipPath>
    <clipPath
       id="clip4">
      <path
         d="M 38.488281 127 L 467 127 L 467 129 L 38.488281 129 Z M 38.488281 127 "
         id="path168" />
    </clipPath>
    <clipPath
       id="clip5">
      <path
         d="M 38.488281 32 L 467 32 L 467 34 L 38.488281 34 Z M 38.488281 32 "
         id="path171" />
    </clipPath>
    <clipPath
       id="clip6">
      <path
         d="M 91 14.398438 L 93 14.398438 L 93 411.511719 L 91 411.511719 Z M 91 14.398438 "
         id="path174" />
    </clipPath>
    <clipPath
       id="clip7">
      <path
         d="M 160 14.398438 L 162 14.398438 L 162 411.511719 L 160 411.511719 Z M 160 14.398438 "
         id="path177" />
    </clipPath>
    <clipPath
       id="clip8">
      <path
         d="M 228 14.398438 L 230 14.398438 L 230 411.511719 L 228 411.511719 Z M 228 14.398438 "
         id="path180" />
    </clipPath>
    <clipPath
       id="clip9">
      <path
         d="M 297 14.398438 L 299 14.398438 L 299 411.511719 L 297 411.511719 Z M 297 14.398438 "
         id="path183" />
    </clipPath>
    <clipPath
       id="clip10">
      <path
         d="M 366 14.398438 L 368 14.398438 L 368 411.511719 L 366 411.511719 Z M 366 14.398438 "
         id="path186" />
    </clipPath>
    <clipPath
       id="clip11">
      <path
         d="M 434 14.398438 L 436 14.398438 L 436 411.511719 L 434 411.511719 Z M 434 14.398438 "
         id="path189" />
    </clipPath>
    <clipPath
       id="clip12">
      <path
         d="M 38.488281 364 L 467 364 L 467 366 L 38.488281 366 Z M 38.488281 364 "
         id="path192" />
    </clipPath>
    <clipPath
       id="clip13">
      <path
         d="M 38.488281 269 L 467 269 L 467 271 L 38.488281 271 Z M 38.488281 269 "
         id="path195" />
    </clipPath>
    <clipPath
       id="clip14">
      <path
         d="M 38.488281 174 L 467 174 L 467 176 L 38.488281 176 Z M 38.488281 174 "
         id="path198" />
    </clipPath>
    <clipPath
       id="clip15">
      <path
         d="M 38.488281 80 L 467 80 L 467 81 L 38.488281 81 Z M 38.488281 80 "
         id="path201" />
    </clipPath>
    <clipPath
       id="clip16">
      <path
         d="M 57 14.398438 L 59 14.398438 L 59 411 L 57 411 Z M 57 14.398438 "
         id="path204" />
    </clipPath>
    <clipPath
       id="clip17">
      <path
         d="M 126 14.398438 L 127 14.398438 L 127 411 L 126 411 Z M 126 14.398438 "
         id="path207" />
    </clipPath>
    <clipPath
       id="clip18">
      <path
         d="M 194 14.398438 L 196 14.398438 L 196 411 L 194 411 Z M 194 14.398438 "
         id="path210" />
    </clipPath>
    <clipPath
       id="clip19">
      <path
         d="M 263 14.398438 L 264 14.398438 L 264 411 L 263 411 Z M 263 14.398438 "
         id="path213" />
    </clipPath>
    <clipPath
       id="clip20">
      <path
         d="M 332 14.398438 L 333 14.398438 L 333 411 L 332 411 Z M 332 14.398438 "
         id="path216" />
    </clipPath>
    <clipPath
       id="clip21">
      <path
         d="M 400 14.398438 L 402 14.398438 L 402 411 L 400 411 Z M 400 14.398438 "
         id="path219" />
    </clipPath>
    <clipPath
       id="clip22">
      <path
         d="M 38.488281 14.398438 L 467 14.398438 L 467 411.511719 L 38.488281 411.511719 Z M 38.488281 14.398438 "
         id="path222" />
    </clipPath>
    <clipPath
       id="clip20-8">
      <path
         inkscape:connector-curvature="0"
         d="m 39.53125,5.976562 398.46875,0 0,271.492188 -398.46875,0 z m 0,0"
         id="path192-4" />
    </clipPath>
    <clipPath
       id="clip19-3">
      <path
         inkscape:connector-curvature="0"
         d="m 358,5.976562 1,0 L 359,277 l -1,0 z m 0,0"
         id="path189-1" />
    </clipPath>
    <clipPath
       id="clip18-4">
      <path
         inkscape:connector-curvature="0"
         d="m 278,5.976562 1,0 L 279,277 l -1,0 z m 0,0"
         id="path186-9" />
    </clipPath>
    <clipPath
       id="clip17-2">
      <path
         inkscape:connector-curvature="0"
         d="m 197,5.976562 2,0 L 199,277 l -2,0 z m 0,0"
         id="path183-0" />
    </clipPath>
    <clipPath
       id="clip16-6">
      <path
         inkscape:connector-curvature="0"
         d="m 117,5.976562 2,0 L 119,277 l -2,0 z m 0,0"
         id="path180-8" />
    </clipPath>
    <clipPath
       id="clip15-9">
      <path
         inkscape:connector-curvature="0"
         d="M 39.53125,11 438,11 l 0,2 -398.46875,0 z m 0,0"
         id="path177-2" />
    </clipPath>
    <clipPath
       id="clip14-6">
      <path
         inkscape:connector-curvature="0"
         d="M 39.53125,74 438,74 l 0,2 -398.46875,0 z m 0,0"
         id="path174-6" />
    </clipPath>
    <clipPath
       id="clip13-4">
      <path
         inkscape:connector-curvature="0"
         d="M 39.53125,137 438,137 l 0,2 -398.46875,0 z m 0,0"
         id="path171-9" />
    </clipPath>
    <clipPath
       id="clip12-5">
      <path
         inkscape:connector-curvature="0"
         d="M 39.53125,200 438,200 l 0,2 -398.46875,0 z m 0,0"
         id="path168-0" />
    </clipPath>
    <clipPath
       id="clip11-4">
      <path
         inkscape:connector-curvature="0"
         d="M 39.53125,263 438,263 l 0,2 -398.46875,0 z m 0,0"
         id="path165-8" />
    </clipPath>
    <clipPath
       id="clip10-7">
      <path
         inkscape:connector-curvature="0"
         d="m 398,5.976562 2,0 0,271.492188 -2,0 z m 0,0"
         id="path162-1" />
    </clipPath>
    <clipPath
       id="clip9-7">
      <path
         inkscape:connector-curvature="0"
         d="m 318,5.976562 2,0 0,271.492188 -2,0 z m 0,0"
         id="path159-2" />
    </clipPath>
    <clipPath
       id="clip8-7">
      <path
         inkscape:connector-curvature="0"
         d="m 237,5.976562 2,0 0,271.492188 -2,0 z m 0,0"
         id="path156-2" />
    </clipPath>
    <clipPath
       id="clip7-2">
      <path
         inkscape:connector-curvature="0"
         d="m 157,5.976562 2,0 0,271.492188 -2,0 z m 0,0"
         id="path153-6" />
    </clipPath>
    <clipPath
       id="clip6-1">
      <path
         inkscape:connector-curvature="0"
         d="m 77,5.976562 2,0 0,271.492188 -2,0 z m 0,0"
         id="path150-0" />
    </clipPath>
    <clipPath
       id="clip5-6">
      <path
         inkscape:connector-curvature="0"
         d="M 39.53125,42 438,42 l 0,3 -398.46875,0 z m 0,0"
         id="path147-1" />
    </clipPath>
    <clipPath
       id="clip4-5">
      <path
         inkscape:connector-curvature="0"
         d="M 39.53125,106 438,106 l 0,2 -398.46875,0 z m 0,0"
         id="path144-9" />
    </clipPath>
    <clipPath
       id="clip3-4">
      <path
         inkscape:connector-curvature="0"
         d="M 39.53125,169 438,169 l 0,2 -398.46875,0 z m 0,0"
         id="path141-9" />
    </clipPath>
    <clipPath
       id="clip2-0">
      <path
         inkscape:connector-curvature="0"
         d="M 39.53125,232 438,232 l 0,2 -398.46875,0 z m 0,0"
         id="path138-9" />
    </clipPath>
    <clipPath
       id="clip1-1">
      <path
         inkscape:connector-curvature="0"
         d="M 39.53125,5.976562 438,5.976562 438,277 39.53125,277 Z m 0,0"
         id="path135-7" />
    </clipPath>
  </defs>
  <use
     style="fill:#000000;fill-opacity:1"
     xlink:href="#glyph2-7"
     x="19.848633"
     y="240.97461"
     id="use897-3-7"
     width="599"
     height="450"
     transform="matrix(0,0.96686065,-0.99256616,0,549.84739,525.32845)" />
  <use
     style="fill:#000000;fill-opacity:1"
     xlink:href="#glyph2-7"
     x="19.848633"
     y="221.66797"
     id="use903-8-0"
     width="599"
     height="450"
     transform="matrix(0,0.96686065,-0.99256616,0,549.84739,525.32845)" />
  <use
     style="fill:#000000;fill-opacity:1"
     xlink:href="#glyph2-7"
     x="19.848633"
     y="190.2793"
     id="use913-2-1"
     width="599"
     height="450"
     transform="matrix(0,0.96686065,-0.99256616,0,549.84739,525.32845)" />
  <flowRoot
     transform="matrix(0.79405293,0,0,0.77348852,2.5234981,435.92373)"
     style="font-style:normal;font-variant:normal;font-weight:normal;font-stretch:normal;line-height:0.01%;font-family:Ubuntu;-inkscape-font-specification:Ubuntu;letter-spacing:0px;word-spacing:0px;fill:#333333;fill-opacity:1;stroke:none;"
     id="flowRoot4542-3-5"
     xml:space="preserve"><flowRegion
       id="flowRegion4544-5-2"
       style="fill:#333333;"><rect
         y="-113.33379"
         x="-13.482968"
         height="33.707424"
         width="406.17441"
         id="rect4546-1-2"
         style="fill:#333333;" /></flowRegion><flowPara
       style="font-style:italic;font-variant:normal;font-weight:normal;font-stretch:normal;font-size:13px;line-height:1.25;font-family:Ubuntu;-inkscape-font-specification:'Ubuntu Italic';fill:#333333;"
       id="flowPara4548-4-3">Source : The World Bank Database</flowPara></flowRoot>  <rect
     y="-6.8364038"
     x="-10.261681"
     height="367.55542"
     width="481.78516"
     id="rect3518"
     style="fill:none;fill-opacity:1;stroke:#4d4d4d;stroke-width:0.96000004;stroke-linecap:butt;stroke-miterlimit:4;stroke-dasharray:none;stroke-dashoffset:0" />
  <flowRoot
     transform="matrix(0.79405293,0,0,0.77348852,189.71311,426.0456)"
     style="font-style:normal;font-variant:normal;font-weight:normal;font-stretch:normal;line-height:0.01%;font-family:Ubuntu;-inkscape-font-specification:Ubuntu;letter-spacing:0px;word-spacing:0px;fill:#333333;fill-opacity:1;stroke:none;"
     id="flowRoot4542-3-5-1"
     xml:space="preserve"><flowRegion
       id="flowRegion4544-5-2-5"
       style="fill:#333333;"><rect
         y="-113.33379"
         x="-13.482968"
         height="33.707424"
         width="406.17441"
         id="rect4546-1-2-9"
         style="fill:#333333;" /></flowRegion><flowPara
       style="font-style:normal;font-variant:normal;font-weight:500;font-stretch:normal;font-size:15.08773518px;line-height:1.25;font-family:Ubuntu;-inkscape-font-specification:'Ubuntu Medium';fill:#333333;"
       id="flowPara4548-4-3-7">Espérance de vie (années)</flowPara></flowRoot>  <flowRoot
     transform="matrix(0,-0.77097164,0.79664516,0,81.537574,209.38726)"
     style="font-style:normal;font-variant:normal;font-weight:normal;font-stretch:normal;line-height:0.01%;font-family:Ubuntu;-inkscape-font-specification:Ubuntu;letter-spacing:0px;word-spacing:0px;fill:#333333;fill-opacity:1;stroke:none;"
     id="flowRoot4542-3-5-1-7"
     xml:space="preserve"><flowRegion
       id="flowRegion4544-5-2-5-6"
       style="fill:#333333;"><rect
         y="-113.33379"
         x="-13.482968"
         height="33.707424"
         width="406.17441"
         id="rect4546-1-2-9-7"
         style="fill:#333333;" /></flowRegion><flowPara
       style="font-style:normal;font-variant:normal;font-weight:normal;font-stretch:normal;font-size:15.08773518px;line-height:1.25;font-family:Ubuntu;-inkscape-font-specification:Ubuntu;fill:#333333;"
       id="flowPara4548-4-3-7-3">Fréquence (n = 154)</flowPara></flowRoot>  <flowRoot
     transform="matrix(0.79405293,0,0,0.77348852,96.421629,410.62984)"
     style="font-style:normal;font-variant:normal;font-weight:normal;font-stretch:normal;line-height:0.01%;font-family:Ubuntu;-inkscape-font-specification:Ubuntu;text-align:center;letter-spacing:0px;word-spacing:0px;text-anchor:middle;fill:#333333;fill-opacity:1;stroke:none;"
     id="flowRoot4542-3-5-1-6"
     xml:space="preserve"><flowRegion
       id="flowRegion4544-5-2-5-5"
       style="fill:#333333;"><rect
         style="text-align:center;text-anchor:middle;fill:#333333;"
         y="-113.33379"
         x="-13.482968"
         height="31.333921"
         width="76.278374"
         id="rect4546-1-2-9-6" /></flowRegion><flowPara
       style="font-style:normal;font-variant:normal;font-weight:normal;font-stretch:normal;font-size:15.08773518px;line-height:1.25;font-family:Ubuntu;-inkscape-font-specification:Ubuntu;text-align:center;text-anchor:middle;fill:#333333;"
       id="flowPara4548-4-3-7-39">50</flowPara></flowRoot>  <flowRoot
     transform="matrix(0.79405293,0,0,0.77348852,184.42163,410.62984)"
     style="font-style:normal;font-variant:normal;font-weight:normal;font-stretch:normal;line-height:0.01%;font-family:Ubuntu;-inkscape-font-specification:Ubuntu;text-align:center;letter-spacing:0px;word-spacing:0px;text-anchor:middle;fill:#333333;fill-opacity:1;stroke:none;"
     id="flowRoot4542-3-5-1-6-4"
     xml:space="preserve"><flowRegion
       id="flowRegion4544-5-2-5-5-8"
       style="fill:#333333;"><rect
         style="text-align:center;text-anchor:middle;fill:#333333;"
         y="-113.33379"
         x="-13.482968"
         height="31.333921"
         width="76.278374"
         id="rect4546-1-2-9-6-1" /></flowRegion><flowPara
       style="font-style:normal;font-variant:normal;font-weight:normal;font-stretch:normal;font-size:15.08773518px;line-height:1.25;font-family:Ubuntu;-inkscape-font-specification:Ubuntu;text-align:center;text-anchor:middle;fill:#333333;"
       id="flowPara4548-4-3-7-39-2">60</flowPara></flowRoot>  <flowRoot
     transform="matrix(0.79405293,0,0,0.77348852,274.02163,410.62984)"
     style="font-style:normal;font-variant:normal;font-weight:normal;font-stretch:normal;line-height:0.01%;font-family:Ubuntu;-inkscape-font-specification:Ubuntu;text-align:center;letter-spacing:0px;word-spacing:0px;text-anchor:middle;fill:#333333;fill-opacity:1;stroke:none;"
     id="flowRoot4542-3-5-1-6-9"
     xml:space="preserve"><flowRegion
       id="flowRegion4544-5-2-5-5-3"
       style="fill:#333333;"><rect
         style="text-align:center;text-anchor:middle;fill:#333333;"
         y="-113.33379"
         x="-13.482968"
         height="31.333921"
         width="76.278374"
         id="rect4546-1-2-9-6-9" /></flowRegion><flowPara
       style="font-style:normal;font-variant:normal;font-weight:normal;font-stretch:normal;font-size:15.08773518px;line-height:1.25;font-family:Ubuntu;-inkscape-font-specification:Ubuntu;text-align:center;text-anchor:middle;fill:#333333;"
       id="flowPara4548-4-3-7-39-0">70</flowPara></flowRoot>  <flowRoot
     transform="matrix(0.79405293,0,0,0.77348852,362.02163,410.62984)"
     style="font-style:normal;font-variant:normal;font-weight:normal;font-stretch:normal;line-height:0.01%;font-family:Ubuntu;-inkscape-font-specification:Ubuntu;text-align:center;letter-spacing:0px;word-spacing:0px;text-anchor:middle;fill:#333333;fill-opacity:1;stroke:none;"
     id="flowRoot4542-3-5-1-6-8"
     xml:space="preserve"><flowRegion
       id="flowRegion4544-5-2-5-5-85"
       style="fill:#333333;"><rect
         style="text-align:center;text-anchor:middle;fill:#333333;"
         y="-113.33379"
         x="-13.482968"
         height="31.333921"
         width="76.278374"
         id="rect4546-1-2-9-6-0" /></flowRegion><flowPara
       style="font-style:normal;font-variant:normal;font-weight:normal;font-stretch:normal;font-size:15.08773518px;line-height:1.25;font-family:Ubuntu;-inkscape-font-specification:Ubuntu;text-align:center;text-anchor:middle;fill:#333333;"
       id="flowPara4548-4-3-7-39-9">80</flowPara></flowRoot>  <flowRoot
     transform="matrix(0.79405293,0,0,0.77348852,-25.862492,106.62983)"
     style="font-style:normal;font-variant:normal;font-weight:normal;font-stretch:normal;line-height:0.01%;font-family:Ubuntu;-inkscape-font-specification:Ubuntu;text-align:end;letter-spacing:0px;word-spacing:0px;text-anchor:end;fill:#333333;fill-opacity:1;stroke:none;"
     id="flowRoot4542-3-5-1-6-6"
     xml:space="preserve"><flowRegion
       id="flowRegion4544-5-2-5-5-38"
       style="fill:#333333;"><rect
         style="text-align:end;text-anchor:end;fill:#333333;"
         y="-113.33379"
         x="-13.482968"
         height="31.333921"
         width="76.278374"
         id="rect4546-1-2-9-6-5" /></flowRegion><flowPara
       style="font-style:normal;font-variant:normal;font-weight:normal;font-stretch:normal;font-size:15.08773518px;line-height:1.25;font-family:Ubuntu;-inkscape-font-specification:Ubuntu;text-align:end;text-anchor:end;fill:#333333;"
       id="flowPara4548-4-3-7-39-6">40</flowPara></flowRoot>  <flowRoot
     transform="matrix(0.79405293,0,0,0.77348852,-25.862492,176.22984)"
     style="font-style:normal;font-variant:normal;font-weight:normal;font-stretch:normal;line-height:0.01%;font-family:Ubuntu;-inkscape-font-specification:Ubuntu;text-align:end;letter-spacing:0px;word-spacing:0px;text-anchor:end;fill:#333333;fill-opacity:1;stroke:none;"
     id="flowRoot4542-3-5-1-6-6-1"
     xml:space="preserve"><flowRegion
       id="flowRegion4544-5-2-5-5-38-1"
       style="fill:#333333;"><rect
         style="text-align:end;text-anchor:end;fill:#333333;"
         y="-113.33379"
         x="-13.482968"
         height="31.333921"
         width="76.278374"
         id="rect4546-1-2-9-6-5-5" /></flowRegion><flowPara
       style="font-style:normal;font-variant:normal;font-weight:normal;font-stretch:normal;font-size:15.08773518px;line-height:1.25;font-family:Ubuntu;-inkscape-font-specification:Ubuntu;text-align:end;text-anchor:end;fill:#333333;"
       id="flowPara4548-4-3-7-39-6-9">30</flowPara></flowRoot>  <flowRoot
     transform="matrix(0.79405293,0,0,0.77348852,-25.862492,245.02983)"
     style="font-style:normal;font-variant:normal;font-weight:normal;font-stretch:normal;line-height:0.01%;font-family:Ubuntu;-inkscape-font-specification:Ubuntu;text-align:end;letter-spacing:0px;word-spacing:0px;text-anchor:end;fill:#333333;fill-opacity:1;stroke:none;"
     id="flowRoot4542-3-5-1-6-6-8"
     xml:space="preserve"><flowRegion
       id="flowRegion4544-5-2-5-5-38-4"
       style="fill:#333333;"><rect
         style="text-align:end;text-anchor:end;fill:#333333;"
         y="-113.33379"
         x="-13.482968"
         height="31.333921"
         width="76.278374"
         id="rect4546-1-2-9-6-5-8" /></flowRegion><flowPara
       style="font-style:normal;font-variant:normal;font-weight:normal;font-stretch:normal;font-size:15.08773518px;line-height:1.25;font-family:Ubuntu;-inkscape-font-specification:Ubuntu;text-align:end;text-anchor:end;fill:#333333;"
       id="flowPara4548-4-3-7-39-6-1">20</flowPara></flowRoot>  <flowRoot
     transform="matrix(0.79405293,0,0,0.77348852,-25.862492,314.62984)"
     style="font-style:normal;font-variant:normal;font-weight:normal;font-stretch:normal;line-height:0.01%;font-family:Ubuntu;-inkscape-font-specification:Ubuntu;text-align:end;letter-spacing:0px;word-spacing:0px;text-anchor:end;fill:#333333;fill-opacity:1;stroke:none;"
     id="flowRoot4542-3-5-1-6-6-0"
     xml:space="preserve"><flowRegion
       id="flowRegion4544-5-2-5-5-38-3"
       style="fill:#333333;"><rect
         style="text-align:end;text-anchor:end;fill:#333333;"
         y="-113.33379"
         x="-13.482968"
         height="31.333921"
         width="76.278374"
         id="rect4546-1-2-9-6-5-0" /></flowRegion><flowPara
       style="font-style:normal;font-variant:normal;font-weight:normal;font-stretch:normal;font-size:15.08773518px;line-height:1.25;font-family:Ubuntu;-inkscape-font-specification:Ubuntu;text-align:end;text-anchor:end;fill:#333333;"
       id="flowPara4548-4-3-7-39-6-4">10</flowPara></flowRoot>  <flowRoot
     transform="matrix(0.79405293,0,0,0.77348852,-25.862492,384.22983)"
     style="font-style:normal;font-variant:normal;font-weight:normal;font-stretch:normal;line-height:0.01%;font-family:Ubuntu;-inkscape-font-specification:Ubuntu;text-align:end;letter-spacing:0px;word-spacing:0px;text-anchor:end;fill:#333333;fill-opacity:1;stroke:none;"
     id="flowRoot4542-3-5-1-6-6-4"
     xml:space="preserve"><flowRegion
       id="flowRegion4544-5-2-5-5-38-44"
       style="fill:#333333;"><rect
         style="text-align:end;text-anchor:end;fill:#333333;"
         y="-113.33379"
         x="-13.482968"
         height="31.333921"
         width="76.278374"
         id="rect4546-1-2-9-6-5-7" /></flowRegion><flowPara
       style="font-style:normal;font-variant:normal;font-weight:normal;font-stretch:normal;font-size:15.08773518px;line-height:1.25;font-family:Ubuntu;-inkscape-font-specification:Ubuntu;text-align:end;text-anchor:end;fill:#333333;"
       id="flowPara4548-4-3-7-39-6-6">0</flowPara></flowRoot>  <rect
     style="fill:#4d4d4d;stroke:#4d4d4d;stroke-width:0.80000001;stroke-linecap:butt;stroke-miterlimit:4;stroke-dasharray:none;stroke-dashoffset:0"
     id="rect3490"
     width="481.95078"
     height="17.982851"
     x="-10.350753"
     y="-7.9828544" />
  <flowRoot
     xml:space="preserve"
     id="flowRoot4528"
     style="font-style:normal;font-variant:normal;font-weight:normal;font-stretch:normal;line-height:0.01%;font-family:Ubuntu;-inkscape-font-specification:Ubuntu;text-align:center;letter-spacing:0px;word-spacing:0px;text-anchor:middle;fill:#ffffff;fill-opacity:1;stroke:none"
     transform="translate(-0.13242362,16.892893)"><flowRegion
       id="flowRegion4530"><rect
         id="rect4532"
         width="435.69916"
         height="50.529659"
         x="17.883051"
         y="-24.415257"
         style="text-align:center;text-anchor:middle;fill:#ffffff" /></flowRegion><flowPara
       id="flowPara4536"
       style="font-size:14.39999962px;line-height:1.25;text-align:center;text-anchor:middle;fill:#ffffff"><flowSpan
         id="flowSpan5497"
         style="font-weight:500;font-size:14.39999962px;-inkscape-font-specification:'Ubuntu Medium';text-align:center;text-anchor:middle;fill:#ffffff">ESPÉRANCE DE VIE DANS LES PAYS DU MONDE (2008)</flowSpan></flowPara></flowRoot>  <g
     transform="matrix(1.1008666,0,0,1.1008666,-13.411024,13.656473)"
     style="clip-rule:nonzero"
     id="g201"
     clip-path="url(#clip1-1)">
    <path
       inkscape:connector-curvature="0"
       id="path203"
       d="m 39.53125,276.46875 397.49219,0 0,-270.492188 -397.49219,0 z m 0,0"
       style="fill:#ffffff;fill-opacity:1;fill-rule:nonzero;stroke:none" />
  </g>
  <g
     transform="matrix(1.1008666,0,0,1.1008666,-13.411024,13.656473)"
     style="clip-rule:nonzero"
     id="g205"
     clip-path="url(#clip2-0)">
    <path
       inkscape:connector-curvature="0"
       id="path207-7"
       d="m 39.53125,232.64844 397.49219,0"
       style="fill:none;stroke:#fafafa;stroke-width:0.96921641;stroke-linecap:butt;stroke-linejoin:round;stroke-miterlimit:10;stroke-opacity:1" />
  </g>
  <g
     transform="matrix(1.1008666,0,0,1.1008666,-13.411024,13.656473)"
     style="clip-rule:nonzero"
     id="g209"
     clip-path="url(#clip3-4)">
    <path
       inkscape:connector-curvature="0"
       id="path211"
       d="m 39.53125,169.59766 397.49219,0"
       style="fill:none;stroke:#fafafa;stroke-width:0.96921641;stroke-linecap:butt;stroke-linejoin:round;stroke-miterlimit:10;stroke-opacity:1" />
  </g>
  <g
     transform="matrix(1.1008666,0,0,1.1008666,-13.411024,13.656473)"
     style="clip-rule:nonzero"
     id="g213"
     clip-path="url(#clip4-5)">
    <path
       inkscape:connector-curvature="0"
       id="path215"
       d="m 39.53125,106.54688 397.49219,0"
       style="fill:none;stroke:#fafafa;stroke-width:0.96921641;stroke-linecap:butt;stroke-linejoin:round;stroke-miterlimit:10;stroke-opacity:1" />
  </g>
  <g
     transform="matrix(1.1008666,0,0,1.1008666,-13.411024,13.656473)"
     style="clip-rule:nonzero"
     id="g217"
     clip-path="url(#clip5-6)">
    <path
       inkscape:connector-curvature="0"
       id="path219-1"
       d="m 39.53125,43.492188 397.49219,0"
       style="fill:none;stroke:#fafafa;stroke-width:0.96921641;stroke-linecap:butt;stroke-linejoin:round;stroke-miterlimit:10;stroke-opacity:1" />
  </g>
  <g
     transform="matrix(1.1008666,0,0,1.1008666,-13.411024,13.656473)"
     style="clip-rule:nonzero"
     id="g221"
     clip-path="url(#clip6-1)">
    <path
       inkscape:connector-curvature="0"
       id="path223"
       d="m 77.671875,276.46875 0,-270.492188"
       style="fill:none;stroke:#fafafa;stroke-width:0.96921641;stroke-linecap:butt;stroke-linejoin:round;stroke-miterlimit:10;stroke-opacity:1" />
  </g>
  <g
     transform="matrix(1.1008666,0,0,1.1008666,-13.411024,13.656473)"
     style="clip-rule:nonzero"
     id="g225"
     clip-path="url(#clip7-2)">
    <path
       inkscape:connector-curvature="0"
       id="path227"
       d="m 157.97656,276.46875 0,-270.492188"
       style="fill:none;stroke:#fafafa;stroke-width:0.96921641;stroke-linecap:butt;stroke-linejoin:round;stroke-miterlimit:10;stroke-opacity:1" />
  </g>
  <g
     transform="matrix(1.1008666,0,0,1.1008666,-13.411024,13.656473)"
     style="clip-rule:nonzero"
     id="g229"
     clip-path="url(#clip8-7)">
    <path
       inkscape:connector-curvature="0"
       id="path231"
       d="m 238.27734,276.46875 0,-270.492188"
       style="fill:none;stroke:#fafafa;stroke-width:0.96921641;stroke-linecap:butt;stroke-linejoin:round;stroke-miterlimit:10;stroke-opacity:1" />
  </g>
  <g
     transform="matrix(1.1008666,0,0,1.1008666,-13.411024,13.656473)"
     style="clip-rule:nonzero"
     id="g233"
     clip-path="url(#clip9-7)">
    <path
       inkscape:connector-curvature="0"
       id="path235"
       d="m 318.57812,276.46875 0,-270.492188"
       style="fill:none;stroke:#fafafa;stroke-width:0.96921641;stroke-linecap:butt;stroke-linejoin:round;stroke-miterlimit:10;stroke-opacity:1" />
  </g>
  <g
     transform="matrix(1.1008666,0,0,1.1008666,-13.411024,13.656473)"
     style="clip-rule:nonzero"
     id="g237"
     clip-path="url(#clip10-7)">
    <path
       inkscape:connector-curvature="0"
       id="path239"
       d="m 398.87891,276.46875 0,-270.492188"
       style="fill:none;stroke:#fafafa;stroke-width:0.96921641;stroke-linecap:butt;stroke-linejoin:round;stroke-miterlimit:10;stroke-opacity:1" />
  </g>
  <g
     transform="matrix(1.1008666,0,0,1.1008666,-13.411024,13.656473)"
     style="clip-rule:nonzero"
     id="g241"
     clip-path="url(#clip11-4)">
    <path
       inkscape:connector-curvature="0"
       id="path243"
       d="m 39.53125,264.17578 397.49219,0"
       style="fill:none;stroke:#e3e3e3;stroke-width:0.3876864;stroke-linecap:butt;stroke-linejoin:round;stroke-miterlimit:10;stroke-opacity:1" />
  </g>
  <g
     transform="matrix(1.1008666,0,0,1.1008666,-13.411024,13.656473)"
     style="clip-rule:nonzero"
     id="g245"
     clip-path="url(#clip12-5)">
    <path
       inkscape:connector-curvature="0"
       id="path247"
       d="m 39.53125,201.12109 397.49219,0"
       style="fill:none;stroke:#e3e3e3;stroke-width:0.3876864;stroke-linecap:butt;stroke-linejoin:round;stroke-miterlimit:10;stroke-opacity:1" />
  </g>
  <g
     transform="matrix(1.1008666,0,0,1.1008666,-13.411024,13.656473)"
     style="clip-rule:nonzero"
     id="g249"
     clip-path="url(#clip13-4)">
    <path
       inkscape:connector-curvature="0"
       id="path251"
       d="m 39.53125,138.07031 397.49219,0"
       style="fill:none;stroke:#e3e3e3;stroke-width:0.3876864;stroke-linecap:butt;stroke-linejoin:round;stroke-miterlimit:10;stroke-opacity:1" />
  </g>
  <g
     transform="matrix(1.1008666,0,0,1.1008666,-13.411024,13.656473)"
     style="clip-rule:nonzero"
     id="g253"
     clip-path="url(#clip14-6)">
    <path
       inkscape:connector-curvature="0"
       id="path255"
       d="m 39.53125,75.019531 397.49219,0"
       style="fill:none;stroke:#e3e3e3;stroke-width:0.3876864;stroke-linecap:butt;stroke-linejoin:round;stroke-miterlimit:10;stroke-opacity:1" />
  </g>
  <g
     transform="matrix(1.1008666,0,0,1.1008666,-13.411024,13.656473)"
     style="clip-rule:nonzero"
     id="g257"
     clip-path="url(#clip15-9)">
    <path
       inkscape:connector-curvature="0"
       id="path259"
       d="m 39.53125,11.96875 397.49219,0"
       style="fill:none;stroke:#e3e3e3;stroke-width:0.3876864;stroke-linecap:butt;stroke-linejoin:round;stroke-miterlimit:10;stroke-opacity:1" />
  </g>
  <g
     transform="matrix(1.1008666,0,0,1.1008666,-13.411024,13.656473)"
     style="clip-rule:nonzero"
     id="g261"
     clip-path="url(#clip16-6)">
    <path
       inkscape:connector-curvature="0"
       id="path263"
       d="m 117.82422,276.46875 0,-270.492188"
       style="fill:none;stroke:#e3e3e3;stroke-width:0.3876864;stroke-linecap:butt;stroke-linejoin:round;stroke-miterlimit:10;stroke-opacity:1" />
  </g>
  <g
     transform="matrix(1.1008666,0,0,1.1008666,-13.411024,13.656473)"
     style="clip-rule:nonzero"
     id="g265"
     clip-path="url(#clip17-2)">
    <path
       inkscape:connector-curvature="0"
       id="path267"
       d="m 198.125,276.46875 0,-270.492188"
       style="fill:none;stroke:#e3e3e3;stroke-width:0.3876864;stroke-linecap:butt;stroke-linejoin:round;stroke-miterlimit:10;stroke-opacity:1" />
  </g>
  <g
     transform="matrix(1.1008666,0,0,1.1008666,-13.411024,13.656473)"
     style="clip-rule:nonzero"
     id="g269"
     clip-path="url(#clip18-4)">
    <path
       inkscape:connector-curvature="0"
       id="path271"
       d="m 278.42578,276.46875 0,-270.492188"
       style="fill:none;stroke:#e3e3e3;stroke-width:0.3876864;stroke-linecap:butt;stroke-linejoin:round;stroke-miterlimit:10;stroke-opacity:1" />
  </g>
  <g
     transform="matrix(1.1008666,0,0,1.1008666,-13.411024,13.656473)"
     style="clip-rule:nonzero"
     id="g273"
     clip-path="url(#clip19-3)">
    <path
       inkscape:connector-curvature="0"
       id="path275"
       d="m 358.73047,276.46875 0,-270.492188"
       style="fill:none;stroke:#e3e3e3;stroke-width:0.3876864;stroke-linecap:butt;stroke-linejoin:round;stroke-miterlimit:10;stroke-opacity:1" />
  </g>
  <path
     inkscape:connector-curvature="0"
     id="path277"
     d="m 49.996316,304.47877 44.20237,0 0,-41.64803 -44.20237,0 z m 0,0"
     style="fill:#aa4400;fill-opacity:1;fill-rule:nonzero;stroke:#ffffff;stroke-width:1.06697798;stroke-linecap:butt;stroke-linejoin:round;stroke-miterlimit:10;stroke-opacity:1" />
  <path
     inkscape:connector-curvature="0"
     id="path279"
     d="m 94.198686,304.47877 44.202374,0 0,-76.35114 -44.202374,0 z m 0,0"
     style="fill:#aa4400;fill-opacity:1;fill-rule:nonzero;stroke:#ffffff;stroke-width:1.06697798;stroke-linecap:butt;stroke-linejoin:round;stroke-miterlimit:10;stroke-opacity:1" />
  <path
     inkscape:connector-curvature="0"
     id="path281"
     d="m 138.39676,304.47877 44.20237,0 0,-90.23667 -44.20237,0 z m 0,0"
     style="fill:#aa4400;fill-opacity:1;fill-rule:nonzero;stroke:#ffffff;stroke-width:1.06697798;stroke-linecap:butt;stroke-linejoin:round;stroke-miterlimit:10;stroke-opacity:1" />
  <path
     inkscape:connector-curvature="0"
     id="path283"
     d="m 182.59913,304.47877 44.20237,0 0,-69.4105 -44.20237,0 z m 0,0"
     style="fill:#aa4400;fill-opacity:1;fill-rule:nonzero;stroke:#ffffff;stroke-width:1.06697798;stroke-linecap:butt;stroke-linejoin:round;stroke-miterlimit:10;stroke-opacity:1" />
  <path
     inkscape:connector-curvature="0"
     id="path285"
     d="m 226.79721,304.47877 44.20237,0 0,-90.23667 -44.20237,0 z m 0,0"
     style="fill:#aa4400;fill-opacity:1;fill-rule:nonzero;stroke:#ffffff;stroke-width:1.06697798;stroke-linecap:butt;stroke-linejoin:round;stroke-miterlimit:10;stroke-opacity:1" />
  <path
     inkscape:connector-curvature="0"
     id="path287"
     d="m 270.99958,304.47877 44.20238,0 0,-187.40964 -44.20238,0 z m 0,0"
     style="fill:#aa4400;fill-opacity:1;fill-rule:nonzero;stroke:#ffffff;stroke-width:1.06697798;stroke-linecap:butt;stroke-linejoin:round;stroke-miterlimit:10;stroke-opacity:1" />
  <path
     inkscape:connector-curvature="0"
     id="path289"
     d="m 315.20196,304.47877 44.20237,0 0,-270.705677 -44.20237,0 z m 0,0"
     style="fill:#aa4400;fill-opacity:1;fill-rule:nonzero;stroke:#ffffff;stroke-width:1.06697798;stroke-linecap:butt;stroke-linejoin:round;stroke-miterlimit:10;stroke-opacity:1" />
  <path
     inkscape:connector-curvature="0"
     id="path291"
     d="m 359.40003,304.47877 44.20238,0 0,-229.057659 -44.20238,0 z m 0,0"
     style="fill:#aa4400;fill-opacity:1;fill-rule:nonzero;stroke:#ffffff;stroke-width:1.06697798;stroke-linecap:butt;stroke-linejoin:round;stroke-miterlimit:10;stroke-opacity:1" />
  <path
     inkscape:connector-curvature="0"
     id="path293"
     d="m 403.60241,304.47877 44.20237,0 0,-6.94063 -44.20237,0 z m 0,0"
     style="fill:#aa4400;fill-opacity:1;fill-rule:nonzero;stroke:#ffffff;stroke-width:1.06697798;stroke-linecap:butt;stroke-linejoin:round;stroke-miterlimit:10;stroke-opacity:1" />
  <g
     transform="matrix(1.1008666,0,0,1.1008666,-13.411024,13.656473)"
     style="clip-rule:nonzero"
     id="g295"
     clip-path="url(#clip20-8)">
    <path
       inkscape:connector-curvature="0"
       id="path297"
       d="m 39.53125,276.46875 397.49219,0 0,-270.492188 -397.49219,0 z m 0,0"
       style="fill:none;stroke:#7d7d7d;stroke-width:0.96921641;stroke-linecap:round;stroke-linejoin:round;stroke-miterlimit:10;stroke-opacity:1" />
  </g>
  <path
     inkscape:connector-curvature="0"
     id="path327"
     d="m 26.81791,304.47877 3.289699,0"
     style="fill:none;stroke:#000000;stroke-width:1.06697798;stroke-linecap:butt;stroke-linejoin:round;stroke-miterlimit:10;stroke-opacity:1" />
  <path
     inkscape:connector-curvature="0"
     id="path329"
     d="m 26.81791,235.06396 3.289699,0"
     style="fill:none;stroke:#000000;stroke-width:1.06697798;stroke-linecap:butt;stroke-linejoin:round;stroke-miterlimit:10;stroke-opacity:1" />
  <path
     inkscape:connector-curvature="0"
     id="path331"
     d="m 26.81791,165.65345 3.289699,0"
     style="fill:none;stroke:#000000;stroke-width:1.06697798;stroke-linecap:butt;stroke-linejoin:round;stroke-miterlimit:10;stroke-opacity:1" />
  <path
     inkscape:connector-curvature="0"
     id="path333"
     d="m 26.81791,96.242968 3.289699,0"
     style="fill:none;stroke:#000000;stroke-width:1.06697798;stroke-linecap:butt;stroke-linejoin:round;stroke-miterlimit:10;stroke-opacity:1" />
  <path
     inkscape:connector-curvature="0"
     id="path335"
     d="m 26.81791,26.83247 3.289699,0"
     style="fill:none;stroke:#000000;stroke-width:1.06697798;stroke-linecap:butt;stroke-linejoin:round;stroke-miterlimit:10;stroke-opacity:1" />
  <path
     inkscape:connector-curvature="0"
     id="path337"
     d="m 116.29772,321.30137 0,-3.2897"
     style="fill:none;stroke:#000000;stroke-width:1.06697798;stroke-linecap:butt;stroke-linejoin:round;stroke-miterlimit:10;stroke-opacity:1" />
  <path
     inkscape:connector-curvature="0"
     id="path339"
     d="m 204.69817,321.30137 0,-3.2897"
     style="fill:none;stroke:#000000;stroke-width:1.06697798;stroke-linecap:butt;stroke-linejoin:round;stroke-miterlimit:10;stroke-opacity:1" />
  <path
     inkscape:connector-curvature="0"
     id="path341"
     d="m 293.09862,321.30137 0,-3.2897"
     style="fill:none;stroke:#000000;stroke-width:1.06697798;stroke-linecap:butt;stroke-linejoin:round;stroke-miterlimit:10;stroke-opacity:1" />
  <path
     inkscape:connector-curvature="0"
     id="path343"
     d="m 381.50337,321.30137 0,-3.2897"
     style="fill:none;stroke:#000000;stroke-width:1.06697798;stroke-linecap:butt;stroke-linejoin:round;stroke-miterlimit:10;stroke-opacity:1" />
</svg>
