<?xml version="1.0" encoding="UTF-8" standalone="no"?>
<!-- Created with Inkscape (http://www.inkscape.org/) -->

<svg
   xmlns:dc="http://purl.org/dc/elements/1.1/"
   xmlns:cc="http://creativecommons.org/ns#"
   xmlns:rdf="http://www.w3.org/1999/02/22-rdf-syntax-ns#"
   xmlns:svg="http://www.w3.org/2000/svg"
   xmlns="http://www.w3.org/2000/svg"
   xmlns:sodipodi="http://sodipodi.sourceforge.net/DTD/sodipodi-0.dtd"
   xmlns:inkscape="http://www.inkscape.org/namespaces/inkscape"
   width="1052.3622"
   height="744.09448"
   id="svg3266"
   version="1.1"
   inkscape:version="0.92.2 (5c3e80d, 2017-08-06)"
   sodipodi:docname="Secteurs.svg">
  <defs
     id="defs3268">
    <marker
       inkscape:stockid="Arrow1Lstart"
       orient="auto"
       refY="0.0"
       refX="0.0"
       id="Arrow1Lstart"
       style="overflow:visible">
      <path
         id="path6244"
         d="M 0.0,0.0 L 5.0,-5.0 L -12.5,0.0 L 5.0,5.0 L 0.0,0.0 z "
         style="fill-rule:evenodd;stroke:#000000;stroke-width:1.0pt"
         transform="scale(0.8) translate(12.5,0)" />
    </marker>
    <marker
       inkscape:stockid="Arrow1Lend"
       orient="auto"
       refY="0.0"
       refX="0.0"
       id="Arrow1Lend"
       style="overflow:visible;">
      <path
         id="path6247"
         d="M 0.0,0.0 L 5.0,-5.0 L -12.5,0.0 L 5.0,5.0 L 0.0,0.0 z "
         style="fill-rule:evenodd;stroke:#000000;stroke-width:1.0pt;"
         transform="scale(0.8) rotate(180) translate(12.5,0)" />
    </marker>
    <clipPath
       id="clip1">
      <path
         inkscape:connector-curvature="0"
         d="M 44.488281,14.398438 566,14.398438 566,411 44.488281,411 z m 0,0"
         id="path150" />
    </clipPath>
    <clipPath
       id="clip2">
      <path
         inkscape:connector-curvature="0"
         d="M 44.488281,355 566,355 l 0,3 -521.511719,0 z m 0,0"
         id="path153" />
    </clipPath>
    <clipPath
       id="clip3">
      <path
         inkscape:connector-curvature="0"
         d="M 44.488281,283 566,283 l 0,3 -521.511719,0 z m 0,0"
         id="path156" />
    </clipPath>
    <clipPath
       id="clip4">
      <path
         inkscape:connector-curvature="0"
         d="M 44.488281,211 566,211 l 0,2 -521.511719,0 z m 0,0"
         id="path159" />
    </clipPath>
    <clipPath
       id="clip5">
      <path
         inkscape:connector-curvature="0"
         d="M 44.488281,139 566,139 l 0,2 -521.511719,0 z m 0,0"
         id="path162" />
    </clipPath>
    <clipPath
       id="clip6">
      <path
         inkscape:connector-curvature="0"
         d="M 44.488281,67 566,67 l 0,2 -521.511719,0 z m 0,0"
         id="path165" />
    </clipPath>
    <clipPath
       id="clip7">
      <path
         inkscape:connector-curvature="0"
         d="m 126,14.398438 2,0 0,397.113282 -2,0 z m 0,0"
         id="path168" />
    </clipPath>
    <clipPath
       id="clip8">
      <path
         inkscape:connector-curvature="0"
         d="m 245,14.398438 2,0 0,397.113282 -2,0 z m 0,0"
         id="path171" />
    </clipPath>
    <clipPath
       id="clip9">
      <path
         inkscape:connector-curvature="0"
         d="m 363,14.398438 2,0 0,397.113282 -2,0 z m 0,0"
         id="path174" />
    </clipPath>
    <clipPath
       id="clip10">
      <path
         inkscape:connector-curvature="0"
         d="m 481,14.398438 2,0 0,397.113282 -2,0 z m 0,0"
         id="path177" />
    </clipPath>
    <clipPath
       id="clip11">
      <path
         inkscape:connector-curvature="0"
         d="M 44.488281,392 566,392 l 0,1 -521.511719,0 z m 0,0"
         id="path180" />
    </clipPath>
    <clipPath
       id="clip12">
      <path
         inkscape:connector-curvature="0"
         d="M 44.488281,320 566,320 l 0,1 -521.511719,0 z m 0,0"
         id="path183" />
    </clipPath>
    <clipPath
       id="clip13">
      <path
         inkscape:connector-curvature="0"
         d="M 44.488281,248 566,248 l 0,1 -521.511719,0 z m 0,0"
         id="path186" />
    </clipPath>
    <clipPath
       id="clip14">
      <path
         inkscape:connector-curvature="0"
         d="M 44.488281,176 566,176 l 0,1 -521.511719,0 z m 0,0"
         id="path189" />
    </clipPath>
    <clipPath
       id="clip15">
      <path
         inkscape:connector-curvature="0"
         d="M 44.488281,104 566,104 l 0,1 -521.511719,0 z m 0,0"
         id="path192" />
    </clipPath>
    <clipPath
       id="clip16">
      <path
         inkscape:connector-curvature="0"
         d="M 44.488281,32 566,32 l 0,1 -521.511719,0 z m 0,0"
         id="path195" />
    </clipPath>
    <clipPath
       id="clip17">
      <path
         inkscape:connector-curvature="0"
         d="m 67,14.398438 2,0 L 69,411 l -2,0 z m 0,0"
         id="path198" />
    </clipPath>
    <clipPath
       id="clip18">
      <path
         inkscape:connector-curvature="0"
         d="m 186,14.398438 1,0 L 187,411 l -1,0 z m 0,0"
         id="path201" />
    </clipPath>
    <clipPath
       id="clip19">
      <path
         inkscape:connector-curvature="0"
         d="m 304,14.398438 1,0 L 305,411 l -1,0 z m 0,0"
         id="path204" />
    </clipPath>
    <clipPath
       id="clip20">
      <path
         inkscape:connector-curvature="0"
         d="m 422,14.398438 2,0 L 424,411 l -2,0 z m 0,0"
         id="path207" />
    </clipPath>
    <clipPath
       id="clip21">
      <path
         inkscape:connector-curvature="0"
         d="m 541,14.398438 1,0 L 542,411 l -1,0 z m 0,0"
         id="path210" />
    </clipPath>
    <clipPath
       id="clip22">
      <path
         inkscape:connector-curvature="0"
         d="m 44.488281,14.398438 521.511719,0 0,397.113282 -521.511719,0 z m 0,0"
         id="path213" />
    </clipPath>
    <clipPath
       id="clip1-7">
      <path
         inkscape:connector-curvature="0"
         d="M 56.488281,14.398438 469,14.398438 469,411 56.488281,411 z m 0,0"
         id="path162-7" />
    </clipPath>
    <clipPath
       id="clip2-1">
      <path
         inkscape:connector-curvature="0"
         d="M 56.488281,346 469,346 l 0,3 -412.511719,0 z m 0,0"
         id="path165-6" />
    </clipPath>
    <clipPath
       id="clip3-8">
      <path
         inkscape:connector-curvature="0"
         d="M 56.488281,256 469,256 l 0,2 -412.511719,0 z m 0,0"
         id="path168-6" />
    </clipPath>
    <clipPath
       id="clip4-3">
      <path
         inkscape:connector-curvature="0"
         d="M 56.488281,166 469,166 l 0,2 -412.511719,0 z m 0,0"
         id="path171-3" />
    </clipPath>
    <clipPath
       id="clip5-1">
      <path
         inkscape:connector-curvature="0"
         d="M 56.488281,76 469,76 l 0,2 -412.511719,0 z m 0,0"
         id="path174-3" />
    </clipPath>
    <clipPath
       id="clip6-8">
      <path
         inkscape:connector-curvature="0"
         d="m 116,14.398438 2,0 0,397.113282 -2,0 z m 0,0"
         id="path177-9" />
    </clipPath>
    <clipPath
       id="clip7-3">
      <path
         inkscape:connector-curvature="0"
         d="m 201,14.398438 2,0 0,397.113282 -2,0 z m 0,0"
         id="path180-2" />
    </clipPath>
    <clipPath
       id="clip8-0">
      <path
         inkscape:connector-curvature="0"
         d="m 291,14.398438 3,0 0,397.113282 -3,0 z m 0,0"
         id="path183-3" />
    </clipPath>
    <clipPath
       id="clip9-5">
      <path
         inkscape:connector-curvature="0"
         d="m 394,14.398438 2,0 0,397.113282 -2,0 z m 0,0"
         id="path186-9" />
    </clipPath>
    <clipPath
       id="clip10-8">
      <path
         inkscape:connector-curvature="0"
         d="M 56.488281,392 469,392 l 0,1 -412.511719,0 z m 0,0"
         id="path189-7" />
    </clipPath>
    <clipPath
       id="clip11-2">
      <path
         inkscape:connector-curvature="0"
         d="M 56.488281,302 469,302 l 0,1 -412.511719,0 z m 0,0"
         id="path192-6" />
    </clipPath>
    <clipPath
       id="clip12-1">
      <path
         inkscape:connector-curvature="0"
         d="M 56.488281,212 469,212 l 0,1 -412.511719,0 z m 0,0"
         id="path195-9" />
    </clipPath>
    <clipPath
       id="clip13-9">
      <path
         inkscape:connector-curvature="0"
         d="M 56.488281,122 469,122 l 0,1 -412.511719,0 z m 0,0"
         id="path198-2" />
    </clipPath>
    <clipPath
       id="clip14-5">
      <path
         inkscape:connector-curvature="0"
         d="M 56.488281,32 469,32 l 0,1 -412.511719,0 z m 0,0"
         id="path201-8" />
    </clipPath>
    <clipPath
       id="clip15-3">
      <path
         inkscape:connector-curvature="0"
         d="m 74,14.398438 2,0 L 76,411 l -2,0 z m 0,0"
         id="path204-3" />
    </clipPath>
    <clipPath
       id="clip16-1">
      <path
         inkscape:connector-curvature="0"
         d="m 159,14.398438 1,0 L 160,411 l -1,0 z m 0,0"
         id="path207-0" />
    </clipPath>
    <clipPath
       id="clip17-0">
      <path
         inkscape:connector-curvature="0"
         d="m 243,14.398438 2,0 L 245,411 l -2,0 z m 0,0"
         id="path210-4" />
    </clipPath>
    <clipPath
       id="clip18-8">
      <path
         inkscape:connector-curvature="0"
         d="m 340,14.398438 1,0 L 341,411 l -1,0 z m 0,0"
         id="path213-1" />
    </clipPath>
    <clipPath
       id="clip19-2">
      <path
         inkscape:connector-curvature="0"
         d="m 449,14.398438 1,0 L 450,411 l -1,0 z m 0,0"
         id="path216" />
    </clipPath>
    <clipPath
       id="clip20-1">
      <path
         inkscape:connector-curvature="0"
         d="m 56.488281,14.398438 412.511719,0 0,397.113282 -412.511719,0 z m 0,0"
         id="path219" />
    </clipPath>
  </defs>
  <sodipodi:namedview
     id="base"
     pagecolor="#ffffff"
     bordercolor="#666666"
     borderopacity="1.0"
     inkscape:pageopacity="0.0"
     inkscape:pageshadow="2"
     inkscape:zoom="0.42285823"
     inkscape:cx="-620.27232"
     inkscape:cy="337.89212"
     inkscape:document-units="px"
     inkscape:current-layer="g4123"
     showgrid="false"
     showguides="true"
     inkscape:guide-bbox="true"
     inkscape:window-width="1920"
     inkscape:window-height="1031"
     inkscape:window-x="0"
     inkscape:window-y="25"
     inkscape:window-maximized="1"
     inkscape:snap-bbox="true"
     inkscape:snap-global="true">
    <sodipodi:guide
       orientation="1,0"
       position="997.02056,534.87577"
       id="guide4004"
       inkscape:locked="false" />
    <sodipodi:guide
       orientation="0,1"
       position="539.42146,595.99"
       id="guide4643"
       inkscape:locked="false" />
    <sodipodi:guide
       orientation="1,0"
       position="357.08892,594.97985"
       id="guide4645"
       inkscape:locked="false" />
    <sodipodi:guide
       orientation="0,1"
       position="317.85714,38.571429"
       id="guide4754"
       inkscape:locked="false" />
    <sodipodi:guide
       orientation="0,1"
       position="123.56387,154.01143"
       id="guide5342"
       inkscape:locked="false" />
    <sodipodi:guide
       orientation="1,0"
       position="52.026894,175.59077"
       id="guide5344"
       inkscape:locked="false" />
    <sodipodi:guide
       orientation="1,0"
       position="566.04231,375.41063"
       id="guide3718"
       inkscape:locked="false" />
  </sodipodi:namedview>
  <metadata
     id="metadata3271">
    <rdf:RDF>
      <cc:Work
         rdf:about="">
        <dc:format>image/svg+xml</dc:format>
        <dc:type
           rdf:resource="http://purl.org/dc/dcmitype/StillImage" />
        <dc:title />
      </cc:Work>
    </rdf:RDF>
  </metadata>
  <g
     inkscape:label="Layer 1"
     inkscape:groupmode="layer"
     id="layer1"
     transform="translate(0,-308.2677)">
    <g
       transform="translate(-2.9661535,114.26684)"
       id="g4123">
      <rect
         style="fill:#4d4d4d;stroke:#4d4d4d;stroke-width:2;stroke-linecap:butt;stroke-miterlimit:4;stroke-dasharray:none;stroke-dashoffset:0"
         id="rect3234-7"
         width="930.99908"
         height="28"
         x="19.430676"
         y="300.76089" />
      <rect
         style="fill:none;stroke:#4d4d4d;stroke-width:1.99999952;stroke-linecap:butt;stroke-miterlimit:4;stroke-dasharray:none;stroke-dashoffset:0"
         id="rect3234"
         width="930.99908"
         height="512.57843"
         x="19.430676"
         y="329.76089" />
      <flowRoot
         xml:space="preserve"
         id="flowRoot3066-7"
         style="font-style:normal;font-variant:normal;font-weight:normal;font-stretch:normal;line-height:0.01%;font-family:Ubuntu;-inkscape-font-specification:Ubuntu;letter-spacing:0px;word-spacing:0px;fill:#ffffff;fill-opacity:1;stroke:none"
         transform="translate(55.86817,-1.2465373)"><flowRegion
           id="flowRegion3068-3"><rect
             id="rect3070-7"
             width="952.54449"
             height="40.543102"
             x="148.57143"
             y="304.80878"
             style="fill:#ffffff" /></flowRegion><flowPara
           id="flowPara3072-9"
           style="font-weight:500;font-size:22px;line-height:1.25;-inkscape-font-specification:'Ubuntu Medium';fill:#ffffff">CHERCHER CE QUI SE CACHE DERRIÈRE LES AGRÉGATS</flowPara></flowRoot>      <flowRoot
         xml:space="preserve"
         id="flowRoot3066-4"
         style="font-style:normal;font-variant:normal;font-weight:normal;font-stretch:normal;line-height:0.01%;font-family:Ubuntu;-inkscape-font-specification:Ubuntu;text-align:start;letter-spacing:0px;word-spacing:0px;writing-mode:lr-tb;text-anchor:start;fill:#333333;fill-opacity:1;stroke:none;"
         transform="translate(-124.79163,519.46339)"><flowRegion
           id="flowRegion3068-5"
           style="fill:#333333;"><rect
             id="rect3070-1"
             width="968.20691"
             height="36.428566"
             x="148.57143"
             y="304.80878"
             style="font-style:normal;font-variant:normal;font-weight:normal;font-stretch:normal;font-size:16px;line-height:125%;font-family:Ubuntu;-inkscape-font-specification:Ubuntu;text-align:start;writing-mode:lr-tb;text-anchor:start;fill:#333333;" /></flowRegion><flowPara
           id="flowPara3072-2"
           style="font-style:italic;font-size:13px;line-height:1.25;-inkscape-font-specification:'Ubuntu Italic';fill:#333333;">Source : Insee, Recensements de la population</flowPara></flowRoot>      <g
         id="g228"
         clip-rule="nonzero"
         clip-path="url(#clip1-7)"
         transform="matrix(1.0661587,0,0,1.0661587,23.471792,326.75432)">
        <path
           inkscape:connector-curvature="0"
           id="path230"
           d="m 56.488281,410.51172 411.621089,0 0,-396.113282 -411.621089,0 z m 0,0"
           style="fill:#ffffff;fill-opacity:1;fill-rule:nonzero;stroke:none" />
      </g>
      <g
         id="g232"
         clip-rule="nonzero"
         clip-path="url(#clip2-1)"
         transform="matrix(1.0661587,0,0,1.0661587,23.471792,326.75432)">
        <path
           inkscape:connector-curvature="0"
           id="path234"
           d="m 56.488281,347.49609 411.617189,0"
           style="fill:none;stroke:#fafafa;stroke-width:1.24628735;stroke-linecap:butt;stroke-linejoin:round;stroke-miterlimit:10;stroke-opacity:1" />
      </g>
      <g
         id="g236"
         clip-rule="nonzero"
         clip-path="url(#clip3-8)"
         transform="matrix(1.0661587,0,0,1.0661587,23.471792,326.75432)">
        <path
           inkscape:connector-curvature="0"
           id="path238"
           d="m 56.488281,257.46875 411.617189,0"
           style="fill:none;stroke:#fafafa;stroke-width:1.24628735;stroke-linecap:butt;stroke-linejoin:round;stroke-miterlimit:10;stroke-opacity:1" />
      </g>
      <g
         id="g240"
         clip-rule="nonzero"
         clip-path="url(#clip4-3)"
         transform="matrix(1.0661587,0,0,1.0661587,23.471792,326.75432)">
        <path
           inkscape:connector-curvature="0"
           id="path242"
           d="m 56.488281,167.44531 411.617189,0"
           style="fill:none;stroke:#fafafa;stroke-width:1.24628735;stroke-linecap:butt;stroke-linejoin:round;stroke-miterlimit:10;stroke-opacity:1" />
      </g>
      <g
         id="g244"
         clip-rule="nonzero"
         clip-path="url(#clip5-1)"
         transform="matrix(1.0661587,0,0,1.0661587,23.471792,326.75432)">
        <path
           inkscape:connector-curvature="0"
           id="path246"
           d="m 56.488281,77.417969 411.617189,0"
           style="fill:none;stroke:#fafafa;stroke-width:1.24628735;stroke-linecap:butt;stroke-linejoin:round;stroke-miterlimit:10;stroke-opacity:1" />
      </g>
      <g
         id="g248"
         clip-rule="nonzero"
         clip-path="url(#clip6-8)"
         transform="matrix(1.0661587,0,0,1.0661587,23.471792,326.75432)">
        <path
           inkscape:connector-curvature="0"
           id="path250"
           d="m 117.44531,410.51172 0,-396.113282"
           style="fill:none;stroke:#fafafa;stroke-width:1.24628735;stroke-linecap:butt;stroke-linejoin:round;stroke-miterlimit:10;stroke-opacity:1" />
      </g>
      <g
         id="g252"
         clip-rule="nonzero"
         clip-path="url(#clip7-3)"
         transform="matrix(1.0661587,0,0,1.0661587,23.471792,326.75432)">
        <path
           inkscape:connector-curvature="0"
           id="path254"
           d="m 201.94141,410.51172 0,-396.113282"
           style="fill:none;stroke:#fafafa;stroke-width:1.24628735;stroke-linecap:butt;stroke-linejoin:round;stroke-miterlimit:10;stroke-opacity:1" />
      </g>
      <g
         id="g256"
         clip-rule="nonzero"
         clip-path="url(#clip8-0)"
         transform="matrix(1.0661587,0,0,1.0661587,23.471792,326.75432)">
        <path
           inkscape:connector-curvature="0"
           id="path258"
           d="m 292.47266,410.51172 0,-396.113282"
           style="fill:none;stroke:#fafafa;stroke-width:1.24628735;stroke-linecap:butt;stroke-linejoin:round;stroke-miterlimit:10;stroke-opacity:1" />
      </g>
      <g
         id="g260"
         clip-rule="nonzero"
         clip-path="url(#clip9-5)"
         transform="matrix(1.0661587,0,0,1.0661587,23.471792,326.75432)">
        <path
           inkscape:connector-curvature="0"
           id="path262"
           d="m 395.07812,410.51172 0,-396.113282"
           style="fill:none;stroke:#fafafa;stroke-width:1.24628735;stroke-linecap:butt;stroke-linejoin:round;stroke-miterlimit:10;stroke-opacity:1" />
      </g>
      <g
         id="g264"
         clip-rule="nonzero"
         clip-path="url(#clip10-8)"
         transform="matrix(1.0661587,0,0,1.0661587,23.471792,326.75432)">
        <path
           inkscape:connector-curvature="0"
           id="path266"
           d="m 56.488281,392.50781 411.617189,0"
           style="fill:none;stroke:#e3e3e3;stroke-width:0.49851519;stroke-linecap:butt;stroke-linejoin:round;stroke-miterlimit:10;stroke-opacity:1" />
      </g>
      <g
         id="g268"
         clip-rule="nonzero"
         clip-path="url(#clip11-2)"
         transform="matrix(1.0661587,0,0,1.0661587,23.471792,326.75432)">
        <path
           inkscape:connector-curvature="0"
           id="path270"
           d="m 56.488281,302.48437 411.617189,0"
           style="fill:none;stroke:#e3e3e3;stroke-width:0.49851519;stroke-linecap:butt;stroke-linejoin:round;stroke-miterlimit:10;stroke-opacity:1" />
      </g>
      <g
         id="g272"
         clip-rule="nonzero"
         clip-path="url(#clip12-1)"
         transform="matrix(1.0661587,0,0,1.0661587,23.471792,326.75432)">
        <path
           inkscape:connector-curvature="0"
           id="path274"
           d="m 56.488281,212.45703 411.617189,0"
           style="fill:none;stroke:#e3e3e3;stroke-width:0.49851519;stroke-linecap:butt;stroke-linejoin:round;stroke-miterlimit:10;stroke-opacity:1" />
      </g>
      <g
         id="g276"
         clip-rule="nonzero"
         clip-path="url(#clip13-9)"
         transform="matrix(1.0661587,0,0,1.0661587,23.471792,326.75432)">
        <path
           inkscape:connector-curvature="0"
           id="path278"
           d="m 56.488281,122.42969 411.617189,0"
           style="fill:none;stroke:#e3e3e3;stroke-width:0.49851519;stroke-linecap:butt;stroke-linejoin:round;stroke-miterlimit:10;stroke-opacity:1" />
      </g>
      <g
         id="g280"
         clip-rule="nonzero"
         clip-path="url(#clip14-5)"
         transform="matrix(1.0661587,0,0,1.0661587,23.471792,326.75432)">
        <path
           inkscape:connector-curvature="0"
           id="path282"
           d="m 56.488281,32.40625 411.617189,0"
           style="fill:none;stroke:#e3e3e3;stroke-width:0.49851519;stroke-linecap:butt;stroke-linejoin:round;stroke-miterlimit:10;stroke-opacity:1" />
      </g>
      <g
         id="g284"
         clip-rule="nonzero"
         clip-path="url(#clip15-3)"
         transform="matrix(1.0661587,0,0,1.0661587,23.471792,326.75432)">
        <path
           inkscape:connector-curvature="0"
           id="path286"
           d="m 75.195312,410.51172 0,-396.113282"
           style="fill:none;stroke:#e3e3e3;stroke-width:0.49851519;stroke-linecap:butt;stroke-linejoin:round;stroke-miterlimit:10;stroke-opacity:1" />
      </g>
      <g
         id="g288"
         clip-rule="nonzero"
         clip-path="url(#clip16-1)"
         transform="matrix(1.0661587,0,0,1.0661587,23.471792,326.75432)">
        <path
           inkscape:connector-curvature="0"
           id="path290"
           d="m 159.69531,410.51172 0,-396.113282"
           style="fill:none;stroke:#e3e3e3;stroke-width:0.49851519;stroke-linecap:butt;stroke-linejoin:round;stroke-miterlimit:10;stroke-opacity:1" />
      </g>
      <g
         id="g292"
         clip-rule="nonzero"
         clip-path="url(#clip17-0)"
         transform="matrix(1.0661587,0,0,1.0661587,23.471792,326.75432)">
        <path
           inkscape:connector-curvature="0"
           id="path294"
           d="m 244.19141,410.51172 0,-396.113282"
           style="fill:none;stroke:#e3e3e3;stroke-width:0.49851519;stroke-linecap:butt;stroke-linejoin:round;stroke-miterlimit:10;stroke-opacity:1" />
      </g>
      <g
         id="g296"
         clip-rule="nonzero"
         clip-path="url(#clip18-8)"
         transform="matrix(1.0661587,0,0,1.0661587,23.471792,326.75432)">
        <path
           inkscape:connector-curvature="0"
           id="path298"
           d="m 340.75781,410.51172 0,-396.113282"
           style="fill:none;stroke:#e3e3e3;stroke-width:0.49851519;stroke-linecap:butt;stroke-linejoin:round;stroke-miterlimit:10;stroke-opacity:1" />
      </g>
      <g
         id="g300"
         clip-rule="nonzero"
         clip-path="url(#clip19-2)"
         transform="matrix(1.0661587,0,0,1.0661587,23.471792,326.75432)">
        <path
           inkscape:connector-curvature="0"
           id="path302"
           d="m 449.39844,410.51172 0,-396.113282"
           style="fill:none;stroke:#e3e3e3;stroke-width:0.49851519;stroke-linecap:butt;stroke-linejoin:round;stroke-miterlimit:10;stroke-opacity:1" />
      </g>
      <path
         inkscape:connector-curvature="0"
         id="path304"
         d="m 103.64193,685.00447 5.05176,0.81211 5.05176,1.07865 5.04759,1.29938 5.05176,1.48263 5.0476,1.63672 5.05176,1.745 5.05176,1.81997 5.04759,1.85328 5.05177,1.84913 5.04759,1.81162 5.05176,1.73251 5.05175,1.6159 5.0476,1.4618 5.05176,1.26607 5.04759,1.04117 5.05176,0.77463 5.0476,0.46645 5.05176,0.1291 5.05176,0.0375 5.0476,0.0999 5.05176,0.14576 5.04759,0.19157 5.05176,0.22489 5.05177,0.25822 5.04758,0.28319 5.05176,0.29986 5.0476,0.31235 5.05176,0.31652 5.05176,0.31235 5.04759,0.30819 5.05177,0.29153 5.04759,0.2707 5.05176,0.24571 5.05176,0.20823 5.0476,0.17076 5.05176,0.1291 5.04758,0.20408 5.05177,0.29985 5.05176,0.38732 5.04759,0.46644 5.05176,0.53308 5.0476,0.59139 5.05176,0.6372 5.05176,0.67467 5.0476,0.70383 5.05176,0.71633 5.04759,0.72466 5.05175,0.72464 5.05176,0.70801 5.0476,0.683 5.05176,0.6497 5.0476,0.60387 5.05176,0.54974 5.05176,0.48727 5.04759,0.40813 5.05176,0.32485 5.0476,0.27071 5.05176,0.26237 5.05176,0.25405 5.0476,0.24571 5.05175,0.23739 5.04759,0.22906 5.05176,0.22489 5.05177,0.2124 5.04759,0.20824 5.05176,0.19573 5.0476,0.19158 5.05176,0.18324 5.05176,0.17492 5.04759,0.16659 5.05177,0.15825 5.04759,0.14994 5.05175,0.14159 5.05176,0.13327 5.0476,0.12911 5.05176,0.11661 5.04759,0.11245 5.05177,0.10416 5.05176,0.0957"
         style="fill:none;stroke:#008000;stroke-width:1.32874011999999997;stroke-linecap:butt;stroke-linejoin:round;stroke-miterlimit:1;stroke-opacity:1" />
      <path
         inkscape:connector-curvature="0"
         id="path306"
         d="m 103.64193,600.35313 5.05176,0.35399 5.05176,0.46645 5.04759,0.5664 5.05176,0.64969 5.0476,0.71216 5.05176,0.75798 5.05176,0.79128 5.04759,0.80796 5.05177,0.80794 5.04759,0.78713 5.05176,0.7538 5.05175,0.70384 5.0476,0.63719 5.05176,0.5539 5.04759,0.45396 5.05176,0.33317 5.0476,0.20407 5.05176,0.0583 5.05176,0.0291 5.0476,0.0749 5.05176,0.11244 5.04759,0.14161 5.05176,0.17491 5.05177,0.19574 5.04758,0.21656 5.05176,0.22906 5.0476,0.23739 5.05176,0.23738 5.05176,0.24156 5.04759,0.23322 5.05177,0.22073 5.04759,0.20823 5.05176,0.18325 5.05176,0.16242 5.0476,0.1291 5.05176,0.0959 5.04758,0.0916 5.05177,0.10416 5.05176,0.11245 5.04759,0.12078 5.05176,0.12494 5.0476,0.12494 10.10352,0.26654 5.0476,0.13327 5.05176,0.13743 5.04759,0.12911 5.05175,0.1291 5.05176,0.12495 5.0476,0.12077 5.05176,0.11661 5.0476,0.10416 5.05176,0.0957 5.05176,0.0874 5.04759,0.0791 5.05176,0.0625 5.0476,0.18741 5.05176,0.46645 5.05176,0.72049 5.0476,0.95787 5.05175,1.16612 5.04759,1.35352 5.05176,1.51178 5.05177,1.64921 5.04759,1.76582 5.05176,1.85328 5.0476,1.91992 5.05176,1.9574 5.05176,1.97823 5.04759,1.97406 5.05177,1.94075 5.04759,1.89075 5.05175,1.80749 5.05176,1.70751 5.0476,1.58258 5.05176,1.42849 5.04759,1.25773 5.05177,1.062 5.05176,0.83709"
         style="fill:none;stroke:#aa0000;stroke-width:1.32874011999999997;stroke-linecap:butt;stroke-linejoin:round;stroke-miterlimit:1;stroke-opacity:1" />
      <path
         inkscape:connector-curvature="0"
         id="path308"
         d="m 103.64193,585.60599 5.05176,-1.61173 5.05176,-2.13232 5.04759,-2.57794 5.05176,-2.94442 5.0476,-3.24429 5.05176,-3.46086 5.05176,-3.60661 5.04759,-3.67742 5.05177,-3.66908 5.04759,-3.58996 5.05176,-3.43586 5.05175,-3.20681 5.0476,-2.89861 5.05176,-2.51548 5.04759,-2.06151 5.05176,-1.5326 5.0476,-0.92457 5.05176,-0.2582 5.05176,-0.0583 5.0476,-0.14993 5.05176,-0.22073 5.04759,-0.28736 5.05176,-0.34567 5.05177,-0.39148 5.04758,-0.42479 5.05176,-0.45812 5.0476,-0.47061 5.05176,-0.47894 5.05176,-0.47477 5.04759,-0.46228 5.05177,-0.44145 5.04759,-0.41231 5.05176,-0.36649 5.05176,-0.32068 5.0476,-0.25406 5.05176,-0.22072 5.04758,-0.60804 5.05177,-1.09531 5.05176,-1.53677 5.04759,-1.92409 5.05176,-2.26559 5.0476,-2.5571 5.05176,-2.79451 5.05176,-2.99025 5.0476,-3.13184 5.05176,-3.22345 5.04759,-3.26928 5.05175,-3.26095 5.05176,-3.21097 5.0476,-3.10269 5.05176,-2.95276 5.0476,-2.74452 5.05176,-2.49881 5.05176,-2.19063 5.04759,-1.84494 5.05176,-1.44099 5.0476,-1.16195 5.05176,-1.08698 5.05176,-1.00785 5.0476,-0.93705 5.05175,-0.86626 5.04759,-0.80794 5.05176,-0.74548 5.05177,-0.68717 5.04759,-0.6372 5.05176,-0.59139 5.0476,-0.54141 5.05176,-0.49976 5.05176,-0.46228 5.04759,-0.42897 5.05177,-0.3998 5.04759,-0.37482 5.05175,-0.34567 5.05176,-0.33318 5.0476,-0.31235 5.05176,-0.30402 5.04759,-0.29569 5.05177,-0.28737 5.05176,-0.29153"
         style="fill:none;stroke:#0000ff;stroke-width:1.32874011999999997;stroke-linecap:butt;stroke-linejoin:round;stroke-miterlimit:1;stroke-opacity:1" />
      <g
         id="g310"
         clip-rule="nonzero"
         clip-path="url(#clip20-1)"
         transform="matrix(1.0661587,0,0,1.0661587,23.471792,326.75432)">
        <path
           inkscape:connector-curvature="0"
           id="path312"
           d="m 56.488281,410.51172 411.621089,0 0,-396.113282 -411.621089,0 z m 0,0"
           style="fill:none;stroke:#7d7d7d;stroke-width:1.24628735;stroke-linecap:round;stroke-linejoin:round;stroke-miterlimit:10;stroke-opacity:1" />
      </g>
      <path
         inkscape:connector-curvature="0"
         id="path354"
         d="m 79.161925,745.22994 4.535339,0"
         style="fill:none;stroke:#000000;stroke-width:1.32874012;stroke-linecap:butt;stroke-linejoin:round;stroke-miterlimit:10;stroke-opacity:1" />
      <path
         inkscape:connector-curvature="0"
         id="path356"
         d="m 79.161925,649.25066 4.535339,0"
         style="fill:none;stroke:#000000;stroke-width:1.32874012;stroke-linecap:butt;stroke-linejoin:round;stroke-miterlimit:10;stroke-opacity:1" />
      <path
         inkscape:connector-curvature="0"
         id="path358"
         d="m 79.161925,553.26723 4.535339,0"
         style="fill:none;stroke:#000000;stroke-width:1.32874012;stroke-linecap:butt;stroke-linejoin:round;stroke-miterlimit:10;stroke-opacity:1" />
      <path
         inkscape:connector-curvature="0"
         id="path360"
         d="m 79.161925,457.2838 4.535339,0"
         style="fill:none;stroke:#000000;stroke-width:1.32874012;stroke-linecap:butt;stroke-linejoin:round;stroke-miterlimit:10;stroke-opacity:1" />
      <path
         inkscape:connector-curvature="0"
         id="path362"
         d="m 79.161925,361.30453 4.535339,0"
         style="fill:none;stroke:#000000;stroke-width:1.32874012;stroke-linecap:butt;stroke-linejoin:round;stroke-miterlimit:10;stroke-opacity:1" />
      <path
         inkscape:connector-curvature="0"
         id="path364"
         d="m 103.64193,768.96029 0,-4.53533"
         style="fill:none;stroke:#000000;stroke-width:1.32874012;stroke-linecap:butt;stroke-linejoin:round;stroke-miterlimit:10;stroke-opacity:1" />
      <path
         inkscape:connector-curvature="0"
         id="path366"
         d="m 193.73234,768.96029 0,-4.53533"
         style="fill:none;stroke:#000000;stroke-width:1.32874012;stroke-linecap:butt;stroke-linejoin:round;stroke-miterlimit:10;stroke-opacity:1" />
      <path
         inkscape:connector-curvature="0"
         id="path368"
         d="m 283.81859,768.96029 0,-4.53533"
         style="fill:none;stroke:#000000;stroke-width:1.32874012;stroke-linecap:butt;stroke-linejoin:round;stroke-miterlimit:10;stroke-opacity:1" />
      <path
         inkscape:connector-curvature="0"
         id="path370"
         d="m 386.7737,768.96029 0,-4.53533"
         style="fill:none;stroke:#000000;stroke-width:1.32874012;stroke-linecap:butt;stroke-linejoin:round;stroke-miterlimit:10;stroke-opacity:1" />
      <path
         inkscape:connector-curvature="0"
         id="path372"
         d="m 502.60185,768.96029 0,-4.53533"
         style="fill:none;stroke:#000000;stroke-width:1.32874012;stroke-linecap:butt;stroke-linejoin:round;stroke-miterlimit:10;stroke-opacity:1" />
      <flowRoot
         xml:space="preserve"
         id="flowRoot3274"
         style="font-style:normal;font-variant:normal;font-weight:normal;font-stretch:normal;line-height:0.01%;font-family:Ubuntu;-inkscape-font-specification:Ubuntu;text-align:center;letter-spacing:0px;word-spacing:0px;writing-mode:lr-tb;text-anchor:middle;fill:#333333;fill-opacity:1;stroke:none;"
         transform="translate(402.04517,400.54931)"><flowRegion
           id="flowRegion3276"
           style="fill:#333333;"><rect
             id="rect3278"
             width="109.52959"
             height="29.26366"
             x="-354.50803"
             y="371.19217"
             style="font-style:normal;font-variant:normal;font-weight:normal;font-stretch:normal;font-size:14px;line-height:125%;font-family:Ubuntu;-inkscape-font-specification:Ubuntu;text-align:center;writing-mode:lr-tb;text-anchor:middle;fill:#333333;" /></flowRegion><flowPara
           id="flowPara3280"
           style="font-size:14px;line-height:1.25;fill:#333333;">1968</flowPara></flowRoot>      <flowRoot
         xml:space="preserve"
         id="flowRoot3274-4"
         style="font-style:normal;font-variant:normal;font-weight:normal;font-stretch:normal;line-height:0.01%;font-family:Ubuntu;-inkscape-font-specification:Ubuntu;text-align:center;letter-spacing:0px;word-spacing:0px;writing-mode:lr-tb;text-anchor:middle;fill:#333333;fill-opacity:1;stroke:none;"
         transform="translate(493.44481,400.72931)"><flowRegion
           id="flowRegion3276-5"
           style="fill:#333333;"><rect
             id="rect3278-6"
             width="109.52959"
             height="29.26366"
             x="-354.50803"
             y="371.19217"
             style="font-style:normal;font-variant:normal;font-weight:normal;font-stretch:normal;font-size:14px;line-height:125%;font-family:Ubuntu;-inkscape-font-specification:Ubuntu;text-align:center;writing-mode:lr-tb;text-anchor:middle;fill:#333333;" /></flowRegion><flowPara
           id="flowPara3280-4"
           style="font-size:14px;line-height:1.25;fill:#333333;">1975</flowPara></flowRoot>      <flowRoot
         xml:space="preserve"
         id="flowRoot3274-42"
         style="font-style:normal;font-variant:normal;font-weight:normal;font-stretch:normal;line-height:0.01%;font-family:Ubuntu;-inkscape-font-specification:Ubuntu;text-align:center;letter-spacing:0px;word-spacing:0px;writing-mode:lr-tb;text-anchor:middle;fill:#333333;fill-opacity:1;stroke:none;"
         transform="translate(583.30944,400.72931)"><flowRegion
           id="flowRegion3276-6"
           style="fill:#333333;"><rect
             id="rect3278-4"
             width="109.52959"
             height="29.26366"
             x="-354.50803"
             y="371.19217"
             style="font-style:normal;font-variant:normal;font-weight:normal;font-stretch:normal;font-size:14px;line-height:125%;font-family:Ubuntu;-inkscape-font-specification:Ubuntu;text-align:center;writing-mode:lr-tb;text-anchor:middle;fill:#333333;" /></flowRegion><flowPara
           id="flowPara3280-7"
           style="font-size:14px;line-height:1.25;fill:#333333;">1982</flowPara></flowRoot>      <flowRoot
         xml:space="preserve"
         id="flowRoot3274-1"
         style="font-style:normal;font-variant:normal;font-weight:normal;font-stretch:normal;line-height:0.01%;font-family:Ubuntu;-inkscape-font-specification:Ubuntu;text-align:center;letter-spacing:0px;word-spacing:0px;writing-mode:lr-tb;text-anchor:middle;fill:#333333;fill-opacity:1;stroke:none;"
         transform="translate(686.22032,400.54931)"><flowRegion
           id="flowRegion3276-57"
           style="fill:#333333;"><rect
             id="rect3278-0"
             width="109.52959"
             height="29.26366"
             x="-354.50803"
             y="371.19217"
             style="font-style:normal;font-variant:normal;font-weight:normal;font-stretch:normal;font-size:14px;line-height:125%;font-family:Ubuntu;-inkscape-font-specification:Ubuntu;text-align:center;writing-mode:lr-tb;text-anchor:middle;fill:#333333;" /></flowRegion><flowPara
           id="flowPara3280-9"
           style="font-size:14px;line-height:1.25;fill:#333333;">1990</flowPara></flowRoot>      <flowRoot
         xml:space="preserve"
         id="flowRoot3274-3"
         style="font-style:normal;font-variant:normal;font-weight:normal;font-stretch:normal;line-height:0.01%;font-family:Ubuntu;-inkscape-font-specification:Ubuntu;text-align:center;letter-spacing:0px;word-spacing:0px;writing-mode:lr-tb;text-anchor:middle;fill:#333333;fill-opacity:1;stroke:none;"
         transform="translate(802.65009,400.70531)"><flowRegion
           id="flowRegion3276-1"
           style="fill:#333333;"><rect
             id="rect3278-9"
             width="109.52959"
             height="29.26366"
             x="-354.50803"
             y="371.19217"
             style="font-style:normal;font-variant:normal;font-weight:normal;font-stretch:normal;font-size:14px;line-height:125%;font-family:Ubuntu;-inkscape-font-specification:Ubuntu;text-align:center;writing-mode:lr-tb;text-anchor:middle;fill:#333333;" /></flowRegion><flowPara
           id="flowPara3280-3"
           style="font-size:14px;line-height:1.25;fill:#333333;">1999</flowPara></flowRoot>      <flowRoot
         xml:space="preserve"
         id="flowRoot3274-4-6"
         style="font-style:normal;font-variant:normal;font-weight:normal;font-stretch:normal;line-height:0.01%;font-family:Ubuntu;-inkscape-font-specification:Ubuntu;text-align:end;letter-spacing:0px;word-spacing:0px;writing-mode:lr-tb;text-anchor:end;fill:#333333;fill-opacity:1;stroke:none;"
         transform="translate(316.66814,363.80389)"><flowRegion
           id="flowRegion3276-5-6"
           style="fill:#333333;"><rect
             id="rect3278-6-3"
             width="109.52959"
             height="29.26366"
             x="-354.50803"
             y="371.19217"
             style="font-style:normal;font-variant:normal;font-weight:normal;font-stretch:normal;font-size:14px;line-height:125%;font-family:Ubuntu;-inkscape-font-specification:Ubuntu;text-align:end;writing-mode:lr-tb;text-anchor:end;fill:#333333;" /></flowRegion><flowPara
           id="flowPara3280-4-9"
           style="font-size:14px;line-height:1.25;fill:#333333;">0</flowPara></flowRoot>      <flowRoot
         xml:space="preserve"
         id="flowRoot3274-4-6-9"
         style="font-style:normal;font-variant:normal;font-weight:normal;font-stretch:normal;line-height:0.01%;font-family:Ubuntu;-inkscape-font-specification:Ubuntu;text-align:end;letter-spacing:0px;word-spacing:0px;writing-mode:lr-tb;text-anchor:end;fill:#333333;fill-opacity:1;stroke:none;"
         transform="translate(316.99014,268.0271)"><flowRegion
           id="flowRegion3276-5-6-6"
           style="fill:#333333;"><rect
             id="rect3278-6-3-1"
             width="109.52959"
             height="29.26366"
             x="-354.50803"
             y="371.19217"
             style="font-style:normal;font-variant:normal;font-weight:normal;font-stretch:normal;font-size:14px;line-height:125%;font-family:Ubuntu;-inkscape-font-specification:Ubuntu;text-align:end;writing-mode:lr-tb;text-anchor:end;fill:#333333;" /></flowRegion><flowPara
           id="flowPara3280-4-9-2"
           style="font-size:14px;line-height:1.25;fill:#333333;">25</flowPara></flowRoot>      <flowRoot
         xml:space="preserve"
         id="flowRoot3274-4-6-9-2"
         style="font-style:normal;font-variant:normal;font-weight:normal;font-stretch:normal;line-height:0.01%;font-family:Ubuntu;-inkscape-font-specification:Ubuntu;text-align:end;letter-spacing:0px;word-spacing:0px;writing-mode:lr-tb;text-anchor:end;fill:#333333;fill-opacity:1;stroke:none;"
         transform="translate(316.66814,172.10252)"><flowRegion
           id="flowRegion3276-5-6-6-0"
           style="fill:#333333;"><rect
             id="rect3278-6-3-1-3"
             width="109.52959"
             height="29.26366"
             x="-354.50803"
             y="371.19217"
             style="font-style:normal;font-variant:normal;font-weight:normal;font-stretch:normal;font-size:14px;line-height:125%;font-family:Ubuntu;-inkscape-font-specification:Ubuntu;text-align:end;writing-mode:lr-tb;text-anchor:end;fill:#333333;" /></flowRegion><flowPara
           id="flowPara3280-4-9-2-5"
           style="font-size:14px;line-height:1.25;fill:#333333;">50</flowPara></flowRoot>      <flowRoot
         xml:space="preserve"
         id="flowRoot3274-4-6-9-3"
         style="font-style:normal;font-variant:normal;font-weight:normal;font-stretch:normal;line-height:0.01%;font-family:Ubuntu;-inkscape-font-specification:Ubuntu;text-align:end;letter-spacing:0px;word-spacing:0px;writing-mode:lr-tb;text-anchor:end;fill:#333333;fill-opacity:1;stroke:none;"
         transform="translate(316.99014,76.76915)"><flowRegion
           id="flowRegion3276-5-6-6-9"
           style="fill:#333333;"><rect
             id="rect3278-6-3-1-2"
             width="109.52959"
             height="29.26366"
             x="-354.50803"
             y="371.19217"
             style="font-style:normal;font-variant:normal;font-weight:normal;font-stretch:normal;font-size:14px;line-height:125%;font-family:Ubuntu;-inkscape-font-specification:Ubuntu;text-align:end;writing-mode:lr-tb;text-anchor:end;fill:#333333;" /></flowRegion><flowPara
           id="flowPara3280-4-9-2-2"
           style="font-size:14px;line-height:1.25;fill:#333333;">75</flowPara></flowRoot>      <flowRoot
         xml:space="preserve"
         id="flowRoot3274-4-6-9-37"
         style="font-style:normal;font-variant:normal;font-weight:normal;font-stretch:normal;line-height:0.01%;font-family:Ubuntu;-inkscape-font-specification:Ubuntu;text-align:end;letter-spacing:0px;word-spacing:0px;writing-mode:lr-tb;text-anchor:end;fill:#333333;fill-opacity:1;stroke:none;"
         transform="translate(316.66814,-19.894459)"><flowRegion
           id="flowRegion3276-5-6-6-4"
           style="fill:#333333;"><rect
             id="rect3278-6-3-1-23"
             width="109.52959"
             height="29.26366"
             x="-354.50803"
             y="371.19217"
             style="font-style:normal;font-variant:normal;font-weight:normal;font-stretch:normal;font-size:14px;line-height:125%;font-family:Ubuntu;-inkscape-font-specification:Ubuntu;text-align:end;writing-mode:lr-tb;text-anchor:end;fill:#333333;" /></flowRegion><flowPara
           id="flowPara3280-4-9-2-1"
           style="font-size:14px;line-height:1.25;fill:#333333;">100</flowPara></flowRoot>      <flowRoot
         xml:space="preserve"
         id="flowRoot3274-5"
         style="font-style:normal;font-variant:normal;font-weight:normal;font-stretch:normal;line-height:0.01%;font-family:Ubuntu;-inkscape-font-specification:Ubuntu;text-align:center;letter-spacing:0px;word-spacing:0px;writing-mode:lr-tb;text-anchor:middle;fill:#333333;fill-opacity:1;stroke:none;"
         transform="translate(548.43275,420.01346)"><flowRegion
           id="flowRegion3276-18"
           style="fill:#333333;"><rect
             id="rect3278-60"
             width="224.91193"
             height="25.919256"
             x="-354.50803"
             y="371.19217"
             style="font-style:normal;font-variant:normal;font-weight:normal;font-stretch:normal;font-size:14px;line-height:125%;font-family:Ubuntu;-inkscape-font-specification:Ubuntu;text-align:center;writing-mode:lr-tb;text-anchor:middle;fill:#333333;" /></flowRegion><flowPara
           id="flowPara3280-39"
           style="font-weight:500;font-size:14px;line-height:1.25;-inkscape-font-specification:'Ubuntu Medium';fill:#333333;">Année</flowPara></flowRoot>      <flowRoot
         xml:space="preserve"
         id="flowRoot3274-5-9"
         style="font-style:normal;font-variant:normal;font-weight:normal;font-stretch:normal;line-height:0.01%;font-family:Ubuntu;-inkscape-font-specification:Ubuntu;text-align:center;letter-spacing:0px;word-spacing:0px;writing-mode:lr-tb;text-anchor:middle;fill:#333333;fill-opacity:1;stroke:none;"
         transform="rotate(-90,-15.53701,329.24289)"><flowRegion
           id="flowRegion3276-18-6"
           style="fill:#333333;"><rect
             id="rect3278-60-5"
             width="224.91193"
             height="25.919256"
             x="-354.50803"
             y="371.19217"
             style="font-style:normal;font-variant:normal;font-weight:normal;font-stretch:normal;font-size:14px;line-height:125%;font-family:Ubuntu;-inkscape-font-specification:Ubuntu;text-align:center;writing-mode:lr-tb;text-anchor:middle;fill:#333333;" /></flowRegion><flowPara
           id="flowPara3280-39-8"
           style="font-weight:500;font-size:14px;line-height:1.25;-inkscape-font-specification:'Ubuntu Medium';fill:#333333;">Part de l'emploi (%)</flowPara></flowRoot>      <flowRoot
         xml:space="preserve"
         id="flowRoot3274-5-2"
         style="font-style:normal;font-variant:normal;font-weight:normal;font-stretch:normal;line-height:0.01%;font-family:Ubuntu;-inkscape-font-specification:Ubuntu;text-align:center;letter-spacing:0px;word-spacing:0px;writing-mode:lr-tb;text-anchor:middle;fill:#aa0000;fill-opacity:1;stroke:none"
         transform="translate(708.63319,232.54371)"><flowRegion
           id="flowRegion3276-18-69"><rect
             id="rect3278-60-8"
             width="224.91193"
             height="25.919256"
             x="-354.50803"
             y="371.19217"
             style="font-style:normal;font-variant:normal;font-weight:normal;font-stretch:normal;font-size:14px;line-height:125%;font-family:Ubuntu;-inkscape-font-specification:Ubuntu;text-align:center;writing-mode:lr-tb;text-anchor:middle;fill:#aa0000" /></flowRegion><flowPara
           id="flowPara3280-39-81"
           style="font-style:italic;font-weight:500;font-size:14px;line-height:1.25;-inkscape-font-specification:'Ubuntu Medium Italic';fill:#aa0000">Secondaire</flowPara></flowRoot>      <flowRoot
         xml:space="preserve"
         id="flowRoot3274-5-2-1"
         style="font-style:normal;font-variant:normal;font-weight:normal;font-stretch:normal;line-height:0.01%;font-family:Ubuntu;-inkscape-font-specification:Ubuntu;text-align:center;letter-spacing:0px;word-spacing:0px;writing-mode:lr-tb;text-anchor:middle;fill:#0000ff;fill-opacity:1;stroke:none"
         transform="translate(716.76194,75.980459)"><flowRegion
           id="flowRegion3276-18-69-0"><rect
             id="rect3278-60-8-6"
             width="224.91193"
             height="25.919256"
             x="-354.50803"
             y="371.19217"
             style="font-style:normal;font-variant:normal;font-weight:normal;font-stretch:normal;font-size:14px;line-height:125%;font-family:Ubuntu;-inkscape-font-specification:Ubuntu;text-align:center;writing-mode:lr-tb;text-anchor:middle;fill:#0000ff" /></flowRegion><flowPara
           id="flowPara3280-39-81-8"
           style="font-style:italic;font-weight:500;font-size:14px;line-height:1.25;-inkscape-font-specification:'Ubuntu Medium Italic';fill:#0000ff">Tertiaire</flowPara></flowRoot>      <flowRoot
         xml:space="preserve"
         id="flowRoot3274-5-2-5"
         style="font-style:normal;font-variant:normal;font-weight:normal;font-stretch:normal;line-height:0.01%;font-family:Ubuntu;-inkscape-font-specification:Ubuntu;text-align:center;letter-spacing:0px;word-spacing:0px;writing-mode:lr-tb;text-anchor:middle;fill:#008000;fill-opacity:1;stroke:none"
         transform="translate(716.32288,333.30628)"><flowRegion
           id="flowRegion3276-18-69-7"><rect
             id="rect3278-60-8-0"
             width="224.91193"
             height="25.919256"
             x="-354.50803"
             y="371.19217"
             style="font-style:normal;font-variant:normal;font-weight:normal;font-stretch:normal;font-size:14px;line-height:125%;font-family:Ubuntu;-inkscape-font-specification:Ubuntu;text-align:center;writing-mode:lr-tb;text-anchor:middle;fill:#008000" /></flowRegion><flowPara
           id="flowPara3280-39-81-7"
           style="font-style:italic;font-weight:500;font-size:14px;line-height:1.25;-inkscape-font-specification:'Ubuntu Medium Italic';fill:#008000">Primaire</flowPara></flowRoot>      <flowRoot
         xml:space="preserve"
         id="flowRoot3274-5-1"
         style="font-style:normal;font-variant:normal;font-weight:normal;font-stretch:normal;line-height:0.01%;font-family:Ubuntu;-inkscape-font-specification:Ubuntu;text-align:start;letter-spacing:0px;word-spacing:0px;writing-mode:lr-tb;text-anchor:start;fill:#333333;fill-opacity:1;stroke:none;"
         transform="translate(925.28972,87.293618)"><flowRegion
           id="flowRegion3276-18-9"
           style="fill:#333333;"><rect
             id="rect3278-60-1"
             width="397.98541"
             height="64.380028"
             x="-354.50803"
             y="371.19217"
             style="font-style:normal;font-variant:normal;font-weight:normal;font-stretch:normal;font-size:18px;line-height:125%;font-family:Ubuntu;-inkscape-font-specification:Ubuntu;text-align:start;writing-mode:lr-tb;text-anchor:start;fill:#333333;" /></flowRegion><flowPara
           id="flowPara3280-39-5"
           style="font-style:normal;font-variant:normal;font-weight:normal;font-stretch:normal;font-size:18px;line-height:125%;font-family:Ubuntu;-inkscape-font-specification:Ubuntu;text-align:start;writing-mode:lr-tb;text-anchor:start;fill:#333333;"><flowSpan
   style="font-weight:bold;fill:#333333;"
   id="flowSpan3750">Activité : </flowSpan>compagnie d'assurance</flowPara><flowPara
           style="font-style:normal;font-variant:normal;font-weight:normal;font-stretch:normal;font-size:18px;line-height:125%;font-family:Ubuntu;-inkscape-font-specification:Ubuntu;text-align:start;writing-mode:lr-tb;text-anchor:start;fill:#333333;"
           id="flowPara3678"><flowSpan
   style="font-weight:bold;fill:#333333;"
   id="flowSpan3752">Tendance :</flowSpan> diminution ou augmentation ?</flowPara></flowRoot>      <flowRoot
         xml:space="preserve"
         id="flowRoot3274-5-1-5"
         style="font-style:normal;font-variant:normal;font-weight:normal;font-stretch:normal;line-height:0.01%;font-family:Ubuntu;-inkscape-font-specification:Ubuntu;text-align:start;letter-spacing:0px;word-spacing:0px;writing-mode:lr-tb;text-anchor:start;fill:#333333;fill-opacity:1;stroke:none;"
         transform="translate(923.50846,173.24656)"><flowRegion
           id="flowRegion3276-18-9-4"
           style="fill:#333333;"><rect
             id="rect3278-60-1-0"
             width="397.98541"
             height="64.380028"
             x="-354.50803"
             y="371.19217"
             style="font-style:normal;font-variant:normal;font-weight:normal;font-stretch:normal;font-size:18px;line-height:125%;font-family:Ubuntu;-inkscape-font-specification:Ubuntu;text-align:start;writing-mode:lr-tb;text-anchor:start;fill:#333333;" /></flowRegion><flowPara
           id="flowPara3280-39-5-6"
           style="font-style:normal;font-variant:normal;font-weight:normal;font-stretch:normal;font-size:18px;line-height:125%;font-family:Ubuntu;-inkscape-font-specification:Ubuntu;text-align:start;writing-mode:lr-tb;text-anchor:start;fill:#333333;"><flowSpan
   style="font-weight:bold;fill:#333333;"
   id="flowSpan3754">Activité :</flowSpan> alimentation, épicerie</flowPara><flowPara
           style="font-style:normal;font-variant:normal;font-weight:normal;font-stretch:normal;font-size:18px;line-height:125%;font-family:Ubuntu;-inkscape-font-specification:Ubuntu;text-align:start;writing-mode:lr-tb;text-anchor:start;fill:#333333;"
           id="flowPara3678-2"><flowSpan
   style="font-weight:bold;fill:#333333;"
   id="flowSpan3756">Tendance :</flowSpan> diminution ou augmentation ?</flowPara></flowRoot>      <flowRoot
         xml:space="preserve"
         id="flowRoot3274-5-1-5-6"
         style="font-style:normal;font-variant:normal;font-weight:normal;font-stretch:normal;line-height:0.01%;font-family:Ubuntu;-inkscape-font-specification:Ubuntu;text-align:start;letter-spacing:0px;word-spacing:0px;writing-mode:lr-tb;text-anchor:start;fill:#333333;fill-opacity:1;stroke:none;"
         transform="translate(923.62046,253.51253)"><flowRegion
           id="flowRegion3276-18-9-4-6"
           style="fill:#333333;"><rect
             id="rect3278-60-1-0-8"
             width="397.98541"
             height="64.380028"
             x="-354.50803"
             y="371.19217"
             style="font-style:normal;font-variant:normal;font-weight:normal;font-stretch:normal;font-size:18px;line-height:125%;font-family:Ubuntu;-inkscape-font-specification:Ubuntu;text-align:start;writing-mode:lr-tb;text-anchor:start;fill:#333333;" /></flowRegion><flowPara
           id="flowPara3280-39-5-6-6"
           style="font-style:normal;font-variant:normal;font-weight:normal;font-stretch:normal;font-size:18px;line-height:125%;font-family:Ubuntu;-inkscape-font-specification:Ubuntu;text-align:start;writing-mode:lr-tb;text-anchor:start;fill:#333333;"><flowSpan
   style="font-weight:bold;fill:#333333;"
   id="flowSpan3758">Activité :</flowSpan> boulangerie</flowPara><flowPara
           style="font-style:normal;font-variant:normal;font-weight:normal;font-stretch:normal;font-size:18px;line-height:125%;font-family:Ubuntu;-inkscape-font-specification:Ubuntu;text-align:start;writing-mode:lr-tb;text-anchor:start;fill:#333333;"
           id="flowPara3678-2-8"><flowSpan
   style="font-weight:bold;fill:#333333;"
   id="flowSpan3760">Tendance :</flowSpan> diminution ou augmentation ?</flowPara></flowRoot>    </g>
  </g>
</svg>
