<?xml version="1.0" encoding="UTF-8" standalone="no"?>
<!-- Created with Inkscape (http://www.inkscape.org/) -->

<svg
   xmlns:dc="http://purl.org/dc/elements/1.1/"
   xmlns:cc="http://creativecommons.org/ns#"
   xmlns:rdf="http://www.w3.org/1999/02/22-rdf-syntax-ns#"
   xmlns:svg="http://www.w3.org/2000/svg"
   xmlns="http://www.w3.org/2000/svg"
   xmlns:sodipodi="http://sodipodi.sourceforge.net/DTD/sodipodi-0.dtd"
   xmlns:inkscape="http://www.inkscape.org/namespaces/inkscape"
   width="210mm"
   height="297mm"
   viewBox="0 0 744.09448819 1052.3622047"
   id="svg4324"
   version="1.1"
   inkscape:version="0.92.2 (5c3e80d, 2017-08-06)"
   sodipodi:docname="bimodale.svg">
  <defs
     id="defs4326">
    <clipPath
       id="clip1">
      <path
         inkscape:connector-curvature="0"
         d="M 39.53125,5.976562 561,5.976562 561,304 39.53125,304 Z m 0,0"
         id="path96" />
    </clipPath>
    <clipPath
       id="clip2">
      <path
         inkscape:connector-curvature="0"
         d="M 39.53125,242 561,242 l 0,2 -521.46875,0 z m 0,0"
         id="path99-9" />
    </clipPath>
    <clipPath
       id="clip3">
      <path
         inkscape:connector-curvature="0"
         d="M 39.53125,149 561,149 l 0,2 -521.46875,0 z m 0,0"
         id="path102" />
    </clipPath>
    <clipPath
       id="clip4">
      <path
         inkscape:connector-curvature="0"
         d="M 39.53125,56 561,56 l 0,2 -521.46875,0 z m 0,0"
         id="path105-1" />
    </clipPath>
    <clipPath
       id="clip5">
      <path
         inkscape:connector-curvature="0"
         d="m 98,5.976562 2,0 0,298.492188 -2,0 z m 0,0"
         id="path108" />
    </clipPath>
    <clipPath
       id="clip6">
      <path
         inkscape:connector-curvature="0"
         d="m 239,5.976562 2,0 0,298.492188 -2,0 z m 0,0"
         id="path111-2" />
    </clipPath>
    <clipPath
       id="clip7">
      <path
         inkscape:connector-curvature="0"
         d="m 380,5.976562 2,0 0,298.492188 -2,0 z m 0,0"
         id="path114" />
    </clipPath>
    <clipPath
       id="clip8">
      <path
         inkscape:connector-curvature="0"
         d="m 520,5.976562 2,0 0,298.492188 -2,0 z m 0,0"
         id="path117-7" />
    </clipPath>
    <clipPath
       id="clip9">
      <path
         inkscape:connector-curvature="0"
         d="M 39.53125,289 561,289 l 0,2 -521.46875,0 z m 0,0"
         id="path120" />
    </clipPath>
    <clipPath
       id="clip10">
      <path
         inkscape:connector-curvature="0"
         d="M 39.53125,196 561,196 l 0,1 -521.46875,0 z m 0,0"
         id="path123-0" />
    </clipPath>
    <clipPath
       id="clip11">
      <path
         inkscape:connector-curvature="0"
         d="M 39.53125,103 561,103 l 0,1 -521.46875,0 z m 0,0"
         id="path126" />
    </clipPath>
    <clipPath
       id="clip12">
      <path
         inkscape:connector-curvature="0"
         d="M 39.53125,9 561,9 l 0,2 -521.46875,0 z m 0,0"
         id="path129-9" />
    </clipPath>
    <clipPath
       id="clip13">
      <path
         inkscape:connector-curvature="0"
         d="m 169,5.976562 1,0 L 170,304 l -1,0 z m 0,0"
         id="path132" />
    </clipPath>
    <clipPath
       id="clip14">
      <path
         inkscape:connector-curvature="0"
         d="m 309,5.976562 2,0 L 311,304 l -2,0 z m 0,0"
         id="path135-3" />
    </clipPath>
    <clipPath
       id="clip15">
      <path
         inkscape:connector-curvature="0"
         d="m 450,5.976562 2,0 L 452,304 l -2,0 z m 0,0"
         id="path138" />
    </clipPath>
    <clipPath
       id="clip16">
      <path
         inkscape:connector-curvature="0"
         d="m 39.53125,5.976562 521.46875,0 0,298.492188 -521.46875,0 z m 0,0"
         id="path141-6" />
    </clipPath>
  </defs>
  <sodipodi:namedview
     id="base"
     pagecolor="#ffffff"
     bordercolor="#666666"
     borderopacity="1.0"
     inkscape:pageopacity="0.0"
     inkscape:pageshadow="2"
     inkscape:zoom="0.7"
     inkscape:cx="822.11932"
     inkscape:cy="656.46954"
     inkscape:document-units="px"
     inkscape:current-layer="layer1"
     showgrid="true"
     showguides="true"
     inkscape:guide-bbox="true"
     inkscape:snap-text-baseline="true"
     inkscape:window-width="1920"
     inkscape:window-height="1031"
     inkscape:window-x="0"
     inkscape:window-y="25"
     inkscape:window-maximized="1"
     inkscape:snap-bbox="true"
     inkscape:bbox-nodes="true">
    <sodipodi:guide
       position="788.92914,446.48743"
       orientation="0,1"
       id="guide5957"
       inkscape:locked="false" />
    <sodipodi:guide
       position="765.00001,392.85715"
       orientation="1,0"
       id="guide6067"
       inkscape:locked="false" />
    <inkscape:grid
       type="xygrid"
       id="grid6165"
       dotted="true" />
  </sodipodi:namedview>
  <metadata
     id="metadata4329">
    <rdf:RDF>
      <cc:Work
         rdf:about="">
        <dc:format>image/svg+xml</dc:format>
        <dc:type
           rdf:resource="http://purl.org/dc/dcmitype/StillImage" />
        <dc:title />
      </cc:Work>
    </rdf:RDF>
  </metadata>
  <g
     inkscape:label="Layer 1"
     inkscape:groupmode="layer"
     id="layer1">
    <rect
       style="opacity:1;fill:#333333;fill-opacity:1;stroke:#333333;stroke-width:2;stroke-linecap:round;stroke-miterlimit:4;stroke-dasharray:none;stroke-dashoffset:0;stroke-opacity:1"
       id="rect6167"
       width="1338"
       height="39"
       x="121"
       y="33.362206" />
    <path
       inkscape:connector-curvature="0"
       id="path67"
       d="m 473.05824,477.57566 -20.33691,-12.69531 -11.61622,-6.17188 -17.95898,-2.63183 -25,12.25585 -17.14355,-16.01074 6.11328,-5.54688 -14.33593,-8.65722 6.57226,-13.0127 -1.11329,-13.19824 9.90235,-10.3711 -11.90919,-5.9375 1.04005,-8.37401 -10.59082,-9.47266 4.13574,-18.58399 10.84961,-9.16015 2.99805,-3.69629 4.44336,1.71386 1.89941,9.19434 8.0664,4.6875 15.92774,-9.41406 1.95801,-32.84668 5.23925,-13.03711 -6.16698,-12.29492 11.72851,-0.0244 5.45899,6.78711 13.06152,4.35547 0.64941,-9.17969 8.34962,-3.87206 2.57323,23.48143 9.36524,-1.04003 7.80761,-11.54297 7.05567,5.19043 4.73632,16.65039 8.667,1.46972 8.04199,-4.0039 8.69629,2.65625 -8.25195,16.24511 -9.20899,9.42872 4.22364,27.8125 5.11718,7.86132 4.74122,23.01759 8.13965,4.57519 8.17871,4.05273 0.89355,14.39942 -7.93458,11.9873 -11.82616,5.23926 -17.82227,-4.07715 -7.95898,4.95606 -12.11915,13.95995 z m 0,0"
       style="fill:#782121;fill-opacity:1;fill-rule:nonzero;stroke:#e6e6e6;stroke-width:1;stroke-linecap:round;stroke-linejoin:round;stroke-miterlimit:4;stroke-dasharray:none;stroke-opacity:1" />
    <path
       inkscape:connector-curvature="0"
       id="path69"
       d="m 325.29945,668.26901 -7.95899,-3.39355 -0.64452,-17.9834 -6.65039,-11.24024 -11.17676,-6.43553 4.71191,-6.43068 -20.33202,-11.10351 -8.9502,-0.708 -7.88574,4.99511 12.47557,-32.08985 -15.09276,-9.78026 7.2705,-5.32715 -0.77149,-4.44336 -35.34667,-4.82423 4.55566,-15.65917 34.63379,8.65722 8.63281,-2.46094 4.0625,-7.67577 35.88379,9.81934 18.6084,-18.54982 8.69141,-3.08593 8.57421,3.23242 -3.48143,3.36914 1.96288,13.54004 -3.37891,8.38378 12.05568,0.039 10.15136,10.28322 9.15527,-2.22657 -2.27538,8.30078 -11.98732,13.64746 -4.39452,13.27149 -27.83691,25.07324 -5.0586,7.91992 -1.27442,4.53125 12.66114,4.21386 1.83594,4.33107 -1.80176,8.93553 z m 0,0"
       style="fill:#d35f5f;fill-opacity:0.55686275;fill-rule:nonzero;stroke:#e6e6e6;stroke-width:1;stroke-linecap:round;stroke-linejoin:round;stroke-miterlimit:4;stroke-dasharray:none;stroke-opacity:1" />
    <path
       inkscape:connector-curvature="0"
       id="path71"
       d="m 314.72328,254.13816 -46.23047,-35.06349 -7.75878,-1.85057 -2.69532,-3.73536 7.84668,-11.04004 8.2666,-1.63085 6.53809,-6.34278 15.62011,-8.62793 35.30762,-6.69922 1.04004,8.96484 29.22364,29.80958 -1.68946,7.7002 4.19922,6.61132 -3.36426,5.4834 z m 0,0"
       style="fill:#d35f5f;fill-opacity:0.55686275;fill-rule:nonzero;stroke:#e6e6e6;stroke-width:1;stroke-linecap:round;stroke-linejoin:round;stroke-miterlimit:4;stroke-dasharray:none;stroke-opacity:1" />
    <path
       inkscape:connector-curvature="0"
       id="path73"
       d="m 662.12074,493.81101 -21.38671,-16.67481 -4.0918,-8.22754 3.11035,1.03028 2.09472,-5.48828 2.34864,-9.0088 8.68164,-10.09765 -6.77247,-11.88965 4.42383,-22.3291 13.96485,0.49805 20.7666,-9.74121 11.92382,6.7334 13.60353,-1.7627 6.66015,6.37695 2.22656,5.89844 -0.0244,0.32227 -2.77833,29.9414 -5.41504,6.44043 -6.45018,6.34277 -13.45215,-2.79296 -7.78809,5.26855 z m 0,0"
       style="fill:#782121;fill-opacity:1;fill-rule:nonzero;stroke:#e6e6e6;stroke-width:1;stroke-linecap:round;stroke-linejoin:round;stroke-miterlimit:4;stroke-dasharray:none;stroke-opacity:1" />
    <path
       inkscape:connector-curvature="0"
       id="path75"
       d="m 302.80921,483.19577 -29.52636,-14.27246 -4.66797,-13.22265 -16.18164,-9.48731 7.00195,-4.59473 8.54492,-18.14452 18.22754,3.48144 17.96388,-5.7666 -2.08497,-8.6084 -13.45215,-13.17383 8.93555,-14.5459 1.98242,-1.3916 20.41016,6.52344 -0.2832,8.7793 -9.03321,2.14355 -4.6289,7.89551 14.15527,11.34765 17.6416,5.62013 4.52636,13.125 -12.31445,6.03515 -5.62011,21.91406 -0.63477,2.25097 -4.87304,7.17285 -7.89551,-3.08105 z m 0,0"
       style="fill:#d35f5f;fill-opacity:0.55686275;fill-rule:nonzero;stroke:#e6e6e6;stroke-width:1;stroke-linecap:round;stroke-linejoin:round;stroke-miterlimit:4;stroke-dasharray:none;stroke-opacity:1" />
    <path
       inkscape:connector-curvature="0"
       id="path77"
       d="m 362.45765,726.1987 -19.95605,-8.56934 -0.9668,-12.8662 -3.73535,-2.47071 2.03125,-7.8125 -3.69629,-11.37206 -10.83496,-14.83888 19.62403,-10.87402 1.80176,-8.93554 21.27929,-5.87403 11.43066,6.53809 17.07031,22.13379 -1.7871,13.47656 8.43261,10.61524 -11.93358,6.23046 -8.41309,11.72851 z m 0,0"
       style="fill:#d35f5f;fill-opacity:0.55686275;fill-rule:nonzero;stroke:#e6e6e6;stroke-width:1;stroke-linecap:round;stroke-linejoin:round;stroke-miterlimit:4;stroke-dasharray:none;stroke-opacity:1" />
    <path
       inkscape:connector-curvature="0"
       id="path79"
       d="m 297.56996,384.86081 -11.49415,-6.33789 -20.19042,-1.85058 -1.69921,-4.05274 7.98338,-4.83399 -2.18261,-7.76366 -43.9502,-14.70215 12.71974,-19.77051 15.30272,-12.62207 21.91407,5.04394 12.75878,-3.96972 8.22755,3.61328 6.20605,11.88477 20.9082,9.2334 -4.52636,0.94237 -7.30957,26.32325 -12.97852,12.85156 0.29297,4.61914 z m 0,0"
       style="fill:#d35f5f;fill-opacity:0.55686275;fill-rule:nonzero;stroke:#e6e6e6;stroke-width:1;stroke-linecap:round;stroke-linejoin:round;stroke-miterlimit:4;stroke-dasharray:none;stroke-opacity:1" />
    <path
       inkscape:connector-curvature="0"
       id="path81"
       d="m 341.32484,533.63522 -18.6084,18.54982 -35.88379,-9.81934 -19.7705,-13.32031 -23.02735,-5.53223 13.15919,-13.40821 4.458,-18.46191 22.79297,5.0586 13.14942,-4.18947 47.48046,17.64162 z m 0,0"
       style="fill:#d35f5f;fill-opacity:0.55686275;fill-rule:nonzero;stroke:#e6e6e6;stroke-width:1;stroke-linecap:round;stroke-linejoin:round;stroke-miterlimit:4;stroke-dasharray:none;stroke-opacity:1" />
    <path
       inkscape:connector-curvature="0"
       id="path83"
       d="m 252.60414,422.47311 -21.30371,5.88868 -16.5039,-5.91309 1.77733,-36.28906 -11.4209,-13.52539 11.38184,-12.94434 4.28711,-6.26465 12.5,3.95509 13.36914,12.47557 17.49513,2.76368 1.69921,4.05274 20.19042,1.85058 11.49415,6.33789 -8.93555,14.5459 -6.25488,7.08984 -13.84765,-1.39648 z m 0,0"
       style="fill:#d35f5f;fill-opacity:0.55686275;fill-rule:nonzero;stroke:#e6e6e6;stroke-width:1;stroke-linecap:round;stroke-linejoin:round;stroke-miterlimit:4;stroke-dasharray:none;stroke-opacity:1" />
    <path
       inkscape:connector-curvature="0"
       id="path85"
       d="m 654.81118,697.17526 -14.38478,1.17188 -31.79199,-28.82813 -4.64355,-22.57812 3.51563,-13.45215 22.88085,-28.51563 6.69922,3.9209 27.82715,16.64551 -2.64648,7.08984 -4.10157,0.42969 1.17677,21.37696 -4.34572,7.41699 0.083,33.00781 z m 0,0"
       style="fill:#d35f5f;fill-opacity:0.55686275;fill-rule:nonzero;stroke:#e6e6e6;stroke-width:1;stroke-linecap:round;stroke-linejoin:round;stroke-miterlimit:4;stroke-dasharray:none;stroke-opacity:1" />
    <path
       inkscape:connector-curvature="0"
       id="path87"
       d="m 570.2018,707.40964 -7.7588,-9.91699 -11.82616,-5.1416 -4.59473,-21.36231 -14.19922,-10.92285 23.09082,-30.38574 -5.16602,-7.34375 7.94434,0.12212 14.1504,1.29394 7.27538,2.26563 19.60938,40.19531 6.92871,5.07812 4.88769,7.89552 -9.79491,9.42871 -13.65235,1.333 -8.08105,10.87402 2.91503,3.62305 z m 0,0"
       style="fill:#d35f5f;fill-opacity:0.55686275;fill-rule:nonzero;stroke:#e6e6e6;stroke-width:1;stroke-linecap:round;stroke-linejoin:round;stroke-miterlimit:4;stroke-dasharray:none;stroke-opacity:1" />
    <path
       inkscape:connector-curvature="0"
       id="path89"
       d="m 199.37171,259.36276 -4.46776,-0.0341 -3.19336,12.63183 -4.36035,-1.02538 -11.3379,-6.29395 -7.41699,-10.60548 -16.72363,-3.50097 1.07422,-4.37988 -3.8916,-2.28027 -8.9502,0.67382 -6.63574,-1.51855 6.70898,-33.86231 21.15723,-9.97559 17.37305,3.3545 26.333,-2.42676 1.4209,6.75781 0.84473,13.55469 -8.88671,25.63476 z m 0,0"
       style="fill:#d35f5f;fill-opacity:0.55686275;fill-rule:nonzero;stroke:#e6e6e6;stroke-width:1;stroke-linecap:round;stroke-linejoin:round;stroke-miterlimit:4;stroke-dasharray:none;stroke-opacity:1" />
    <path
       inkscape:connector-curvature="0"
       id="path91"
       d="m 376.23206,395.59811 -4.01855,2.11915 -20.54198,-6.63575 -31.70899,-1.08886 -20.41016,-6.52344 -0.29297,-4.61914 12.97852,-12.85156 7.30957,-26.32325 4.52636,-0.94237 4.30177,-1.0791 9.7168,8.94042 24.80468,-8.4375 18.76953,11.85059 -10.84961,9.16015 -4.13574,18.58399 10.59082,9.47266 z m 0,0"
       style="fill:#782121;fill-opacity:1;fill-rule:nonzero;stroke:#e6e6e6;stroke-width:1;stroke-linecap:round;stroke-linejoin:round;stroke-miterlimit:4;stroke-dasharray:none;stroke-opacity:1" />
    <path
       inkscape:connector-curvature="0"
       id="path93"
       d="m 637.08656,608.89401 -6.69922,-3.9209 -10.77148,-6.62109 -8.3252,-9.95605 0.65918,-4.27246 -9.95116,-7.74902 4.5996,-7.43164 -0.0733,-8.95996 11.9873,-18.94044 31.94336,13.51562 11.52832,14.75098 4.66797,0.57617 6.47461,5.78125 -6.12305,15.73243 -15.18066,16.20605 -11.20118,-1.5039 z m 0,0"
       style="fill:#d35f5f;fill-opacity:0.55686275;fill-rule:nonzero;stroke:#e6e6e6;stroke-width:1;stroke-linecap:round;stroke-linejoin:round;stroke-miterlimit:4;stroke-dasharray:none;stroke-opacity:1" />
    <path
       inkscape:connector-curvature="0"
       id="path95"
       d="m 499.09828,166.32077 -24.9414,-20.19042 -5.61524,-17.51954 6.88965,-12.19237 10.99609,-8.44728 5.06836,-7.69042 13.59864,0.0244 25.44433,-7.929686 -0.94238,4.565425 10.61035,8.999021 -25.54688,33.05177 -0.25879,9.46777 4.54102,8.2959 -4.47754,-1.6504 z m 0,0"
       style="fill:#782121;fill-opacity:1;fill-rule:nonzero;stroke:#e6e6e6;stroke-width:1;stroke-linecap:round;stroke-linejoin:round;stroke-miterlimit:4;stroke-dasharray:none;stroke-opacity:1" />
    <path
       inkscape:connector-curvature="0"
       id="path97"
       d="m 386.30531,226.3696 -8.35937,1.62597 -16.06445,-10.07323 -29.22364,-29.80958 -1.04004,-8.96484 8.83789,3.71094 18.51074,-4.16016 10.90821,-9.16015 5.30273,-13.07618 6.70898,3.66212 14.39942,12.07031 10.77148,30.98632 4.20899,6.65039 -0.0733,4.07715 -4.01366,0.70801 -2.14356,-3.74512 -8.12988,1.78711 -6.69434,-5.708 1.85059,12.59765 z m 0,0"
       style="fill:#d35f5f;fill-opacity:0.55686275;fill-rule:nonzero;stroke:#e6e6e6;stroke-width:1;stroke-linecap:round;stroke-linejoin:round;stroke-miterlimit:4;stroke-dasharray:none;stroke-opacity:1" />
    <path
       inkscape:connector-curvature="0"
       id="path99"
       d="m 477.73598,102.43894 -21.80664,30.66406 -16.28419,15.92774 -9.1455,-2.26563 -12.82715,4.36035 -13.62794,-3.58886 -3.52538,3.14941 7.83691,-21.1084 12.9004,-18.31542 1.96289,-8.93555 -5.92774,-12.485358 18.03222,0.595703 3.05177,-3.339844 7.77343,0.942383 4.16015,7.539062 8.10548,-3.242187 12.64649,2.695312 z m 0,0"
       style="fill:#d35f5f;fill-opacity:0.55686275;fill-rule:nonzero;stroke:#e6e6e6;stroke-width:1;stroke-linecap:round;stroke-linejoin:round;stroke-miterlimit:4;stroke-dasharray:none;stroke-opacity:1" />
    <path
       inkscape:connector-curvature="0"
       id="path101"
       d="m 362.89711,338.15671 -24.80468,8.4375 -9.7168,-8.94042 -4.30177,1.0791 -20.9082,-9.2334 -6.20605,-11.88477 22.10938,-14.40918 8.28612,-10.37109 21.37695,-5.60548 13.55469,11.81153 13.03711,-0.26855 z m 0,0"
       style="fill:#782121;fill-opacity:1;fill-rule:nonzero;stroke:#e6e6e6;stroke-width:1;stroke-linecap:round;stroke-linejoin:round;stroke-miterlimit:4;stroke-dasharray:none;stroke-opacity:1" />
    <path
       inkscape:connector-curvature="0"
       id="path103"
       d="m 279.84535,669.14792 -9.03809,29.33594 -4.03808,2.22656 -7.73925,-4.94628 -14.1504,-10.67384 -8.12988,2.15332 -15.44922,-8.82812 -1.75293,4.12597 -1.86035,-12.89062 10.47851,-8.5205 12.69532,-12.74415 8.74511,-2.17773 3.96485,-17.49512 11.4209,7.34375 22.02636,5.49805 -3.85742,2.48535 2.19238,12.5586 z m 0,0"
       style="fill:#d35f5f;fill-opacity:0.55686275;fill-rule:nonzero;stroke:#e6e6e6;stroke-width:1;stroke-linecap:round;stroke-linejoin:round;stroke-miterlimit:4;stroke-dasharray:none;stroke-opacity:1" />
    <path
       inkscape:connector-curvature="0"
       id="path105"
       d="m 372.77993,438.11765 -4.83888,6.66015 -21.63086,-8.32519 -3.96973,2.45118 -4.52636,-13.125 -17.6416,-5.62013 -14.15527,-11.34765 4.6289,-7.89551 9.03321,-2.14355 0.2832,-8.7793 31.70899,1.08886 20.54198,6.63575 4.01855,-2.11915 11.90919,5.9375 -9.90235,10.3711 1.11329,13.19824 z m 0,0"
       style="fill:#782121;fill-opacity:1;fill-rule:nonzero;stroke:#e6e6e6;stroke-width:1;stroke-linecap:round;stroke-linejoin:round;stroke-miterlimit:4;stroke-dasharray:none;stroke-opacity:1" />
    <path
       inkscape:connector-curvature="0"
       id="path107"
       d="m 558.61976,310.3198 -14.46777,-22.91016 -17.16796,-1.83594 -6.53322,6.46485 -17.68066,-14.9707 10.3711,-3.40333 27.23633,-0.40527 2.24121,-13.36914 -6.35254,-12.06055 5.92774,-17.27539 3.64745,-1.01562 17.8125,20.41015 16.18165,8.90137 3.56445,2.80273 -6.34278,11.792 2.69532,8.64257 -7.83692,16.00098 -3.20801,7.10937 z m 0,0"
       style="fill:#782121;fill-opacity:1;fill-rule:nonzero;stroke:#e6e6e6;stroke-width:1;stroke-linecap:round;stroke-linejoin:round;stroke-miterlimit:4;stroke-dasharray:none;stroke-opacity:1" />
    <path
       inkscape:connector-curvature="0"
       id="path109"
       d="m 254.05921,312.92722 10.84962,-20.94727 -2.18262,-13.9209 8.96484,-21.66015 -2.33886,-13.7207 -6.96778,-6.35743 6.1084,-17.2461 46.23047,35.06349 1.62597,2.88574 0.85938,14.2041 -25.96679,12.36329 -5.33691,7.67577 z m 0,0"
       style="fill:#d35f5f;fill-opacity:0.55686275;fill-rule:nonzero;stroke:#e6e6e6;stroke-width:1;stroke-linecap:round;stroke-linejoin:round;stroke-miterlimit:4;stroke-dasharray:none;stroke-opacity:1" />
    <path
       inkscape:connector-curvature="0"
       id="path111"
       d="m 416.03188,294.31394 6.16698,12.29492 -5.23925,13.03711 -1.95801,32.84668 -15.92774,9.41406 -8.0664,-4.6875 -1.89941,-9.19434 -4.44336,-1.71386 -2.99805,3.69629 -18.76953,-11.85059 12.42675,-39.38476 0.69825,-2.68066 14.75098,11.22557 z m 0,0"
       style="fill:#782121;fill-opacity:1;fill-rule:nonzero;stroke:#e6e6e6;stroke-width:1;stroke-linecap:round;stroke-linejoin:round;stroke-miterlimit:4;stroke-dasharray:none;stroke-opacity:1" />
    <path
       inkscape:connector-curvature="0"
       id="path113"
       d="m 516.98403,414.1821 -8.13965,-4.57519 -4.74122,-23.01759 -5.11718,-7.86132 -4.22364,-27.8125 9.20899,-9.42871 14.74121,-11.73828 13.30566,12.96386 6.2793,6.61133 -5.2002,21.3379 6.58691,6.26952 -7.54393,8.20313 6.19628,9.75586 -3.69628,2.43653 0.85448,8.55468 -12.08496,2.28028 z m 0,0"
       style="fill:#782121;fill-opacity:1;fill-rule:nonzero;stroke:#e6e6e6;stroke-width:1;stroke-linecap:round;stroke-linejoin:round;stroke-miterlimit:4;stroke-dasharray:none;stroke-opacity:1" />
    <path
       inkscape:connector-curvature="0"
       id="path115"
       d="m 442.29164,510.38816 -13.08594,-0.46387 -4.37011,-7.39747 -0.22461,-4.58983 -4.5752,-0.58594 -21.44043,7.20702 -11.32324,-13.3789 1.99707,-3.52538 -4.66309,-14.21388 -6.5039,-12.24609 2.90039,-8.87207 17.14355,16.01074 25,-12.25585 17.95898,2.63183 0.21973,17.31445 -5.73241,16.48925 1.85057,4.16505 8.85255,2.1289 z m 0,0"
       style="fill:#782121;fill-opacity:1;fill-rule:nonzero;stroke:#e6e6e6;stroke-width:1;stroke-linecap:round;stroke-linejoin:round;stroke-miterlimit:4;stroke-dasharray:none;stroke-opacity:1" />
    <path
       inkscape:connector-curvature="0"
       id="path117"
       d="m 379.43519,649.12351 -11.43066,-6.53809 -21.27929,5.87403 -1.83594,-4.33106 -12.66114,-4.21387 1.27442,-4.53125 5.0586,-7.91992 27.83691,-25.07324 4.39452,-13.27149 11.98732,-13.64746 8.54491,2.27539 -1.81153,8.4961 7.40724,4.65332 -4.05274,7.74902 -4.4336,7.8125 -4.24803,35.04883 z m 0,0"
       style="fill:#d35f5f;fill-opacity:0.55686275;fill-rule:nonzero;stroke:#e6e6e6;stroke-width:1;stroke-linecap:round;stroke-linejoin:round;stroke-miterlimit:4;stroke-dasharray:none;stroke-opacity:1" />
    <path
       inkscape:connector-curvature="0"
       id="path119"
       d="m 375.32386,298.77195 -13.03711,0.26855 -13.55469,-11.81153 -21.37695,5.60548 -0.7959,-14.32129 -10.20996,-21.48926 -1.62597,-2.88574 46.30371,-16.4209 -2.97851,8.99903 6.95312,12.40233 -1.98242,9.26758 4.84863,8.09082 8.1543,19.61427 z m 0,0"
       style="fill:#d35f5f;fill-opacity:0.55686275;fill-rule:nonzero;stroke:#e6e6e6;stroke-width:1;stroke-linecap:round;stroke-linejoin:round;stroke-miterlimit:4;stroke-dasharray:none;stroke-opacity:1" />
    <path
       inkscape:connector-curvature="0"
       id="path121"
       d="m 689.71351,389.00144 -16.35253,-7.61719 -13.61329,2.07031 -8.56933,-3.28125 -7.80273,4.60449 -2.59278,-3.67188 -2.90039,3.42774 -8.65722,-1.65527 -0.90821,-7.63672 -13.45215,-11.64551 3.36426,-3.01269 -2.23633,-13.12012 20.50293,-7.1875 6.75781,6.04492 25.59083,8.50098 11.29882,2.60742 -2.20702,12.74414 6.94335,5.97168 z m 0,0"
       style="fill:#782121;fill-opacity:1;fill-rule:nonzero;stroke:#e6e6e6;stroke-width:1;stroke-linecap:round;stroke-linejoin:round;stroke-miterlimit:4;stroke-dasharray:none;stroke-opacity:1" />
    <path
       inkscape:connector-curvature="0"
       id="path123"
       d="m 608.61976,370.28074 -9.30176,-8.12989 -12.54882,-1.18653 1.66503,-20.65428 -2.60741,-3.48634 -3.2959,-12.68554 7.78809,-10.91797 -0.28321,-9.0625 3.28125,-6.79199 10.88378,4.89746 15.06837,21.14258 14.7168,10.95702 2.50976,5.91309 -20.50293,7.1875 2.23633,13.12012 -3.36426,3.01269 z m 0,0"
       style="fill:#782121;fill-opacity:1;fill-rule:nonzero;stroke:#e6e6e6;stroke-width:1;stroke-linecap:round;stroke-linejoin:round;stroke-miterlimit:4;stroke-dasharray:none;stroke-opacity:1" />
    <path
       inkscape:connector-curvature="0"
       id="path125"
       d="m 579.11781,626.01804 -7.27538,-2.26563 8.41307,-9.85351 -12.13379,-18.69629 -21.24022,5.66894 -2.97364,-2.36328 15.83984,-24.7168 14.30176,-17.5293 10.31739,8.31055 22.1582,-4.58983 0.0733,8.95996 -4.5996,7.43164 9.95116,7.74902 -9.12109,0.18554 -6.53808,6.30371 -8.72559,16.01563 -1.39649,13.56446 z m 0,0"
       style="fill:#d35f5f;fill-opacity:0.55686275;fill-rule:nonzero;stroke:#e6e6e6;stroke-width:1;stroke-linecap:round;stroke-linejoin:round;stroke-miterlimit:4;stroke-dasharray:none;stroke-opacity:1" />
    <path
       inkscape:connector-curvature="0"
       id="path127"
       d="m 605.6559,671.29147 -6.92871,-5.07812 -19.60938,-40.19531 7.05078,-5.82519 1.39649,-13.56446 8.72558,-16.01563 6.53809,-6.30371 9.12109,-0.18554 -0.65918,4.27246 8.3252,9.95605 10.77148,6.62109 -22.88085,28.51563 -3.51563,13.45215 4.64355,22.57812 z m 0,0"
       style="fill:#d35f5f;fill-opacity:0.55686275;fill-rule:nonzero;stroke:#e6e6e6;stroke-width:1;stroke-linecap:round;stroke-linejoin:round;stroke-miterlimit:4;stroke-dasharray:none;stroke-opacity:1" />
    <path
       inkscape:connector-curvature="0"
       id="path129"
       d="m 590.03578,304.15769 -18.12012,-6.06934 7.83692,-16.00098 -2.69532,-8.64257 6.34278,-11.792 -3.56445,-2.80273 5.37597,-18.63281 22.73438,11.0791 -0.90333,4.6289 16.12305,16.97754 -7.84667,14.25294 1.83594,3.70605 -12.95412,11.40137 -10.88378,-4.89746 z m 0,0"
       style="fill:#782121;fill-opacity:1;fill-rule:nonzero;stroke:#e6e6e6;stroke-width:1;stroke-linecap:round;stroke-linejoin:round;stroke-miterlimit:4;stroke-dasharray:none;stroke-opacity:1" />
    <path
       inkscape:connector-curvature="0"
       id="path131"
       d="m 570.46059,482.06785 -13.17384,-4.9463 -15.46386,-18.46191 -14.01855,-3.4375 -9.68263,-10.60059 7.93458,-11.9873 -0.89355,-14.39941 23.4912,-1.86035 23.10547,15.80566 -9.83398,14.7998 6.52832,6.3086 -5.88867,17.42187 z m 0,0"
       style="fill:#782121;fill-opacity:1;fill-rule:nonzero;stroke:#e6e6e6;stroke-width:1;stroke-linecap:round;stroke-linejoin:round;stroke-miterlimit:4;stroke-dasharray:none;stroke-opacity:1" />
    <path
       inkscape:connector-curvature="0"
       id="path133"
       d="m 623.17543,435.25632 -12.62207,-3.89648 -1.21093,-8.37403 -11.17677,-8.33496 -17.05566,6.40137 -1.25976,-8.28613 15.30272,-9.01368 2.92482,-13.01269 7.7246,0.83008 2.81738,-21.28906 6.24512,-6.68458 13.45215,11.64551 0.90821,7.63672 8.65722,1.65527 2.90039,-3.42774 2.59278,3.67188 -4.20899,12.89062 -9.01368,10.22462 -8.44726,15.11718 z m 0,0"
       style="fill:#782121;fill-opacity:1;fill-rule:nonzero;stroke:#e6e6e6;stroke-width:1;stroke-linecap:round;stroke-linejoin:round;stroke-miterlimit:4;stroke-dasharray:none;stroke-opacity:1" />
    <path
       inkscape:connector-curvature="0"
       id="path135"
       d="m 384.60609,473.43991 -16.04004,8.45704 -44.16015,-15.04395 5.62011,-21.91406 12.31445,-6.03515 3.96973,-2.45118 21.63086,8.32519 4.83888,-6.66015 14.33593,8.65722 -6.11328,5.54688 -2.90039,8.87207 z m 0,0"
       style="fill:#d35f5f;fill-opacity:0.55686275;fill-rule:nonzero;stroke:#e6e6e6;stroke-width:1;stroke-linecap:round;stroke-linejoin:round;stroke-miterlimit:4;stroke-dasharray:none;stroke-opacity:1" />
    <path
       inkscape:connector-curvature="0"
       id="path137"
       d="m 254.05921,312.92722 -8.8623,-2.58301 -0.26855,-4.61914 -7.96875,-4.71191 -0.40527,-27.33887 -5.69336,-12.62207 20.6543,-7.95898 8.12987,-20.15138 1.08888,-15.71776 7.75878,1.85057 -6.1084,17.2461 6.96778,6.35743 2.33886,13.7207 -8.96484,21.66015 2.18262,13.9209 z m 0,0"
       style="fill:#d35f5f;fill-opacity:0.55686275;fill-rule:nonzero;stroke:#e6e6e6;stroke-width:1;stroke-linecap:round;stroke-linejoin:round;stroke-miterlimit:4;stroke-dasharray:none;stroke-opacity:1" />
    <path
       inkscape:connector-curvature="0"
       id="path139"
       d="m 444.50844,174.7778 -16.89454,-7.01171 -12.91504,2.61718 -6.34277,-6.57226 -17.11425,-2.97852 9.27734,-10.14648 3.52538,-3.14941 13.62794,3.58886 12.82715,-4.36035 9.1455,2.26563 16.28419,-15.92774 21.80664,-30.66406 1.40625,0.31738 7.28515,5.21484 -10.99609,8.44728 -6.88965,12.19237 5.61524,17.51954 -4.52638,7.57812 -8.47167,1.98242 -11.31348,6.60156 z m 0,0"
       style="fill:#d35f5f;fill-opacity:0.55686275;fill-rule:nonzero;stroke:#e6e6e6;stroke-width:1;stroke-linecap:round;stroke-linejoin:round;stroke-miterlimit:4;stroke-dasharray:none;stroke-opacity:1" />
    <path
       inkscape:connector-curvature="0"
       id="path141"
       d="m 238.75649,325.54929 -44.917,-15.58594 -4.75098,-9.60938 13.36914,-10.17577 19.01368,-12.18263 6.74316,-11.17675 2.64649,-5.7666 5.69336,12.62207 0.40527,27.33887 7.96875,4.71191 0.26855,4.61914 8.8623,2.58301 z m 0,0"
       style="fill:#d35f5f;fill-opacity:0.55686275;fill-rule:nonzero;stroke:#e6e6e6;stroke-width:1;stroke-linecap:round;stroke-linejoin:round;stroke-miterlimit:4;stroke-dasharray:none;stroke-opacity:1" />
    <path
       inkscape:connector-curvature="0"
       id="path143"
       d="m 654.0641,530.9448 -7.67579,-3.125 -6.45018,-16.36719 -19.41895,-17.3584 -14.0039,-11.37695 7.57812,-10.48829 8.33496,3.81837 9.80957,-8.42285 4.4043,1.28417 4.0918,8.22754 21.38671,16.67481 4.22364,5.70313 -0.57618,22.90527 z m 0,0"
       style="fill:#782121;fill-opacity:1;fill-rule:nonzero;stroke:#e6e6e6;stroke-width:1;stroke-linecap:round;stroke-linejoin:round;stroke-miterlimit:4;stroke-dasharray:none;stroke-opacity:1" />
    <path
       inkscape:connector-curvature="0"
       id="path145"
       d="m 296.95961,317.61472 -8.22755,-3.61328 -12.75878,3.96972 -21.91407,-5.04394 31.84572,-21.66016 5.33691,-7.67577 25.96679,-12.36329 -0.85938,-14.2041 10.20996,21.48926 0.7959,14.32129 -8.28612,10.37109 z m 0,0"
       style="fill:#d35f5f;fill-opacity:0.55686275;fill-rule:nonzero;stroke:#e6e6e6;stroke-width:1;stroke-linecap:round;stroke-linejoin:round;stroke-miterlimit:4;stroke-dasharray:none;stroke-opacity:1" />
    <path
       inkscape:connector-curvature="0"
       id="path147"
       d="m 527.55043,604.4946 -13.14942,3.66211 -11.5918,-6.47461 9.41407,-9.98046 -9.63867,-10.07325 17.54394,-23.31054 10.43458,7.88574 11.82617,-5.65918 3.90136,2.10449 4.83887,7.68066 8.61816,3.46191 -15.83984,24.7168 z m 0,0"
       style="fill:#d35f5f;fill-opacity:0.55686275;fill-rule:nonzero;stroke:#e6e6e6;stroke-width:1;stroke-linecap:round;stroke-linejoin:round;stroke-miterlimit:4;stroke-dasharray:none;stroke-opacity:1" />
    <path
       inkscape:connector-curvature="0"
       id="path149"
       d="m 484.22035,579.8657 -9.22851,10.12206 -16.73829,6.87013 -21.1914,-2.82715 -1.29395,-3.33008 -5.37597,3.50098 -5.08302,-17.0166 4.64357,-16.78712 18.5205,3.15918 6.87012,-6.62109 30.3125,20.54199 z m 0,0"
       style="fill:#d35f5f;fill-opacity:0.55686275;fill-rule:nonzero;stroke:#e6e6e6;stroke-width:1;stroke-linecap:round;stroke-linejoin:round;stroke-miterlimit:4;stroke-dasharray:none;stroke-opacity:1" />
    <path
       inkscape:connector-curvature="0"
       id="path151"
       d="m 650.4557,554.55807 -31.94336,-13.51562 -12.63184,-12.10938 2.7295,-10.39062 10.68848,-12.80761 1.2207,-11.64063 19.41895,17.3584 6.45018,16.36719 7.67579,3.125 1.61621,11.89941 z m 0,0"
       style="fill:#782121;fill-opacity:1;fill-rule:nonzero;stroke:#e6e6e6;stroke-width:1;stroke-linecap:round;stroke-linejoin:round;stroke-miterlimit:4;stroke-dasharray:none;stroke-opacity:1" />
    <path
       inkscape:connector-curvature="0"
       id="path153"
       d="m 686.35903,568.28366 -3.65723,7.30958 -16.04981,-5.70802 -4.66796,-0.57617 -11.52833,-14.75098 5.22461,-11.71386 -1.61621,-11.89941 11.7041,-8.52539 18.79395,5.24414 4.22363,12.09472 4.12597,7.58789 z m 0,0"
       style="fill:#d35f5f;fill-opacity:0.55686275;fill-rule:nonzero;stroke:#e6e6e6;stroke-width:1;stroke-linecap:round;stroke-linejoin:round;stroke-miterlimit:4;stroke-dasharray:none;stroke-opacity:1" />
    <path
       inkscape:connector-curvature="0"
       id="path155"
       d="m 412.19886,608.37644 -19.33105,-9.73145 4.05274,-7.74902 -7.40724,-4.65332 1.81153,-8.4961 12.88086,-22.10938 11.4209,-3.46678 4.10156,-6.87989 10.22462,15.10742 -4.64357,16.78712 5.08302,17.0166 -21.54785,1.89452 z m 0,0"
       style="fill:#d35f5f;fill-opacity:0.55686275;fill-rule:nonzero;stroke:#e6e6e6;stroke-width:1;stroke-linecap:round;stroke-linejoin:round;stroke-miterlimit:4;stroke-dasharray:none;stroke-opacity:1" />
    <path
       inkscape:connector-curvature="0"
       id="path157"
       d="m 579.85024,412.76609 -10.625,-9.07227 -30.88868,-8.80371 -6.19628,-9.75586 7.54393,-8.20313 14.29688,-1.25 6.82129,-6.36718 23.67676,16.68945 13.59864,4.73633 -2.92482,13.01269 z m 0,0"
       style="fill:#782121;fill-opacity:1;fill-rule:nonzero;stroke:#e6e6e6;stroke-width:1;stroke-linecap:round;stroke-linejoin:round;stroke-miterlimit:4;stroke-dasharray:none;stroke-opacity:1" />
    <path
       inkscape:connector-curvature="0"
       id="path159"
       d="m 606.52504,559.98289 -22.1582,4.58983 -10.31739,-8.31055 -7.5293,-9.61425 -6.83594,-8.50586 14.80469,-10.5664 31.3916,1.35741 12.63184,12.10938 z m 0,0"
       style="fill:#d35f5f;fill-opacity:0.55686275;fill-rule:nonzero;stroke:#e6e6e6;stroke-width:1;stroke-linecap:round;stroke-linejoin:round;stroke-miterlimit:4;stroke-dasharray:none;stroke-opacity:1" />
    <path
       inkscape:connector-curvature="0"
       id="path161"
       d="m 216.5348,359.68991 -18.75487,-20.24902 -25.53712,-11.10352 12.20703,-3.95507 9.38965,-14.41895 44.917,15.58594 -12.71974,19.77051 -5.21484,8.10546 z m 0,0"
       style="fill:#d35f5f;fill-opacity:0.55686275;fill-rule:nonzero;stroke:#e6e6e6;stroke-width:1;stroke-linecap:round;stroke-linejoin:round;stroke-miterlimit:4;stroke-dasharray:none;stroke-opacity:1" />
    <path
       inkscape:connector-curvature="0"
       id="path163"
       d="m 636.64223,468.90866 -4.4043,-1.28417 -9.80957,8.42285 -8.33496,-3.81837 -6.77246,-4.6289 -10.41504,6.29394 -12.01172,-17.29004 8.97461,-11.43555 8.68164,2.08497 8.00293,-15.89355 12.62207,3.89648 7.65137,4.42872 3.45214,8.38866 -0.91796,13.2959 8.48632,3.08106 -2.09472,5.48828 z m 0,0"
       style="fill:#782121;fill-opacity:1;fill-rule:nonzero;stroke:#e6e6e6;stroke-width:1;stroke-linecap:round;stroke-linejoin:round;stroke-miterlimit:4;stroke-dasharray:none;stroke-opacity:1" />
    <path
       inkscape:connector-curvature="0"
       id="path165"
       d="m 416.03188,294.31394 -13.125,-1.11328 -3.33008,-16.03516 -8.44727,2.4707 -6.52344,-12.91504 1.23535,-14.458 7.48047,3.01269 8.78907,-9.16993 10.40527,-8.02245 10.3955,31.96777 4.84864,24.23828 z m 0,0"
       style="fill:#782121;fill-opacity:1;fill-rule:nonzero;stroke:#e6e6e6;stroke-width:1;stroke-linecap:round;stroke-linejoin:round;stroke-miterlimit:4;stroke-dasharray:none;stroke-opacity:1" />
    <path
       inkscape:connector-curvature="0"
       id="path167"
       d="m 358.59046,533.78171 -8.57421,-3.23242 -8.69141,3.08593 3.75,-23.48143 7.53906,-13.22267 31.04981,-8.76465 3.6084,3.0127 11.32324,13.3789 -16.79687,9.2334 -13.57423,11.21583 z m 0,0"
       style="fill:#782121;fill-opacity:1;fill-rule:nonzero;stroke:#e6e6e6;stroke-width:1;stroke-linecap:round;stroke-linejoin:round;stroke-miterlimit:4;stroke-dasharray:none;stroke-opacity:1" />
    <path
       inkscape:connector-curvature="0"
       id="path169"
       d="m 513.14125,273.66452 -3.20801,-2.36328 5.66895,-9.90723 -2.5,-3.11035 -7.27051,-17.8125 22.99316,-23.125 13.36915,13.20801 -5.92774,17.27539 6.35254,12.06055 -2.24121,13.36914 z m 0,0"
       style="fill:#782121;fill-opacity:1;fill-rule:nonzero;stroke:#e6e6e6;stroke-width:1;stroke-linecap:round;stroke-linejoin:round;stroke-miterlimit:4;stroke-dasharray:none;stroke-opacity:1" />
    <path
       inkscape:connector-curvature="0"
       id="path171"
       d="m 426.76918,242.53171 -2.40234,3.76953 -3.54981,-2.54883 -6.06934,-11.958 -7.56835,-17.17774 4.01366,-0.70801 0.0733,-4.07715 -4.20899,-6.65039 6.41602,-6.78222 13.08593,-3.37891 10.3711,-14.83887 4.16015,2.12892 -4.1748,12.96875 12.45118,13.62303 -14.19923,16.66504 -1.64062,8.35938 -7.88574,7.05078 z m 0,0"
       style="fill:#782121;fill-opacity:1;fill-rule:nonzero;stroke:#e6e6e6;stroke-width:1;stroke-linecap:round;stroke-linejoin:round;stroke-miterlimit:4;stroke-dasharray:none;stroke-opacity:1" />
    <path
       inkscape:connector-curvature="0"
       id="path173"
       d="m 336.13441,683.10789 -27.11426,-7.60254 -11.15722,-8.34961 -11.99707,6.24023 -6.02051,-4.24805 5.50781,-12.54882 -2.19238,-12.5586 3.85742,-2.48535 11.85059,-12.33886 11.17676,6.43553 6.65039,11.24024 0.64452,17.9834 7.95899,3.39355 z m 0,0"
       style="fill:#d35f5f;fill-opacity:0.55686275;fill-rule:nonzero;stroke:#e6e6e6;stroke-width:1;stroke-linecap:round;stroke-linejoin:round;stroke-miterlimit:4;stroke-dasharray:none;stroke-opacity:1" />
    <path
       inkscape:connector-curvature="0"
       id="path175"
       d="m 542.19399,230.55417 -13.36915,-13.20801 -16.333,-10.77149 5.96191,-6.60156 -1.20117,-12.72949 6.79687,-11.45996 10.41504,7.94434 7.49512,-4.05274 7.60254,4.98535 -3.64746,17.61719 20.06347,9.4629 -11.92382,4.65331 -9.36524,8.98438 1.15234,4.16016 z m 0,0"
       style="fill:#782121;fill-opacity:1;fill-rule:nonzero;stroke:#e6e6e6;stroke-width:1;stroke-linecap:round;stroke-linejoin:round;stroke-miterlimit:4;stroke-dasharray:none;stroke-opacity:1" />
    <path
       inkscape:connector-curvature="0"
       id="path177"
       d="m 337.79945,702.29245 -3.62305,2.93457 -31.95312,-3.45215 -20.28809,-19.84375 3.93067,-8.53515 11.99707,-6.24023 11.15722,8.34961 27.11426,7.60254 3.69629,11.37206 z m 0,0"
       style="fill:#d35f5f;fill-opacity:0.55686275;fill-rule:nonzero;stroke:#e6e6e6;stroke-width:1;stroke-linecap:round;stroke-linejoin:round;stroke-miterlimit:4;stroke-dasharray:none;stroke-opacity:1" />
    <path
       inkscape:connector-curvature="0"
       id="path179"
       d="m 218.02895,263.87936 -10.63965,-8.11522 -8.01759,3.59862 -0.95213,-13.2959 8.88671,-25.63476 -0.84473,-13.55469 13.23243,3.52539 4.53125,12.92969 12.62206,1.94825 -5.60546,21.93847 -7.9834,4.22364 z m 0,0"
       style="fill:#d35f5f;fill-opacity:0.55686275;fill-rule:nonzero;stroke:#e6e6e6;stroke-width:1;stroke-linecap:round;stroke-linejoin:round;stroke-miterlimit:4;stroke-dasharray:none;stroke-opacity:1" />
    <path
       inkscape:connector-curvature="0"
       id="path181"
       d="m 685.26039,401.8823 -20.7666,9.74121 -13.96485,-0.49805 -20.37598,-3.23242 9.01368,-10.22462 4.20899,-12.89062 7.80273,-4.60449 8.56933,3.28125 13.61329,-2.07031 16.35253,7.61719 z m 0,0"
       style="fill:#782121;fill-opacity:1;fill-rule:nonzero;stroke:#e6e6e6;stroke-width:1;stroke-linecap:round;stroke-linejoin:round;stroke-miterlimit:4;stroke-dasharray:none;stroke-opacity:1" />
    <path
       inkscape:connector-curvature="0"
       id="path183"
       d="m 552.72133,515.17331 -4.21387,-7.0166 -4.11133,0.12695 -10.03907,-14.60937 17.38282,-8.6914 5.54687,-7.86134 13.17384,4.9463 8.73046,-1.7627 12.25098,4.7168 -7.51465,12.42675 -4.9707,8.00294 z m 0,0"
       style="fill:#782121;fill-opacity:1;fill-rule:nonzero;stroke:#e6e6e6;stroke-width:1;stroke-linecap:round;stroke-linejoin:round;stroke-miterlimit:4;stroke-dasharray:none;stroke-opacity:1" />
    <path
       inkscape:connector-curvature="0"
       id="path185"
       d="m 447.00355,273.50339 -4.92187,-12.65625 -15.3125,-18.31543 -1.12793,-3.55469 7.88574,-7.05078 12.14356,3.15918 11.92383,-2.99805 -4.15039,2.22657 0.9912,4.61426 18.37891,14.75585 4.54101,8.1543 -2.46093,9.89257 -8.13965,-2.79296 -7.68067,4.18458 -3.7207,-2.50978 z m 0,0"
       style="fill:#782121;fill-opacity:1;fill-rule:nonzero;stroke:#e6e6e6;stroke-width:1;stroke-linecap:round;stroke-linejoin:round;stroke-miterlimit:4;stroke-dasharray:none;stroke-opacity:1" />
    <path
       inkscape:connector-curvature="0"
       id="path187"
       d="m 509.46938,537.08737 -14.13087,-15.49805 1.34767,-8.49608 -5.96193,-10.59083 12.47559,-13.11035 22.69531,-3.23242 8.46191,7.51465 10.03907,14.60937 -3.54004,4.58985 -3.52539,-3.15919 -23.16406,3.69629 -10.03906,9.59961 5.83985,12.43653 z m 0,0"
       style="fill:#782121;fill-opacity:1;fill-rule:nonzero;stroke:#e6e6e6;stroke-width:1;stroke-linecap:round;stroke-linejoin:round;stroke-miterlimit:4;stroke-dasharray:none;stroke-opacity:1" />
    <path
       inkscape:connector-curvature="0"
       id="path189"
       d="m 534.35706,493.67429 -8.46191,-7.51465 -12.40234,-22.14844 -7.19726,-14.15039 11.82616,-5.23926 9.68263,10.60059 14.01855,3.4375 15.46386,18.46191 -5.54687,7.86134 z m 0,0"
       style="fill:#782121;fill-opacity:1;fill-rule:nonzero;stroke:#e6e6e6;stroke-width:1;stroke-linecap:round;stroke-linejoin:round;stroke-miterlimit:4;stroke-dasharray:none;stroke-opacity:1" />
    <path
       inkscape:connector-curvature="0"
       id="path191"
       d="m 345.07484,510.15379 -47.48046,-17.64162 5.21483,-9.3164 8.19337,-10 7.89551,3.08105 4.87304,-7.17285 11.90918,7.06544 3.24707,8.60839 13.68652,12.15332 z m 0,0"
       style="fill:#d35f5f;fill-opacity:0.55686275;fill-rule:nonzero;stroke:#e6e6e6;stroke-width:1;stroke-linecap:round;stroke-linejoin:round;stroke-miterlimit:4;stroke-dasharray:none;stroke-opacity:1" />
    <path
       inkscape:connector-curvature="0"
       id="path193"
       d="m 577.29164,432.71726 -5.53223,-0.53711 -23.10547,-15.80566 -23.4912,1.86035 -8.17871,-4.05274 6.42577,-6.0205 12.08496,-2.28028 -0.85448,-8.55468 3.69628,-2.43653 30.88868,8.80371 10.625,9.07227 1.25976,8.28613 z m 0,0"
       style="fill:#782121;fill-opacity:1;fill-rule:nonzero;stroke:#e6e6e6;stroke-width:1;stroke-linecap:round;stroke-linejoin:round;stroke-miterlimit:4;stroke-dasharray:none;stroke-opacity:1" />
    <path
       inkscape:connector-curvature="0"
       id="path195"
       d="m 490.75844,180.38816 -6.20606,11.47949 -11.46973,-6.19141 -12.03612,-5.16602 -3.91603,-8.02246 4.02833,-16.79687 8.47167,-1.98242 4.52638,-7.57812 24.9414,20.19042 z m 0,0"
       style="fill:#782121;fill-opacity:1;fill-rule:nonzero;stroke:#e6e6e6;stroke-width:1;stroke-linecap:round;stroke-linejoin:round;stroke-miterlimit:4;stroke-dasharray:none;stroke-opacity:1" />
    <path
       inkscape:connector-curvature="0"
       id="path197"
       d="m 407.05726,203.18112 -10.77148,-30.98632 -14.39942,-12.07031 9.35548,0.708 17.11425,2.97852 6.34277,6.57226 12.91504,-2.61718 16.89454,7.01171 -3.41798,5.53224 -4.16015,-2.12892 -10.3711,14.83887 -13.08593,3.37891 z m 0,0"
       style="fill:#782121;fill-opacity:1;fill-rule:nonzero;stroke:#e6e6e6;stroke-width:1;stroke-linecap:round;stroke-linejoin:round;stroke-miterlimit:4;stroke-dasharray:none;stroke-opacity:1" />
    <path
       inkscape:connector-curvature="0"
       id="path199"
       d="m 512.49184,206.57467 -8.48634,-1.17675 -11.10351,-13.19825 -2.14355,-11.81151 8.33984,-14.06739 15.36621,-11.21582 4.47754,1.6504 5.10742,19.02831 -6.79687,11.45996 1.20117,12.72949 z m 0,0"
       style="fill:#782121;fill-opacity:1;fill-rule:nonzero;stroke:#e6e6e6;stroke-width:1;stroke-linecap:round;stroke-linejoin:round;stroke-miterlimit:4;stroke-dasharray:none;stroke-opacity:1" />
    <path
       inkscape:connector-curvature="0"
       id="path201"
       d="m 477.35511,261.83835 -4.54101,-8.1543 -18.37891,-14.75585 -0.9912,-4.61426 4.15039,-2.22657 6.68456,-5.47363 4.62891,-12.37793 3.08594,-3.46191 13.45215,2.7539 6.95312,23.51562 -6.06933,6.55274 -1.7627,13.33008 z m 0,0"
       style="fill:#782121;fill-opacity:1;fill-rule:nonzero;stroke:#e6e6e6;stroke-width:1;stroke-linecap:round;stroke-linejoin:round;stroke-miterlimit:4;stroke-dasharray:none;stroke-opacity:1" />
    <path
       inkscape:connector-curvature="0"
       id="path203"
       d="m 559.68421,538.14206 -4.52636,-14.61914 -2.43652,-8.34961 26.23535,-9.72167 4.9707,-8.00294 8.59375,11.06446 16.08887,10.02929 -2.7295,10.39062 -31.3916,-1.35741 z m 0,0"
       style="fill:#d35f5f;fill-opacity:0.55686275;fill-rule:nonzero;stroke:#e6e6e6;stroke-width:1;stroke-linecap:round;stroke-linejoin:round;stroke-miterlimit:4;stroke-dasharray:none;stroke-opacity:1" />
    <path
       inkscape:connector-curvature="0"
       id="path205"
       d="m 546.29066,562.6489 -3.90136,-2.10449 -11.82617,5.65918 -10.43458,-7.88574 -5.01952,-6.84571 2.54882,-4.0039 9.45313,0.24902 8.52051,-11.31347 19.52636,-12.88087 4.52636,14.61914 6.83594,8.50586 z m 0,0"
       style="fill:#d35f5f;fill-opacity:0.55686275;fill-rule:nonzero;stroke:#e6e6e6;stroke-width:1;stroke-linecap:round;stroke-linejoin:round;stroke-miterlimit:4;stroke-dasharray:none;stroke-opacity:1" />
    <path
       inkscape:connector-curvature="0"
       id="path207"
       d="m 608.61976,370.28074 -2.81738,21.28906 -7.7246,-0.83008 -13.59864,-4.73633 -23.67676,-16.68945 -2.42675,-6.52344 10.44433,-6.1084 17.94922,4.28222 12.54882,1.18653 z m 0,0"
       style="fill:#782121;fill-opacity:1;fill-rule:nonzero;stroke:#e6e6e6;stroke-width:1;stroke-linecap:round;stroke-linejoin:round;stroke-miterlimit:4;stroke-dasharray:none;stroke-opacity:1" />
    <path
       inkscape:connector-curvature="0"
       id="path209"
       d="m 608.61,518.54245 -16.08887,-10.02929 -8.59375,-11.06446 7.51465,-12.42675 5.46387,-11.12794 10.41504,-6.29394 6.77246,4.6289 -7.57812,10.48829 14.0039,11.37695 -1.2207,11.64063 z m 0,0"
       style="fill:#782121;fill-opacity:1;fill-rule:nonzero;stroke:#e6e6e6;stroke-width:1;stroke-linecap:round;stroke-linejoin:round;stroke-miterlimit:4;stroke-dasharray:none;stroke-opacity:1" />
    <path
       inkscape:connector-curvature="0"
       id="path211"
       d="m 475.02601,303.27879 -7.80761,11.54296 -9.36524,1.04004 -2.57323,-23.48144 2.93945,-12.65625 6.07421,-2.79298 -5.21973,-3.80858 7.68067,-4.18458 8.13965,2.79296 2.32422,-0.2832 14.13085,10.4541 -2.82714,12.79298 -13.13965,4.04296 z m 0,0"
       style="fill:#782121;fill-opacity:1;fill-rule:nonzero;stroke:#e6e6e6;stroke-width:1;stroke-linecap:round;stroke-linejoin:round;stroke-miterlimit:4;stroke-dasharray:none;stroke-opacity:1" />
    <path
       inkscape:connector-curvature="0"
       id="path213"
       d="m 641.8473,464.45066 -8.48632,-3.08106 0.91796,-13.2959 -3.45214,-8.38866 -7.65137,-4.42872 -1.46973,-12.2461 8.44726,-15.11718 20.37598,3.23242 -4.42383,22.3291 6.77247,11.88965 -8.68164,10.09765 z m 0,0"
       style="fill:#782121;fill-opacity:1;fill-rule:nonzero;stroke:#e6e6e6;stroke-width:1;stroke-linecap:round;stroke-linejoin:round;stroke-miterlimit:4;stroke-dasharray:none;stroke-opacity:1" />
    <path
       inkscape:connector-curvature="0"
       id="path215"
       d="m 503.97133,341.48679 8.25195,-16.24512 -8.69629,-2.65625 -8.04199,4.0039 -8.667,-1.46972 -4.73632,-16.65039 -7.05567,-5.19042 0.35645,-4.54103 13.13965,-4.04296 3.25195,-3.31544 11.92872,6.4502 3.05663,8.18848 16.30859,15.56152 -4.35546,8.16895 z m 0,0"
       style="fill:#782121;fill-opacity:1;fill-rule:nonzero;stroke:#e6e6e6;stroke-width:1;stroke-linecap:round;stroke-linejoin:round;stroke-miterlimit:4;stroke-dasharray:none;stroke-opacity:1" />
    <path
       inkscape:connector-curvature="0"
       id="path217"
       d="m 463.19008,209.89011 -13.82324,-2.98829 -12.45118,-13.62303 4.1748,-12.96875 3.41798,-5.53224 5.33691,-12.48535 11.31348,-6.60156 -4.02833,16.79687 3.91603,8.02246 12.03612,5.16602 z m 0,0"
       style="fill:#782121;fill-opacity:1;fill-rule:nonzero;stroke:#e6e6e6;stroke-width:1;stroke-linecap:round;stroke-linejoin:round;stroke-miterlimit:4;stroke-dasharray:none;stroke-opacity:1" />
    <path
       inkscape:connector-curvature="0"
       id="path219"
       d="m 479.70375,502.5903 -3.95507,-24.04785 4.57031,1.03027 33.17382,-15.56152 12.40234,22.14844 -22.69531,3.23242 -12.47559,13.11035 z m 0,0"
       style="fill:#782121;fill-opacity:1;fill-rule:nonzero;stroke:#e6e6e6;stroke-width:1;stroke-linecap:round;stroke-linejoin:round;stroke-miterlimit:4;stroke-dasharray:none;stroke-opacity:1" />
    <path
       inkscape:connector-curvature="0"
       id="path221"
       d="m 485.6559,577.478 -30.3125,-20.54199 -5.81544,-17.03125 2.37305,-3.83301 -3.51073,-2.82715 16.82128,-6.03515 1.13769,-4.34571 3.4375,-0.33203 4.39454,0.95703 -3.02246,21.72852 10.85937,7.24609 3.22266,3.125 -2.20703,17.7002 3.24707,3.10059 z m 0,0"
       style="fill:#d35f5f;fill-opacity:0.55686275;fill-rule:nonzero;stroke:#e6e6e6;stroke-width:1;stroke-linecap:round;stroke-linejoin:round;stroke-miterlimit:4;stroke-dasharray:none;stroke-opacity:1" />
    <path
       inkscape:connector-curvature="0"
       id="path223"
       d="m 539.68421,376.93112 -6.58691,-6.26952 5.2002,-21.3379 -6.2793,-6.61133 11.06934,-5.95215 12.74414,4.70215 8.26172,3.20802 4.72656,12.01171 -10.44433,6.1084 2.42675,6.52344 -6.82129,6.36718 z m 0,0"
       style="fill:#782121;fill-opacity:1;fill-rule:nonzero;stroke:#e6e6e6;stroke-width:1;stroke-linecap:round;stroke-linejoin:round;stroke-miterlimit:4;stroke-dasharray:none;stroke-opacity:1" />
    <path
       inkscape:connector-curvature="0"
       id="path225"
       d="m 505.83168,240.47116 -11.21582,3.22266 -2.2168,-6.6504 -6.95312,-23.51562 3.75976,2.69044 14.7998,-10.82032 8.48634,1.17675 16.333,10.77149 z m 0,0"
       style="fill:#782121;fill-opacity:1;fill-rule:nonzero;stroke:#e6e6e6;stroke-width:1;stroke-linecap:round;stroke-linejoin:round;stroke-miterlimit:4;stroke-dasharray:none;stroke-opacity:1" />
    <path
       inkscape:connector-curvature="0"
       id="path227"
       d="m 513.49281,464.0112 -33.17382,15.56152 -4.57031,-1.03027 -2.69044,-0.96679 -4.66309,-12.87599 12.11915,-13.95995 7.95898,-4.95606 17.82227,4.07715 z m 0,0"
       style="fill:#782121;fill-opacity:1;fill-rule:nonzero;stroke:#e6e6e6;stroke-width:1;stroke-linecap:round;stroke-linejoin:round;stroke-miterlimit:4;stroke-dasharray:none;stroke-opacity:1" />
    <path
       inkscape:connector-curvature="0"
       id="path229"
       d="m 502.58461,581.62839 -13.13477,-7.65137 -3.16894,2.41212 -3.24707,-3.10059 2.20703,-17.7002 -3.22266,-3.125 9.62403,-6.85546 12.80761,-1.45509 10.65919,7.31934 5.01952,6.84571 z m 0,0"
       style="fill:#d35f5f;fill-opacity:0.55686275;fill-rule:nonzero;stroke:#e6e6e6;stroke-width:1;stroke-linecap:round;stroke-linejoin:round;stroke-miterlimit:4;stroke-dasharray:none;stroke-opacity:1" />
    <path
       inkscape:connector-curvature="0"
       id="path231"
       d="m 287.0182,641.55515 -22.02636,-5.49805 -11.4209,-7.34375 12.8418,-12.74414 7.88574,-4.99511 8.9502,0.708 20.33202,11.10351 -4.71191,6.43068 z m 0,0"
       style="fill:#d35f5f;fill-opacity:0.55686275;fill-rule:nonzero;stroke:#e6e6e6;stroke-width:1;stroke-linecap:round;stroke-linejoin:round;stroke-miterlimit:4;stroke-dasharray:none;stroke-opacity:1" />
    <path
       inkscape:connector-curvature="0"
       id="path233"
       d="m 536.68129,312.75144 3.14941,2.7832 -4.45801,6.9043 -12.30469,-0.85938 -16.30859,-15.56152 -3.05663,-8.18848 -11.92872,-6.4502 6.89453,-15.00976 4.10156,0.69825 17.68066,14.9707 z m 0,0"
       style="fill:#782121;fill-opacity:1;fill-rule:nonzero;stroke:#e6e6e6;stroke-width:1;stroke-linecap:round;stroke-linejoin:round;stroke-miterlimit:4;stroke-dasharray:none;stroke-opacity:1" />
    <path
       inkscape:connector-curvature="0"
       id="path235"
       d="m 448.39028,533.2446 -26.46973,-3.61328 -13.34474,-18.1543 16.25978,-8.9502 4.37011,7.39747 13.08594,0.46387 10.13672,9.68261 13.92089,2.79297 -1.13769,4.34571 z m 0,0"
       style="fill:#d35f5f;fill-opacity:0.55686275;fill-rule:nonzero;stroke:#e6e6e6;stroke-width:1;stroke-linecap:round;stroke-linejoin:round;stroke-miterlimit:4;stroke-dasharray:none;stroke-opacity:1" />
    <path
       inkscape:connector-curvature="0"
       id="path237"
       d="m 385.05531,567.17039 -9.15527,2.22656 -10.15136,-10.28321 -12.05568,-0.039 3.37891,-8.38379 -1.96288,-13.54004 3.48143,-3.36914 9.63379,-8.77441 15.23926,14.82421 -0.53711,12.83204 4.83399,7.10938 z m 0,0"
       style="fill:#d35f5f;fill-opacity:0.55686275;fill-rule:nonzero;stroke:#e6e6e6;stroke-width:1;stroke-linecap:round;stroke-linejoin:round;stroke-miterlimit:4;stroke-dasharray:none;stroke-opacity:1" />
    <path
       inkscape:connector-curvature="0"
       id="path239"
       d="m 391.12953,279.6362 -9.62403,6.67481 -13.63769,-9.83399 -4.84863,-8.09082 1.98242,-9.26758 -6.95312,-12.40233 2.97851,-8.99903 3.36426,-5.4834 10.06348,13.87206 11.38671,6.15724 -1.23535,14.458 z m 0,0"
       style="fill:#782121;fill-opacity:1;fill-rule:nonzero;stroke:#e6e6e6;stroke-width:1;stroke-linecap:round;stroke-linejoin:round;stroke-miterlimit:4;stroke-dasharray:none;stroke-opacity:1" />
    <path
       inkscape:connector-curvature="0"
       id="path241"
       d="m 455.3434,556.93601 -6.87012,6.62109 -18.5205,-3.15918 -10.22462,-15.10742 -2.81738,-2.91504 6.87988,-9.14551 -1.87011,-3.59863 26.46973,3.61328 3.51073,2.82715 -2.37305,3.83301 z m 0,0"
       style="fill:#d35f5f;fill-opacity:0.55686275;fill-rule:nonzero;stroke:#e6e6e6;stroke-width:1;stroke-linecap:round;stroke-linejoin:round;stroke-miterlimit:4;stroke-dasharray:none;stroke-opacity:1" />
    <path
       inkscape:connector-curvature="0"
       id="path243"
       d="m 585.8268,336.8237 -10.84961,-6.03515 -22.06055,-6.14746 -3.95508,-8.34962 9.6582,-5.97167 10.08789,-5.12208 3.20801,-7.10937 18.12012,6.06934 0.28321,9.0625 -7.78809,10.91797 z m 0,0"
       style="fill:#782121;fill-opacity:1;fill-rule:nonzero;stroke:#e6e6e6;stroke-width:1;stroke-linecap:round;stroke-linejoin:round;stroke-miterlimit:4;stroke-dasharray:none;stroke-opacity:1" />
    <path
       inkscape:connector-curvature="0"
       id="path245"
       d="m 263.79555,574.0991 -8.41309,11.08886 -0.95703,9.12109 -4.37988,1.55762 -16.22071,-7.43163 1.06446,-16.99219 0.0586,-11.93849 35.34667,4.82423 0.77149,4.44336 z m 0,0"
       style="fill:#d35f5f;fill-opacity:0.55686275;fill-rule:nonzero;stroke:#e6e6e6;stroke-width:1;stroke-linecap:round;stroke-linejoin:round;stroke-miterlimit:4;stroke-dasharray:none;stroke-opacity:1" />
    <path
       inkscape:connector-curvature="0"
       id="path247"
       d="m 515.10903,551.47214 -10.65919,-7.31934 5.01954,-7.06543 0.49805,-1.64062 19.0625,-10.13671 11.82616,-12.43653 3.54004,-4.58985 4.11133,-0.12695 4.21387,7.0166 2.43652,8.34961 -19.52636,12.88087 -8.52051,11.31347 -9.45313,-0.24902 z m 0,0"
       style="fill:#d35f5f;fill-opacity:0.55686275;fill-rule:nonzero;stroke:#e6e6e6;stroke-width:1;stroke-linecap:round;stroke-linejoin:round;stroke-miterlimit:4;stroke-dasharray:none;stroke-opacity:1" />
    <path
       inkscape:connector-curvature="0"
       id="path249"
       d="m 288.63441,399.40671 13.45215,13.17383 2.08497,8.6084 -17.96388,5.7666 -18.22754,-3.48144 -15.37597,-1.00099 15.92774,-17.37304 13.84765,1.39648 z m 0,0"
       style="fill:#d35f5f;fill-opacity:0.55686275;fill-rule:nonzero;stroke:#e6e6e6;stroke-width:1;stroke-linecap:round;stroke-linejoin:round;stroke-miterlimit:4;stroke-dasharray:none;stroke-opacity:1" />
    <path
       inkscape:connector-curvature="0"
       id="path251"
       d="m 228.21449,266.81882 -10.18554,-2.93946 5.22949,-12.43651 7.9834,-4.22364 5.60546,-21.93847 22.79785,7.66112 -8.12987,20.15138 -20.6543,7.95898 z m 0,0"
       style="fill:#d35f5f;fill-opacity:0.55686275;fill-rule:nonzero;stroke:#e6e6e6;stroke-width:1;stroke-linecap:round;stroke-linejoin:round;stroke-miterlimit:4;stroke-dasharray:none;stroke-opacity:1" />
    <path
       inkscape:connector-curvature="0"
       id="path253"
       d="m 352.6139,496.93112 -13.68652,-12.15332 -3.24707,-8.60839 -11.90918,-7.06544 0.63477,-2.25097 44.16015,15.04395 16.04004,-8.45704 4.66309,14.21388 -1.99707,3.52538 -3.6084,-3.0127 z m 0,0"
       style="fill:#d35f5f;fill-opacity:0.55686275;fill-rule:nonzero;stroke:#e6e6e6;stroke-width:1;stroke-linecap:round;stroke-linejoin:round;stroke-miterlimit:4;stroke-dasharray:none;stroke-opacity:1" />
    <path
       inkscape:connector-curvature="0"
       id="path255"
       d="m 202.45765,290.1782 -7.24609,-4.18458 -7.86132,-15.05858 4.36035,1.02538 3.19336,-12.63183 4.46776,0.0341 8.01759,-3.59862 10.63965,8.11522 10.18554,2.93946 -6.74316,11.17675 z m 0,0"
       style="fill:#d35f5f;fill-opacity:0.55686275;fill-rule:nonzero;stroke:#e6e6e6;stroke-width:1;stroke-linecap:round;stroke-linejoin:round;stroke-miterlimit:4;stroke-dasharray:none;stroke-opacity:1" />
    <path
       inkscape:connector-curvature="0"
       id="path257"
       d="m 482.0182,552.46335 -10.85937,-7.24609 3.02246,-21.72852 21.15722,-1.89942 14.13087,15.49805 -5.01954,7.06543 -12.80761,1.45509 z m 0,0"
       style="fill:#d35f5f;fill-opacity:0.55686275;fill-rule:nonzero;stroke:#e6e6e6;stroke-width:1;stroke-linecap:round;stroke-linejoin:round;stroke-miterlimit:4;stroke-dasharray:none;stroke-opacity:1" />
    <path
       inkscape:connector-curvature="0"
       id="path259"
       d="m 532.0182,342.71237 -13.30566,-12.96386 4.35546,-8.16895 12.30469,0.85938 4.45801,-6.9043 -3.14941,-2.7832 12.28027,3.54003 3.95508,8.34962 22.06055,6.14746 -9.02344,1.40625 -10.12207,9.26757 -12.74414,-4.70215 z m 0,0"
       style="fill:#782121;fill-opacity:1;fill-rule:nonzero;stroke:#e6e6e6;stroke-width:1;stroke-linecap:round;stroke-linejoin:round;stroke-miterlimit:4;stroke-dasharray:none;stroke-opacity:1" />
    <path
       inkscape:connector-curvature="0"
       id="path261"
       d="m 463.10219,504.54831 -16.80664,-5.74219 -8.85255,-2.1289 -1.85057,-4.16505 5.73241,-16.48925 -0.21973,-17.31445 11.61622,6.17188 10.42968,20.88866 z m 0,0"
       style="fill:#d35f5f;fill-opacity:0.55686275;fill-rule:nonzero;stroke:#e6e6e6;stroke-width:1;stroke-linecap:round;stroke-linejoin:round;stroke-miterlimit:4;stroke-dasharray:none;stroke-opacity:1" />
    <path
       inkscape:connector-curvature="0"
       id="path263"
       d="m 403.50746,538.17624 -3.73535,-12.08008 -17.97363,-12.30469 16.79687,-9.2334 21.44043,-7.20702 4.5752,0.58594 0.22461,4.58983 -16.25978,8.9502 13.34474,18.1543 z m 0,0"
       style="fill:#782121;fill-opacity:1;fill-rule:nonzero;stroke:#e6e6e6;stroke-width:1;stroke-linecap:round;stroke-linejoin:round;stroke-miterlimit:4;stroke-dasharray:none;stroke-opacity:1" />
    <path
       inkscape:connector-curvature="0"
       id="path265"
       d="m 504.0055,205.39792 -14.7998,10.82032 -3.75976,-2.69044 -13.45215,-2.7539 -3.08594,3.46191 -5.71777,-4.3457 9.89257,-24.21387 11.46973,6.19141 6.20606,-11.47949 2.14355,11.81151 z m 0,0"
       style="fill:#782121;fill-opacity:1;fill-rule:nonzero;stroke:#e6e6e6;stroke-width:1;stroke-linecap:round;stroke-linejoin:round;stroke-miterlimit:4;stroke-dasharray:none;stroke-opacity:1" />
    <path
       inkscape:connector-curvature="0"
       id="path267"
       d="m 164.86,330.92039 -7.91016,-8.667 -7.79785,-1.32324 7.49512,-8.98438 32.4414,-11.5918 4.75098,9.60938 -9.38965,14.41895 -12.20703,3.95507 z m 0,0"
       style="fill:#d35f5f;fill-opacity:0.55686275;fill-rule:nonzero;stroke:#e6e6e6;stroke-width:1;stroke-linecap:round;stroke-linejoin:round;stroke-miterlimit:4;stroke-dasharray:none;stroke-opacity:1" />
    <path
       inkscape:connector-curvature="0"
       id="path269"
       d="m 402.11098,246.10592 -8.78907,9.16993 -7.48047,-3.01269 -11.38671,-6.15724 -10.06348,-13.87206 -4.19922,-6.61132 1.68946,-7.7002 16.06445,10.07323 8.35937,-1.62597 z m 0,0"
       style="fill:#d35f5f;fill-opacity:0.55686275;fill-rule:nonzero;stroke:#e6e6e6;stroke-width:1;stroke-linecap:round;stroke-linejoin:round;stroke-miterlimit:4;stroke-dasharray:none;stroke-opacity:1" />
    <path
       inkscape:connector-curvature="0"
       id="path271"
       d="m 591.44203,485.02195 -12.25098,-4.7168 -8.73046,1.7627 -7.89551,-11.35743 5.88867,-17.42187 16.44043,3.31542 12.01172,17.29004 z m 0,0"
       style="fill:#782121;fill-opacity:1;fill-rule:nonzero;stroke:#e6e6e6;stroke-width:1;stroke-linecap:round;stroke-linejoin:round;stroke-miterlimit:4;stroke-dasharray:none;stroke-opacity:1" />
    <path
       inkscape:connector-curvature="0"
       id="path273"
       d="m 438.82484,278.23972 -15.91309,-8.18848 -10.3955,-31.96777 -1.56739,-4.09668 3.79883,-2.19238 6.06934,11.958 3.54981,2.54883 2.40234,-3.76953 15.3125,18.31543 4.92187,12.65625 z m 0,0"
       style="fill:#782121;fill-opacity:1;fill-rule:nonzero;stroke:#e6e6e6;stroke-width:1;stroke-linecap:round;stroke-linejoin:round;stroke-miterlimit:4;stroke-dasharray:none;stroke-opacity:1" />
    <path
       inkscape:connector-curvature="0"
       id="path275"
       d="m 387.76039,559.77292 -4.83399,-7.10937 0.53711,-12.83204 11.88965,-5.55664 8.1543,3.90137 18.41309,-8.54492 1.87011,3.59863 -6.87988,9.14551 2.81738,2.91504 -4.10156,6.87989 -11.4209,3.46678 -12.03614,-3.42772 z m 0,0"
       style="fill:#d35f5f;fill-opacity:0.55686275;fill-rule:nonzero;stroke:#e6e6e6;stroke-width:1;stroke-linecap:round;stroke-linejoin:round;stroke-miterlimit:4;stroke-dasharray:none;stroke-opacity:1" />
    <path
       inkscape:connector-curvature="0"
       id="path277"
       d="m 610.55336,431.35984 -8.00293,15.89355 -8.68164,-2.08497 -3.96973,-7.23143 -12.60742,-5.21973 3.81836,-11.66504 17.05566,-6.40137 11.17677,8.33496 z m 0,0"
       style="fill:#782121;fill-opacity:1;fill-rule:nonzero;stroke:#e6e6e6;stroke-width:1;stroke-linecap:round;stroke-linejoin:round;stroke-miterlimit:4;stroke-dasharray:none;stroke-opacity:1" />
    <path
       inkscape:connector-curvature="0"
       id="path279"
       d="m 548.96156,316.29147 -12.28027,-3.54003 -16.23048,-20.71289 6.53322,-6.46485 17.16796,1.83594 14.46777,22.91016 z m 0,0"
       style="fill:#782121;fill-opacity:1;fill-rule:nonzero;stroke:#e6e6e6;stroke-width:1;stroke-linecap:round;stroke-linejoin:round;stroke-miterlimit:4;stroke-dasharray:none;stroke-opacity:1" />
    <path
       inkscape:connector-curvature="0"
       id="path281"
       d="m 416.03188,294.31394 -25.25879,13.00292 -14.75098,-11.22557 -8.1543,-19.61427 13.63769,9.83399 9.62403,-6.67481 8.44727,-2.4707 3.33008,16.03516 z m 0,0"
       style="fill:#782121;fill-opacity:1;fill-rule:nonzero;stroke:#e6e6e6;stroke-width:1;stroke-linecap:round;stroke-linejoin:round;stroke-miterlimit:4;stroke-dasharray:none;stroke-opacity:1" />
    <path
       inkscape:connector-curvature="0"
       id="path283"
       d="m 457.59438,232.08737 -11.92383,2.99805 -12.14356,-3.15918 1.64062,-8.35938 14.19923,-16.66504 13.82324,2.98829 5.71777,4.3457 -4.62891,12.37793 z m 0,0"
       style="fill:#782121;fill-opacity:1;fill-rule:nonzero;stroke:#e6e6e6;stroke-width:1;stroke-linecap:round;stroke-linejoin:round;stroke-miterlimit:4;stroke-dasharray:none;stroke-opacity:1" />
    <path
       inkscape:connector-curvature="0"
       id="path285"
       d="m 455.27993,292.38035 -8.34962,3.87206 -0.64941,9.17969 -13.06152,-4.35546 -5.45899,-6.78712 -4.84864,-24.23828 15.91309,8.18848 5.3418,6.06445 10.53711,-7.00683 3.51563,2.42676 z m 0,0"
       style="fill:#782121;fill-opacity:1;fill-rule:nonzero;stroke:#e6e6e6;stroke-width:1;stroke-linecap:round;stroke-linejoin:round;stroke-miterlimit:4;stroke-dasharray:none;stroke-opacity:1" />
    <path
       inkscape:connector-curvature="0"
       id="path287"
       d="m 264.18618,372.6196 -17.49513,-2.76368 -13.36914,-12.47557 -12.5,-3.95509 5.21484,-8.10546 43.9502,14.70215 2.18261,7.76366 z m 0,0"
       style="fill:#d35f5f;fill-opacity:0.55686275;fill-rule:nonzero;stroke:#e6e6e6;stroke-width:1;stroke-linecap:round;stroke-linejoin:round;stroke-miterlimit:4;stroke-dasharray:none;stroke-opacity:1" />
    <path
       inkscape:connector-curvature="0"
       id="path289"
       d="m 586.76918,360.96432 -17.94922,-4.28222 -4.72656,-12.01171 -8.26172,-3.20802 10.12207,-9.26757 9.02344,-1.40625 10.84961,6.03515 2.60741,3.48634 z m 0,0"
       style="fill:#782121;fill-opacity:1;fill-rule:nonzero;stroke:#e6e6e6;stroke-width:1;stroke-linecap:round;stroke-linejoin:round;stroke-miterlimit:4;stroke-dasharray:none;stroke-opacity:1" />
    <path
       inkscape:connector-curvature="0"
       id="path291"
       d="m 402.11098,246.10592 -15.80567,-19.73632 5.75684,-6.82129 -1.85059,-12.59765 6.69434,5.708 8.12988,-1.78711 2.14356,3.74512 7.56835,17.17774 -3.79883,2.19238 1.56739,4.09668 z m 0,0"
       style="fill:#782121;fill-opacity:1;fill-rule:nonzero;stroke:#e6e6e6;stroke-width:1;stroke-linecap:round;stroke-linejoin:round;stroke-miterlimit:4;stroke-dasharray:none;stroke-opacity:1" />
    <path
       inkscape:connector-curvature="0"
       id="path293"
       d="m 549.74769,622.3364 -1.92383,4.22364 -4.63867,0.01 -13.14941,-4.28223 2.70508,-3.08594 -4.99512,-6.50391 -0.19531,-8.20312 16.35742,-5.98633 2.97364,2.36328 12.03612,12.7588 -1.22558,8.82812 z m 0,0"
       style="fill:#d35f5f;fill-opacity:0.55686275;fill-rule:nonzero;stroke:#e6e6e6;stroke-width:1;stroke-linecap:round;stroke-linejoin:round;stroke-miterlimit:4;stroke-dasharray:none;stroke-opacity:1" />
    <path
       inkscape:connector-curvature="0"
       id="path295"
       d="m 488.52211,294.6948 2.82714,-12.79298 -14.13085,-10.4541 3.44238,-8.88671 19.01367,0.32715 13.42774,-4.6045 2.5,3.11035 -5.66895,9.90723 3.20801,2.36328 -10.3711,3.40333 -4.10156,-0.69825 -6.89453,15.00976 z m 0,0"
       style="fill:#782121;fill-opacity:1;fill-rule:nonzero;stroke:#e6e6e6;stroke-width:1;stroke-linecap:round;stroke-linejoin:round;stroke-miterlimit:4;stroke-dasharray:none;stroke-opacity:1" />
    <path
       inkscape:connector-curvature="0"
       id="path297"
       d="m 474.89418,271.73092 2.46093,-9.89257 7.21192,-4.91211 1.7627,-13.33008 6.06933,-6.55274 2.2168,6.6504 11.21582,-3.22266 7.27051,17.8125 -13.42774,4.6045 -19.01367,-0.32715 -3.44238,8.88671 z m 0,0"
       style="fill:#782121;fill-opacity:1;fill-rule:nonzero;stroke:#e6e6e6;stroke-width:1;stroke-linecap:round;stroke-linejoin:round;stroke-miterlimit:4;stroke-dasharray:none;stroke-opacity:1" />
    <path
       inkscape:connector-curvature="0"
       id="path299"
       d="m 571.84243,623.75241 -14.1504,-1.29394 1.22558,-8.82812 -12.03612,-12.7588 21.24022,-5.66894 12.13379,18.69629 z m 0,0"
       style="fill:#d35f5f;fill-opacity:0.55686275;fill-rule:nonzero;stroke:#e6e6e6;stroke-width:1;stroke-linecap:round;stroke-linejoin:round;stroke-miterlimit:4;stroke-dasharray:none;stroke-opacity:1" />
    <path
       inkscape:connector-curvature="0"
       id="path301"
       d="m 476.17836,506.05222 -13.07617,-1.50391 0.0489,-18.7793 -10.42968,-20.88866 20.33691,12.69531 2.69044,0.96679 3.95507,24.04785 z m 0,0"
       style="fill:#782121;fill-opacity:1;fill-rule:nonzero;stroke:#e6e6e6;stroke-width:1;stroke-linecap:round;stroke-linejoin:round;stroke-miterlimit:4;stroke-dasharray:none;stroke-opacity:1" />
    <path
       inkscape:connector-curvature="0"
       id="path303"
       d="m 584.89418,456.60397 -16.44043,-3.31542 -6.52832,-6.3086 9.83398,-14.7998 5.53223,0.53711 12.60742,5.21973 3.96973,7.23143 z m 0,0"
       style="fill:#782121;fill-opacity:1;fill-rule:nonzero;stroke:#e6e6e6;stroke-width:1;stroke-linecap:round;stroke-linejoin:round;stroke-miterlimit:4;stroke-dasharray:none;stroke-opacity:1" />
    <path
       inkscape:connector-curvature="0"
       id="path305"
       d="m 466.34925,522.86374 -13.92089,-2.79297 -10.13672,-9.68261 4.00391,-11.58204 16.80664,5.74219 13.07617,1.50391 -6.39161,16.47949 z m 0,0"
       style="fill:#782121;fill-opacity:1;fill-rule:nonzero;stroke:#e6e6e6;stroke-width:1;stroke-linecap:round;stroke-linejoin:round;stroke-miterlimit:4;stroke-dasharray:none;stroke-opacity:1" />
    <path
       inkscape:connector-curvature="0"
       id="path307"
       d="m 383.46351,539.83151 -15.23926,-14.82421 13.57423,-11.21583 17.97363,12.30469 3.73535,12.08008 -8.1543,-3.90137 z m 0,0"
       style="fill:#782121;fill-opacity:1;fill-rule:nonzero;stroke:#e6e6e6;stroke-width:1;stroke-linecap:round;stroke-linejoin:round;stroke-miterlimit:4;stroke-dasharray:none;stroke-opacity:1" />
    <path
       inkscape:connector-curvature="0"
       id="path309"
       d="m 509.96743,535.44675 -5.83985,-12.43653 10.03906,-9.59961 23.16406,-3.69629 3.52539,3.15919 -11.82616,12.43653 z m 0,0"
       style="fill:#d35f5f;fill-opacity:0.55686275;fill-rule:nonzero;stroke:#e6e6e6;stroke-width:1;stroke-linecap:round;stroke-linejoin:round;stroke-miterlimit:4;stroke-dasharray:none;stroke-opacity:1" />
    <path
       inkscape:connector-curvature="0"
       id="path311"
       d="m 474.18129,523.48874 -4.39454,-0.95703 6.39161,-16.47949 3.52539,-3.46192 11.0205,-0.0879 5.96193,10.59083 -1.34767,8.49609 z m 0,0"
       style="fill:#782121;fill-opacity:1;fill-rule:nonzero;stroke:#e6e6e6;stroke-width:1;stroke-linecap:round;stroke-linejoin:round;stroke-miterlimit:4;stroke-dasharray:none;stroke-opacity:1" />
    <path
       inkscape:connector-curvature="0"
       id="path313"
       d="m 559.74769,573.79147 -8.61816,-3.46191 -4.83887,-7.68066 20.22949,-16.00098 7.5293,9.61425 z m 0,0"
       style="fill:#d35f5f;fill-opacity:0.55686275;fill-rule:nonzero;stroke:#e6e6e6;stroke-width:1;stroke-linecap:round;stroke-linejoin:round;stroke-miterlimit:4;stroke-dasharray:none;stroke-opacity:1" />
    <path
       inkscape:connector-curvature="0"
       id="path315"
       d="m 391.32484,577.74655 -8.54491,-2.27539 2.27538,-8.30077 2.70508,-7.39747 4.40917,-7.56347 12.03614,3.42772 z m 0,0"
       style="fill:#d35f5f;fill-opacity:0.55686275;fill-rule:nonzero;stroke:#e6e6e6;stroke-width:1;stroke-linecap:round;stroke-linejoin:round;stroke-miterlimit:4;stroke-dasharray:none;stroke-opacity:1" />
    <path
       inkscape:connector-curvature="0"
       id="path317"
       d="m 458.21938,279.7241 -3.51563,-2.42676 -10.53711,7.00683 -5.3418,-6.06445 8.17871,-4.73633 8.34961,-2.89063 3.7207,2.50978 5.21973,3.80858 z m 0,0"
       style="fill:#782121;fill-opacity:1;fill-rule:nonzero;stroke:#e6e6e6;stroke-width:1;stroke-linecap:round;stroke-linejoin:round;stroke-miterlimit:4;stroke-dasharray:none;stroke-opacity:1" />
    <g
       style="clip-rule:nonzero"
       id="g150"
       clip-path="url(#clip1)"
       transform="matrix(1.25,0,0,1.25,751.38399,194.80549)">
      <path
         inkscape:connector-curvature="0"
         id="path152"
         d="m 39.53125,303.46875 520.49219,0 0,-297.492188 -520.49219,0 z m 0,0"
         style="fill:#ffffff;fill-opacity:1;fill-rule:nonzero;stroke:none" />
    </g>
    <g
       style="clip-rule:nonzero"
       id="g154"
       clip-path="url(#clip2)"
       transform="matrix(1.25,0,0,1.25,751.38399,194.80549)">
      <path
         inkscape:connector-curvature="0"
         id="path156"
         d="m 39.53125,243.31641 520.49219,0"
         style="fill:none;stroke:#fafafa;stroke-width:1.06697798;stroke-linecap:butt;stroke-linejoin:round;stroke-miterlimit:10;stroke-opacity:1" />
    </g>
    <g
       style="clip-rule:nonzero"
       id="g158"
       clip-path="url(#clip3)"
       transform="matrix(1.25,0,0,1.25,751.38399,194.80549)">
      <path
         inkscape:connector-curvature="0"
         id="path160"
         d="m 39.53125,150.0625 520.49219,0"
         style="fill:none;stroke:#fafafa;stroke-width:1.06697798;stroke-linecap:butt;stroke-linejoin:round;stroke-miterlimit:10;stroke-opacity:1" />
    </g>
    <g
       style="clip-rule:nonzero"
       id="g162"
       clip-path="url(#clip4)"
       transform="matrix(1.25,0,0,1.25,751.38399,194.80549)">
      <path
         inkscape:connector-curvature="0"
         id="path164"
         d="m 39.53125,56.804688 520.49219,0"
         style="fill:none;stroke:#fafafa;stroke-width:1.06697798;stroke-linecap:butt;stroke-linejoin:round;stroke-miterlimit:10;stroke-opacity:1" />
    </g>
    <g
       style="clip-rule:nonzero"
       id="g166"
       clip-path="url(#clip5)"
       transform="matrix(1.25,0,0,1.25,751.38399,194.80549)">
      <path
         inkscape:connector-curvature="0"
         id="path168"
         d="m 98.835938,303.46875 0,-297.492188"
         style="fill:none;stroke:#fafafa;stroke-width:1.06697798;stroke-linecap:butt;stroke-linejoin:round;stroke-miterlimit:10;stroke-opacity:1" />
    </g>
    <g
       style="clip-rule:nonzero"
       id="g170"
       clip-path="url(#clip6)"
       transform="matrix(1.25,0,0,1.25,751.38399,194.80549)">
      <path
         inkscape:connector-curvature="0"
         id="path172"
         d="m 239.70703,303.46875 0,-297.492188"
         style="fill:none;stroke:#fafafa;stroke-width:1.06697798;stroke-linecap:butt;stroke-linejoin:round;stroke-miterlimit:10;stroke-opacity:1" />
    </g>
    <g
       style="clip-rule:nonzero"
       id="g174"
       clip-path="url(#clip7)"
       transform="matrix(1.25,0,0,1.25,751.38399,194.80549)">
      <path
         inkscape:connector-curvature="0"
         id="path176"
         d="m 380.57422,303.46875 0,-297.492188"
         style="fill:none;stroke:#fafafa;stroke-width:1.06697798;stroke-linecap:butt;stroke-linejoin:round;stroke-miterlimit:10;stroke-opacity:1" />
    </g>
    <g
       style="clip-rule:nonzero"
       id="g178"
       clip-path="url(#clip8)"
       transform="matrix(1.25,0,0,1.25,751.38399,194.80549)">
      <path
         inkscape:connector-curvature="0"
         id="path180"
         d="m 521.44531,303.46875 0,-297.492188"
         style="fill:none;stroke:#fafafa;stroke-width:1.06697798;stroke-linecap:butt;stroke-linejoin:round;stroke-miterlimit:10;stroke-opacity:1" />
    </g>
    <g
       style="clip-rule:nonzero"
       id="g182"
       clip-path="url(#clip9)"
       transform="matrix(1.25,0,0,1.25,751.38399,194.80549)">
      <path
         inkscape:connector-curvature="0"
         id="path184"
         d="m 39.53125,289.94531 520.49219,0"
         style="fill:none;stroke:#e3e3e3;stroke-width:0.42679101;stroke-linecap:butt;stroke-linejoin:round;stroke-miterlimit:10;stroke-opacity:1" />
    </g>
    <g
       style="clip-rule:nonzero"
       id="g186"
       clip-path="url(#clip10)"
       transform="matrix(1.25,0,0,1.25,751.38399,194.80549)">
      <path
         inkscape:connector-curvature="0"
         id="path188"
         d="m 39.53125,196.69141 520.49219,0"
         style="fill:none;stroke:#e3e3e3;stroke-width:0.42679101;stroke-linecap:butt;stroke-linejoin:round;stroke-miterlimit:10;stroke-opacity:1" />
    </g>
    <g
       style="clip-rule:nonzero"
       id="g190"
       clip-path="url(#clip11)"
       transform="matrix(1.25,0,0,1.25,751.38399,194.80549)">
      <path
         inkscape:connector-curvature="0"
         id="path192"
         d="m 39.53125,103.43359 520.49219,0"
         style="fill:none;stroke:#e3e3e3;stroke-width:0.42679101;stroke-linecap:butt;stroke-linejoin:round;stroke-miterlimit:10;stroke-opacity:1" />
    </g>
    <g
       style="clip-rule:nonzero"
       id="g194"
       clip-path="url(#clip12)"
       transform="matrix(1.25,0,0,1.25,751.38399,194.80549)">
      <path
         inkscape:connector-curvature="0"
         id="path196"
         d="m 39.53125,10.175781 520.49219,0"
         style="fill:none;stroke:#e3e3e3;stroke-width:0.42679101;stroke-linecap:butt;stroke-linejoin:round;stroke-miterlimit:10;stroke-opacity:1" />
    </g>
    <g
       style="clip-rule:nonzero"
       id="g198"
       clip-path="url(#clip13)"
       transform="matrix(1.25,0,0,1.25,751.38399,194.80549)">
      <path
         inkscape:connector-curvature="0"
         id="path200"
         d="m 169.26953,303.46875 0,-297.492188"
         style="fill:none;stroke:#e3e3e3;stroke-width:0.42679101;stroke-linecap:butt;stroke-linejoin:round;stroke-miterlimit:10;stroke-opacity:1" />
    </g>
    <g
       style="clip-rule:nonzero"
       id="g202"
       clip-path="url(#clip14)"
       transform="matrix(1.25,0,0,1.25,751.38399,194.80549)">
      <path
         inkscape:connector-curvature="0"
         id="path204"
         d="m 310.14062,303.46875 0,-297.492188"
         style="fill:none;stroke:#e3e3e3;stroke-width:0.42679101;stroke-linecap:butt;stroke-linejoin:round;stroke-miterlimit:10;stroke-opacity:1" />
    </g>
    <g
       style="clip-rule:nonzero"
       id="g206"
       clip-path="url(#clip15)"
       transform="matrix(1.25,0,0,1.25,751.38399,194.80549)">
      <path
         inkscape:connector-curvature="0"
         id="path208"
         d="m 451.01172,303.46875 0,-297.492188"
         style="fill:none;stroke:#e3e3e3;stroke-width:0.42679101;stroke-linecap:butt;stroke-linejoin:round;stroke-miterlimit:10;stroke-opacity:1" />
    </g>
    <path
       inkscape:connector-curvature="0"
       id="path210"
       d="m 830.36837,557.23713 39.43359,0 0,-151.54297 -39.43359,0 z m 0,0"
       style="fill:#de8787;fill-opacity:1;fill-rule:nonzero;stroke:#ffffff;stroke-width:1.33372247;stroke-linecap:butt;stroke-linejoin:round;stroke-miterlimit:10;stroke-opacity:1" />
    <path
       inkscape:connector-curvature="0"
       id="path212"
       d="m 869.80196,557.23713 39.43359,0 0,-116.57227 -39.43359,0 z m 0,0"
       style="fill:#de8787;fill-opacity:1;fill-rule:nonzero;stroke:#ffffff;stroke-width:1.33372247;stroke-linecap:butt;stroke-linejoin:round;stroke-miterlimit:10;stroke-opacity:1" />
    <path
       inkscape:connector-curvature="0"
       id="path214"
       d="m 909.23067,557.23713 39.43359,0 0,-256.45996 -39.43359,0 z m 0,0"
       style="fill:#de8787;fill-opacity:1;fill-rule:nonzero;stroke:#ffffff;stroke-width:1.33372247;stroke-linecap:butt;stroke-linejoin:round;stroke-miterlimit:10;stroke-opacity:1" />
    <path
       inkscape:connector-curvature="0"
       id="path216"
       d="m 948.66426,557.23713 39.43359,0 0,-104.91699 -39.43359,0 z m 0,0"
       style="fill:#de8787;fill-opacity:1;fill-rule:nonzero;stroke:#ffffff;stroke-width:1.33372247;stroke-linecap:butt;stroke-linejoin:round;stroke-miterlimit:10;stroke-opacity:1" />
    <path
       inkscape:connector-curvature="0"
       id="path218"
       d="m 988.09298,557.23713 39.43362,0 0,-11.65528 -39.43362,0 z m 0,0"
       style="fill:#de8787;fill-opacity:1;fill-rule:nonzero;stroke:#ffffff;stroke-width:1.33372247;stroke-linecap:butt;stroke-linejoin:round;stroke-miterlimit:10;stroke-opacity:1" />
    <path
       inkscape:connector-curvature="0"
       id="path220"
       d="m 1027.5266,557.23713 39.4336,0 0,-46.63087 -39.4336,0 z m 0,0"
       style="fill:#de8787;fill-opacity:1;fill-rule:nonzero;stroke:#ffffff;stroke-width:1.33372247;stroke-linecap:butt;stroke-linejoin:round;stroke-miterlimit:10;stroke-opacity:1" />
    <path
       inkscape:connector-curvature="0"
       id="path222"
       d="m 1066.9602,557.23713 39.4336,0 z m 0,0"
       style="fill:none;stroke:#ffffff;stroke-width:1.33372247;stroke-linecap:butt;stroke-linejoin:round;stroke-miterlimit:10;stroke-opacity:1" />
    <path
       inkscape:connector-curvature="0"
       id="path224"
       d="m 1106.3889,557.23713 39.4336,0 z m 0,0"
       style="fill:none;stroke:#ffffff;stroke-width:1.33372247;stroke-linecap:butt;stroke-linejoin:round;stroke-miterlimit:10;stroke-opacity:1" />
    <path
       inkscape:connector-curvature="0"
       id="path226"
       d="m 1145.8225,557.23713 39.4336,0 z m 0,0"
       style="fill:none;stroke:#ffffff;stroke-width:1.33372247;stroke-linecap:butt;stroke-linejoin:round;stroke-miterlimit:10;stroke-opacity:1" />
    <path
       inkscape:connector-curvature="0"
       id="path228"
       d="m 1185.2512,557.23713 39.4336,0 0,-23.31543 -39.4336,0 z m 0,0"
       style="fill:#782121;fill-opacity:1;fill-rule:nonzero;stroke:#ffffff;stroke-width:1.33372247;stroke-linecap:butt;stroke-linejoin:round;stroke-miterlimit:10;stroke-opacity:1" />
    <path
       inkscape:connector-curvature="0"
       id="path230"
       d="m 1224.6848,557.23713 39.4336,0 0,-338.05664 -39.4336,0 z m 0,0"
       style="fill:#782121;fill-opacity:1;fill-rule:nonzero;stroke:#ffffff;stroke-width:1.33372247;stroke-linecap:butt;stroke-linejoin:round;stroke-miterlimit:10;stroke-opacity:1" />
    <path
       inkscape:connector-curvature="0"
       id="path232"
       d="m 1264.1135,557.23713 39.4336,0 0,-291.43066 -39.4336,0 z m 0,0"
       style="fill:#782121;fill-opacity:1;fill-rule:nonzero;stroke:#ffffff;stroke-width:1.33372247;stroke-linecap:butt;stroke-linejoin:round;stroke-miterlimit:10;stroke-opacity:1" />
    <path
       inkscape:connector-curvature="0"
       id="path234"
       d="m 1303.5471,557.23713 39.4336,0 0,-81.60156 -39.4336,0 z m 0,0"
       style="fill:#782121;fill-opacity:1;fill-rule:nonzero;stroke:#ffffff;stroke-width:1.33372247;stroke-linecap:butt;stroke-linejoin:round;stroke-miterlimit:10;stroke-opacity:1" />
    <path
       inkscape:connector-curvature="0"
       id="path236"
       d="m 1342.9758,557.23713 39.4336,0 0,-34.9707 -39.4336,0 z m 0,0"
       style="fill:#782121;fill-opacity:1;fill-rule:nonzero;stroke:#ffffff;stroke-width:1.33372247;stroke-linecap:butt;stroke-linejoin:round;stroke-miterlimit:10;stroke-opacity:1" />
    <path
       inkscape:connector-curvature="0"
       id="path238"
       d="m 1382.4094,557.23713 39.4336,0 0,-11.65528 -39.4336,0 z m 0,0"
       style="fill:#782121;fill-opacity:1;fill-rule:nonzero;stroke:#ffffff;stroke-width:1.33372247;stroke-linecap:butt;stroke-linejoin:round;stroke-miterlimit:10;stroke-opacity:1" />
    <g
       style="clip-rule:nonzero;stroke:#4d4d4d;stroke-width:2.4000001;stroke-miterlimit:10;stroke-dasharray:none"
       id="g240"
       clip-path="url(#clip16)"
       transform="matrix(1.25,0,0,1.25,751.38399,194.80549)">
      <path
         inkscape:connector-curvature="0"
         id="path242"
         d="m 39.53125,303.46875 520.49219,0 0,-297.492188 -520.49219,0 z m 0,0"
         style="fill:none;stroke:#4d4d4d;stroke-width:2.4000001;stroke-linecap:round;stroke-linejoin:round;stroke-miterlimit:10;stroke-dasharray:none;stroke-opacity:1" />
    </g>
    <path
       inkscape:connector-curvature="0"
       id="path266"
       d="m 797.0627,557.23713 3.73535,0"
       style="fill:none;stroke:#000000;stroke-width:1.33372247;stroke-linecap:butt;stroke-linejoin:round;stroke-miterlimit:10;stroke-opacity:1" />
    <path
       inkscape:connector-curvature="0"
       id="path268"
       d="m 797.0627,440.66975 3.73535,0"
       style="fill:none;stroke:#000000;stroke-width:1.33372247;stroke-linecap:butt;stroke-linejoin:round;stroke-miterlimit:10;stroke-opacity:1" />
    <path
       inkscape:connector-curvature="0"
       id="path270"
       d="m 797.0627,324.09748 3.73535,0"
       style="fill:none;stroke:#000000;stroke-width:1.33372247;stroke-linecap:butt;stroke-linejoin:round;stroke-miterlimit:10;stroke-opacity:1" />
    <path
       inkscape:connector-curvature="0"
       id="path272"
       d="m 797.0627,207.52522 3.73535,0"
       style="fill:none;stroke:#000000;stroke-width:1.33372247;stroke-linecap:butt;stroke-linejoin:round;stroke-miterlimit:10;stroke-opacity:1" />
    <path
       inkscape:connector-curvature="0"
       id="path274"
       d="m 962.9709,577.87678 0,-3.73535"
       style="fill:none;stroke:#000000;stroke-width:1.33372247;stroke-linecap:butt;stroke-linejoin:round;stroke-miterlimit:10;stroke-opacity:1" />
    <path
       inkscape:connector-curvature="0"
       id="path276"
       d="m 1139.0598,577.87678 0,-3.73535"
       style="fill:none;stroke:#000000;stroke-width:1.33372247;stroke-linecap:butt;stroke-linejoin:round;stroke-miterlimit:10;stroke-opacity:1" />
    <path
       inkscape:connector-curvature="0"
       id="path278"
       d="m 1315.1486,577.87678 0,-3.73535"
       style="fill:none;stroke:#000000;stroke-width:1.33372247;stroke-linecap:butt;stroke-linejoin:round;stroke-miterlimit:10;stroke-opacity:1" />
    <flowRoot
       xml:space="preserve"
       id="flowRoot5949"
       style="font-style:normal;font-variant:normal;font-weight:normal;font-stretch:normal;line-height:0.01%;font-family:Ubuntu;-inkscape-font-specification:'Ubuntu, Normal';text-align:center;letter-spacing:0px;word-spacing:0px;writing-mode:lr-tb;text-anchor:middle;fill:#333333;fill-opacity:1;stroke:none;stroke-width:1px;stroke-linecap:butt;stroke-linejoin:miter;stroke-opacity:1;"
       transform="translate(-31.142857,-61.909578)"><flowRegion
         id="flowRegion5951"
         style="fill:#333333;"><rect
           id="rect5953"
           width="274.28571"
           height="110"
           x="857.14288"
           y="639.50507"
           style="text-align:center;text-anchor:middle;fill:#333333;" /></flowRegion><flowPara
         id="flowPara5955"
         style="font-size:20px;line-height:1.25;fill:#333333;">80</flowPara></flowRoot>    <flowRoot
       xml:space="preserve"
       id="flowRoot5949-0"
       style="font-style:normal;font-variant:normal;font-weight:normal;font-stretch:normal;line-height:0.01%;font-family:Ubuntu;-inkscape-font-specification:'Ubuntu, Normal';text-align:center;letter-spacing:0px;word-spacing:0px;writing-mode:lr-tb;text-anchor:middle;fill:#333333;fill-opacity:1;stroke:none;stroke-width:1px;stroke-linecap:butt;stroke-linejoin:miter;stroke-opacity:1;"
       transform="translate(144.82238,-61.909578)"><flowRegion
         id="flowRegion5951-6"
         style="fill:#333333;"><rect
           id="rect5953-2"
           width="274.28571"
           height="110"
           x="857.14288"
           y="639.50507"
           style="text-align:center;text-anchor:middle;fill:#333333;" /></flowRegion><flowPara
         id="flowPara5955-6"
         style="font-size:20px;line-height:1.25;fill:#333333;">100</flowPara></flowRoot>    <flowRoot
       xml:space="preserve"
       id="flowRoot5949-1"
       style="font-style:normal;font-variant:normal;font-weight:normal;font-stretch:normal;line-height:0.01%;font-family:Ubuntu;-inkscape-font-specification:'Ubuntu, Normal';text-align:center;letter-spacing:0px;word-spacing:0px;writing-mode:lr-tb;text-anchor:middle;fill:#333333;fill-opacity:1;stroke:none;stroke-width:1px;stroke-linecap:butt;stroke-linejoin:miter;stroke-opacity:1;"
       transform="translate(320.65922,-61.909578)"><flowRegion
         id="flowRegion5951-8"
         style="fill:#333333;"><rect
           id="rect5953-7"
           width="274.28571"
           height="110"
           x="857.14288"
           y="639.50507"
           style="text-align:center;text-anchor:middle;fill:#333333;" /></flowRegion><flowPara
         id="flowPara5955-9"
         style="font-size:20px;line-height:1.25;fill:#333333;">120</flowPara></flowRoot>    <flowRoot
       xml:space="preserve"
       id="flowRoot5949-2"
       style="font-style:normal;font-variant:normal;font-weight:normal;font-stretch:normal;line-height:0.01%;font-family:Ubuntu;-inkscape-font-specification:'Ubuntu, Normal';text-align:end;letter-spacing:0px;word-spacing:0px;writing-mode:lr-tb;text-anchor:end;fill:#333333;fill-opacity:1;stroke:none;stroke-width:1px;stroke-linecap:butt;stroke-linejoin:miter;stroke-opacity:1;"
       transform="translate(-340.42773,-96.339301)"><flowRegion
         id="flowRegion5951-0"
         style="fill:#333333;"><rect
           id="rect5953-23"
           width="274.28571"
           height="110"
           x="857.14288"
           y="639.50507"
           style="text-align:end;text-anchor:end;fill:#333333;" /></flowRegion><flowPara
         id="flowPara5955-7"
         style="font-size:20px;line-height:1.25;fill:#333333;">0</flowPara></flowRoot>    <flowRoot
       xml:space="preserve"
       id="flowRoot5949-2-5"
       style="font-style:normal;font-variant:normal;font-weight:normal;font-stretch:normal;line-height:0.01%;font-family:Ubuntu;-inkscape-font-specification:'Ubuntu, Normal';text-align:end;letter-spacing:0px;word-spacing:0px;writing-mode:lr-tb;text-anchor:end;fill:#333333;fill-opacity:1;stroke:none;stroke-width:1px;stroke-linecap:butt;stroke-linejoin:miter;stroke-opacity:1;"
       transform="translate(-340.42773,-210.62502)"><flowRegion
         id="flowRegion5951-0-9"
         style="fill:#333333;"><rect
           id="rect5953-23-2"
           width="274.28571"
           height="110"
           x="857.14288"
           y="639.50507"
           style="text-align:end;text-anchor:end;fill:#333333;" /></flowRegion><flowPara
         id="flowPara5955-7-2"
         style="font-size:20px;line-height:1.25;fill:#333333;">10</flowPara></flowRoot>    <flowRoot
       xml:space="preserve"
       id="flowRoot5949-2-8"
       style="font-style:normal;font-variant:normal;font-weight:normal;font-stretch:normal;line-height:0.01%;font-family:Ubuntu;-inkscape-font-specification:'Ubuntu, Normal';text-align:end;letter-spacing:0px;word-spacing:0px;writing-mode:lr-tb;text-anchor:end;fill:#333333;fill-opacity:1;stroke:none;stroke-width:1px;stroke-linecap:butt;stroke-linejoin:miter;stroke-opacity:1;"
       transform="translate(-340.42773,-327.76787)"><flowRegion
         id="flowRegion5951-0-97"
         style="fill:#333333;"><rect
           id="rect5953-23-3"
           width="274.28571"
           height="110"
           x="857.14288"
           y="639.50507"
           style="text-align:end;text-anchor:end;fill:#333333;" /></flowRegion><flowPara
         id="flowPara5955-7-6"
         style="font-size:20px;line-height:1.25;fill:#333333;">20</flowPara></flowRoot>    <flowRoot
       xml:space="preserve"
       id="flowRoot5949-2-1"
       style="font-style:normal;font-variant:normal;font-weight:normal;font-stretch:normal;line-height:0.01%;font-family:Ubuntu;-inkscape-font-specification:'Ubuntu, Normal';text-align:end;letter-spacing:0px;word-spacing:0px;writing-mode:lr-tb;text-anchor:end;fill:#333333;fill-opacity:1;stroke:none;stroke-width:1px;stroke-linecap:butt;stroke-linejoin:miter;stroke-opacity:1;"
       transform="translate(-340.42773,-444.91073)"><flowRegion
         id="flowRegion5951-0-2"
         style="fill:#333333;"><rect
           id="rect5953-23-9"
           width="274.28571"
           height="110"
           x="857.14288"
           y="639.50507"
           style="text-align:end;text-anchor:end;fill:#333333;" /></flowRegion><flowPara
         id="flowPara5955-7-3"
         style="font-size:20px;line-height:1.25;fill:#333333;">30</flowPara></flowRoot>    <flowRoot
       xml:space="preserve"
       id="flowRoot6069"
       style="font-style:normal;font-variant:normal;font-weight:normal;font-stretch:normal;line-height:0.01%;font-family:Ubuntu;-inkscape-font-specification:'Ubuntu, Normal';text-align:start;letter-spacing:0px;word-spacing:0px;writing-mode:lr-tb;text-anchor:start;fill:#333333;fill-opacity:1;stroke:none;stroke-width:1px;stroke-linecap:butt;stroke-linejoin:miter;stroke-opacity:1;"
       transform="translate(146,-6)"><flowRegion
         id="flowRegion6071"
         style="fill:#333333;"><rect
           id="rect6073"
           width="742.85712"
           height="115.05885"
           x="820"
           y="605.87476"
           style="fill:#333333;" /></flowRegion><flowPara
         id="flowPara6075"
         style="font-style:normal;font-variant:normal;font-weight:500;font-stretch:normal;font-size:20px;line-height:1.25;font-family:Ubuntu;-inkscape-font-specification:'Ubuntu Medium';fill:#333333;">Accessibilité potentielle à l'emploi (%)</flowPara></flowRoot>    <flowRoot
       transform="rotate(-90,701.6653,572.8188)"
       xml:space="preserve"
       id="flowRoot6069-1"
       style="font-style:normal;font-variant:normal;font-weight:normal;font-stretch:normal;line-height:0.01%;font-family:Ubuntu;-inkscape-font-specification:'Ubuntu, Normal';text-align:start;letter-spacing:0px;word-spacing:0px;writing-mode:lr-tb;text-anchor:start;fill:#333333;fill-opacity:1;stroke:none;stroke-width:1px;stroke-linecap:butt;stroke-linejoin:miter;stroke-opacity:1;"><flowRegion
         id="flowRegion6071-9"
         style="fill:#333333;"><rect
           id="rect6073-4"
           width="742.85712"
           height="115.05885"
           x="820"
           y="605.87476"
           style="fill:#333333;" /></flowRegion><flowPara
         id="flowPara6075-7"
         style="font-style:normal;font-variant:normal;font-weight:500;font-stretch:normal;font-size:20px;line-height:1.25;font-family:Ubuntu;-inkscape-font-specification:'Ubuntu Medium';fill:#333333;">Fréquence (n = 126)</flowPara></flowRoot>    <flowRoot
       xml:space="preserve"
       id="flowRoot6069-8"
       style="font-style:normal;font-variant:normal;font-weight:normal;font-stretch:normal;line-height:0.01%;font-family:Ubuntu;-inkscape-font-specification:'Ubuntu, Normal';text-align:start;letter-spacing:0px;word-spacing:0px;writing-mode:lr-tb;text-anchor:start;fill:#ffffff;fill-opacity:1;stroke:none;stroke-width:1px;stroke-linecap:butt;stroke-linejoin:miter;stroke-opacity:1"
       transform="translate(-472.58453,-568.25773)"><flowRegion
         id="flowRegion6071-4"><rect
           id="rect6073-5"
           width="1039.0845"
           height="136.62018"
           x="820"
           y="605.87476"
           style="fill:#ffffff" /></flowRegion><flowPara
         id="flowPara6075-0"
         style="font-style:normal;font-variant:normal;font-weight:500;font-stretch:normal;font-size:25px;line-height:1.25;font-family:Ubuntu;-inkscape-font-specification:'Ubuntu Medium';fill:#ffffff">Répartition des actifs et des emplois dans le bassin de vie de Toulouse (2012)</flowPara></flowRoot>    <rect
       style="opacity:1;fill:none;fill-opacity:1;stroke:#333333;stroke-width:2;stroke-linecap:round;stroke-miterlimit:4;stroke-dasharray:none;stroke-dashoffset:0;stroke-opacity:1"
       id="rect6163"
       width="1338"
       height="698.5"
       x="121"
       y="33.362206" />
    <flowRoot
       xml:space="preserve"
       id="flowRoot5949-3"
       style="font-style:normal;font-variant:normal;font-weight:normal;font-stretch:normal;line-height:0.01%;font-family:Ubuntu;-inkscape-font-specification:'Ubuntu, Normal';text-align:end;letter-spacing:0px;word-spacing:0px;writing-mode:lr-tb;text-anchor:end;fill:#333333;fill-opacity:1;stroke:none;stroke-width:1px;stroke-linecap:butt;stroke-linejoin:miter;stroke-opacity:1;"
       transform="translate(-203.14258,45.112655)"><flowRegion
         id="flowRegion5951-61"
         style="fill:#333333;"><rect
           id="rect5953-0"
           width="794"
           height="46.766716"
           x="857.14288"
           y="639.50507"
           style="text-align:end;text-anchor:end;fill:#333333;" /></flowRegion><flowPara
         id="flowPara5955-63"
         style="font-style:italic;font-variant:normal;font-weight:normal;font-stretch:normal;font-size:17.5px;line-height:1.25;font-family:Ubuntu;-inkscape-font-specification:'Ubuntu Italic';text-align:end;text-anchor:end;fill:#333333;">Définition : rapport entre nbr. d'emplois et nbr. d'actifs avec accès en 45 mn de trajet route</flowPara></flowRoot>    <flowRoot
       xml:space="preserve"
       id="flowRoot5949-3-2"
       style="font-style:normal;font-variant:normal;font-weight:normal;font-stretch:normal;line-height:0.01%;font-family:Ubuntu;-inkscape-font-specification:'Ubuntu, Normal';text-align:end;letter-spacing:0px;word-spacing:0px;writing-mode:lr-tb;text-anchor:end;fill:#333333;fill-opacity:1;stroke:none;stroke-width:1px;stroke-linecap:butt;stroke-linejoin:miter;stroke-opacity:1;"
       transform="translate(-203.14258,65.112655)"><flowRegion
         id="flowRegion5951-61-0"
         style="fill:#333333;"><rect
           id="rect5953-0-6"
           width="794"
           height="46.766716"
           x="857.14288"
           y="639.50507"
           style="text-align:end;text-anchor:end;fill:#333333;" /></flowRegion><flowPara
         id="flowPara5955-63-1"
         style="font-style:italic;font-variant:normal;font-weight:normal;font-stretch:normal;font-size:17.5px;line-height:1.25;font-family:Ubuntu;-inkscape-font-specification:'Ubuntu Italic';text-align:end;text-anchor:end;fill:#333333;">Source : Géoclip, France Découverte</flowPara></flowRoot>  </g>
</svg>
