<?xml version="1.0" encoding="UTF-8" standalone="no"?>
<!-- Created with Inkscape (http://www.inkscape.org/) -->

<svg
   xmlns:dc="http://purl.org/dc/elements/1.1/"
   xmlns:cc="http://creativecommons.org/ns#"
   xmlns:rdf="http://www.w3.org/1999/02/22-rdf-syntax-ns#"
   xmlns:svg="http://www.w3.org/2000/svg"
   xmlns="http://www.w3.org/2000/svg"
   xmlns:xlink="http://www.w3.org/1999/xlink"
   xmlns:sodipodi="http://sodipodi.sourceforge.net/DTD/sodipodi-0.dtd"
   xmlns:inkscape="http://www.inkscape.org/namespaces/inkscape"
   width="744.09448819"
   height="1052.3622047"
   id="svg2"
   version="1.1"
   inkscape:version="0.92.2 (5c3e80d, 2017-08-06)"
   sodipodi:docname="Binwidth.svg"
   inkscape:export-filename="/home/hc/Documents/UP1/COURS/L2_Statistique/CM/CM3/IMAGE/Binwidth.png"
   inkscape:export-xdpi="300"
   inkscape:export-ydpi="300">
  <defs
     id="defs4">
    <marker
       inkscape:stockid="Arrow1Mend"
       orient="auto"
       refY="0.0"
       refX="0.0"
       id="Arrow1Mend"
       style="overflow:visible;">
      <path
         id="path4107"
         d="M 0.0,0.0 L 5.0,-5.0 L -12.5,0.0 L 5.0,5.0 L 0.0,0.0 z "
         style="fill-rule:evenodd;stroke:#000000;stroke-width:1.0pt;"
         transform="scale(0.4) rotate(180) translate(10,0)" />
    </marker>
    <marker
       inkscape:stockid="Arrow1Lend"
       orient="auto"
       refY="0.0"
       refX="0.0"
       id="Arrow1Lend"
       style="overflow:visible;">
      <path
         id="path4101"
         d="M 0.0,0.0 L 5.0,-5.0 L -12.5,0.0 L 5.0,5.0 L 0.0,0.0 z "
         style="fill-rule:evenodd;stroke:#000000;stroke-width:1.0pt;"
         transform="scale(0.8) rotate(180) translate(12.5,0)" />
    </marker>
    <marker
       inkscape:stockid="Arrow1Mend"
       orient="auto"
       refY="0"
       refX="0"
       id="Arrow1Mend-7"
       style="overflow:visible">
      <path
         inkscape:connector-curvature="0"
         id="path4107-0"
         d="M 0,0 5,-5 -12.5,0 5,5 0,0 z"
         style="fill-rule:evenodd;stroke:#000000;stroke-width:1pt"
         transform="matrix(-0.4,0,0,-0.4,-4,0)" />
    </marker>
    <marker
       inkscape:stockid="Arrow1Mend"
       orient="auto"
       refY="0"
       refX="0"
       id="Arrow1Mend-4"
       style="overflow:visible">
      <path
         inkscape:connector-curvature="0"
         id="path4107-2"
         d="M 0,0 5,-5 -12.5,0 5,5 0,0 z"
         style="fill-rule:evenodd;stroke:#000000;stroke-width:1pt"
         transform="matrix(-0.4,0,0,-0.4,-4,0)" />
    </marker>
    <marker
       inkscape:stockid="Arrow1Mend"
       orient="auto"
       refY="0"
       refX="0"
       id="marker3457"
       style="overflow:visible">
      <path
         inkscape:connector-curvature="0"
         id="path3459"
         d="M 0,0 5,-5 -12.5,0 5,5 0,0 z"
         style="fill-rule:evenodd;stroke:#000000;stroke-width:1pt"
         transform="matrix(-0.4,0,0,-0.4,-4,0)" />
    </marker>
  </defs>
  <sodipodi:namedview
     id="base"
     pagecolor="#ffffff"
     bordercolor="#666666"
     borderopacity="1.0"
     inkscape:pageopacity="0.0"
     inkscape:pageshadow="2"
     inkscape:zoom="0.98994949"
     inkscape:cx="406.41176"
     inkscape:cy="929.65346"
     inkscape:document-units="px"
     inkscape:current-layer="layer1"
     showgrid="true"
     inkscape:snap-bbox="false"
     showguides="true"
     inkscape:guide-bbox="true"
     inkscape:snap-global="true"
     inkscape:snap-center="false"
     inkscape:window-width="1920"
     inkscape:window-height="1031"
     inkscape:window-x="0"
     inkscape:window-y="25"
     inkscape:window-maximized="1">
    <inkscape:grid
       type="xygrid"
       id="grid2985"
       empspacing="10"
       visible="true"
       enabled="true"
       snapvisiblegridlinesonly="true"
       dotted="true" />
    <sodipodi:guide
       orientation="0,1"
       position="537.90623,886.40886"
       id="guide3022"
       inkscape:locked="false" />
    <sodipodi:guide
       orientation="0,1"
       position="280,1100"
       id="guide3275"
       inkscape:locked="false" />
  </sodipodi:namedview>
  <metadata
     id="metadata7">
    <rdf:RDF>
      <cc:Work
         rdf:about="">
        <dc:format>image/svg+xml</dc:format>
        <dc:type
           rdf:resource="http://purl.org/dc/dcmitype/StillImage" />
        <dc:title />
      </cc:Work>
    </rdf:RDF>
  </metadata>
  <g
     inkscape:label="Layer 1"
     inkscape:groupmode="layer"
     id="layer1">
    <image
       y="3.4336123"
       x="37.071438"
       id="image3491"
       xlink:href="data:image/png;base64,iVBORw0KGgoAAAANSUhEUgAAARsAAAFFCAIAAABTy97xAAAAA3NCSVQICAjb4U/gAAAgAElEQVR4 nO3deVwT1/o/8AlZWBUBISC7qAWxcL2ipS4UKl5p3eptrVpq9bq9EGkpdbeKVevrYhWXKnpbrLVe 13ptq1KXgogW+7K4VCiCotUgS1FcAFGBhMzvj/maX5qEkDmcAYKf91/DyZyZZyZ5SGY7j4hlWQYA KLFo6wAAOhRkFABNyCgAmpBRADQhowBoQkYB0ISMAqAJGQVAEzIKgCZkFABNyCgAmpBRADQhowBo QkYB0ISMAqAJGQVAEzIKgCZkFABNkrYOgI5jx46pVCqDL7EsKxKJ+C6QGyyAoKNKpZJISPaqWq22 sOD9D45lWbVaLRaLCToSbB3Tgg0kW2NjY6OFhQVBR7L9yXW8c+fOq6++2qNHD4LuHSSjpFLpa6+9 pt/OsmxjYyPBJ6CxsZFhGIJP6uPHj21tbfn2YllWpVJJpVK+HRsbG5VKpZWVFd+OKpXKwsKC4DNH toFqtVqtVhO8EXV1dVKplOCNUCqVEomEbypyH5g9e/Y0NDTwXSMHv/oAaEJGAdCEjAKgqYMcRzHP ziUYbCQbk5BlWYKOxL0YojjZZ/h2ZJ6PDWyFLjo6SEZxB5R8XzK+QObZ+QlakTSLoCN3xE8WJ3Fu tOb+JNs6TV+CXsQJzOkgGSUSiQyeR2r9c30WFhYEq+PO9ZHFSXYOjfhcH9kGEp/r43YL2bk+sVhM dq6P7LoCB8dRADQhowBoQkYB0ISMMntk9wSBQPBmmDeRSFRRUZGfn2/KzN27d+/Zs6fQIT3nkFFm r6CgICUlxZQ5Fy1apMkofLMJBLv1OWJra5uZmblv3z5TZh47dqzBm4/BOGTU8+XJkycVFRWmzFlb Wyt0MB0SzkwA0ISMAqAJGQVAEzIKgCZkFABNyCgAmpBRADQhowBoQkYB0ISMAqAJGQVAEzIKgCZk FABNvO89f/LkSU5OTnl5eVVVVZcuXdzc3AYMGEAwEDZAh2RqRqnV6iNHjmzevPnMmTNKpdLe3t7e 3r6mpqa6ulosFoeFhcXGxo4ZM4ZgFCiAjsSkX325ubkDBgz417/+1adPn+PHj9fW1j58+FChUDx4 8ODRo0c//fRTcHDwjBkz+vXrd+HCBaEjBmjPTMqo/Pz8wYMHFxcXr1+/PiIiwsbGRvOSjY1NeHh4 cnLy7du3hw0blpubK1ioAGbApF990dHR0dHRmj/v3r17584dhmHkcrmLiwvXaGtru2bNGiFCBDAj PM71sSy7efNmPz8/uVweFBQUFBQkl8v9/PxMHDYE4HnA41xfYmLiZ599FhsbGxkZKZfLGYapqKjI yMhISEi4c+fOihUrBAsSwGzwyKgtW7Z8+eWXkydP1m4cOXJkcHDw/PnzkVEADK9ffSqVyuB1Jzs7 O6VSqdP48OHDV1991cnJycvLa+vWrVzjiRMnfH19nZ2dlyxZ0pIWgHaLx3fUu+++O2PGjNu3bw8d OtTZ2ZlhmLt372ZkZKxcuXLSpEk6Mzs4OGzatCkwMLCwsDAoKCg6OtrKymry5MkHDhwIDg7u16/f 0KFDBw0aRNASERFBcwcAUMUjozZs2NCpU6fly5fPmTNH09i5c+dZs2atXLlSf/7AwECGYe7du+fi 4mJpaZmVleXu7j5kyBCGYaKjo/fv369UKglakFHQnvHIKKlUmpSUtHLlyoKCAs3Z8969e0ul0qa6 eHh4lJWVbd++3dLSsqSkxNvbm2v38fHJyckha9EsPDk5WaVScdNubm4GK+GxLEtWJK8ldfXISgC2 pJifQLiodBrJ4lSr1WTFEYl3C9eRoCIbFyrBGjm87+uTSqVubm5cbTy5XG4knRiGKS0tzcnJ4c5e EIfYlFu3bmmO3xwcHDTZpY14B3GfJLKOBiMxjrjWKEGRQtMZ3BbiDSR7I7isIOioUqlYlm3XGcWy bEpKyvr162/evKlp7N69+0cffTR79uymeg0YMCAiIuLnn38OCAgoLi7mGhUKhZeXl6enJ0GLZsmb N2/WTGdkZFhaWhqMuZWrhqpUKoORGMdVDTX+78kgslKzJhKLxfp7gGwDiauGsiwrlUqJy7eSVQ1t yf8pHj0TExPnzJkzevTotLS08+fPnz9//siRI6NGjUpISEhMTNSZ+cGDB6WlpQzD3Lp16+zZs337 9g0PDy8rK8vOzq6pqdm9e/f48ePJWog3FaAVCHU96tq1a5MmTaqsrHR2dl64cGFYWBjDMDt27Jg0 aVJtbe3MmTO5EwxkLQDtFo+M4nU96uWXX75x44ZOY1RU1K1bt1reAtBuCXU9CuD5JOD1KIDnkLDX owCeN8JejwJ43uD5KACa8HwUAE14PgqAJqGejwJ4PuF6FABNuB4FQBOuRwHQRHI9SoiHnQA6BtTm AKAJGQVAE+9ffUwTozQDAIO7kADowl1IADThLiQAmnAXEgBNuAsJgCbchQRAE+5CAqAJT8UD0ITr UQA04XoUAE24HgVAE65HAdCE61EANOF6FABNHeR6lJEagWTlA7kqd61W5ZJ4dYKiWDWUZdlWrhrK PKuPSNCxtauGtsOn4kUiUVP7zshLRnD7lKAj2eq4NRLHKRz9kFp5A0XPEKyRoGPL9yfJE4ftk8FK j9wOIigCSdxRJBKRrU6tVhN0FLRqqMFPJNkGqtVqso5cL4KOXPFPsqqhZAnM4ZFR+fn5Rl7t06cP cRAAHQaPjAoJCamvr2/qVaF/fgCYBR4Z9d13373xxhv/+9//evfuLVxAAGaNR0a9/vrrMTExKSkp J06cEC4gALPG74Dv448/DgkJEfRoGMCs8TvXJ5fLV61aJVAoAB0ARsAEoAkZBUATMgqAJsKMunr1 KndtSjMBAAxxRgUEBBQWFmpPAACDX30AdCGjAGhCRgHQhIwCoAkZBUATYUalp6f36NFDewIAGOJn eCMjI3UmAIDBrz4AupBRADQhowBo4p1RNTU1sbGxnp6eUqlUpEWI4ADMDu8zEzExMSdPnkxISOjR o4eVlZUQMQGYL94Zdfjw4ZSUFJ0KHQDAIRmr0cvLS4hQADoA3t9RLi4ue/bsuXLlik57XFwcpZAA zBjvjIqIiEhPT09PT9dpR0YBMAQZtX37diHiAOgYTDqOqqiouHXrVrOz3b59u6ysrMUhAZgxkzJq z549gYGBH3/8cVMJU15enpiYGBAQ8PXXX3MtlZWVEyZMcHR0dHd337hxI9d44sQJX19fZ2fnJUuW tKQFoN0y6VffRx99FBgYuHTp0tWrV4eEhISGhnbr1q1z586PHj0qLy8/d+7chQsXgoOD9+/fP3Lk SK6LSCSKjIzctWvX1atX+/Xr9+abb7q4uEyePPnAgQPBwcH9+vUbOnTooEGDCFoiIiKE3CEALWLq cdTw4cOHDx/+66+/Hjt27JdffsnIyKiurra3t3dzc/vHP/6xfv360NBQ7fm7du06ffp0hmECAgKs rKweP36clZXl7u4+ZMgQhmGio6P379+vVCoJWpBR0J7xOzPx0ksvvfTSS7y6JCcnh4SEvPDCC9nZ 2d7e3lyjj49PTk5OSUkJQYtmyYGBgXV1ddx0TEyMTkpzuGKVxJXOCDo2NDQQFP7hKrKJxWK+HQUt 2drQ0NDQ0KDfSLaBZG+ESqVqaGhozYpsZNVNNYStcbhz587U1NTs7GwhFr5r1y5NTYPS0lI7Ozv9 ebi9I5Hw3kxunxJ8xB8/fmxra8u3F8uyKpWKID0Ereogk8lkMplOI9kGqtVqtVpN8EbU1dVJpVKC N0KpVEokErIahwSr0xAwo44fP75s2bLTp0/L5XKGYTw9PYuLi7mXFAqFl5cXWYtm+X379tVMP3z4 ULgNATCdUE9zKJXKmTNnHjhwQJMD4eHhZWVl2dnZNTU1u3fvHj9+PFmLQAEDUEGeUXV1dUZ+chQU FJSWlr7xxhseHh4eHh6ff/65TCbbsWPHpEmT/Pz83n777YiICLIW4oABWgHvX301NTWLFy/+9ttv KysrCwsL/f39T58+XVZW9s4772jPFhwcrJ9vUVFROleKyVoA2i3e31Hx8fFHjx5NSkrSHEYXFxcn JibSDgzALPHOqLS0tE2bNk2dOlVzQtPNza20tJR2YABmieQ0v87liLy8vK5du9ILCcCM8T6Oevfd d+fMmcNd/FEoFFlZWStWrEhISBAgNgDzwzuj1qxZ8/Tp08jIyMbGxtdee00ikUyfPh33sAJweGeU paVlamrq6tWr8/PzZTJZz549nZychIgMwBwR3jPh6OgYFhZGNxSADoB3Rhk8CTFs2LC9e/fSiAfA vPHOqKSkJJ2WS5cuHTt2jFI8AOaNd0ZxTz1py8zM/OabbyjFA2DeKNwpW1RU1JK73wE6Et7fUfv2 7dNM19XVXbt2bevWrbglHIDDO6OmTJmimZZKpe7u7rGxsUuXLqUZFIDZInmmUog4ADoGCsdR5eXl ODMBwDHpO+ro0aPl5eUGX2JZ9vDhw3l5eajWAcCYmFHp6elNXcAViUSurq4pKSlUowIwVyZl1Pr1 69evXy90KAAdAMl9fSzLpqWlnT9/nmGYkJCQUaNGoWooAId3Rj148CAqKurixYuenp4Mw6xatapv 376HDh1yd3cXIDwAM8P7XF9MTAx3YVehUCgUiqKiosbGRhSPAuDw/o768ccf//vf//bo0YP708/P b/ny5RMnTqQdGIBZ4v0dZWNjc//+fe2W+/fv29jY0AsJwIzx/o6KiYlZsGCBhYVFeHg4wzBnzpyZ O3cuLkYBcHhn1CeffFJfXz979uz6+nqGYWQyWVxc3L///W8BYgMwP7wzSiwWf/bZZ4sWLfr9998Z hunTp4+jo6MAgQGYJd7HUfn5+dXV1Q4ODmFhYWKxOD4+/qOPPqqqqhIiOACzwzujRo8effz4cYZh bt++PXz4cIVCcejQoVmzZgkQG4D54f2rr6SkpHv37gzDbN68OSAg4MyZM+np6TplBNqEwcJ7XCNB TT7mWbm7VuvFkMYpKP2QWnkD2Wf4diReHcGKtPHOqG7duuXk5Dg7O6empm7fvl0kEjk4ONTU1LQw jhbiagQ29aqRl4wj6KhWq1tzdYLe/6VWq/XrZ7byBnIxkH3QiYt/tiSveGfU/Pnz4+Li3n///bCw sDFjxjAMc+XKFV9fX+IIqBCJRAZLbrZ+1dCGhgaC4p/ts2qohYWFfgFcsg0krhrKvX2tXDW0Jf+n eG/h7NmzX3nllbt37w4ePJjb3aGhoV9++SVxBAAdCcm95wEBAQqFYsOGDfX19f3794+KivL396ce GYA54p1RpaWlw4YNKyoq8vDwUKlUy5YtGzhw4I8//mhvby9EfADmhffZ86lTp9ra2ioUiuLi4rKy stzc3PLy8jlz5ggRHIDZ4Z1RP//88+LFi7mHoxiGefHFFz/55JODBw/SDgzALPHOKBcXF+6OPg1P T08MOQbAMek4KjMzs6CggJt2dXVdt26d9gMdv/32m6urqyDRAZgbkzIqPz9/3bp12i1r167V/nPo 0KE0gwKTCXeFt0uXLgbbZTKZQGvsGEzKqA8++OCDDz4QOhTQyMvLO3DggClzRkdHCxSDh4dHUVER 94RBs4KCgnr27ClQJOaF5HrUo0ePCgoKHj16pGlxcnLq27cvvaiedw8fPszNzTVlzlGjRgkXRn5+ vomjBU+bNg0ZxeGdUcePH58wYUJ1dbV244svvpiXl0cvKgBzxftc3/vvvz9mzJiqqiovL69ffvmF Zdlz586VlpYKERyA2eGdUQqFYtq0afb29lVVVXZ2dgzDiMXi2tpaAWIDMD+8M8rBwYG7+uTn53fo 0CGGYY4ePerh4UE/NAAzxPs4at68edx51UWLFk2YMOHTTz9taGhAJQEADklGcRPjxo3r06dPbm5u 7969g4KCaAcGYJZIzp5rBAQEBAQE0AoFoAOgUOMQADSQUQA0kWdUXV2doIMcAJgj3hlVU1MTFxfn 4uJibW1dVFTEMMzp06f37NkjQGwA5od3RsXHxx89ejQpKUkzIE5xcXFiYiLtwADMEu+MSktL27Rp 09SpUzXjTrm5ueEuJAAO74zSH44wLy+va9eu9EICMGO8r0e9++67c+bM4e7oUygUWVlZK1asSEhI ECA2APPDO6PWrFnz9OnTyMjIxsbG1157TSKRTJ8+fcmSJUIEB2B2eGeUpaVlamrq6tWr8/PzZTJZ z549nZychIgMwBzxzqi6ujorKytHR8ewsDCupba29v79+97e3rRjAzA/vM9MDBw4cMeOHdot+/bt GzFiBLWIAMwZ74wqLCzUDH/J8fb2vn79usGZz5496+joeOPGDe7PEydO+Pr6Ojs7a467yFoA2i3e GWVvb3/16lXtlry8PIOleOfNmzdt2rSGhgbuz4aGhsmTJ+/cufOPP/7Yv3//qVOnyFrIthOgdfA+ jpo1a9bSpUutra1feeUVCwuLU6dOLV++PD4+Xn/OESNGrFixQlNaKisry93dfciQIQzDREdH79+/ X6lUErRERES0ZIMBBMU7o5YuXfro0aNZs2ZxXz4SiWTGjBnLli3TnzM8PFz7z5KSEs3ZCx8fn5yc HLIWzQK/++47TRG7dlhvE55PvDPKwsJi7dq1iYmJ165dU6vVvXr1cnBwECKyZm3fvl0zAvvo0aOf PHmiPw9XwlW/UF+zuNvqCTo2NDQQjPPKsqxarVYqlQzDEBQCbA+USiUXv0HEb4RSqVSpVAQdGxsb LSwsCGoccu8F39VpEL55nTt37t+/P68unp6excXF3LRCofDy8iJr0SwwLS1NM52RkWFjY6O/0tav GsqyrMFImu1FVjW0/ZBKpUbiJ64aWldXJ5VKW7lqKEECa5A8zREbG+vp6SmVSkVamu0YHh5eVlaW nZ1dU1Oze/fu8ePHk7UQbSZAK+H9PyMmJubkyZMJCQk9evSwsrIyvaNMJtuxY8ekSZNqa2tnzpzJ nWAgawFot3hn1OHDh1NSUiZPnmzi/BUVFZrpqKioW7duab9K1gLQbvH+1ceyrPbBDABo4/0d5eLi smfPnitXrui0x8XFUQoJwIzxzqiIiIj09PT09HSddmQUAEOQUdu3bxciDoCOAaOLAdCE0cUAaMLo YgA0YXQxAJowuhgATRhdDIAmjC4GQBNGFwOgifD5KO3RxQBAg3dGGTwJMWzYsL1799KIB8C88c6o pKQknZZLly4dO3aMUjwA5o13Rk2fPl2nJTMz85tvvqEUD4B5o1CHt6ioiGAYAIAOifd31L59+zTT dXV1165d27p1K4Z/AODwzqgpU6ZopqVSqbu7e2xs7NKlS2kGBWC2SEZ7EiIOgI6Bd0bdv3//0aNH Rmbw8fEhDwfAzPHOqLfffjszM9PIDBgwGZ5nvDOqsLBw48aNr776qqZl1apV9+/fX7duHdXAAMwS 74y6d+9eYGBgnz59NC0TJ06cMWOGdgvAc4v39Si5XH7x4kXtljt37uB0BQCH93dUXFzcihUr7Ozs hg0bJpVKz549u3jx4ujoaCGCAzA7vDNq7ty59+/f//DDD7nSJmKxeNKkSTiIAuDwziixWPzZZ58t WLDgypUreD4KQAfh81FOTk4DBgyQyWQtqbQD0PHwzqiamprFixd/++23lZWVhYWF/v7+p0+fLisr e+edd4SIz0RcIS2+LxlfIPOsLhsvarW6hasjKJHYHhgvDcjVDmy1/clpbGwk25ktuaZq0jdMSUnJ l19+yU1jvD4AI0z6jlIoFEuWLLl79+6SJUvS0tJ27NgxYsSI2NhY7tX2MF6fSCQy+EQJ96+R4GET 4qqhFhYWZLVGVSqVWT8U09RbwOGqhhLvT4KO3OrIqoa25GeCSd9RQ4YMuXTp0rlz5+7evYvx+gCM MPU4ysPDg6skjfH6AIzAeH0ANPHOqJs3b37++ecYrw/AIN5XkwYOHHjixAluvL7Q0FCkE4A23hlV V1fn6OgoRCgAHQDvX33u7u5ff/11Xl6eTjvq8AIwBBk1ZsyYgwcPnjp1SqcdGQXAEGRUcnJycnKy EKEAdAA8jqOqqqpUKpVwoQB0ADwyysHBITs7m2EYtVo9d+7cNr/zCKAdInkWQ61WJycnV1RUUI8G wNzh6SYAmpBRADTxO9e3efPmH374gbv3fN26dS4uLpqXNmzYQDk0ADPEI6P69eunUCgUCgU3XVRU VFRUJFRcAOaJR0ZduHBBuDgAOgYcR7ULIpFIM8qAOWr2kVORSPScDPJDOBYS8HXhwgUTRzV8//33 hQ6GOldX19zc3MuXL5sy88svv9yrVy+hQ2oryKhWolQqa2trTZnTTG9MKSgoOHjwoClzyuXyDpxR z8UXMUCrQUYB0ISMAqAJGQVAEzIKgCZkFABNyCgAmpBRADQhowBoMoOMOnHihK+vr7OzM8aChvav vWdUQ0PD5MmTd+7c+ccff+zfv19/VDOAdqW9Z1RWVpa7u/uQIUM6d+4cHR29f//+to6oGVZWVm0d QnvHa2RvqVRqXkUf2/udsiUlJd7e3ty0j49PTk6O5qWRI0fW19dz06NHjx44cKDBJVhaWppedtLC wkK79KWRjk09ntBU7bDevXuvXLnSlBi8vb1ZljVxZl9fX5VKZeLM3bt379atm6enpykze3l5OTk5 +fn5mTJzt27dIiIievfubcrML7zwgimzccRisemFQ7nc454x13krDVIqlTrzcCX8mu1oRHvPKCOm Tp2q2dEsy9rY2OjPw+0dXhXyuJm5fUrwSE99fb2lpaV+u729fXBwcFO99ON0cHAwZXXcp83IknXY 2dlxzzI1NjZaWFgY//dva2urPfABp6kNtLa2dnV1bWpRBG8ER6VSkZWNNGUD9RfL1ThsyaNc7T2j PD09i4uLuWmFQuHl5aV56Z///KdmOiMjo6klkFUpJq5trFKpDH7gmkX2geM+AQRPK3L/jAl+UJFt ILc6vr241ZE9i6lWq9vkGcf2fhwVHh5eVlaWnZ1dU1Oze/fu8ePHt3VEAMa09+8omUy2Y8eOSZMm 1dbWzpw5MyIioq0jAjCmvWcUwzBRUVG3bt1q6ygATNLef/UBmBdkFABNyCgAmpBRADQhowBoQkYB 0GQGZ89Nce/evY0bN7Z1FAzDMAUFBT4+PgZviRJCZWXl06dPtW8lEZRarc7Nzf3b3/7WanevFhcX 29raNjsKNF21tbX9+/cn6ysivt2mXXnw4EFdXV1bR8EwDDNo0KAtW7aYfqNdC33xxRfXr19fu3Zt 66zuyZMnPXv2LC4ulkha6X9xfHx8cHDw1KlTW2d1GnK5nOCmMKbDfEc5Ojq2dQj/RyKRODs7d+vW rXVW17lzZxsbm1Zb3ePHjxmGcXNza7W6B9bW1vb29q22gS2H4ygAmpBRlHXu3LnVfhExDGNlZdVq x2wMw4hEIhMfM6HFxsbGvB7i7CDHUQDtBL6jAGhCRgHQhIxqkbNnzzo6Ot64cYNhmMrKygkTJjg6 Orq7u2sujs2fP79r164+Pj4+Pj4tL2SsvTqDC6c7Epv26tLS0lyfsbW1nTlzpsEAiBnce/qbYwZD zbFAau7cuS+88IKtre3169dZlq2srExNTVUqlb///rtMJispKWFZNiYmZu/evUKsTn/h9fX1crn8 zJkz1dXVPXr0yMzMpLs6zsOHD728vHJzc/UDaAn9vae/OXQ3UCD4jiI3YsSI3377zc7Ojvuza9eu 06dPl0gkAQEBVlZW3KWbBw8e8BpMy/TV6S+c7khs+qvjJCUljRgxIigoSD+AltDfe/qbYxZDzSGj yIWHh1tbW+u3Jycnh4SEcGNoqdXqqVOnhoaGfvvtt9RXp7NwnZHYbt++TXd1DMPU1tZ+/fXXixcv NhgAFZq9p785dDdQIB3knon2Y+fOnampqdnZ2dyfBw4cYFk2Kytr3Lhx3t7eL730EsV16Syc4pKb cvDgwf79+3t4eBgMoOVbp7P3zBG+o2g6fvz4smXLTp48KZfLNY0ikSgiIiIqKkqID4r2wo2MxEbL 999//9ZbbzUVQAsXrrP39DenFTaQgjY+jjN/crmcO3ZvaGjw9PQ8f/685qWnT58qFAqWZW/fvu3n 53fs2DGKq9NfOHfg/vPPP1M8cNesjuPg4HD16lVumu7W6e89/c0RYgOpQ0a1lOYzd/nyZZFI5P7M xo0b//jjj4CAgE6dOnl5eSUlJdFdncGFHzt2zMfHp2vXrosXL6a7OpZl//zzT5lMplKpuD/pbp3+ 3mMNbQ71DaQOdyEB0ITjKACakFEANCGj6EhISDh69Kj+NC8PHjxYuHDhvXv3qIYm7OqoLGT9+vUV FRXE3ffs2ZOXl9eSAGhq6wM5c6VSqXx9fdetW8f9KZfLU1NT9ad5+f333xmGuXXrVsvj4bW6Zvsa maElMXOOHz9ubW198+ZN4iXEx8eHhIQ0NjYSL4EifEf9RWhoqEjPG2+8oT+nWCzu06ePu7t76wdp UEviabavoBubmJiYkJDg6+tLvISVK1feuHEjLS2NYlTEcM/EX2zatKm6upphmEWLFtnb2y9cuJBh GP2qZJzDhw+3anDNaUk8zfYVaGPPnz9/8eLFgwcPtmQhnTp1mjx5ckpKyujRo2kFRgzfUX/Rv3// yMjIyMhIJycnV1dXbjooKGjNmjVyuVwmk/n7+584cYKb2cfHZ/PmzcYXWF9f/8EHHzg5Obm4uEyb Nu3Ro0c6M9TV1cXGxtrb28vl8oSEhGY7pqSk+Pj4WFpa+vn55efnay9KO56pU6d2797dzs7Ozs4u Ojq6pqbG+Oo0fd977z3tkkLjxo2Ljo7WWXhTC7Gystq3bx83vW3bNs2QYEZiPnr0aEhIiOa2JrVa /emnn7q5uVlbW/fr148b34rbFltbW7lcPnfu3GXLlnXv3t3KyiosLKy8vJzrOGbMmKysrCdPnhh/ O1oBvqNM8sorrwQFBVlbW2/btm38+PGlpaX6N2UbFBcXl5WVtX37dqBx0qAAAAViSURBVLFYHBcX t3jx4k2bNmnPMGvWrLS0tLVr18rl8r179xrvmJ+fHxcXt3HjxtDQ0Js3bxqpqJuZmTl06NDo6Ojb t2/Pmzdv4cKFW7ZsMbI6jZEjR06ZMoUrDcqy7JkzZzZs2KAzT7ML0WY85rNnz4aGhmr+nD9//rZt 21auXOnv719SUsKNMJGZmRkZGfnee+/l5eUlJCQEBQWtWrXKxsZmzpw58fHxBw4cYBhmwIABSqUy JycnPDzceDyCa+sDuXZq+PDh0dHR+u1VVVUMw/z6668sy3p7e2/atIlrN3hm4v79+2Kx+OTJk1z7 V1995ezsrL20e/fuicXiXbt2cX9qjvKb6njy5EmRSNTUaQDteLSnV61a5eHhYWR12vNXVVVJpdKf fvqJZdnz589LJJIHDx5oz2BkIZaWlprHpVJTU52cnJqNOTAwcPXq1dx0dXW1paXltm3bjGxXZGTk lClTuOnNmzc7OjpqZuvSpcvu3bsNrqU14VefSb777rsBAwY4ODhwQ1tqfkQZl5+f39jY+Prrr1tZ WVlZWcXExFRWVmqP1Hn9+vXGxsZBgwaZ2HHw4MGDBw/u27fvggULysrKTAy+V69e3Lnpplanzd7e fvDgwdxRflpa2sCBA3UGPzJlIdqMx1xdXd25c2du+tq1a/X19ca/ZHx8fCorK7lpLy+vhw8fss9u +rG3t+f+37UtZFTzCgsL33777REjRmRlZe3atcv0jjKZjGGYH3744fLly5cvX87LyyssLOQaOQ0N DQzDKJVKEzvKZLJTp06lpqZmZGT4+/ufPXvWlDCsrKxUKpWR1ekYO3bs999/z7Ls999/P3bsWJ1X jSxEKpXqj+xrPGZ7e3vNIaJarWYYxng5aktLS25buNWxLNvY2Mj9WVNT06VLF+Ob1gqQUc3Lzc2V SCTLli0LDg4ePHiwwXlEov9/h6RmumfPnmKxWKFQ+GvR/sQEBgZKpdL09HSdpRnpKBaL33rrrfPn zwcHB//nP//htSFNrU7HxIkTKyoqvvrqq4KCgokTJ5q+kG7duhUVFem3G4nZzc1Nc3ahV69eEokk KyvL9C3SePr0aXV1tZubG0FfunBmonm9e/duaGj49NNPo6KiNP8Rdbi6uqalpY0cOdLNzU17esaM GQsXLnz69OmLL7549+5dDw+PsLAwTS8nJ6cPP/xwwYIFT58+/fvf/84dk3DtBjtevXr13LlzgYGB VVVVf/7554ABA3htSFOr09G1a9eRI0fGx8dHRUVpP+jV7ELGjh27detWHx+fnj17/vbbb1yj8Zhf fvnljIwMbtrBwWHGjBkJCQk1NTWBgYElJSXjxo0z8QxQTk6OWCzmu0ME0aZHce2XzpmJLVu2+Pr6 SiSSTp06BQQEXLp0if3rEfPhw4e9vLx27NihM61UKpcsWeLm5mZpadm9e3f9Q2eVSpWUlOTh4SGV St3c3CIiIu7du9dUx1OnTvn5+UkkEkdHx/Hjx3NHERpNnZk4cuSI5o1uanXa87Mse/z4cYZhDh06 ZHDhTS3k8ePH06ZN69Spk7W1tbe394QJE5qN+ezZsxKJpLy8nPtTqVR+/PHHcrlcIpH06tWLe/5K e9WzZ88ePnw4N33s2DGGYZRKJcuyc+bMiYiIaP59FR6e5oA21q9fv5EjRy5fvpx4CY8fP/b29v7i iy/efPNNioGRQUZBGzty5MjEiRMLCgqIn3KfN29eenr6xYsXyerT0IXjKGhjo0aNWrhwofFTfMb5 +/uPHz++PaQTg+8oALpw9hyAJmQUAE3IKACakFEANCGjAGhCRgHQhIwCoAkZBUATMgqAJmQUAE3/ DzNxz/Uhn8HlAAAAAElFTkSuQmCC "
       height="325"
       width="283" />
    <image
       y="3.433609"
       x="307.07141"
       id="image3763"
       xlink:href="data:image/png;base64,iVBORw0KGgoAAAANSUhEUgAAARsAAAFFCAIAAABTy97xAAAAA3NCSVQICAjb4U/gAAAgAElEQVR4 nO3deVgTZ/4A8Am5uJEzxAiEwwNReCyoVFFJxRUr1dr1XLS6qH0UWS3etR71eha1XhXtrlhLXS90 rRcVEESquKt4VBFR8QoieAFyKZBrfn/Mdn5pEkJm5k1I4vfz1+SdzDvfmfBlrnfel4XjOAYAQMSm owMAwKpARgGAEmQUAChBRgGAEmQUAChBRgGAEmQUAChBRgGAEmQUAChBRgGAEmQUAChBRgGAEmQU AChBRgGAEmQUAChBRgGAEmQUACgZK6Nev349ceJENzc3kUi0fft2ojAnJ8ff39/T03P58uVMSgAw WywjvRVfXV194sSJadOm3bt3Lzw8/NGjR15eXr6+vkePHg0LCwsPD9+9e/fAgQNplEgkEu3VZWVl KRSKdqPCcZzFYjHcNIVCweFwmNSgUqlsbBj9L8NxXKVSsdnsjg1DpVJhGMa8EoY1KJVKGxsbhr+s ehjPnz//6KOPgoKCaNTD6C9DDw8PjxkzZmAYFhwcbGtr+/bt24KCApFINGjQIAzD4uPjMzIy5HI5 jRKdGcXlckeMGNFuVAqFgs1mM9z1b9++dXBwYFID8zCUSqVcLre1tWUShlwu53K5TGqQyWQsFotJ JTiOKxQKhmE0Nzfz+XwmaYnjuFKpJP9R7tu3TyaT0avKWBlF2rx5c0RERPfu3QsLC/38/IhCsVhc VFRUUVFBo4Ssee/eveRxycnJifh/qZ9KpWKxWAwzijg+MKmBeRgqlQpJGEg2hEklxFYwDIP5rkAS BsG4GbVv3760tLTCwkJjVJ6fn0/+I4mOjm5tbW13ESSnBwqFwpB1GTUMlUqlVCqZxECEwfBvSKFQ mENGyeVyDMOY7E8iDHKXMonHiBmVnZ29atWqX3/9VSAQYBjm4+NTXl5OzJJKpb6+vvRKyPr3799P Tufl5dnZ2bUbEpKzPpVKZci6jBoGnPVpQHvWx+i6DjcOmUzm4+Nz9epVsqS1tVUgEFy8eLG+vj4o KCg/P59eic7V5ebmGhKVXC4nzpeYaGpqYlgD8zAUCkVzczPDMGQyGcMaWltbGVaiUqmYh/Hu3Tul UskwDLlcTn786aef7ty5Q68qY2XUzZs3WSyW6Hfbt2/HcTwrK0ssFnt4eCxbtoz4Gr0SbZBRNEBG qYeBKqOMdffcxPLy8mJiYtr9GtzrU2c1Z33GuNcXERHRs2dPGlVBmwkAUIKMAgAlyCgAUIKMAgAl o7eZAKZXUVFRWlqqXR4YGEivrRowHGSUFbpz586uXbu0yydMmAAZZWxw1vcecXd3V//IsOk60AmO Ue+Rzp0737t378qVK9qz+vTpExoaavqQrA9k1Pvl4cOHx44d0y63tbWFjEICzvoAQAkyCgCUIKMA QAkyCgCUIKMAQAkyCgCUIKMAQAkyCgCUIKMAQAkyCgCUIKMAQAkyCgCUKLeUfffuXVFRUVVVVV1d XadOnYRCYb9+/Rj2DQSA1TA0o1Qq1enTp1NTUy9cuCCXy11cXFxcXBoaGurr69ls9uDBgxMTE0eP Hg2v3ID3nEFnfbdu3erXr99f//rXXr16ZWdnNzU1vXnzRiqV1tbWNjY2nj17NiwsbObMmeHh4deu XTN2xACYM4MyqqSkJCoqqry8fOvWrRKJxN7enpxlb28fHR29efPmp0+fDhs27NatW0YLFQALYNBZ X3x8fHx8PPnx1atXL1++xDBMIBB4eXkRhQ4ODps2bTJGiIYg+gQ15GvMRzRBMi4GwzCIYTV0hkG7 q1oaO4cY7YbJ3iC6NGa4P4ldwbx3ZDIMJlVRuNeH43hqampgYKBAIAgNDQ0NDRUIBIGBgTt37qS9 egCsDIV7fStXrty4cWNiYmJMTAwxgM2LFy/y8vKSk5Nfvny5Zs0aowXZPhaLZchNERzHmY8fZWNj w/AGjEKhQDLKJdr7QAbuQ3VKpZLGUuqIfs8ZbgjxizDv95wMg8lPQyGjdu3atXv37qlTp6oXxsXF hYWFLV68uGMzCgAzQSGtFQqFzudOjo6OxCBzAAAKx6jJkyfPnDnz6dOnQ4cO9fT0xDDs1atXeXl5 a9eunTJlitEiBMCSUMiobdu2OTk5rV69esGCBWShs7Pz7Nmz165da4TYALA8FDKKy+WmpKSsXbu2 tLSUvHves2dP5oOoAmA1KLfr43K5QqGQuK8iEAggnQBQB8+jAEDJSp5HAWAm4HkUACjB8ygAUILn UQCgBM+jAEAJnkcBgBI8jwIAJXgeBQBK8DwKAJTgeRQAKMHzKABQgudRAKAEz6MAQAmeRwGAEp3n UWFhYcYIBQArAGNzAIASZBQAKFE+68Pa6KUZAIAZuxXSpUuX3NzcHj58SHxcvHixh4eHWCwWi8XE KB45OTn+/v6enp7Lly8nvmNICQBmy4itkBYtWnT69GmZTEaWNDY2pqamTpw4kfgok8mmTp169OjR sLCw8PDwoUOHDhw4sN0SiUTCeKsBMBYjtkIaOXLkmjVr/P39yZLa2lp3d3fyY0FBgUgkGjRoEIZh 8fHxGRkZcrm83RLIKGDOKGQU1VZI0dHRGiUqlSohIUEkEs2fP3/8+PEVFRV+fn7ELLFYXFRUZEgJ WVtcXFxraysxPWrUqAEDBrS7CcToLAy78JfJZMwHAWAYBjG+i87BaWg/HpTL5VRbkykUChaLxaQN GjHEDsNWbDKZjNilTMIgRpkgPjIZi8ikrZCOHj2K43hBQcG4cePIPKEtISFBfcAf9XHi2kIMA8Ew Hwxcl1HDINIJ4bN1d3d3LpdLtULinwuTMIixORhuCIvF4vP5zMfm4HD+lw5MqjJ1KyQWiyWRSGJj YwsLC3v37l1eXk6US6VSX19fHx+fdkvIqj777DNyOi8vz/ANsQIsFqu2tpa85aOuZ8+eNCoUCoV3 7tzROehreHh4r169aNT5fjJdK6SWlpaXL1/6+flVVFRcvnx58uTJ0dHRlZWVhYWFoaGhBw4c2L17 98CBA9stobmhVuf27dvfffeddvk333xDr8IHDx4cO3ZMu9zR0REyynCmeyu+qqoqLi7u2bNnrq6u iYmJsbGxGIalp6dPmTKlqanpiy++IG45GFICgNmikFE4ju/cuXPr1q2PHz8mCwMCAubPnz9nzpy2 lnrx4gX5zdLSUo25sbGxT548oVoCgNmCt+IBQAneigcAJXgrHgCU4K14AFCCt+IBQAneigcAJXgr HgCU4B1eAFCicIwqKSnRMxcaqgCAUcqoiIgI8u0JbTiOo4gHAMtGIaN+/vnnTz/99N///je91s0A vA8oZNTHH388a9asnTt35uTkGC8gACwatTsTX3/9dUREBJM3HAGwbtTungsEgvXr1xspFACsANw9 BwAlyCgAUIKMAgAlmhl179494tkUOQEAwGhnVHBw8N27d9UnAAAYnPUBgBZkFAAoQUYBgBJkFAAo QUYBgBLNjMrNzQ0KClKfAABg9EYNxTAsJiZGY6JjEUM8GPI1cjgP2lQqlSHr0o95GKakUql0No9W KpUMh+0hXqtjuD+VSqVCoWAyoAb2xz8hJi/70cwoc8NisdhsdrtfUyqVNjY2DEe7MXBdRg3DxO93 thUtkVFM9gbxP47h/rSxsWGz2QxHu1GpVGQYTH4aK8kozOC9wHxENuY1MK/E9G9M64yW9TtjVE5p cXMIgwB3JgBAiXJGNTQ0JCYm+vj4cLlclhpjBAeAxaF81jdr1qxz584lJycHBQXZ2toaIyYALBfl jDp16tTOnTs1RugAABAon/XhOK4+GC4AQB3lY5SXl9fBgwfv3LmjUZ6UlIQoJAAsGOWMkkgkubm5 ubm5GuWQUQBgNDJq7969xogDAOtg0HXUixcvDBlb+unTp5WVlYxDAsCCGZRRBw8eDAkJ+frrr9tK mKqqqpUrVwYHB//4449IwwPAwhh01jd//vyQkJAVK1Zs2LAhIiIiMjKyc+fOzs7OjY2NVVVVly9f vnbtWlhYWEZGRlxcnLEjBsCcGXodNXz48OHDh1+5ciUrK+s///lPXl5efX29i4uLUCj805/+tHXr 1sjISKMGCoBFoHZnon///v379zdSKABYAWgpCwBKkFEAoAQZBQBK9DOqpaUFBpICQAOd96OSkpK8 vLzs7OzKysowDPv1118PHjxohNgAsDyUM2revHlnzpxJSUnhcrlESXl5+cqVK1EHBoBFopxRmZmZ O3bsSEhIIDvKEAqFz549Qx0YABaJckYplUqNbkOKi4s9PDzQhQSABaPc9nzy5MkLFixwdHTEMEwq lRYUFKxZsyY5OdkIsQFgeShn1KZNm5qbm2NiYpRK5YgRIzgczowZM5YvX26M4ACwOJQzis/np6Wl bdiwoaSkhMfjde3a1d3d3RiRAWCJaPaA6ebmNnjwYLShAGAFKN+Z8NBl0qRJOr986dIlNze3hw8f Eh9zcnL8/f09PT3Js0R6JQCYLcrHqJSUFI2SGzduZGVlaX9z0aJFp0+flslkxEeZTDZ16tSjR4+G hYWFh4cPHTp04MCBNEokEgmN7QTANChn1IwZMzRK8vPzf/rpJ+1vjhw5cs2aNf7+/sTHgoICkUg0 aNAgDMPi4+MzMjLkcjmNEjKj6urqyPv4zAfLAAAJBCMJlJWV6RxbITo6Wv1jRUWFn58fMS0Wi4uK iuiVkBV27ty5ubmZmF67dq0h13UqlYp5n9IymYxhDczDYDiYBVVyuVwul2uXKxQKFoulc5aBiEEx mNSAYZhMJiN2KZMwcBwnGy0wabBKOaMOHz5MTre0tNy/f//777+fMGEC7Qhoe/fuHTmdl5dnb2/f 7iIKhYLNZjPMBxzHDVmXUcMwcRtlLpdLNjpTR/xz0TnLQMSoTUxqwDCMxWLx+XyGo90olUoO53/p wKQqyhk1bdo0cprL5YpEosTExBUrVrS7oI+PT3l5OTEtlUp9fX3plVANGABTopxRLS0t9NYUHR1d WVlZWFgYGhp64MCB3bt3Dxw4kEYJvbUDYBoI3jisqqrSeWdCA4/HS09PnzJlSmBg4Pjx4yUSCb0S 5gEDYDwGHaPOnDlTVVWlcxaO46dOnSouLm5rtI4XL16Q07GxsRo9adIrAcBsGZRRubm5hw4d0jmL xWJ5e3vv3LkTaVQAWCqDMmrr1q1bt241digAWAE6z6NwHM/MzLx69SqGYREREZ988gmMGgoAgXJG 1dbWxsbGXr9+3cfHB8Ow9evX9+nT5+TJkyKRyAjhAd3gX5jZojMOL/FgNygoCMOwR48ejR07Nikp 6fjx40YI73336tWrBw8eaJcHBwebLAY9b+twOBzoD0sD5Yz65Zdf/vWvfxHphGFYYGDg6tWr22p7 DhgqLS3dsmWLdrkpm+ELhcIbN27897//1Z4VFRXVu3dvk0ViEShnlL29fU1NjXpJTU0Nw1Y5wMw9 fvw4JydHu1wkEkFGaaBz1rdkyRIbGxuiIeyFCxcWLlwIQ8cDQKCcUd98801ra+ucOXNaW1sxDOPx eElJSX//+9+NEBsAlodyRrHZ7I0bN3711Ve3b9/GMKxXr15ubm5GCAwAi0S5XV9JSUl9fb2rq+vg wYPZbPa8efPmz59fV1dnjOAAsDiUM2rUqFHZ2dkYhj19+nT48OFSqfTkyZOzZ882QmwAWB7KZ30V FRUBAQEYhqWmpgYHB1+4cCE3N/cvf/mLEWIDwPJQzqjOnTsXFRV5enqmpaXt3buXxWK5uro2NDQY IzgALA7ls77FixcnJSUFBASEhYWNHj0aw7A7d+6Q3bMA8J6jfIyaM2fOkCFDXr16FRUVRbyOHxkZ Ca/WAkCg0/Y8ODhYKpVu27attbW1b9++sbGxPXr0QB4ZAJaIckY9e/Zs2LBhZWVlXbp0USgUq1at GjBgwC+//OLi4mKM+ACwLJSvoxISEhwcHKRSaXl5eWVl5a1bt6qqqhYsWGCM4ACwOJQz6uLFi8uW LSNejsIwrHfv3t98882xY8dQBwaARaKcUV5eXkSLPpKPjw/tLscAsDIGXUfl5+eXlpYS097e3lu2 bFF/oeO3337z9vY2SnQAWBqDMqqkpETjvbdvv/1W/ePQoUNRBgWAxTIoo+bOnTt37lxjhwKAFaDz PKqxsbG0tLSxsZEscXd379OnD7qo6NAYwZ7h1/TXgKQShjWYCYZ7g1iW4d7Af9exYRAoZ1R2dvbE iRPr6+vVC3v37l1cXMw8GtqIsRUM+RrznkYMXJd+hoTBZIQIk2G4N4g/Yob7U6VSKZVK5mlJhsGk KsoZ9be//W306NHfffddaGjo4cOHP/zwwytXrowYMYJ2BEiwWCxyqBI9kIx2Y2NjY8i6jB2GmbCx sWE4zIxCoWC4P9lsNofDQTjaDZOfhnIQUql0+vTpLi4udXV1jo6OGIax2eympibaEQBgTShnlKur K/H0KTAw8OTJkxiGnTlzpkuXLuhDA8ACUT7aLlq0qFOnThiGffXVVxMnTly3bp1MJoORBAAg0Mko YmLcuHG9evW6detWz549Q0NDUQcGgEVidEUYHBxsyu6CATB/FnB/FgALAhkFAEr0M6qlpQXGZQBA A+WMamhoSEpK8vLysrOzKysrwzDs119/PXjwoBFiA8DyUM6oefPmnTlzJiUlhcvlEiXl5eUrV65E HRgAFolyRmVmZu7YsSMhIYFs9CEUCp89e4Y6MAAsEuWM0m6SWFxc7OHhgS4kACwY5edRkydPXrBg AdGiTyqVFhQUrFmzJjk52QixAWB5KGfUpk2bmpubY2JilErliBEjOBzOjBkzTDmIJQDmjHJG8fn8 tLS0DRs2lJSU8Hi8rl276hn5GID3DeWMamlpsbW1dXNzGzx4MFHS1NRUU1Pj5+eHOjYALA/lOxMD BgxIT09XLzl8+PDIkSORRQSAJaOcUXfv3iW7vyT4+fk9ePAAXUgAWDDKGeXi4nLv3j31kuLiYhiK FwAC5euo2bNnr1ixws7ObsiQITY2NufPn1+9evW8efOMERwAFodyRq1YsaKxsXH27NkymQzDMA6H M3PmzFWrVhkhNgAsD+WMsrGx+fbbb1euXHn//n2VStWtWzdXV1djRAaAJaL5Dq+zs3Pfvn3RhgKA FaDzNkdiYqKPjw+Xy2WpMUZwAFgcyseoWbNmnTt3Ljk5OSgoyNbW1hgxAWC5KB+jTp06tXHjxqVL l44dOzZOjSHLLl682MPDQywWi8Xia9euYRiWk5Pj7+/v6elJtgw0pAQAs0U5o3Ac9/X1pbeyxsbG 1NRUqVQqlUojIiJkMtnUqVP37dv36NGjjIyM8+fPG1JCb9UAmAblsz4vL6+DBw/euXNHozwpKand ZWtra9Wb1RYUFIhEokGDBmEYFh8fn5GRIZfL2y2RSCRUYwbAZChnlEQiyc3Nzc3N1Sg3JKNUKlVC QoJIJJo/f/748eMrKirI9rVisbioqMiQErK2vXv3KhQKYtrJycmQbmRUKhXz+yjMB/gwMAyLuN/D cG8QizPcn8x/ESRhEChn1N69e2mv7OjRoziOFxQUjBs3jnlb9fz8fOIpM4Zh0dHRGqMD66RUKm1s bBj+pSoUCkPWxTwMhiNWmIZSqWQ42g3zP2W5XI4x+wdEhEFuCJN46P9mLS0tPB6P6hAjLBZLIpHE xsYWFhb27t27vLycKJdKpb6+vj4+Pu2WkFXt37+fnM7Ly7Ozs2t37UiGmVGpVIasy9hhmAkOh8Pj 8WgvTox2Q/YCRBufz0c42g2TqkzXu1hLSwuRGxUVFZcvXw4JCYmOjq6srCwsLGxoaDhw4MCECRMM KaGxkQCYjOl6F6uqqhoxYoSzs3NUVNTMmTNjY2N5PF56evqUKVMCAwPHjx8vkUgMKaG8iQCYEOWz vszMzPT09JEjRyYmJhIlBvYuFhAQUFpaqlEYGxv75MkTqiUAmC3oXQwAlKB3MUCfn5+fRQy/bUrQ u1jHe/bs2ZUrV7TL+/fvb/pgKHFycjp79mx2drb2rM8++ywqKsr0IXU46F2s40ml0p9++km73Nvb 2/TBUFVbW/vw4UPt8vr6etMHYw5oPo9S710MAECinFE6b0IMGzbs0KFDKOIBwLJRzqiUlBSNkhs3 bmRlZSGKBwDLRjmjZsyYoVGSn5+v8zIAgPcQglufZWVlbDabeT0AWAHKx6jDhw+T0y0tLffv3//+ +++huR0ABMoZNW3aNHKay+WKRKLExMQVK1agDAoAi0VnbA5jxAGAdaCcUTU1NY2NjXq+IBaL6YcD gIWjnFHjx4/Pz8/X8wWNdrQAvFcoZ9Tdu3e3b9/+0UcfkSXr16+vqanZsmUL0sAAsEiUM6q6ujok JKRXr15kyaRJk2bOnKleAsB7i/LzKIFAcP36dfWSly9fwu0KAAiUj1FJSUlr1qxxdHQcNmwYl8u9 dOnSsmXL4uPjjREcABaHckYtXLiwpqbmyy+/JLp0YrPZU6ZMgYsoAAiUM4rNZm/cuHHJkiV37tyB 96MA0EDz/Sh3d/d+/frR6K8PAOtmuv76AHgfGJRRFRUVu3fvJqZp99cHwPvAoIySSqXLly9ft24d hmGZmZk7duxISEggz/cM7K8PgPeBQRk1aNCgGzduXL58+dWrV9BfHwB6GHpnokuXLpmZmZi59tdH 9ARvyNeYj2iiPogDk0qICesYT0AnlUrVbiNP4gsM9yfxizBvUEqGwaQq6+mvz5A/TSSDcCMZgQr7 PWArzigDNw3HcYY7gfnw6uq/CEOUM+rx48ffffedufXXx2KxDLmPj2RENgPXpT8M5sNYmT9DdjVx 1sBwfxK/CPPRbsgamPw0lIMYMGBATk4O0V9fZGSkOaQTAOaDcka1tLS4ubkZIxQArADlsz6RSPTj jz8WFxdrlBsyDi8AVo9yRo0ePfrYsWPnz5/XKIeMAgCjkVGbN2/evHmzMUIBwApQuI6qq6tTKBTG CwUAK0Aho1xdXQsLCzEMU6lUCxcuhJZHAGijcwtfpVJt3rz5xYsXyKN5T8ArMFaM5vtRgKqampp7 9+5pl3ft2tX0wZiAtW5XuyCjTKSsrGzDhg3a5fPnz+dwrPBX4PF4R44cOXHihPasGTNmqPdOZ2Wo /ZapqaknTpwgGkFt2bLFy8uLnLVt2zbEoQELJ5fLm5qadJabPhiToZBR4eHhUqlUKpUS02VlZcQ7 vAAAEoWMunbtmvHiAMA6wE0nAFCCjAIAJcgoAFCCjAIAJcgoAFCCjAIAJcgoAFCCjAIAJcgoAFCC jAKm1qVLF3KaxWJZWUNhq9qYDnft2rU1a9Zol8+dO9fBwcH08ZgnZ2fns2fPXrx4UXvWmDFjPvjg A9OHhBBkFOgAz58/v3Xrlnb5kCFDTB8MWhZw1peTk+Pv7+/p6WkOfUEDoJ+5Z5RMJps6deq+ffse PXqUkZGh3auZ6Vl978odyAr2rbmf9RUUFIhEokGDBmEYFh8fn5GRIZFIOjYkPp+v80U6Pp9v+mCs TLdu3To6BKZYzMcIMaoffvjhl19++fnnnzEMS09PP3LkyJkzZ4hZcXFxra2txPSoUaOmT5+uvTiL xeLxeG1VbmNjo3PwG/1jBTQ2Nj5+/Fi7XCQS8Xi8J0+eaM/y8fFhs9nEy5ras2xsbMrLy7Vn+fn5 4Tj+9OlT7VlisVipVFZUVGjPCggIkMlkOnuqCgwMbGlpqays1J4VFBT09u3b58+fa8/q2rVrU1OT zlndunVraGjQ2YdP9+7d6+rqXr58qXPWmzdvXr16pT2rR48e1dXV1dXVOpeytbXVLie0NbIOcdBr 649cLpcTfwA4juM4Tv7oR44c6devX8+ePdtanR7mfozSIyEhQX3AH3t7+3YXIcZfUD+1YLPZVNfL 5/PDwsLammvILO0wOnXq1NZSrq6u2oXEiEl61tXWCA+Ojo7k8HlKpVJ98x0cHNS7OVBnb2+vc5ZS qfTw8BAIBDqX8vb29vb21jlLKBQKhULs97E51MMQiUQikUjnUm2Ry+UcDodGD1PkeomxOcj7+Ew6 qzL3jPLx8SH/f0ulUl9fX3LWZ599Rk7n5eUZUhuSA7JcLtdz3DNNGMRfADkUMj0af8o0KJVKFovF sBLmYSgUCjabbSbXYOZ+ZyI6OrqysrKwsLChoeHAgQMTJkzo6IgA0Mfcj1E8Hi89PX3KlClNTU1f fPFFh9+WAEA/c88oDMNiY2N1Xu4DYIbM/awPAMsCGQUASpBRAKAEGQUASpBRAKAEGQUAShZw99wQ 1dXV27dvN8GK6urqqqurg4KCTLAuPV6/ft3c3KzegqRDVFZWstnstpoamYxUKnVycmqr4RUNTU1N ffv2pbesubeUNVBtbW1LS4sJVpSZmXngwIFDhw6ZYF167N69+/79+x0+xPjq1asdHBwWLlzYsWHM mjUrKipq8uTJCOsUCAT02kZZyTHKzc3NNCtydXXl8/mdO3c2zera4uzsbG9v3+FhODo6Ojo6dngY dnZ2nTp16vAwCHAdBQBKkFHU8Hg8R0fHjo4Cs7W1NeTtFWOzs7PT886SyTg4OJjP655Wch0FgJmA YxQAKEFGAYASZJQ+ly5dcnNze/jwIYZhr1+/njhxopubm0gkIp99LV682MPDQywWi8Vi441TrB6G zpWapgM29TAyMzO9f+fg4PDFF1/oDAwtnT+B9rZ3cHd0OGjDwoULu3fv7uDg8ODBAxzHX79+nZaW JpfLb9++zePxKioqcByfNWvWoUOHTBmG9kpbW1sFAsGFCxfq6+uDgoLy8/NNEwbhzZs3vr6+t27d 0g4MOe2fQHvbTbM39IBjVJtGjhz522+/kXf2PDw8ZsyYweFwgoODbW1t3759i2FYbW0twkf1hoSh vVKyAzZnZ2eiAzbThEFISUkZOXJkaGiodmDIaf8E2ttumr2hB2RUm6Kjo+3s7LTLN2/eHBER0b17 dwzDVCpVQkJCZGTkkSNHTBaGxkorKir8/PyIWWKxWGdvZMYIA8Owpn8LnBUAAAiWSURBVKamH3/8 cdmyZToDMx7yJ9DedtPsDT2spM2Eyezbty8tLa2wsJD4ePToURzHCwoKxo0b5+fn179/fxPEoLFS E6yxLceOHevbty851oZp9obGT2Bu4BhFQXZ29qpVq86dO6feQx2LxZJIJLGxsab8jdVXqqcDNmM7 fvz42LFj2wrMGGvU+Am0t70D98b/mPi6zeIIBALiWlwmk/n4+Fy9epWc1dzcLJVKcRx/+vRpYGBg VlaWCcLQXilxLX7x4kUTXIuTYRBcXV3v3btHTJtgb2j/BNrbbsq9oRNkVDvIv6GbN2+yWCzR77Zv 3/7o0aPg4GAnJydfX9+UlBTThKFzpVlZWWKx2MPDY9myZaYJA8fx58+f83g8hUJBfDTB3tD+CXBd 226yvaETtEICACW4jgIAJcgoAFCCjEIjOTmZHIZHfZqS2trapUuX6hzrxRiQrA5JJVu3btU5ZI6B Dh48WFxczCQAlEx/6WYdFAqFv7//li1biI8CgSAtLU17mpLbt29jGPbkyRPm8VBaXbvL6vkCk5gJ 2dnZdnZ2jx8/pl3DvHnzIiIilEol7RoQgmPUH0RGRrK0fPrpp9rfZLPZvXr1ojrSkfEwiafdZY26 sStXrkxOTvb396ddw9q1ax8+fJiZmYkwKtqgzcQf7Nixo76+HsOwr776ysXFZenSpRiGtTVO2alT p0waXHuYxNPuskba2KtXr16/fv3YsWNMKnFycpo6derOnTtHjRqFKjDa4Bj1B3379o2JiYmJiXF3 d/f29iamQ0NDN23aJBAIeDxejx49cnJyiC+LxeLU1FT9Fba2ts6dO9fd3d3Ly2v69OmNjY0aX2hp aUlMTHRxcREIBMnJye0uuHPnTrFYzOfzAwMDS0pK1KtSjychISEgIIDoWSU+Pr6hoUH/6shlP//8 c/UhhcaNGxcfH69ReVuV2NraHj58mJjes2cPOZiinpjPnDkTERFBtmNSqVTr1q0TCoV2dnbh4eFE /1bEtjg4OAgEgoULF65atSogIMDW1nbw4MFVVVXEgqNHjy4oKHj37p3+n8ME4BhlkCFDhoSGhtrZ 2e3Zs2fChAnPnj0zsLeJpKSkgoKCvXv3stnspKSkZcuW7dixQ/0Ls2fPzszM/PbbbwUCgXqnZToX LCkpSUpK2r59e2Rk5OPHj318fNpab35+/tChQ+Pj458+fbpo0aKlS5fu2rVLz+pIcXFx06ZNa21t 5fP5OI5fuHBh27ZtGt9ptxJ1+mO+dOlSZGQk+XHx4sV79uxZu3Ztjx49KioqiE4s8vPzY2JiPv/8 8+Li4uTk5NDQ0PXr19vb2y9YsGDevHlHjx7FMKxfv35yubyoqCg6Olp/PEbX0RdyZmr48OHx8fHa 5XV1dRiGXblyBcdxPz+/HTt2EOU670zU1NSw2exz584R5T/88IOnp6d6bdXV1Ww2e//+/cRH8iq/ rQXPnTvHYrHaug2gHo/69Pr167t06aJnderfr6ur43K5Z8+exXH86tWrHA6ntrZW/Qt6KuHz+eT7 UWlpae7u7u3GHBISsmHDBmK6vr6ez+fv2bNHz3bFxMRMmzaNmE5NTXVzcyO/1qlTpwMHDuhciynB WZ9Bfv755379+rm6uhKDSZMnUfqVlJQolcqPP/7Y1tbW1tZ21qxZr1+/Vu+p88GDB0qlcuDAgQYu GBUVFRUV1adPnyVLlugc8l2nbt26Efem21qdOhcXl6ioKOIqPzMzc8CAARpDaxtSiTr9MdfX1zs7 OxPT9+/fb21t1X+QEYvFr1+/JqZ9fX3fvHmD/97ox8XFhfh/17Ego9p39+7d8ePHjxw5sqCgYP/+ /YYvSAyAfeLEiZs3b968ebO4uPju3bvqo2LLZDIMw+RyuYEL8ni88+fPp6Wl5eXl9ejR49KlS4aE YWtrq1Ao9KxOw5gxY44fP47j+PHjx8eMGaMxV08lXC5Xu2df/TG7uLiQl4gqlQprb5x2Pp9PbAux OhzHlUol8bGhoaFTp076N80EIKPad+vWLQ6Hs2rVqrCwsKioKJ3fYbH+v4UkOd21a1c2my2VSnuo Uf+LCQkJ4XK5ubm5GrXpWZDNZo8dO/bq1athYWH/+Mc/KG1IW6vTMGnSpBcvXvzwww+lpaWTJk0y vJLOnTuXlZVpl+uJWSgUkncXunXrxuFwCgoKDN8iUnNzc319vVAopLEsWnBnon09e/aUyWTr1q2L jY0l/yNq8Pb2zszMjIuLEwqF6tMzZ85cunRpc3Nz7969X7161aVLl8GDB5NLubu7f/nll0uWLGlu bv7ggw+IaxKiXOeC9+7du3z5ckhISF1d3fPnz/v160dpQ9panQYPD4+4uLh58+bFxsaqvwnWbiVj xoz5/vvvxWJx165df/vtN6JQf8wffvhhXl4eMe3q6jpz5szk5OSGhoaQkJCKiopx48YZeAeoqKiI zWZT3SFG0aFXceZL487Erl27/P39ORyOk5NTcHDwjRs38D9eMZ86dcrX1zc9PV1jWi6XL1++XCgU 8vn8gIAA7UtnhUKRkpLSpUsXLpcrFAolEkl1dXVbC54/fz4wMJDD4bi5uU2YMIG4iiC1dWfi9OnT 5A/d1urUv4/jeHZ2NoZhJ0+e1Fl5W5W8fft2+vTpTk5OdnZ2fn5+EydObDfmS5cucTicqqoq4qNc Lv/6668FAgGHw+nWrRvxwpX6qufMmTN8+HBiOisrC8MwuVyO4/iCBQskEkn7v6vxwdscoIOFh4fH xcWtXr2adg1v37718/P75z//+ec//xlhYPRARoEOdvr06UmTJpWWltJ+g33RokW5ubnXr1+nNz4N WnAdBTrYJ598snTpUv23+PTr0aPHhAkTzCGdMDhGAYAW3D0HACXIKABQgowCACXIKABQgowCACXI KABQgowCACXIKABQgowCACXIKABQ+j/NrFBjN38C0AAAAABJRU5ErkJggg== "
       height="325"
       width="283" />
    <image
       y="4.2081084"
       x="576.6131"
       id="image4035"
       xlink:href="data:image/png;base64,iVBORw0KGgoAAAANSUhEUgAAARsAAAFFCAIAAABTy97xAAAAA3NCSVQICAjb4U/gAAAgAElEQVR4 nO3deVxTV/o/8JMVUARZA7IvKqjAVHAZd0YcaaVoba0LLi0uLxdGCq61ivurWOu+TcUqdRS3qlUp QkEFqx2L1SrihqgBBBFBAaNAtvv743x7f5mEJTc5lyTwvP+6nCQnn9zwJLnbORyKohAAgBCuoQMA 0KZARQFAElQUACRBRQFAElQUACRBRQFAElQUACRBRQFAElQUACRBRQFAElQUACRBRQFAElQUACRB RQFAElQUACRBRQFAElQUACRBRQFAEt/QAXRx/vx5uVyu2qJUKrlcMp8OcrmczyewWiiK4nA4+veD iEZCCBFJRSoSIreiCEYqKysbPny4r6+vDo81yYoSCATvv/++aotMJuPz+fq/MRRF1dXVdejQQc9+ EEJyuZzL5RKp87dv33bs2FH/fhQKBUKIx+Pp3xWpSEqlUqlUEqkEUpEoijp48KBUKtXt4fCrDwCS oKIAIAkqCgCSoKIAIAkqCgCSoKIAIAkqCgCSoKIAIInFijpy5Iifn5+3t/fnn3+Oj5dlZGR4eXk5 ODgsX74c30ebFgBMCcWOiooKOzu70tJSmUwWFhaWlJTU0NAgEokuX75cU1Pj6+t78eJFbVoa7Twz M1OtRSqVKpVK/WMrlcq3b9/q3w9FUTKZTKFQEOlKIpEQ6Ucul8vlciJdkYqkUChkMhmRrkhFUiqV ycnJd+/e1e3hbJ2FVFtbq1QqO3fuzOfznZyc5HJ5dna2i4vL4MGDEUJRUVHHjh2TyWQttoSGhrKU sA0rLy+/ffs2QsjLy6tbt26GjtO+sFVRPj4+48aNGzhw4KBBg4qLi/fu3ZuSkuLh4YFv9fT0zM3N LSkpabGF7jAiIqKhoQEvR0ZGDhgwQPXpFAoFl8slcl6fTCbTsxNMqVRyOBwi54BKpVLt++Hz+Y8f P961axdCaOzYsd7e3vQpakqlEiFE5FRDRpGagT/XjS0SXlG6Yaui5HL5kydPxo4dW19fX1BQcOfO HT07jI6Oxid6IoQoilI7mbVtnymr+Xq1x+fz6fNQCZ4pq08kVQTPlCUVSc8KZ6ui8AUXK1asQAhZ WVlt37596tSpRUVF+FaxWOzu7u7m5tZiC93h2LFj6eWsrCyWYrcxpC4nAdpja1+flZVVaWlpdXU1 RVFPnz51cnIaNmxYaWnplStXamtrDx8+PH78eG1aWIrXTvj5+clkMolEIpFIpFIpqUvIQDPY+o4a OnToxIkTe/fuLZfLe/fuvX//fqFQmJycPGXKFIlEMmvWLLzLQZsWoDMej3fx4kW8TTV58uRx48YZ OlHbx+IVh6tXr169erVqS3h4+NOnT5m2AGBC4GcAACRBRQFAElQUACRBRQFAElQUACRBRQFAkkmO 1wc0VVVV/fHHHwihgIAAQ2dp16Ci2ohnz57hI7lxcXFCodDQcdov+NUHAElQUe2Fs7Mzh8OBU/vY xvhX37t373Jzc8vKyqqrqzt37uzs7Ny3b18i400DVtnb2+fm5l66dAkhNGLEiN69exs6UdukbUUp lcpz587t3Lnz8uXLMpnM2tra2tq6tra2pqaGx+MNGTJk7ty5o0ePJnLtDWDJs2fPrl69ihDq1auX obO0WVr9Brh9+3bfvn0///zzXr16paenSySS169fi8XiV69evXnz5pdffgkKCpo5c2ZwcDDe3QRA u6VVReXn5w8aNKioqGjLli2hoaGqV0p26NBh2LBhmzZtKi4uHjFiBB7eAIB2S6tffVFRUVFRUfSf FRUVL168QAiJRCJHR0fc2LFjx40bN7IREQATwmDPD0VRO3fu9PHxEYlEgYGBgYGBIpHIx8cHHwYB ACBG+/oSEhK++eabuXPnhoWFiUQihFB5eXlWVlZcXNyLFy/WrFnDWkgATAaDitq9e/fevXunTZum 2hgREREUFLR48WKoKAAQo199crm80eNOlpaWpMa4A8DUMfiOmjx58syZM4uLi4cPH+7g4IAQqqio yMrKWrt27ZQpU1hLCIApYVBRW7du7dSp0+rVqxcsWEA3WllZzZkzZ+3atSxkA8D0MKgogUCQmJi4 du3ae/fu0XvPe/ToIRAIWIsHWAFn97GH8Xl9AoHA2dkZvyUikQjKyRR1795dKpXi8dDNzc2JDJIM MAarkqKoXbt2bdmy5cmTJ3Sjt7d3fHz8vHnzWMjWQpgWW3TrFtO/K7o34+mHxuPxjh8/fvz4cYRQ fHz80KFDDRUJd2JUa0nPTkzyeBRFUfSsAjSFQkFkJoFGO9e5K1LvsWYkPPHHu3fvEEJmZmZ69s90 NgqCawn9NcWB/l0RjKQzkzwexeFw1H6oEJybA3elZz+I6NwcXC630UiFhYXx8fEIoejoaC8vL336 Z5qzqUhMEZybg1QkPSsKjkcBQBIcjwKAJDgeBQBJcDwKAJLgeBQAJMH1UQCQZJLHowAwWiZ5PAoA owXHowAgCY5HAUASHI8CgCQ4HgUASbocjwoKCmIjCgBtAFzLCQBJUFEAkKTL9SSNjtIMAEBwFhIA ZMFZSACQBGchAUASnIUEAElwFhIAJMFZSCamoaHhwYMHCCH8oaY/GP6SLDgLycS8evVqxYoVCKGx Y8cOGjRI/w59fX1ra2vxuH82NjZ6Dv0H4Kr49o7D4aSkpKSlpSGEEhISQkJCDJ3ItLF7PConJ2fk yJHOzs54xuuMjAwvLy8HB4fly5fjO2jTAoAJYfF41JkzZ2JjYw8cOBAaGooQkkql06ZNO3HiRFBQ UHBw8PDhwwcOHNhiC34sAKaCreNRSqVStZwQQtnZ2S4uLoMHD0YIRUVFHTt2TCaTtdgCFQVMC4OK YnQ86t69e8XFxV999VV1dXW/fv22bdtWUlLi4eGBb/X09MzNzdWmhe4wIiKioaEBL0dGRg4YMED1 6RQKBZfLJTXuuZ6dYEqlEg/2r39XUqkU99MK8z5JpVK5XK59JD3hyRaIvC6CkZjOq6CKreNRZWVl 3bt3v3DhglAonDp16tdff+3r66tzSoRQdHQ0PfMCRVEdOnRQvZXgTAJ1dXVqneuG4EwCmq+XPUKh UCgUtng3UpEIziRAKpKeFc7W8ShbW1uZTGZhYYEQCg8Px7/fioqK8K1isdjd3d3Nza3FFrrDsWPH 0stZWVkMXiIArYhBLeLjUZWVlbdu3crIyMjIyLh161ZlZWViYqLmPvSAgIB3797997//pSgqNTW1 f//+w4YNKy0tvXLlSm1t7eHDh8ePH69NC9EXCwDr2Loq3szM7MiRIzNnznzz5s3QoUPj4+OFQmFy cvKUKVMkEsmsWbPwLgdtWgAwISyegTJ06ND8/HzVlvDw8KdPnzJtAcCEMKgotfJQ06tXL73DAGDy GFRUSEgIvf9aE9mplwEwUQwq6tSpU2PGjPnxxx979OjBXiAATBqDivrggw9mz569a9eujIwM9gIB YNKYHcn66quvQkJC9DmiDEDbxmxfn0gkWr9+PUtRAGgDYARMAEiCigKAJKgoAEjSsaIePHiAj03R CwAApHNF+fv7379/X3UBAIDgVx8AZEFFAUASVBQAJEFFAUASVJQJIDIgiTacnZ1b54naMB2vOMzM zMQjsdALgD0WFhYSiQSxP0a5paXloUOHbt68iRCaP3++p6cnq0/XJun4DoWFhaktAPZIJJKoqCiE UGho6IQJE1h9rhcvXhQWFiKE6uvrWX2itgp+9QFAElQUACRBRQFAEuOKqq2tnTt3rpubm0Ag4Khg IxwAJofxnonZs2dfuHAhLi7O19fX3NycjUwAmC7GFXX27Nldu3apzdDR+jSHXiIyGBP1F/27onsj 0pVBNBOe1EvDnRB874j0o8/DGVcURVGqw5EbBEVR9KwCNIVCQWQmgUY717kr/d9jA/6iViqVTeUn uJYQQqS6IhhJZ4wrytHRMSUl5e7du2rtMTEx+uRghMPhqB3rJDg3B+5Kz34Q0bk5DIXH4zV1E5fL JbKWCM7NQSpSa1dUaGhoZmZmZmamWntrVhQARotxRe3fv5+NHAC0DVr9JikvL9dmdP/i4uLS0lK9 IwFgwrSqqJSUlJ49e3711VdNFUxZWVlCQoK/v/+BAweIxgPAxGj1qy8+Pr5nz54rVqzYsGFDSEhI //79u3TpYmVl9ebNm7KysmvXrv3xxx9BQUHHjh2LiIhgOzEAxkzb7aiRI0eOHDny999/P3/+/G+/ /ZaVlVVTU2Ntbe3s7PzPf/5zy5Yt/fv3ZzUoACaB2Z6Jfv369evXj6UoALQBJny0BAAjBBUFAElQ UQCQpHtF1dfXw0RSAKjR5fqomJgYR0dHCwuLgoIChFBOTk5KSgoL2QAwPYwrKjY2Ni0tLTExUSAQ 4JaioqKEhATSwQAwSYwrKjU1dceOHdHR0fRZ1c7Ozs+ePSMdDACTxLiiFAqF2unueXl59vb25CIB YMIYn3s+efLkBQsWWFpaIoTEYnF2dvaaNWvi4uJYyAaA6WFcURs3bqyrqwsLC1MoFO+//z6fz58x Y8by5cvZCAcMCEZs1g3jijIzM0tKStqwYUN+fr5QKOzataudnR0bydo5iqIOHjyIEHJychowYEDr BxAKhdu3b8/Pz0cIrV69GgpMSzpeRWxraztkyBCyUYAqiqJOnjyJEAoICDBIRSGEqqury8vLEUJy udwgAUwR44pqdCfEiBEjjhw5QiIPAKaNcUUlJiaqtdy8efP8+fOE8gBg2hhX1IwZM9RaLl68+MMP PxDKA4BpI3CmbEFBQTPDUAHQrjD+jjp69Ci9XF9f//Dhwz179owfP55oKgBMFePvqM9U/Otf/zp9 +vTcuXO3b9/e1P3XrFlD78zIyMjw8vJycHCgj19p0wKACWH8HcVo6rvTp09nZGTgZalUOm3atBMn TgQFBQUHBw8fPnzgwIEttoSGhjJNCIABEdiOKisra3TPxPPnz1evXk3flJ2d7eLiMnjwYCsrq6io qGPHjmnTon88AFqTVt9RaWlpZWVljd5EUdTZs2fz8vI0Z+tYsGDBmjVrOnfujP8sKSnx8PDAy56e nrm5udq00L1FREQ0NDTg5cjISLWDngqFgsvlkhr3XM9OMKVSqfPMWhwOx8zMjEgMUtQuMJVKpUSm OMCTLRAZHZ5gJH0updWqojIzM5s6gMvhcJycnHbt2qXWfvPmzfLy8sjIyMrKSp3DqYqOjqZnXqAo qkOHDqq3EpxJoK6uTq1z3eg5k4CxXR+tNleY5lugG4IzCZCKpGeFa/VKtmzZsmXLFkb9pqamPn78 2M/PT6FQVFdXf/DBB1988UVRURG+VSwWu7u7u7m5tdhCdzh27Fh6OSsri1EYAFqNLp8NFEWlpqZe v34dIRQSEvLhhx9qfjkkJCTgC3srKyv9/PzS0tKkUmlpaemVK1cCAwMPHz68d+/egQMHttii/ysE oDUxrqhXr16Fh4ffuHHDzc0NIbR+/fr33nvvzJkzLi4uzT9QKBQmJydPmTJFIpHMmjUL78TTpgUA E6LLPLz4wK6vry9C6PHjx5988klMTMzp06cbvb+9vT29KRUeHq42x4c2LQCYEMYV9fPPP//nP//B 5YQQ8vHxWb169cSJE0kHA8AkMd6n0aFDh6qqKtWWqqoqIvtYAGgDdPnVt2TJEi6XO2zYMITQ5cuX Fy5caPCp4wEwEowratWqVQ0NDfPmzcPHW4VCYUxMzNdff81CNgBMD+OK4vF433zzzZdffnnnzh2E UK9evWxtbVkIBoBJYrwdlZ+fX1NTY2NjM2TIEB6PFxsbGx8fX11dzUY4AEwO44qKjIxMT09HCBUX F48cOVIsFp85c2bOnDksZAPA9DD+1VdSUuLt7Y0Q2rlzp7+//+XLlzMzMydNmsRCNgBMD+OK6tKl S25uroODQ1JS0v79+zkcjo2NTW1tLRvhADA5jH/1LV68OCYmxtvbOygoaPTo0Qihu3fvenl5sZAN ANPD+Dtq3rx5Q4cOraioGDRoED7pvX///nBKKwCYLuee+/v7i8XirVu3NjQ09OnTJzw83M/Pj3gy AEwR44p69uzZiBEjCgoKXF1d5XL5ypUrBwwY8PPPP1tbW7ORr7358ssvGxoa7O3tly5daugsQBeM t6Oio6M7duwoFouLiopKS0tv375dVla2YMECNsK1Q0+ePCksLKQvuzQSMD+Y9hhX1K+//rps2TJ8 cRRCKCAgYNWqVXjMe9BW8fn8VatWTZo0adKkSa9fvzZ0HKPG+Fefo6MjPYIK5ubmxmjIMWCK3r17 J5FIEEJqM1wCNVpV1MWLF+/du4eXnZycNm/erHpBx59//unk5MRKOgBMjVYVlZ+fv3nzZtWWb7/9 VvXP4cOHkwwFgMnSqqLmz58/f/58tqMA0AbocjzqzZs39+7de/PmDd1iZ2f33nvvkUsFgKliXFHp 6ekTJkyoqalRbQwICMjLyyOXCgBTxXjv+b/+9a/Ro0dXV1e7u7v/9ttvFEVdu3bt2bNnbIQDwOQw riixWDx9+nRra+vq6mpLS0uEEI/Hw/tVAQCMf/XZ2Njgo08+Pj5nzpwJCAhIS0tzdXVlIVtzNI+K EDlOQv1F/67o3rS/P5GB8FsBwbWEOyH43hHpR5+HM66oRYsW4ek2vvzyywkTJqxbt04qlWrOJMAq iqLoWQVoCoWCyEwCjXauc1eM3h4iA+q3AqVSSXAtIYRIdUUwks50qSi8MG7cuF69et2+fbtHjx6B gYH6hGCKw+Go/fMRnJsDd6VnP0jvuTmMGY/H43K5RNYSwbk5SEVq7YpS5e/v7+/vr08PALQxbfAT FAADgooCgCTdK0ptGkkAANKhompra2NiYhwdHS0sLAoKChBCOTk5KSkpLGQDwPQwrqjY2Ni0tLTE xESBQIBbioqK8HSGAADGFZWamrpjx47o6Gh6v7CzszOchQQAxriiFAqF2g77vLw8GIeg/bCyskII wYxhTWF8PGry5MkLFizAZ/SJxeLs7Ow1a9bExcWxkA0YIy6Xm5CQUF5ejhDauXOnUCg0dCLjwrii Nm7cWFdXFxYWplAo3n//fT6fP2PGjOXLl7MRDhinqqoqXFFAE+OKMjMzS0pK2rBhQ35+vlAo7Nq1 q52dHRvJ2o89e/bU1tbyeLyFCxcaOgvQF+OKqq+vNzc3t7W1HTJkCG6RSCRVVVUeHh6ks7UX169f r6ysNJXTZEHzGO+ZGDBgQHJysmrL0aNHR40aRSwRAKaMcUXdv3+fHv4S8/DwePToEblIAJgwxhVl bW394MED1Za8vDyYihcAjPFv9zlz5qxYscLCwmLo0KFcLvfSpUurV6+OjY1lIxwAJodxRa1YseLN mzdz5syRSqUIIT6fP3PmzJUrV7KQDQDTw7iiuFzut99+m5CQ8PDhQ6VS2a1bNxsbGzaSAWCKdNxj a2Vl1adPH7JRAGgDdLmaY+7cuW5ubgKBgKOCjXAAmBzG31GzZ8++cOFCXFycr6+vubk5G5kAMF2M K+rs2bO7du2aNm0aG2kAMHWMf/VRFOXu7s5GFADaAF3mOExJSbl7965ae0xMDKFIAJgwxt9RoaGh mZmZ32pQu9vLly8nTJhga2vr4uKybds23JiRkeHl5eXg4EBf/aFNCwAmhPF31P79+7W5G4fDCQsL O3To0IMHD4KDgz/++GNHR8dp06adOHEiKCgoODh4+PDhAwcObLElNDSU+YsCwGB0v4Kgvr5eKBQ2 NQqxvb39jBkzEEL+/v7m5uZv377Nzs52cXEZPHgwQigqKurYsWMymazFFqgoYFoYV1Rtbe2yZcuO Hz/+8uXL+/fv+/n55eTklJaWTpo0qdH7b9q0KSQkpHv37leuXKGvofL09MzNzS0pKWmxhe4nIiKC nqM+MjJywIABqs+iUCi4XC6pcc/17ARTKpXaHKmzsLAg8nSGUldXp89A4XiyBSKjw0ulUiLHRSmK 0mcgSsYVFRsbm5OTk5iYOHv2bNxSVFS0Zs2aRivq4MGDSUlJV65c0TkfLTo6mp55gaIotZFDCM4k UFdXR2RYkjY8k4AqPT8RCM4koPlfoXM/+rxrjF9JampqcnLyqFGj5s6di1uaGl0sPT195cqVOTk5 IpEIIeTm5lZUVIRvEovF7u7u2rTQvY0dO5ZezsrKYhobsAHOldHE1uhiMpls1qxZJ06coKti2LBh paWlV65cqa2tPXz48Pjx47Vp0fmFGbmNGzfGx8fHx8cbOoheBAJBRUVFeXn5ixcvYMhujK3Rxe7d u/fs2bMxY8bgPxcvXjx//vzk5OQpU6ZIJJJZs2bhXQ7atLRJJSUlYrEYEZrez4AWLVr0+vVrgUBw 8uRJQ2cxCmyNLhYUFKT5oRUeHv706VOmLQCYEBhdDACSdNzHojq6GACAxriiGh3ifMSIEUeOHCGR BwDTxriiEhMT1Vpu3rx5/vx5QnkAMG2MKwqfW6Tq4sWLP/zwA6E8AJg2Akf0CwoKeDye/v0A0AYw /o46evQovVxfX//w4cM9e/a04UOxADDCuKI+++wzelkgELi4uMydO3fFihUkQwFgsnSZm4ONHAC0 DYwrqqqq6s2bN83cwdPTU/c4AJg4xhX16aefXrx4sZk7mPqJagDog3FF3b9/f9u2bf/4xz/olvXr 11dVVW3evJloMABMEuOKqqys7NmzZ69eveiWiRMnzpw5U7UFgHaL8fEokUh048YN1ZYXL17A7goA MMbfUTExMWvWrLG0tBwxYoRAILh69eqyZcuioqLYCAeAyWFcUQsXLqyqqvriiy/wCCc8Hm/KlCmw EaWN9PT0Fy9eIISmTp1q6CyEweXxNMYVxePxvvnmmyVLlty9exeuj2IkJycHj8U7ZcoUQ2chDA+9 cvjwYblcbm5u3p7PodHx+ig7O7u+ffs2M14faIdOnz4tlUo7d+7cnitKl/mjYmJiHB0dLSwsCgoK EEI5OTkpKSksZAPA9GhVUSUlJXv37sXLsbGxaWlpiYmJAoEAtxQVFSUkJLAVEACTolVFicXi5cuX r1u3DiGUmpq6Y8eO6Oho+vdeU+P1AdAOaVVRgwcPvnnz5rVr1yoqKrQcrw+A9knbPROurq6pqalI 6/H6AGif2Bqvj22a5+MSOUOX+ov+XdG94eX2dsRGy3WI70bwvSPSjz4PZ1xRT5482b59u2HH66Mo ip5VgKZQKIjMJNBo5zp3Rb897W3gAC3XIV4/pFY4qX70eTjjihowYMCBAwfGjBljwPH6OByO2mwO BOfmwF3p2Q9qN3NzNEXLdUhwbg4ul0tqjg+9YjB9QH19va2trT5PCUAbxrimXVxcDhw4kJeXp9YO M1tram/bTgDpUFGjR48+efLkpUuX1NqhojRxOJx169bhmRp//PFHQ8dpJVZWVhRF4c9cMzMzPz8/ QydqVYwratOmTZs2bWIjCmgbOByOTCbDw2O5urru3r3b0IlaFYPtqOrqarlczl4UANoABhVlY2OD Z9RVKpULFy6EM48A0KTLvl2lUrlp06by8nLiaQAwde30aAkALIGKAoAkZvv6du7c+dNPP+GDyps3 b3Z0dKRv2rp1K+FoAJggBhUVHBwsFovxDOfBwcEFBQX4Gl7QKCJnxJg6KysrQ0dobQze9T/++IO9 HG3Jnj17fv31V4TQvn37DJ3FwDp06FBTUzNnzhyEkK+v75o1awydiHXwOUpeQ0ODRCJBMAQ8Qggh pVKJ10ZdXZ2hs7QG2DMBAElQUQCQBBUFAElQUaCVtJNrW2DPBBkNDQ14IPiOHTsaOouRcnV1lUql xcXFCKEOHTp06dLF0IlYARVFxsGDB8+dO4cQ+uGHHwydxUhxudyKior4+HiEUO/evVetWmXoRKyA X30AkAQVBQBJ8KtPdxKJBB+7dHBwMHQWE0OfEcrlctvYHguoKN2dO3fuyJEjCKHvvvvO0FlMjJWV VVFR0bZt2xBCf/vb39rSFHVQUcAw6uvrCwsLEULOzs6GzkKS0W1HZWRkeHl5OTg4tP7Iz9rIycmJ j4+Pj48vLS01dJY2omvXrgqFAv+EbmhoMHQcfRlXRUml0mnTph08ePDx48fHjh3THMPM4KqrqwsL CwsLC9vAe28k+Hz+rVu3Jk2aNGnSpPT0dEPH0Zdx/erLzs52cXEZPHgwQigqKurYsWOhoaGtnEFz Q/n69et4e2nevHmtHKa9sbGxuXPnzvHjxxFCkZGRffr0MXQixjhGdcXB999///PPP586dQohlJyc fPz48bS0NHxTREQE/bUQGRk5ffp01QcqFAq810goFNIlweVyVafGoJfV2ltM9fr1a3yk38fHp66u rqysDCHUrVu3mpoaPPe7v7//y5cvKysrEUI9evR4/vz569evEUK9evUqLi6ura1FCAUGBj5+/Pjt 27d4uaCgoL6+HiEUFBR07949mUzG4XACAwPv3LmjVCqFQqGfnx8eRLJjx45eXl75+fkIIRsbG5FI 9ODBA4SQg4ND586dHz16hBBydna2sLB48uQJQsjNzY3L5RYVFSGEvLy8ZDIZHrXK19f37du3z58/ Rwh17969urqaDl9RUVFVVYUQ6tmzZ2lpaXV1NUIoICBALBa/efMGBy4sLHz37h1efvjwIX4vgoKC 7t69i0d4DwgIyMvLoyjK3Ny8W7duOHynTp3c3d3xfN62trYODg4PHz5ECDk6OlpbW+PwLi4uZmZm OLy7uztCCK9tb2/vTp06tfjuNDolB367cbvmvwH9Z6M/NCiKOn78eL9+/Xr06NHis2symYo6deoU PfMCRVGffvqp6gMJziQglUrNzMz07AepFLn+XclkMnqOVn0olUqEEJHJDRoaGoisJYqilEolkYlL pFKpUCgkEungwYN9+vTRraKM61efm5sb/nBFCInFYvyJhY0dO5ZezsrKYi8DkRlT0F+fnUQqSiqV Eqkogp+ecrmcVEWRSiWTyYhUlJ6Ma8/EsGHDSktLr1y5Ultbe/jw4bY+WOYAAAr8SURBVPHjxxs6 EQDMGNd3lFAoTE5OnjJlikQimTVrVuvvlgBAT8ZVUQih8PDwp0+fGjoFADoyrl99AJg6qCgASIKK AoAkqCgASIKKAoAkqCgASDK6vefaqKysxBerEVddXV1VVeXj48NG57ppaGgoKCgICAgwdJD/cefO ne7duxvDOQq0wsJCe3v7zp0769+VRCLp27evbo81rvP6tPTq1St8milxZ86cOXHixKFDh9joXDdF RUWjRo3CZ8oajx49eqSnp6ueJmZwkyZNmjhx4ocffkikN5FIpNvZhib5HWVra8tSzzY2NmZmZkY1 lFxdXR2XyzWqSAghLpcrEomMKpWZmZmNjY3BI8F2FAAkQUX9D6FQaGlpaegU/4PL5RLZNiCrc+fO RK4KIcjS0tIYtutMcjsKAKNlXB8zAJg6qCgASGrXFXX16lVbW1s8atzLly8nTJhga2vr4uJCH+xa vHixvb29p6enp6dn60xDrBqp0QAGGX1NNVVqaqrTXzp27Dhr1qxGc7Kn0XdKc7UYbJg6qr1auHBh 9+7dO3bs+OjRI4qiXr58mZSUJJPJ7ty5IxQKS0pKKIqaPXv2kSNHDBVJM0BDQ4NIJLp8+XJNTY2v r+/FixcNkgp7/fq1u7v77du3NXOySvOd0lwtBllRWPv9jho1atSff/5J79mzt7efMWMGn8/39/c3 NzfHgxa9evXKzs7OUJE0A9Cjr1lZWeHR1wySCktMTBw1alRgYKBmTlZpvlOaq8UgKwprvxU1bNgw CwsLzfZNmzaFhIR0794dIaRUKqOjo/v3749HkGv9SGoBSkpKPDw88E2enp54FK7WT4UQkkgkBw4c WLZsWaM5Wwf9TmmuFoOsKMwkz5lgz8GDB5OSkq5cuYL/PHHiBEVR2dnZ48aN8/Dw6NevXyvnUQvQ ys/ejJMnT/bp08fV1RX/2forSu2dMh7t9ztKU3p6+sqVKy9cuCASiehGDocTGhoaHh5uqDdPNUAz o6+1stOnT3/yySeqLa25otTeKc3VYsgV1WpbbMZJJBLhDW6pVOrm5nb9+nX6prq6OrFYTFFUcXGx j4/P+fPnWzmSZgC8wf3rr7+2/gY3nQqzsbF58OABXm7lFaX5TmmuFgOuKKio//tHuXXrFofDcfnL tm3bHj9+7O/vj8cZTkxMbP1IjQY4f/68p6envb39smXLWi0S9b8V9fz5c6FQKJfL8Z+tvKI03ymq sdViqBUFZyEBQBJsRwFAElQUACRBReklLi6Onj1EdZmRV69eLV26FE+W0wqIPB2RTrZs2VJeXq7z w1NSUvCcOsalNTfa2gC5XO7l5bV582b8p0gkSkpK0lxm5M6dOwihp0+f6p+H0dO1+Nhm7qBPZiw9 PR3PeaVzD7GxsSEhIQqFQuce2ADfUQgh1L9/f46GMWPGaN6Tx+P16tXLxcWl9UM2Sp88LT6W1Reb kJAQFxfn5eWlcw9r164tLCxMTU0lmEp/cM4EQgjt2LGjpqYGIfTll19aW1svXboUIeTo6Njonc+e Pduq4VqiT54WH8vSi71+/fqNGzdOnjypTyedOnWaNm3arl27IiMjSQXTH3xHIYRQnz59wsLCwsLC 7OzsnJyc8HJgYODGjRtFIhGewzMjIwPf2dPTc+fOnc132NDQMH/+fDs7O0dHx+nTp+O5N1XV19fP nTvX2tpaJBLFxcW1+MBdu3Z5enqamZn5+PiojYukmic6Otrb29vS0tLS0jIqKgpPWNrM09GPnTp1 qurcQuPGjYuKilLrvKlOzM3Njx49ipf37dtnb2/fYua0tLSQkBD6JCalUrlu3To892lwcDAe6Aq/ lo4dO4pEooULF65cudLb29vc3HzIkCF44laE0OjRo7Ozs/F0pkYCvqOaM3To0MDAQAsLi3379o0f P/7Zs2dajkIRExOTnZ29f/9+Ho8XExOzbNmyHTt2qN5hzpw5qamp3377rUgkwtNmN/PA/Pz8mJiY bdu29e/f/8mTJ25ubk0978WLF4cPHx4VFVVcXLxo0aKlS5fu3r27maejRUREfPbZZ3guUIqiLl++ vHXrVrX7tNiJquYzX716tX///vSfixcv3rdv39q1a/38/EpKSszNzfFrCQsLmzp1al5eXlxcXGBg 4Pr16zt06LBgwYLY2NgTJ04ghPr27SuTyXJzc4cNG9Z8ntZj6A054zJy5MioqCjNdjzZ8++//05R lIeHx44dO3B7o3smqqqqeDzehQsXcPv333/v4OCg2ltlZSWPxzt06BD+k97Kb+qBFy5c4HA4Te0G UM2jurx+/XpXV9dmnk71/tXV1QKB4JdffqEo6vr163w+/9WrV6p3aKYTMzMz+uKopKQkOzu7FjP3 7Nlzw4YNeLmmpsbMzGzfvn3NvK6wsLDPPvsML+/cudPW1pa+W+fOnQ8fPtzosxgE/OprzqlTp/r2 7WtjYxMUFIQQon9ENS8/P1+hUHzwwQfm5ubm5uazZ89++fKl6pCdjx49UigUAwcO1PKBgwYNGjRo 0HvvvbdkyZLS0lItw3fr1g3vm27q6VRZW1sPGjQIb+WnpqYOGDDAxsZG9Q7adKKq+cw1NTVWVlZ4 Gc883/yXjKen58uXL/Gyu7v769evqb/O9bG2tsafd0YCKqpJ9+/f//TTT0eNGpWdnc1olFk8xtVP P/1069atW7du5eXl3b9/X3XgK6lUihCSyWRaPlAoFF66dCkpKSkrK8vPz+/q1avaxDA3N5fL5c08 nZqPPvro9OnTFEWdPn36o48+Uru1mU4EAoHmEL/NZ7a2tqY3EbWZwd7MzAy/Fvx0FEXRE5DX1tYa 1ehrUFFNun37Np/PX7lyZVBQ0KBBgxq9D4fz/0+MpJe7du3K4/HEYrGfCtX/mJ49ewoEgszMTLXe mnkgj8f75JNPrl+/HhQU9O9//5vRC2nq6dRMnDixvLz8+++/v3fv3sSJE7XvpEuXLgUFBZrtzWR2 dnam9y5069aNz+dnZ2dr/4podXV1NTU1zs7OOjyWJbBnokk9evSQSqXr1q0LDw+nPxHVODk5paam RkREODs7qy7PnDlz6dKldXV1AQEBFRUVrq6uQ4YMoR9lZ2f3xRdfLFmypK6urnfv3nibBLc3+sAH Dx5cu3atZ8+e1dXVz58/ZzrIfVNPp8be3j4iIiI2NjY8PFz1CrEWO/noo4/27Nnj6enZtWvXP//8 Ezc2n/nvf/97VlYWXraxsZk5c2ZcXFxtbW3Pnj1LSkrGjRun5R6g3NxcHo+n86j/rDDoVpzRUdsz sXv3bi8vLz6f36lTJ39//5s3b1L/u8V89uxZd3f35ORktWWZTLZ8+XJnZ2czMzNvb2/NTWe5XJ6Y mOjq6ioQCJydnUNDQysrK5t64KVLl3x8fPh8vq2t7fjx4/FWBK2pPRPnzp2j39+mnk71/hRFpaen I4TOnDnTaOdNdfL27dvp06d36tTJwsLCw8NjwoQJLWa+evUqn88vKyvDf8pksq+++kokEvH5/G7d uuGrrVSfet68eSNHjsTL58+fRwjJZDKKohYsWBAaGtry+9qK4GoOYBjBwcERERGrV6/WuYe3b996 eHh89913H3/8McFgeoKKAoZx7ty5iRMn3rt3T+dL1hctWpSZmXnjxg3dpqVhCWxHAcP48MMPly5d qs90BH5+fuPHjzeqckLwHQUAWbD3HACSoKIAIAkqCgCSoKIAIAkqCgCSoKIAIAkqCgCSoKIAIAkq CgCSoKIAIOn/AVbuf81H24CuAAAAAElFTkSuQmCC "
       height="325"
       width="283" />
    <image
       y="4.0050445"
       x="843.78577"
       id="image4307"
       xlink:href="data:image/png;base64,iVBORw0KGgoAAAANSUhEUgAAARsAAAFFCAIAAABTy97xAAAAA3NCSVQICAjb4U/gAAAgAElEQVR4 nO2deVxU1f//7ywMg7LvswCzsLmBW0auYBZUaGmF9iGzzPpU+snMMivN1kf2afWjZUUZ+ZD60GYL mSQqpWSiuAECss0wDBCbgDDAbPf3x/01n/nOwDDLuXPvZd7Pv+7cc+/7vuYOL849555z3iwcxzEA ABDBploAAIwrwFEAgBJwFACgBBwFACgBRwEASsBRAIAScBQAoAQcBQAoAUcBAErAUQCAEnAUAKAE HAUAKAFHAQBKwFEAgBJwFACgBBwFACgBRwEASsBRAIASLtUCHOCXX37R6/VIQun1ei4X5Xc3Go1s Nsp/T6DQdZxW2Nraunjx4tjYWCfOZZKjvLy8brnlFiShBgYGJk6ciCQUhmE4jhsMBrR/XsgV6vV6 Ly8vVAEx1AoxDNPpdDRRuH//fq1W69xF4akPAFACjgIAlICjAAAl4CgAQAk4CgBQAo4CAJSAowAA JSQ6qrCwUCqVhoWFbdu2zc6il19+OTQ0lDxJAEA2ZDlKq9WuWbNm//799fX1+fn5x48fH7Po4MGD hYWFJOkBAPdAlqOKi4tFItGCBQv8/f2zs7Pz8/NtF7W2tr700kuff/45SXo8B4PBcPz48RMnThgM Bqq1eCJkjUJSqVQxMTHEtkQiKS0ttV20efPml19+OTAw0CLO22+/bRrLJxAIUP2VGI1GhH9wOI6j DYg5qxDH8VdeeaW7uxvDsJ9//nnHjh08Ho9WChkR0JUUULQY13fu3Lm2trZly5Z1dnZaFDU2Nup0 OmI7KCgI1UhZo9GIKhT2998r2kxcziksKirq6up6/fXXORzO66+//umnnz700EPY3yMPEcpzWqEN 0EbDXFBIR0dFRUUplUpiW6FQREdH2ygqKCior69PTEw0GAw9PT233nrroUOHiAP27NljOrGoqMjb 2xuJPL1ejyoURs5IWScUGgyGgwcPPvbYY35+fhiGPfnkk+vXr8/IyIiNjSVjpCzae4hhGJvNpolC V4bAk9WOSk1NVavVJ0+e7Ovry8vLW7lyZU9PT25u7ohFL7zwglKprK6uPnXqVGBgoMlOgEOUlpb6 +PjMnDmT+BgUFLRixQringNugyxH8Xi83Nzc1atXy+XyrKystLS0ysrK7du3azQa6yKSNHgaR48e vemmm8z3LF26tKmpqbKykipJHgiJ7aiMjIzGxkbTx3nz5qlUqhGLTISGhlo3pQB7GBgYuHjx4vr1 6813ent7r1ix4quvvnrxxRcp0uVxwJiJccKpU6fi4+ODgoIs9mdkZNTX1zc0NFCiygMBR40TTp06 NX/+fOv9fD4/PT39p59+cr8kzwQcNR4YGhq6dOlSSkrKiKXp6el//PGHRqNxsyrPBBw1HigrK4uJ ibF+5CMIDw+Pi4s7ffq0m1V5JuCo8cDp06evv/56GwfMnz//jz/+cJseTwYcxXgMBkNZWdmcOXNs HHPDDTdUVFTAg58bAEcxnurq6okTJ5qGSo5IQECATCY7f/6821R5LOAoxlNWVjZr1qwxD5s5c+bZ s2fdoMfDAUcxnnPnzs2YMWPMw6ZPn37u3Dm0w3kBa8BRzKa3t1elUiUlJY15pEwmMxgMpjHKAEmA o5hNeXl5XFwcn88f80gWizV9+vQLFy64QZUnA45iNuXl5fZUUAQzZswAR5ENOIrZVFZWTps2zc6D Z8yYUVlZ6fQa+YA9gKMYzLVr11pbW+Pj4+08Pjg4ODIysry8nFRVHg44isFUVVVJJBKHpqnOnDmz rKyMPEkAOIrB1NTUJCQkOHTK7Nmz4a0UqYCjGMyVK1cmTZrk0CmTJ0/u6+tTq9UkSQLAUUwFx/Ha 2tq4uDiHzuJwODB4glTAUUylpaWFzWZHREQ4eiI8+JEKOIqp1NXVxcbGslgsR0+cNWtWVVXV4OAg GaoAcBRTqa+vdy6ZeUBAgFgsvnTpEnJJAAaOYi719fUymcy5c2fOnAmDJ0gCHMVIcBxvbGyUSqXO nQ7DkcgDHMVIOjo69Hq9UCh07vTExMSOjo6uri60qgCMJpkE7IRYvBtJKOSr4CPURmBb4ZUrVyQS if3JAYhpUaaALBYrMTHxwoULixYtIkmhc7jzHtqAjpkEyIDFYnE4HLqFwv7OzYEwIDaWwqamJrlc bv8ViVwH5sdPnTq1qqpq8eLFJCl0Ar1e7857aPtEpy/KJEdhrn1VizioQpnHRBvNRkCFQjFr1ixH r2h+/NSpUz/44ANXNDP9HpIEtKMYiSvdEgTx8fF//fVXX18fKkkAATiKeWg0ms7OTtuLH40Jj8eT SqXV1dWoVAEE4CjmoVAoIiMjXc+GlpCQAI5CDjiKebj+yEcQHx9/5coV1+MA5oCjmIdCoUDiqLi4 uPr6elhvDC3gKOahVCqROEogEGAY1tbW5noowAQ4imHgOK5QKCQSieuhWCyWVCqFZG1oAUcxjLa2 Ng6HExoaiiSaVCpVKBRIQgEE4CiG0djYiKSCIgBHIQccxTBQNaIIoqOjYd1mtICjGAaqRhRBdHR0 e3v70NAQqoAAOIphKJVKhI7i8/nh4eHNzc2oAgLgKCYxNDT0119/RUdHI4wZFRXV1NSEMKCHA45i Ek1NTeHh4fZk4rAfcBRawFFMQqlUoq2gMAwTiUSwICZCwFFMAm3XOUFUVBS0oxACjmISTU1NyOso gUDQ1tZm/wR7wDbgKCaBtuucICAgYMKECTC6DxXgKMbQ29ur0WicXv/IBgKBoKWlBXlYzwQcxRiU SqVIJEK7tgmBUCgER6ECHMUYlEqlizPhR0MkEoGjUAGOYgzkOQrqKISAoxgDqY5qbW0lI7IHQqKj CgsLpVJpWFjYtm3bbBddvXp18eLFISEh0dHRe/fuJU8Sc8FxHO2IPnNEIlFHRwfkkEcCWY7SarVr 1qzZv39/fX19fn7+8ePHbRQFBQXt3r27q6ursLDw8ccfh0XkrOno6MAwLCwsjIzgfD4/MDAQOtCR QJajiouLRSLRggUL/P39s7Oz8/PzbRdNmTIFw7DOzs7w8HDX180afygUipiYGPJWSBUKhTAWCQlk rdKsUqlMD/0SiaS0tHTMIrFYrFar9+3bZ+6oY8eOGY1GYtuT6y6VSoV8tIQ5AoEAmlJIoNG6583N zaWlpZmZmcnJyTNnziR2vvPOO8PDw8T20qVL+/v7kVxLq9UiXFULx3Ecx9lslBW+hUIi/5rTX3/M XAdhYWFKpdKh+GjvIYZhFrkOXMdpha6MySLLUVFRUabp1gqFwvz/q42iOXPmpKWlnThxwuSogoIC U2lRUZGvry8SeQMDAxMnTkQSCvs78wWXi/JmWihUq9Xp6elOf30iGY+Xl9doB0gkkvLycofio72H GIbpdDobCp3AaYWuGJusdlRqaqparT558mRfX19eXt7KlSt7enpyc3NHLOru7iaGPzc2NpaUlMyY MYMkVQzFaDSq1Wp46mMEZDmKx+Pl5uauXr1aLpdnZWWlpaVVVlZu375do9FYF9XU1KSmpgYEBNx0 001bt25duHAhSaoYSktLi4+PT1BQEHmXEAqFV69e1Wg05F3CQyCxHZWRkdHY2Gj6OG/ePJVKNWLR DTfcUFdXR54SpqNSqcRiMamX4PF4ISEhbW1tTmfLBghgzAQDILrOyb6KWCyGqYeuA45iACqVKioq iuyrCAQCeCXlOuAoBkDeiD5zxGIxjJd1HXAU3dHr9S0tLe5xFNRRrgOOojtqtdrf39/Pz4/sCxHt KEgn5SLgKLrT1NTkhkYUhmEhISEYhnV1dbnhWuMYcBTdMR8GSSosFgu6+1wHHEV3yFhRbDTEYrHp nSHgHOAouuO2OgrDMJFIBHWUi4CjaA3R0eeedhQGa6CjABxFa9RqdWBgINoh3jaIjo6Gpz4XAUfR Grd19BEIBILBwcGenh63XXH8AY6iNWRP3bWAw+EIhUKoplwBHEVr3FxHYRgWHR0NTSlXAEfRGjfM 47AAHOUi4Cj6QnT0ufOpDwNHuQw4ir60trb6+vq6YUSfOdHR0aZVQAAnAEfRF/c3ojAMEwgEWq0W Rvc5DTiKvri5o4+AzWZDNeUK4Cj60tzc7OZuCQJoSrkCOIq+NDc3u7+OwjAsJiYG6iinAUfRFBzH W1paRCKR+y8No/tcARxFUzo7O9lsNjEL0M3ExMSoVCqYzOsc4Cia0tLSQkkjCsOw0NBQFovV3t5O ydWZDo0yCYwJsXg3klBGoxFVKAKE2ghaWlqEQiGqmESFY380sVjc2Nhou4ZEfg8xRxTag9MKXamf meQoFouFKv8FwlDY3z8A2twcarVaLBajiknk5rA/mkQiUalUc+bMsXEM2nuIYZjBYEAb0GmFruTp YpKjMHR/tcgdhfyvobW1dfbs2VQ5KiYmpqGhwfbx49hRrgDtKJqiVqvdP2DCBHSgOw04io5oNJpr 165FRkZSJYBYDRO6+5zAeUcNDQ2Z8nkCaGlubg4NDeXxeFQJCAkJ4XK5f/31F1UCmIvDjurr69uw YUN4eLiPj8+VK1cwDPvtt9+++OILErR5Lmq1WiAQUKtBJBLBZF4nsMtRKpXq448/JrY3btx46NCh nTt3mhI8KpXKF154gSyBHgkdHBUVFQWOcgK7HKVQKLZt2/bqq69iGFZQULB79+61a9eaelEEAgEs 8oYWtVotFAqp1RATEwNjkZzALkctWLDg3Llzf/75Z3t7u8FgsGiwXrp0KTQ0lBx5HgrxepdaDVFR UfCP0gnsfR8lFouJtO333nvv5s2biaTiCoWiuLj45Zdf3rRpE4kaPQwcx+nw1EfM6cBx3JXXnR6I w29433zzzcHBwSVLlhgMhltuuYXL5a5bt27btm1kiPNMurq62Gw2qXms7cGUqgMeQBzCYUd5e3vn 5OS88cYbFRUVPB4vLi6OkvHR45jm5maRSER5zcBisYhpHeAoh3C497ytrU2v1wcHBy9cuDAlJSUk JKSlpeXMmTNkiPNM6PDIRwBZD53AYUcJBILq6mrzPUeOHFm9ejU6SZ6OWq2mZKKhNZD8xgkQjEKK iIhQKBSuxwEIqJq6aw04ygnsbUc1NDSUlpYS24cPH66oqCC2e3p6Pvzww0mTJpGiziOhVR0FHeiO Yq+jlErl/fffj2GYt7e3qWePxWIFBATMnDnz7bffJkmfp6HVajs6OsRiMR3GTAqFwv7+/r6+Pn9/ f6q1MAZ7HZWWljY0NESqFADDsNbW1oCAAB8fn4GBAaq1YBwOJzIykkhWT7UWxgCzOegFMXWXahX/ Ax78HMXeOmrXrl0CgSArK2vPnj0jHrBhwwZ0qjwXOozoMwcc5Sj2Omrv3r0JCQlZWVlvvfXWiAeA o5CgVqslEgnVKv6HWCw+deoU1SqYhL2Oqqys5HA4GIZBRzmpqNXq+fPnU63if4hEInjJ6xD2tqMI O2EYVlFR0dvbS2yXlJSsXr36ySefhMytqKBbO0okEhGjZKgWwhgc7plYtmzZ4cOHMQxrampKT09X KBQ//PDDo48+SoI2j+Pq1atarTYiIoJqIf/Dz8/P19e3tbWVaiGMwWFHqVQqmUyGYdiePXsmTZr0 +++/792798iRIyRo8ziIEX2Uj5G1QCgUwoOf/TjsKKFQWFpaqlAocnJynnvuORaLFRQU1NfXZ31k YWGhVCoNCwuznuthUdTR0bFq1arg4GCRSLRr1y7nvsk4gKr0NrYRiUQtLS1Uq2AMDjtqy5YtGzZs kMlkycnJt99+O4ZhlZWVUqnU4jCtVrtmzZr9+/fX19fn5+cfP37cRhGLxVqyZEl7e3thYeGWLVs8 truWbo0oAqijHMJhR61fv768vLyoqOjXX38llppISUkxretiori4WCQSLViwwN/fPzs7Oz8/30ZR aGjounXruFzupEmT+Hw+HYYLUAJ9RvSZA3WUQzizSvPUqVPNPyYmJiYmJloco1KpYmJiiG2JRGIa ZWu76O233549e3ZCQoJpT2Njo2lZi+HhYSfUMghKEu+OiUgk8tinBidw2FF9fX1bt2796aefLDpV XV9/dP/+/Tk5OSdPnjTfOW/ePNN4wi1btqSlpbl4FQKtVouwAwDHcRzHXVxiW6vVdnZ2BgUFaTQa jASFRqNRp9M5ca6/v39fX19XV5ePj4/5frQKMQwzGAzOKRwNpxW6MkzZYUc98sgjR48e3bRpU2xs LJ/PH+2wqKgo08LZCoXCPPvliEWHDx/esWPHb7/9ZtF3bP68UVRUNGHCBEcFjwiO46hCYX9nEuBy XUrL0N7eHhwcHBwcbIqJVqFerzctsegQEyZMCAsLu3r1qsXyB2gVYhim0+mcUzgaTit05Z+jw38E P/744/vvv79mzRrbh6WmpqrV6pMnTyYlJeXl5X388cc9PT3ff//9/fffb12k0+kefvjh7777jpK0 szRBpVLRsFuCQCgUtrS0xMbGUi2EATjsRRzH7fm75/F4ubm5q1evlsvlWVlZaWlplZWV27dv12g0 1kWXL19ubm6+4447xGKxWCz+z3/+49R3YTb07DongLFI9uNwHRUeHv7FF19UVlZa7LceKZuRkdHY 2Gj6OG/ePNMUa4ui5ORkOkywo5ampqakpCSqVYyMSCSyWFwEGA2HHZWWlnbkyBHrQRIw9txFmpub b731VqpVjIxAIDh27BjVKpiBw47at28fGTo8HKPR2NLSQsOucwJ46rMfyB9FC9rb2729vQMDA6kW MjLh4eE6nc405wCwAeSPogX0fLdrgs1mQwYWO3HYUZA/igzo3NFHAGOR7MRhR0H+KDKg54g+c4hX UlSrYAAOOwryR5GBSqWi81MfBiPQ7cbhvj7IH0UGRD4OqlXYQiQS/fjjj1SrYACQP4p6uru7tVot TfJxjAbRjjIYDKYVR4ARgfxR1NPc3CwUCuk2Gd6CwMBAHo/X0dERGRlJtRZa48xwaa1W29vbGxUV JRKJeDweck2eBv0bUQTEe15wlG0c65no7Oxcu3ZtcHCwTCaTyWTBwcHr1q3r6uoiSZyHQOdR5+aI xWLo7hsTB+oojUazaNEilUr1+OOPT58+3Wg0Xrhw4f333y8tLT19+rTFdDTAflQq1bRp06hWMTaw YrM9OOCoXbt2NTc3X7p0ybSM8KpVqx5++OHk5OQ9e/Y8/fTTpAj0AGg+YMKEWCw+d+4c1SrojgNP fd98883GjRstVuWWyWT/+te/vv76a8S6PIZr16719/fTvKOPAOooe3DAUTU1NdOnT7fen5ycXFVV hU6SZ9Hc3CwQCNDOBicJgUDQ399/7do1qoXQGgccNTAwEB4ebr0/IiKiv78fnSTPgikdfRiGcblc oVAImXlt40A7isvlvvfee998843FfpVK5eKiJZ6MUqlk0Ooa0dHRSqVy8uTJVAuhLw44ITMzU6FQ jJjtJjMzE5kiD0OpVKanp1Otwl5iYmIg3ZFtHHDUwYMHydPhsTQ1NTGojoqJibl48SLVKmgN5OGl kmvXrl27do3mY2TNgTpqTMBRVKJUKoVCIYNaoQKBwGAwdHR0UC2EvoCjqESpVJqWgGcELBZLIpE0 NDRQLYS+gKOopKmpiVmOwjBMLpeDo2zAmOcN7O/lxZGEMhqNqEKZcCJgY2PjjBkzRjwRrUJi2jWS gFKp9M8//zQYDDS5hzZwWqEraTGgjqISBr3eNQF1lG2YVEexWCxUE0jZbDbCuahE5elowM7OToPB MNpcQ+QK9Xo9koASiUSj0Vy9etXHxwftfF6j0Yg2oNP30JXZn1BHUYZCoYiJiaH51F1rOByOXC6v ra2lWghNAUdRRmNjo8VAfqYQFxdHLH4KWAOOogyFQsFQRyUkJNTU1FCtgqaAoyiDuXVUQkJCXV0d 8o6+8QE4ihqGh4dbW1ulUinVQpwhNDTU19cXpnWMCDiKGpRKZWhoKNo8tu4kISEBOidGBBxFDY2N jQytoAjAUaMBjqKGhoYGuVxOtQrnSUxMhM6JEQFHUUNDQwOj6yipVNrV1QVrTlgDjqIAg8GgUChk MhnVQpzH29s7Ojoa3kpZA46iALVa7ePjw/QUQXK5HBxlDTiKAurr6xndiCKAsUgjAo6igLq6utjY WKpVuIpcLq+rq6NaBe0AR1FAbW3tOHCUSCQaHByEGfIWgKPcjcFgaGhoiI+Pp1qIq7DZ7NjYWHjw swAc5W5UKpWvr29QUBDVQhAgk8kaGxupVkEvwFHupqamJiEhgWoVaIBpHdaAo9zN+GhEEcjl8vr6 eqpV0AtwlLupqakZB40oArFYrNVqoXPCHHCUWxkcHGxubo6Li6NaCBpYLJZUKoU+dHPAUW6lrq5O JBIxdxKHNbA0kgXgKLdSVVU1adIkqlWgBDrQLQBHuZUrV66Mm0YUgVwuhw50c8BRbmU8dZ0TiMXi gYGB7u5uqoXQBRIdVVhYKJVKw8LCtm3bZk9RSUlJcHDwOG7mtrW16XQ6xi0iaxsOhyOVSqEP3QRZ jtJqtWvWrNm/f399fX1+fv7x48dtFz399NMPPvigVqslSQ8dIPrNGbfk5ZjAWylzyHJUcXGxSCRa sGCBv79/dnZ2fn6+7aLbbrvt/Pnzvr6+JOmhA9XV1YmJiVSrQA84yhyy1j1XqVSmPC4SiaS0tNR2 UWpq6ohxhELh0NAQsb1ly5a5c+cikafVahHWFTiO4zjOZo/x76mqqiorK0uj0dgTE7lCo9Go0+lQ BcTMFIrF4ry8PDu/lw0MBgNJCh3FaDQ6fVG6ZxIoKSkxpR6pqqpC9SYHx3GEL4WITAK2UxUODQ0p lcpp06bZeV3kCvV6vZeXF6qAmJnC+Pj4/v7+4eFhF4f/6nQ6khQ6ypj/HG1AlqOioqKUSiWxrVAo zJM32yiyxnx5E0a/SaytrRUKhX5+flQLQQ+Hw5HJZLW1tXPmzKFaC/WQ1Y5KTU1Vq9UnT57s6+vL y8tbuXJlT09Pbm7uiEUkaaAVNTU147IRRRAbGzuOO2kdgixH8Xi83Nzc1atXy+XyrKystLS0ysrK 7du3azQa6yKSNNCKy5cvj29HwcgJAhLbURkZGeZv0+fNm2daKduiyERbWxt5eigEx/GampoHHniA aiFkERcX99lnn1GtghbAmAl30NzcjGGYWCymWghZiMVinU43Xv8hOgQ4yh1UVlZOnjx5/L3bNcFi seLi4mDdZgwc5R7G35Bza2CxMQJwlDuorKycMmUK1SrIJSEhAdacwMBRbqCzs7O3t3fcrC0xGgkJ CQ0NDZD4EBxFOhUVFQkJCRwOh2oh5BIcHOzn52d6d++xgKNIp6KiYtq0aVSrcAfx8fHV1dVUq6AY cBTplJeXT506lWoV7iAxMREcBY4il87Ozu7u7nE2E340wFEYOIpsLl26NHnyZLRDqmlLbGxsd3f3 1atXqRZCJeAocrl48WJSUhLVKtwEl8uNi4u7fPky1UKoBBxFIjiOX7x4cfr06VQLcR+TJ0+urKyk WgWVgKNIpKmpyWAwMDrfrqNMmTKlvLycahVUAo4ikbNnz06fPn0cD+ezZvLkya2trb29vVQLoQxw FImcPXt25syZVKtwK3w+Pz4+/tKlS1QLoQxwFFkMDAzU1tbOmjWLaiHuZsaMGWVlZVSroAxwFFmc P38+Li7O39+faiHuZvbs2WVlZa4sJ8RowFFkcerUKc9cyUQqlXp7e1dVVVEthBrAUaSg0+nKysqu v/56qoVQw9y5c//44w+qVVADOIoULl68GBYWJhQKqRZCDXPnzjVfaNGjAEeRwokTJ+bPn0+1CspI SEjw8vKqqKigWggFgKPQo9VqT58+7cmOYrFYaWlpx44do1oIBYCj0HPu3Lnw8HCRSES1ECpJS0sr KSkZHBykWoi7ofu65xag6pMlVtZHEoqIhplpKy4uXrBggYvxSVWIKqaNgBEREbGxsb///vtNN91k f0x3KiQJJjkK4Q1Cfq9NAYeGhs6dO3ffffd5uKMwDLvxxht//vnnG2+80f6YNHGUK30qTHIUi8Wy nf/CfthsNqpQ2P/NzXHmzBm5XO56Lx9yhXq9HmFAzA6FCxcuzM3NVSgUdq5ao9Pp3KxwNFwZignt KMQcO3ZstFxYnoaXl9fixYsLCwupFuJWwFEo6ejoqK6u9uRePgtuvvnmEydOuJ6sjUGAo1BSVFSU kpIyceJEqoXQBZFIlJCQ4FHd6OAoZBgMhqKioptvvplqIfQiMzPz0KFDnjN+AhyFjD///JPP53vI QmL2M2vWLK1We+HCBaqFuAlwFDK+++67ZcuWedSMXXtgs9lLly79/vvvqRbiJsBRaDh//nxvb69D 7148h5tuuunKlSsj5uAbf4CjEIDjeF5e3p133on2dcq4YcKECbfccss333xDtRB3AI5CwG+//TY0 NAR9EjZYvnx5WVmZJ+QZAEe5ilarzcvLW7169bjPvuEKfn5+mZmZn3/+OdVCSAcc5SrffPONUCj0 2Om69rNixYra2tpxv5ofOMolOjs7CwoKHnroIaqFMIAJEyb84x//yMnJGd+LuoCjXOLjjz9evHjx OE4Cj5b09HQvL68ffviBaiEkAo5yngsXLlRXV99zzz1UC2EMbDZ7/fr1+fn5zc3NVGshC3CUk+h0 uo8++ujee++FUXwOIZPJVqxY8d57743XjL3gKCf56quvAgICHJqgChDcddddbDb7wIEDVAshBXCU M1RWVv78889PPPEEjDlyAjab/dRTTxUVFZ06dYpqLegBRzlMS0vLv//970cffTQyMpJqLUwlPDz8 qaee2rNnz/h75wuOcgyVSvX8888vX758wYIFVGthNsnJyatWrXr55Zfb29up1oIScJQDXLx48dln n7399tvvuOMOqrWMB5YuXbp48eIXXnihq6uLai3IAEfZS3Fx8c6dOx999FGwE0Kys7Ovv/76bdu2 tbS0UK0FDeCosTEajQcOHNi3b9+LL744b948quWMNx544IH09PRnnvT5ATYAAA3/SURBVHlmfORx g9kHtsBxvKys7PPPP/fy8nrnnXdCQ0OpVjQ+ueOOOyIjI995551FixZlZ2cz+hUfOGpkurq6fv31 1yNHjnC53KysrLS0NBhaTiopKSkymezTTz/95z//uXLlyptvvtnb25tqUc5A4lNfYWGhVCoNCwvb tm3bmEU2DnYnOI5XVFS8++6769evb2tr27x580cffbRkyRKwkxsICgp69tlnn3/++T/++GPdunX7 9u2rra1l3pIvODkMDw9HRET8/vvvvb29sbGxx44ds1Fk42Bzjhw5gkpef3+/+UeDwVBfX3/gwIEH H3zwgQce+Prrr3t6euyPZjQadTodKm0jKnQRo9Go1WoRBsRRK8Rx3FzhlStXPvzww3vvvXfNmjXv vvvu0aNHHfpFCJxW+Pnnn1dWVjp3LllPfcXFxSKRiHhpk52dnZ+fn5aWNlqRTqcb7WDX0Wg0xPQB Nps9YcKEwcFBrVbb2tra39/f3t7e2NjY2NjY1NTE5/PnzJmzcePGqVOnwkgIyomLi4uLi3v44Yfr 6urOnj17+PDhvXv3hoWFxcbGSiSS6OjowMBAb29vLy8vDMP8/f0nTJhAteT/D1mOUqlUMTExxLZE IiktLbVRZOPgzMzM4eFhYnvZsmVz584d8XKfffZZbW2t6aPBYNBoNBqNZmBgYEypLBYrLCwsLCys paXlyy+/dOBLkonRaGSzad0T606FXC5XJpMpFArbg9YnTpzI4/F4PB6Hw+Hz+TiOs1is0cwWEREx 2sQ2V2Zw0b1nYu3ataZByjiOj3Z3UlNTp0+fbn/Y4eFhhA1fHMeNRiPatpanKcQwzGAwuFOhr6/v aH9OrvynIMtRUVFRpiFbCoUiOjraRpGNg1esWGHaLioqGu1yU6ZMcUjewMAAwi5a3Cw3ByqQK9Tr 9cQzEirQKsQwTKfT0VyhPZBVa6empqrV6pMnT/b19eXl5a1cubKnpyc3N3fEIus9JKkCALIhy1E8 Hi83N3f16tVyuZx4n1NZWbl9+3aNRmNdZL2HJFUAQDYktqMyMjLMlxGdN2+eSqUasWjEPQDARGjd mwQAjAMcBQAoAUcBAErAUQCAEnAUAKAEHAUAKKH7KCRzOjs7d+3a5XqcgYEBlUqVmJjoeiiSGB4e rq2tpXMCUr1eX1FR4dDIL/dz/vz5pKQkJ0Y29ff3X3fddc5dlIUzZ/5Jd3f30NCQ63FKS0ufffbZ o0ePuh6KJOrq6u6+++7z589TLWRUuru7Z8yYQfO1wUQiUVVVlb+/vxPnRkREODfIkEl1VHBwMJI4 oaGhXC5XKBQiiUYGfX19bDabzgp5PB6GYXRWSBAZGRkYGOjOK0I7CgBQ4omO4nK5zj0JuA0OhxMQ EEC1CluwWKygoCCqVYxBUFCQ+yePMqkdBQD0xxPrKAAgD3AUAKBk/DuqpKQkODi4rq4Ow7COjo5V q1YFBweLRCLTq60tW7aEhoZKJBKJRHL27FlqFY6oh/Kl18wVFhQURP7NxIkTH3744RE1u5MRf1bK VrBzbgklpvDUU08lJCRMnDiRWPmto6MjJydHp9OVl5fzeDyVSoXj+COPPPLll1/SRKG1HjuXXnOn QoKrV69GR0dfvHjRWrObsf5ZnV7BznXGeR112223nT9/3tfXl/gYGhq6bt06Lpc7adIkPp9PrJTU 3d0dEhJCE4XWekyLsfn7+xNLr1GukGDnzp233XZbUlISRvU9tP5ZrW+a227jOHdUamqqj4+P9f63 33579uzZCQkJGIYZjca1a9empKR89dVXbhc4gkILPRZLrzU1NVGuEMOw/v7+zz777LnnniM+UnsP TZh+Vuub5rbbyKQxE6jYv39/Tk7OyZMniY9ff/01juPFxcV33313TEzM9ddfT608Cz3UihmNb7/9 9rrrrhOLxcRHOtxDi5+VKsZ5HWXN4cOHd+zYcfTo0YiICNNOFouVlpaWkZFB+e9BYK7HxtJrFHLw 4MG77rrLfA+199DiZ3VoBTvEkNQ+oxURERFEq1qr1UZFRZ05c8ZUNDg4qFAocBxvamqSy+W//PIL tQqt9RBN6hMnTlDVM2GhkCAoKKi6uprYpvweWv+s1jfNbbfRsxx14cIFFosl+ptdu3bV19dPmjTJ z88vOjp6586dlCscUc8vv/wikUhCQ0Ofe+45yhXiON7a2srj8fR6PfGR8nto/bPiI90099xGGIUE ACjxuHYUAJAKOAoAUAKOcpJNmzYdOnTIetshuru7t27d2tnZiVQauZdDEuTdd99ta2tz+vQvvviC vmmwyWuijTP0er1UKn3nnXeIjxERETk5OdbbDlFeXo5hWGNjo+t6HLrcmOfaOMAVzQSHDx/28fFp aGhwOsLGjRtnz55tMBicjkAenl5HpaSksKy44447rI/kcDhTp04ViUTuFzkirugZ81xSv+wLL7yw adMmqVTqdIRXXnmlrq6uoKAAoSpUeOKYCXN2797d29uLYdizzz4bEBCwdetWDMPCw8NHPPjHH390 q7ixcEXPmOeS9GXPnDlTVlb27bffuhLEz89vzZo177///rJly1AJQ4Wn11HXXXfdkiVLlixZEhIS EhkZSWwnJSW9+eabERERPB4vMTGxsLCQOFgikezZs8d2wOHh4ccffzwkJCQ8PPzBBx+8du2axQFD Q0OPPfZYQEBARETEpk2bxjzx/fffl0gk3t7ecrm8oqLCPJS5nrVr18pkMl9fX19f3+zs7L6+PtuX M5173333macXuvvuu7Ozsy2CjxaEz+f/97//JbY/+eST0NDQMTUfOnRo9uzZpuFLRqPx1VdfFQgE Pj4+s2bNIta6Ir7LxIkTIyIinnrqqR07dshkMj6fv3DhwpaWFuLE22+/vbi4WKPR2P453I+n11Gj sWjRoqSkJB8fn08++WTlypXNzc3Wg69HZMOGDcXFxfv27eNwOBs2bHjuued2795tfsCjjz5aUFDw 1ltvRUREmKf9HfHEioqKDRs27Nq1KyUlpaGhISoqarTrHjt27MYbb8zOzm5qanr66ae3bt36wQcf 2LiciczMzPvvv59IsInj+O+///7ee+9ZHDNmEHNsay4pKUlJSTF93LJlyyeffPLKK68kJiaqVCo+ n098lyVLltx3332XLl3atGlTUlLSa6+9NmHChM2bN2/cuPHrr7/GMGzOnDk6na60tDQ1NdW2HndD dUOOLqSnp2dnZ1vv7+npwTDs9OnTOI7HxMTs3r2b2D9iz0RXVxeHwzl69Cix/9NPPw0LCzOP1tnZ yeFwDhw4QHw0tfJHO/Ho0aMsFmu0bgBzPebbr732mlgstnE58+N7enq8vLx+/fVXHMfPnDnD5XK7 u7vND7ARxNvb2zQtKicnJyQkZEzNU6ZMeeONN4jt3t5eb2/vTz75xMb3WrJkyf33309s79mzJzg4 2HRYYGBgXl7eiFehEE9/6huN7777bs6cOUFBQcnJyRiGmR6ibFNRUWEwGG699VY+n8/n8x955JGO jg7zVTtra2sNBsO8efPsPHH+/Pnz58+fMWPGM888o1ar7RQfHx9P9E2PdjlzAgIC5s+fT7TyCwoK 5s6da7HIkT1BzLGtube317QQVU1NzfDwsO1KRiKRdHR0ENvR0dFXr17F/x7lExAQQPy/oxXgqBGo qqrKysq67bbbiouLDxw4YP+JxLqQ33///YULFy5cuHDp0qWqqipiJ4FWq8UwTKfT2Xkij8c7fvx4 Tk5OUVFRYmJiSUmJPTL4fL5er7dxOQuWL19+8OBBHMcPHjy4fPlyi1IbQby8vKxX+bWtOSAgwNRE NBqN2FiJ2b29vYnvQlwOx3GDwUB87Ovrc/PqlvYAjhqBixcvcrncHTt2JCcnz58/f8RjWKz/DYk0 bcfFxXE4HIVCkWiG+V/MlClTvLy8jhw5YhHNxokcDueuu+46c+ZMcnLyhx9+6NAXGe1yFtxzzz1t bW2ffvrp5cuX77nnHvuDCIXCK1euWO+3oVkgEJh6F+Lj47lcbnFxsf3fyMTg4GBvb69AIHDiXFKB nokRmDx5slarffXVVzMyMkz/ES2IjIwsKCjIzMwUCATm2w899NDWrVsHBwenTZvW3t4uFosXLlxo OiskJOSJJ5545plnBgcHZ86cSbRJiP0jnlhdXf3nn39OmTKlp6entbV1zpw5Dn2R0S5nQWhoaGZm 5saNGzMyMsynjY0ZZPny5Xv37pVIJHFxcaZV2m1rvuGGG4qKiojtoKCghx56aNOmTX19fVOmTFGp VHfffbedPUClpaUcDsfRG+IOKG3F0QiLnokPPvhAKpVyuVw/P79JkyadO3cO/78t5h9//DE6Ojo3 N9diW6fTbdu2TSAQeHt7y2Qy66azXq/fuXOnWCz28vISCARpaWmdnZ2jnXj8+HG5XM7lcoODg1eu XEm0IkyM1jPx008/mX7Z0S5nfjyO44cPH8Yw7Icffhgx+GhBBgYGHnzwQT8/Px8fn5iYmFWrVo2p uaSkhMvltrS0EB91Ot3zzz8fERHB5XLj4+OJeVbml16/fn16ejqx/csvv2AYptPpcBzfvHlzWlra 2L+r24HZHIC7mTVrVmZm5ksvveR0hIGBgZiYmI8++ujOO+9EKAwJ4CjA3fz000/33HPP5cuXnZ6a /vTTTx85cqSsrMy5hDSkAu0owN0sXbp069attrv4bJOYmLhy5Uoa2gmDOgoA0AK95wCAEnAUAKAE HAUAKAFHAQBKwFEAgBJwFACgBBwFACgBRwEASsBRAIAScBQAoOT/Aa6jmzVr08dyAAAAAElFTkSu QmCC "
       height="325"
       width="283" />
    <rect
       style="fill:none;stroke:#4d4d4d;stroke-width:1;stroke-linecap:round;stroke-miterlimit:4;stroke-dasharray:none;stroke-dashoffset:0;stroke-opacity:1"
       id="rect4310"
       width="1091.4698"
       height="358.60416"
       x="34.345188"
       y="7.8644519"
       ry="0" />
    <flowRoot
       xml:space="preserve"
       id="flowRoot3000"
       style="font-style:normal;font-variant:normal;font-weight:normal;font-stretch:normal;line-height:0.01%;font-family:'Liberation Sans';-inkscape-font-specification:'Liberation Sans';text-align:start;letter-spacing:0px;word-spacing:0px;writing-mode:lr-tb;text-anchor:start;fill:#333333;fill-opacity:1;stroke:none;"
       transform="translate(-2.125,-20.23562)"><flowRegion
         id="flowRegion3002"
         style="fill:#333333;"><rect
           id="rect3004"
           width="251.52798"
           height="50.507626"
           x="112.12693"
           y="356.36707"
           style="fill:#333333;" /></flowRegion><flowPara
         id="flowPara3006"
         style="font-style:normal;font-variant:normal;font-weight:normal;font-stretch:normal;font-size:16px;line-height:1.25;font-family:Ubuntu;-inkscape-font-specification:Ubuntu;fill:#333333;"><flowSpan
           style="font-weight:500;-inkscape-font-specification:'Ubuntu Medium';fill:#333333;"
           id="flowSpan3008">Amplitude de classe : 10</flowSpan></flowPara></flowRoot>    <flowRoot
       transform="translate(269.875,-20.23562)"
       xml:space="preserve"
       id="flowRoot3000-8"
       style="font-style:normal;font-variant:normal;font-weight:normal;font-stretch:normal;line-height:0.01%;font-family:'Liberation Sans';-inkscape-font-specification:'Liberation Sans';text-align:start;letter-spacing:0px;word-spacing:0px;writing-mode:lr-tb;text-anchor:start;fill:#333333;fill-opacity:1;stroke:none;"><flowRegion
         id="flowRegion3002-7"
         style="fill:#333333;"><rect
           id="rect3004-9"
           width="251.52798"
           height="50.507626"
           x="112.12693"
           y="356.36707"
           style="fill:#333333;" /></flowRegion><flowPara
         id="flowPara3006-5"
         style="font-style:normal;font-variant:normal;font-weight:normal;font-stretch:normal;font-size:16px;line-height:1.25;font-family:Ubuntu;-inkscape-font-specification:Ubuntu;fill:#333333;"><flowSpan
           style="font-weight:500;-inkscape-font-specification:'Ubuntu Medium';fill:#333333;"
           id="flowSpan3008-1">Amplitude de classe : 5</flowSpan></flowPara></flowRoot>    <flowRoot
       transform="translate(539.875,-20.23562)"
       xml:space="preserve"
       id="flowRoot3000-8-3"
       style="font-style:normal;font-variant:normal;font-weight:normal;font-stretch:normal;line-height:0.01%;font-family:'Liberation Sans';-inkscape-font-specification:'Liberation Sans';text-align:start;letter-spacing:0px;word-spacing:0px;writing-mode:lr-tb;text-anchor:start;fill:#333333;fill-opacity:1;stroke:none;"><flowRegion
         id="flowRegion3002-7-0"
         style="fill:#333333;"><rect
           id="rect3004-9-9"
           width="251.52798"
           height="50.507626"
           x="112.12693"
           y="356.36707"
           style="fill:#333333;" /></flowRegion><flowPara
         id="flowPara3006-5-1"
         style="font-style:normal;font-variant:normal;font-weight:normal;font-stretch:normal;font-size:16px;line-height:1.25;font-family:Ubuntu;-inkscape-font-specification:Ubuntu;fill:#333333;"><flowSpan
           style="font-weight:500;-inkscape-font-specification:'Ubuntu Medium';fill:#333333;"
           id="flowSpan3008-1-6">Amplitude de classe : 2</flowSpan></flowPara></flowRoot>    <flowRoot
       transform="translate(823.875,-20.23562)"
       xml:space="preserve"
       id="flowRoot3000-8-3-1"
       style="font-style:normal;font-variant:normal;font-weight:normal;font-stretch:normal;line-height:0.01%;font-family:'Liberation Sans';-inkscape-font-specification:'Liberation Sans';text-align:start;letter-spacing:0px;word-spacing:0px;writing-mode:lr-tb;text-anchor:start;fill:#333333;fill-opacity:1;stroke:none;"><flowRegion
         id="flowRegion3002-7-0-5"
         style="fill:#333333;"><rect
           id="rect3004-9-9-1"
           width="251.52798"
           height="50.507626"
           x="112.12693"
           y="356.36707"
           style="fill:#333333;" /></flowRegion><flowPara
         id="flowPara3006-5-1-3"
         style="font-style:normal;font-variant:normal;font-weight:500;font-stretch:normal;font-size:16px;line-height:1.25;font-family:Ubuntu;-inkscape-font-specification:'Ubuntu Medium';fill:#333333;">Courbe de densité</flowPara></flowRoot>  </g>
</svg>
