<?xml version="1.0" encoding="UTF-8"?>
<svg xmlns="http://www.w3.org/2000/svg" xmlns:xlink="http://www.w3.org/1999/xlink" width="637pt" height="487pt" viewBox="0 0 637 487" version="1.1">
<defs>
<g>
<symbol overflow="visible" id="glyph0-0">
<path style="stroke:none;" d=""/>
</symbol>
<symbol overflow="visible" id="glyph0-1">
<path style="stroke:none;" d="M 5 -3.390625 C 5 -5.75 4.109375 -7.0625 2.640625 -7.0625 C 1.171875 -7.0625 0.265625 -5.734375 0.265625 -3.453125 C 0.265625 -1.15625 1.1875 0.140625 2.640625 0.140625 C 4.078125 0.140625 5 -1.15625 5 -3.390625 Z M 3.859375 -3.46875 C 3.859375 -1.546875 3.5625 -0.8125 2.625 -0.8125 C 1.734375 -0.8125 1.40625 -1.578125 1.40625 -3.4375 C 1.40625 -5.3125 1.734375 -6.046875 2.640625 -6.046875 C 3.546875 -6.046875 3.859375 -5.296875 3.859375 -3.46875 Z M 3.859375 -3.46875 "/>
</symbol>
<symbol overflow="visible" id="glyph0-2">
<path style="stroke:none;" d="M 4.984375 -2.09375 C 4.984375 -2.921875 4.515625 -3.546875 3.703125 -3.8125 L 3.703125 -3.5625 C 4.34375 -3.8125 4.78125 -4.375 4.78125 -5.0625 C 4.78125 -6.21875 3.875 -7.0625 2.578125 -7.0625 C 1.203125 -7.0625 0.328125 -6.1875 0.3125 -4.609375 L 1.421875 -4.609375 C 1.453125 -5.734375 1.734375 -6.0625 2.59375 -6.0625 C 3.34375 -6.0625 3.640625 -5.75 3.640625 -5.03125 C 3.640625 -4.296875 3.46875 -4.140625 1.96875 -4.140625 L 1.96875 -3.171875 L 2.578125 -3.171875 C 3.515625 -3.171875 3.84375 -2.84375 3.84375 -2.09375 C 3.84375 -1.234375 3.46875 -0.859375 2.578125 -0.859375 C 1.65625 -0.859375 1.34375 -1.1875 1.28125 -2.3125 L 0.15625 -2.3125 C 0.265625 -0.65625 1.15625 0.140625 2.546875 0.140625 C 3.953125 0.140625 4.984375 -0.8125 4.984375 -2.09375 Z M 4.984375 -2.09375 "/>
</symbol>
<symbol overflow="visible" id="glyph0-3">
<path style="stroke:none;" d="M 5.0625 -2.234375 C 5.0625 -3.5 4.0625 -4.484375 2.84375 -4.484375 C 2.171875 -4.484375 1.53125 -4.1875 1.171875 -3.6875 L 1.40625 -3.59375 C 1.421875 -5.25 1.828125 -6.046875 2.796875 -6.046875 C 3.390625 -6.046875 3.65625 -5.796875 3.8125 -5.03125 L 4.9375 -5.03125 C 4.75 -6.265625 3.890625 -7.0625 2.84375 -7.0625 C 1.265625 -7.0625 0.265625 -5.59375 0.265625 -3.21875 C 0.265625 -1.109375 1.140625 0.140625 2.703125 0.140625 C 3.984375 0.140625 5.0625 -0.90625 5.0625 -2.234375 Z M 3.921875 -2.171875 C 3.921875 -1.3125 3.484375 -0.859375 2.703125 -0.859375 C 1.921875 -0.859375 1.453125 -1.34375 1.453125 -2.21875 C 1.453125 -3.0625 1.90625 -3.484375 2.734375 -3.484375 C 3.546875 -3.484375 3.921875 -3.078125 3.921875 -2.171875 Z M 3.921875 -2.171875 "/>
</symbol>
<symbol overflow="visible" id="glyph0-4">
<path style="stroke:none;" d="M 5.015625 -3.6875 C 5.015625 -5.8125 4.140625 -7.0625 2.59375 -7.0625 C 1.296875 -7.0625 0.21875 -6 0.21875 -4.671875 C 0.21875 -3.40625 1.234375 -2.421875 2.453125 -2.421875 C 3.09375 -2.421875 3.671875 -2.703125 4.109375 -3.21875 L 3.859375 -3.3125 C 3.859375 -1.65625 3.46875 -0.859375 2.5 -0.859375 C 1.90625 -0.859375 1.625 -1.109375 1.453125 -1.890625 L 0.34375 -1.890625 C 0.53125 -0.640625 1.40625 0.140625 2.4375 0.140625 C 4.03125 0.140625 5.015625 -1.328125 5.015625 -3.6875 Z M 3.8125 -4.6875 C 3.8125 -3.859375 3.375 -3.4375 2.546875 -3.4375 C 1.734375 -3.4375 1.359375 -3.828125 1.359375 -4.734375 C 1.359375 -5.609375 1.796875 -6.0625 2.578125 -6.0625 C 3.375 -6.0625 3.8125 -5.578125 3.8125 -4.6875 Z M 3.8125 -4.6875 "/>
</symbol>
<symbol overflow="visible" id="glyph0-5">
<path style="stroke:none;" d="M 3.46875 -0.125 L 3.46875 -7.0625 L 2.671875 -7.0625 C 2.328125 -5.890625 2.28125 -5.875 0.828125 -5.6875 L 0.828125 -4.84375 L 2.34375 -4.84375 L 2.34375 0 L 3.46875 0 Z M 3.46875 -0.125 "/>
</symbol>
<symbol overflow="visible" id="glyph0-6">
<path style="stroke:none;" d="M 5.0625 -2.046875 C 5.0625 -2.796875 4.53125 -3.46875 4.015625 -3.71875 C 4.546875 -4.03125 4.8125 -4.46875 4.8125 -5.109375 C 4.8125 -6.171875 3.84375 -7.0625 2.640625 -7.0625 C 1.4375 -7.0625 0.453125 -6.171875 0.453125 -5.109375 C 0.453125 -4.484375 0.71875 -4.046875 1.25 -3.71875 C 0.734375 -3.46875 0.21875 -2.796875 0.21875 -2.046875 C 0.21875 -0.8125 1.296875 0.140625 2.640625 0.140625 C 3.984375 0.140625 5.0625 -0.8125 5.0625 -2.046875 Z M 3.671875 -5.09375 C 3.671875 -4.46875 3.34375 -4.171875 2.640625 -4.171875 C 1.921875 -4.171875 1.59375 -4.46875 1.59375 -5.109375 C 1.59375 -5.75 1.921875 -6.046875 2.640625 -6.046875 C 3.359375 -6.046875 3.671875 -5.75 3.671875 -5.09375 Z M 3.921875 -2.03125 C 3.921875 -1.234375 3.484375 -0.859375 2.625 -0.859375 C 1.796875 -0.859375 1.359375 -1.234375 1.359375 -2.03125 C 1.359375 -2.828125 1.796875 -3.203125 2.640625 -3.203125 C 3.484375 -3.203125 3.921875 -2.828125 3.921875 -2.03125 Z M 3.921875 -2.03125 "/>
</symbol>
<symbol overflow="visible" id="glyph0-7">
<path style="stroke:none;" d="M 5.03125 -4.9375 C 5.03125 -6.078125 4.015625 -7.0625 2.71875 -7.0625 C 1.328125 -7.0625 0.390625 -6.21875 0.328125 -4.4375 L 1.453125 -4.4375 C 1.53125 -5.703125 1.859375 -6.0625 2.703125 -6.0625 C 3.46875 -6.0625 3.890625 -5.640625 3.890625 -4.90625 C 3.890625 -4.375 3.609375 -4.015625 3.015625 -3.671875 L 2.125 -3.171875 C 0.703125 -2.359375 0.265625 -1.625 0.171875 0 L 4.984375 0 L 4.984375 -1.09375 L 1.421875 -1.09375 C 1.5 -1.515625 1.765625 -1.78125 2.59375 -2.28125 L 3.5625 -2.796875 C 4.515625 -3.296875 5.03125 -4.09375 5.03125 -4.9375 Z M 5.03125 -4.9375 "/>
</symbol>
<symbol overflow="visible" id="glyph0-8">
<path style="stroke:none;" d="M 5.125 -1.75 L 5.125 -2.640625 L 4.109375 -2.640625 L 4.109375 -7.0625 L 3.28125 -7.0625 L 0.125 -2.6875 L 0.125 -1.625 L 3 -1.625 L 3 0 L 4.109375 0 L 4.109375 -1.625 L 5.125 -1.625 Z M 3.140625 -2.640625 L 1.25 -2.640625 L 3.234375 -5.40625 L 3 -5.484375 L 3 -2.640625 Z M 3.140625 -2.640625 "/>
</symbol>
<symbol overflow="visible" id="glyph0-9">
<path style="stroke:none;" d="M 5.0625 -2.375 C 5.0625 -3.71875 4.03125 -4.734375 2.71875 -4.734375 C 2.25 -4.734375 1.75 -4.578125 1.65625 -4.5 L 1.859375 -5.828125 L 4.703125 -5.828125 L 4.703125 -6.921875 L 0.9375 -6.921875 L 0.390625 -3.09375 L 1.375 -3.09375 C 1.8125 -3.609375 2.046875 -3.734375 2.578125 -3.734375 C 3.484375 -3.734375 3.921875 -3.265625 3.921875 -2.265625 C 3.921875 -1.28125 3.484375 -0.859375 2.578125 -0.859375 C 1.828125 -0.859375 1.515625 -1.109375 1.28125 -2 L 0.15625 -2 C 0.46875 -0.515625 1.375 0.140625 2.59375 0.140625 C 3.96875 0.140625 5.0625 -0.9375 5.0625 -2.375 Z M 5.0625 -2.375 "/>
</symbol>
<symbol overflow="visible" id="glyph0-10">
<path style="stroke:none;" d="M 5.125 -6.078125 L 5.125 -6.921875 L 0.296875 -6.921875 L 0.296875 -5.828125 L 3.84375 -5.828125 C 2.65625 -4.34375 1.65625 -2.265625 1.15625 0 L 2.34375 0 C 2.734375 -2.328125 3.65625 -4.28125 5.125 -6.03125 Z M 5.125 -6.078125 "/>
</symbol>
<symbol overflow="visible" id="glyph0-11">
<path style="stroke:none;" d="M 6.53125 -3.625 C 6.53125 -5.796875 5.328125 -7.25 3.546875 -7.25 L 0.703125 -7.25 L 0.703125 0 L 3.546875 0 C 5.3125 0 6.53125 -1.453125 6.53125 -3.625 Z M 5.359375 -3.609375 C 5.359375 -1.859375 4.78125 -1.046875 3.390625 -1.046875 L 1.875 -1.046875 L 1.875 -6.203125 L 3.390625 -6.203125 C 4.78125 -6.203125 5.359375 -5.40625 5.359375 -3.609375 Z M 5.359375 -3.609375 "/>
</symbol>
<symbol overflow="visible" id="glyph0-12">
<path style="stroke:none;" d="M 1.609375 -0.125 L 1.609375 -5.28125 L 0.53125 -5.28125 L 0.53125 0 L 1.609375 0 Z M 1.703125 -5.90625 L 1.703125 -7.046875 L 0.4375 -7.046875 L 0.4375 -5.78125 L 1.703125 -5.78125 Z M 1.703125 -5.90625 "/>
</symbol>
<symbol overflow="visible" id="glyph0-13">
<path style="stroke:none;" d="M 5.0625 -2.40625 C 5.0625 -3.140625 5 -3.59375 4.859375 -3.96875 C 4.53125 -4.796875 3.625 -5.4375 2.6875 -5.4375 C 1.28125 -5.4375 0.234375 -4.265625 0.234375 -2.609375 C 0.234375 -0.953125 1.25 0.140625 2.671875 0.140625 C 3.8125 0.140625 4.75 -0.640625 4.984375 -1.78125 L 3.90625 -1.78125 C 3.640625 -1 3.34375 -0.859375 2.703125 -0.859375 C 1.859375 -0.859375 1.375 -1.25 1.359375 -2.28125 L 5.0625 -2.28125 Z M 4.15625 -3.03125 C 4.15625 -3.03125 3.96875 -3.171875 3.96875 -3.1875 L 1.375 -3.1875 C 1.4375 -3.953125 1.875 -4.4375 2.671875 -4.4375 C 3.46875 -4.4375 3.921875 -3.90625 3.921875 -3.125 Z M 4.15625 -3.03125 "/>
</symbol>
<symbol overflow="visible" id="glyph0-14">
<path style="stroke:none;" d="M 4.828125 -0.953125 L 4.828125 -5.28125 L 3.8125 -5.28125 L 3.8125 -4.421875 L 4.046875 -4.515625 C 3.640625 -5.109375 3.0625 -5.4375 2.421875 -5.4375 C 1.140625 -5.4375 0.140625 -4.21875 0.140625 -2.59375 C 0.140625 -1 1.171875 0.140625 2.34375 0.140625 C 2.984375 0.140625 3.515625 -0.15625 4.046875 -0.796875 L 3.8125 -0.875 L 3.8125 -0.546875 C 3.8125 0.78125 3.40625 1.15625 2.46875 1.15625 C 1.84375 1.15625 1.484375 1.0625 1.375 0.3125 L 0.28125 0.3125 C 0.390625 1.40625 1.265625 2.09375 2.453125 2.09375 C 4.015625 2.09375 4.828125 1.265625 4.828125 -0.953125 Z M 3.734375 -2.609375 C 3.734375 -1.40625 3.359375 -0.859375 2.515625 -0.859375 C 1.640625 -0.859375 1.25 -1.421875 1.25 -2.640625 C 1.25 -3.84375 1.65625 -4.4375 2.5 -4.4375 C 3.375 -4.4375 3.734375 -3.828125 3.734375 -2.609375 Z M 3.734375 -2.609375 "/>
</symbol>
<symbol overflow="visible" id="glyph0-15">
<path style="stroke:none;" d="M 5.03125 -2.59375 C 5.03125 -4.34375 4.0625 -5.4375 2.609375 -5.4375 C 1.203125 -5.4375 0.203125 -4.328125 0.203125 -2.640625 C 0.203125 -0.953125 1.1875 0.140625 2.625 0.140625 C 4.03125 0.140625 5.03125 -0.953125 5.03125 -2.59375 Z M 3.921875 -2.609375 C 3.921875 -1.421875 3.5 -0.859375 2.625 -0.859375 C 1.734375 -0.859375 1.3125 -1.421875 1.3125 -2.640625 C 1.3125 -3.84375 1.734375 -4.4375 2.625 -4.4375 C 3.515625 -4.4375 3.921875 -3.859375 3.921875 -2.609375 Z M 3.921875 -2.609375 "/>
</symbol>
<symbol overflow="visible" id="glyph0-16">
<path style="stroke:none;" d="M 1.984375 -0.125 L 1.984375 -7.25 L 0.8125 -7.25 L 0.8125 0 L 1.984375 0 Z M 1.984375 -0.125 "/>
</symbol>
<symbol overflow="visible" id="glyph0-17">
<path style="stroke:none;" d="M 4.53125 -1.53125 C 4.53125 -2.28125 3.984375 -2.796875 2.984375 -3.03125 L 2.21875 -3.21875 C 1.5625 -3.375 1.421875 -3.4375 1.421875 -3.796875 C 1.421875 -4.265625 1.703125 -4.4375 2.34375 -4.4375 C 3 -4.4375 3.1875 -4.28125 3.21875 -3.625 L 4.34375 -3.625 C 4.328125 -4.734375 3.546875 -5.4375 2.375 -5.4375 C 1.203125 -5.4375 0.3125 -4.6875 0.3125 -3.765625 C 0.3125 -2.96875 0.859375 -2.46875 2.046875 -2.1875 L 2.796875 -2 C 3.34375 -1.875 3.421875 -1.828125 3.421875 -1.46875 C 3.421875 -1 3.09375 -0.859375 2.390625 -0.859375 C 1.671875 -0.859375 1.40625 -0.890625 1.28125 -1.796875 L 0.171875 -1.796875 C 0.21875 -0.5 1.015625 0.140625 2.328125 0.140625 C 3.59375 0.140625 4.53125 -0.5625 4.53125 -1.53125 Z M 4.53125 -1.53125 "/>
</symbol>
<symbol overflow="visible" id="glyph0-18">
<path style="stroke:none;" d="M 5.265625 -0.140625 L 5.265625 -0.90625 C 5.046875 -0.859375 5.015625 -0.859375 4.953125 -0.859375 C 4.6875 -0.859375 4.65625 -0.875 4.65625 -1.125 L 4.65625 -3.921875 C 4.65625 -4.8125 3.875 -5.4375 2.640625 -5.4375 C 1.421875 -5.4375 0.53125 -4.828125 0.46875 -3.546875 L 1.546875 -3.546875 C 1.625 -4.28125 1.859375 -4.4375 2.609375 -4.4375 C 3.328125 -4.4375 3.59375 -4.28125 3.59375 -3.8125 L 3.59375 -3.59375 C 3.59375 -3.265625 3.53125 -3.25 2.890625 -3.171875 C 1.765625 -3.03125 1.59375 -3 1.28125 -2.875 C 0.703125 -2.625 0.265625 -2.046875 0.265625 -1.421875 C 0.265625 -0.515625 1.03125 0.140625 2.046875 0.140625 C 2.703125 0.140625 3.421875 -0.15625 3.671875 -0.4375 C 3.703125 -0.328125 4.1875 0.0625 4.578125 0.0625 C 4.75 0.0625 4.875 0.046875 5.265625 -0.046875 Z M 3.59375 -1.859375 C 3.59375 -1.140625 3 -0.8125 2.21875 -0.8125 C 1.609375 -0.8125 1.375 -0.90625 1.375 -1.453125 C 1.375 -1.96875 1.59375 -2.078125 2.453125 -2.203125 C 3.296875 -2.328125 3.46875 -2.359375 3.59375 -2.421875 Z M 3.59375 -1.859375 "/>
</symbol>
<symbol overflow="visible" id="glyph0-19">
<path style="stroke:none;" d="M 5.15625 -2.703125 C 5.15625 -4.328125 4.1875 -5.4375 2.875 -5.4375 C 2.171875 -5.4375 1.578125 -5.125 1.203125 -4.5625 L 1.453125 -4.46875 L 1.453125 -7.25 L 0.375 -7.25 L 0.375 0 L 1.375 0 L 1.375 -0.84375 L 1.125 -0.765625 C 1.515625 -0.171875 2.125 0.140625 2.828125 0.140625 C 4.15625 0.140625 5.15625 -1.0625 5.15625 -2.703125 Z M 4.03125 -2.640625 C 4.03125 -1.5 3.59375 -0.859375 2.71875 -0.859375 C 1.875 -0.859375 1.453125 -1.5 1.453125 -2.640625 C 1.453125 -3.8125 1.875 -4.46875 2.71875 -4.421875 C 3.609375 -4.421875 4.03125 -3.765625 4.03125 -2.640625 Z M 4.03125 -2.640625 "/>
</symbol>
<symbol overflow="visible" id="glyph0-20">
<path style="stroke:none;" d="M 1.578125 -0.125 L 1.578125 -7.25 L 0.515625 -7.25 L 0.515625 0 L 1.578125 0 Z M 1.578125 -0.125 "/>
</symbol>
<symbol overflow="visible" id="glyph0-21">
<path style="stroke:none;" d="M 7.4375 -0.125 L 7.4375 -7.25 L 5.953125 -7.25 L 3.890625 -1.03125 L 4.15625 -1.03125 L 2.046875 -7.25 L 0.578125 -7.25 L 0.578125 0 L 1.703125 0 L 1.703125 -5.984375 L 1.421875 -5.984375 L 3.453125 0 L 4.578125 0 L 6.59375 -5.984375 L 6.3125 -5.984375 L 6.3125 0 L 7.4375 0 Z M 7.4375 -0.125 "/>
</symbol>
<symbol overflow="visible" id="glyph0-22">
<path style="stroke:none;" d="M 2.578125 -0.125 L 2.578125 -0.96875 C 2.328125 -0.90625 2.203125 -0.890625 2.046875 -0.890625 C 1.703125 -0.890625 1.75 -0.859375 1.75 -1.203125 L 1.75 -4.375 L 2.578125 -4.375 L 2.578125 -5.28125 L 1.75 -5.28125 L 1.75 -6.671875 L 0.671875 -6.671875 L 0.671875 -5.28125 L -0.015625 -5.28125 L -0.015625 -4.375 L 0.671875 -4.375 L 0.671875 -0.859375 C 0.671875 -0.34375 1.15625 0.0625 1.78125 0.0625 C 1.96875 0.0625 2.171875 0.046875 2.578125 -0.015625 Z M 2.578125 -0.125 "/>
</symbol>
<symbol overflow="visible" id="glyph0-23">
<path style="stroke:none;" d="M 6.09375 -2.046875 C 6.09375 -2.90625 5.421875 -3.671875 4.46875 -3.9375 L 2.71875 -4.40625 C 1.875 -4.625 1.703125 -4.765625 1.703125 -5.3125 C 1.703125 -6.015625 2.1875 -6.421875 3.125 -6.421875 C 4.234375 -6.421875 4.734375 -6.03125 4.734375 -5 L 5.859375 -5 C 5.859375 -6.5 4.765625 -7.421875 3.15625 -7.421875 C 1.625 -7.421875 0.53125 -6.453125 0.53125 -5.1875 C 0.53125 -4.328125 1.125 -3.671875 2.046875 -3.421875 L 3.78125 -2.96875 C 4.65625 -2.734375 4.921875 -2.5 4.921875 -1.953125 C 4.921875 -1.1875 4.484375 -0.875 3.28125 -0.875 C 1.953125 -0.875 1.4375 -1.40625 1.4375 -2.53125 L 0.3125 -2.53125 C 0.3125 -0.75 1.578125 0.171875 3.21875 0.171875 C 5 0.171875 6.09375 -0.796875 6.09375 -2.046875 Z M 6.09375 -2.046875 "/>
</symbol>
<symbol overflow="visible" id="glyph0-24">
<path style="stroke:none;" d="M 2.609375 -4.5 L 2.609375 -5.28125 L 1.78125 -5.28125 L 1.78125 -5.9375 C 1.78125 -6.28125 1.828125 -6.328125 2.203125 -6.328125 C 2.265625 -6.328125 2.296875 -6.328125 2.609375 -6.296875 L 2.609375 -7.203125 C 2.296875 -7.265625 2.1875 -7.28125 2.03125 -7.28125 C 1.28125 -7.28125 0.703125 -6.71875 0.703125 -6 L 0.703125 -5.28125 L 0.03125 -5.28125 L 0.03125 -4.375 L 0.703125 -4.375 L 0.703125 0 L 1.78125 0 L 1.78125 -4.375 L 2.609375 -4.375 Z M 4.25 -0.125 L 4.25 -5.28125 L 3.171875 -5.28125 L 3.171875 0 L 4.25 0 Z M 4.359375 -5.90625 L 4.359375 -7.046875 L 3.078125 -7.046875 L 3.078125 -5.78125 L 4.359375 -5.78125 Z M 4.359375 -5.90625 "/>
</symbol>
<symbol overflow="visible" id="glyph1-0">
<path style="stroke:none;" d=""/>
</symbol>
<symbol overflow="visible" id="glyph1-1">
<path style="stroke:none;" d="M 7.96875 -0.125 L 4.84375 -9.015625 L 3.234375 -9.015625 L 0.015625 0 L 1.46875 0 L 2.40625 -2.625 L 5.59375 -2.625 L 6.484375 0 L 8.015625 0 Z M 5.375 -3.828125 L 2.765625 -3.828125 L 4.15625 -7.6875 L 3.890625 -7.6875 L 5.1875 -3.828125 Z M 5.375 -3.828125 "/>
</symbol>
<symbol overflow="visible" id="glyph1-2">
<path style="stroke:none;" d="M 5.96875 -0.125 L 5.96875 -4.890625 C 5.96875 -5.921875 5.0625 -6.734375 3.859375 -6.734375 C 2.921875 -6.734375 2.203125 -6.34375 1.65625 -5.453125 L 1.890625 -5.359375 L 1.890625 -6.546875 L 0.703125 -6.546875 L 0.703125 0 L 1.96875 0 L 1.96875 -3.59375 C 1.96875 -4.890625 2.53125 -5.59375 3.546875 -5.59375 C 4.34375 -5.59375 4.703125 -5.25 4.703125 -4.484375 L 4.703125 0 L 5.96875 0 Z M 5.96875 -0.125 "/>
</symbol>
<symbol overflow="visible" id="glyph1-3">
<path style="stroke:none;" d="M 6.28125 -2.984375 C 6.28125 -3.90625 6.21875 -4.46875 6.03125 -4.9375 C 5.625 -5.96875 4.53125 -6.734375 3.359375 -6.734375 C 1.609375 -6.734375 0.34375 -5.296875 0.34375 -3.234375 C 0.34375 -1.171875 1.578125 0.1875 3.34375 0.1875 C 4.78125 0.1875 5.90625 -0.765625 6.1875 -2.171875 L 4.921875 -2.171875 C 4.59375 -1.21875 4.171875 -1.015625 3.375 -1.015625 C 2.328125 -1.015625 1.6875 -1.546875 1.65625 -2.859375 L 6.28125 -2.859375 Z M 5.1875 -3.78125 C 5.1875 -3.78125 4.984375 -3.921875 4.984375 -3.9375 L 1.6875 -3.9375 C 1.765625 -4.921875 2.34375 -5.546875 3.34375 -5.546875 C 4.328125 -5.546875 4.9375 -4.859375 4.9375 -3.875 Z M 5.515625 -9.015625 L 4.078125 -9.015625 L 2.75 -6.96875 L 3.765625 -6.96875 L 5.609375 -8.78125 Z M 5.515625 -9.015625 "/>
</symbol>
<symbol overflow="visible" id="glyph1-4">
<path style="stroke:none;" d="M 6.28125 -2.984375 C 6.28125 -3.90625 6.21875 -4.46875 6.03125 -4.9375 C 5.625 -5.96875 4.53125 -6.734375 3.359375 -6.734375 C 1.609375 -6.734375 0.34375 -5.296875 0.34375 -3.234375 C 0.34375 -1.171875 1.578125 0.1875 3.34375 0.1875 C 4.78125 0.1875 5.90625 -0.765625 6.1875 -2.171875 L 4.921875 -2.171875 C 4.59375 -1.21875 4.171875 -1.015625 3.375 -1.015625 C 2.328125 -1.015625 1.6875 -1.546875 1.65625 -2.859375 L 6.28125 -2.859375 Z M 5.1875 -3.78125 C 5.1875 -3.78125 4.984375 -3.921875 4.984375 -3.9375 L 1.6875 -3.9375 C 1.765625 -4.921875 2.34375 -5.546875 3.34375 -5.546875 C 4.328125 -5.546875 4.9375 -4.859375 4.9375 -3.875 Z M 5.1875 -3.78125 "/>
</symbol>
<symbol overflow="visible" id="glyph1-5">
<path style="stroke:none;" d=""/>
</symbol>
<symbol overflow="visible" id="glyph1-6">
<path style="stroke:none;" d="M 6.078125 -0.125 L 6.078125 -9.015625 L 4.796875 -9.015625 L 4.796875 -5.625 L 5.046875 -5.71875 C 4.625 -6.359375 3.859375 -6.734375 3.015625 -6.734375 C 1.375 -6.734375 0.171875 -5.34375 0.171875 -3.34375 C 0.171875 -1.21875 1.359375 0.1875 3.046875 0.1875 C 3.90625 0.1875 4.609375 -0.1875 5.140625 -0.953125 L 4.90625 -1.0625 L 4.90625 0 L 6.078125 0 Z M 4.796875 -3.25 C 4.796875 -1.796875 4.25 -1.015625 3.1875 -1.015625 C 2.09375 -1.015625 1.484375 -1.8125 1.484375 -3.28125 C 1.484375 -4.734375 2.09375 -5.53125 3.1875 -5.53125 C 4.265625 -5.53125 4.796875 -4.703125 4.796875 -3.25 Z M 4.796875 -3.25 "/>
</symbol>
<symbol overflow="visible" id="glyph1-7">
<path style="stroke:none;" d="M 6.546875 -0.15625 L 6.546875 -1.078125 C 6.3125 -1.015625 6.265625 -1.015625 6.203125 -1.015625 C 5.859375 -1.015625 5.796875 -1.0625 5.796875 -1.375 L 5.796875 -4.890625 C 5.796875 -6 4.84375 -6.734375 3.296875 -6.734375 C 1.78125 -6.734375 0.703125 -6.015625 0.640625 -4.421875 L 1.90625 -4.421875 C 2 -5.328125 2.328125 -5.546875 3.265625 -5.546875 C 4.15625 -5.546875 4.53125 -5.34375 4.53125 -4.734375 L 4.53125 -4.46875 C 4.53125 -4.0625 4.421875 -4.015625 3.625 -3.90625 C 2.203125 -3.734375 1.984375 -3.6875 1.609375 -3.53125 C 0.875 -3.234375 0.359375 -2.53125 0.359375 -1.765625 C 0.359375 -0.625 1.296875 0.1875 2.5625 0.1875 C 3.375 0.1875 4.25 -0.1875 4.625 -0.59375 C 4.671875 -0.390625 5.25 0.078125 5.734375 0.078125 C 5.9375 0.078125 6.09375 0.0625 6.546875 -0.046875 Z M 4.53125 -2.296875 C 4.53125 -1.40625 3.75 -0.953125 2.78125 -0.953125 C 2 -0.953125 1.6875 -1.109375 1.6875 -1.78125 C 1.6875 -2.453125 1.984375 -2.609375 3.0625 -2.765625 C 4.109375 -2.90625 4.328125 -2.953125 4.53125 -3.03125 Z M 4.53125 -2.296875 "/>
</symbol>
<symbol overflow="visible" id="glyph1-8">
<path style="stroke:none;" d="M 1.96875 -0.125 L 1.96875 -6.546875 L 0.703125 -6.546875 L 0.703125 0 L 1.96875 0 Z M 2.09375 -7.375 L 2.09375 -8.75 L 0.578125 -8.75 L 0.578125 -7.234375 L 2.09375 -7.234375 Z M 2.09375 -7.375 "/>
</symbol>
<symbol overflow="visible" id="glyph1-9">
<path style="stroke:none;" d="M 5.640625 -1.890625 C 5.640625 -2.828125 4.984375 -3.4375 3.734375 -3.734375 L 2.765625 -3.953125 C 1.953125 -4.15625 1.734375 -4.28125 1.734375 -4.734375 C 1.734375 -5.296875 2.125 -5.546875 2.9375 -5.546875 C 3.75 -5.546875 4.03125 -5.328125 4.0625 -4.53125 L 5.390625 -4.53125 C 5.375 -5.90625 4.421875 -6.734375 2.96875 -6.734375 C 1.515625 -6.734375 0.421875 -5.84375 0.421875 -4.6875 C 0.421875 -3.703125 1.0625 -3.09375 2.5625 -2.734375 L 3.484375 -2.515625 C 4.1875 -2.34375 4.3125 -2.265625 4.3125 -1.8125 C 4.3125 -1.21875 3.875 -1.015625 3 -1.015625 C 2.09375 -1.015625 1.734375 -1.09375 1.578125 -2.1875 L 0.265625 -2.1875 C 0.3125 -0.59375 1.265625 0.1875 2.921875 0.1875 C 4.5 0.1875 5.640625 -0.6875 5.640625 -1.890625 Z M 5.640625 -1.890625 "/>
</symbol>
<symbol overflow="visible" id="glyph1-10">
<path style="stroke:none;" d="M 5.71875 -2.421875 L 4.59375 -2.421875 C 4.40625 -1.28125 4.03125 -1.015625 3.1875 -1.015625 C 2.078125 -1.015625 1.546875 -1.734375 1.546875 -3.21875 C 1.546875 -4.78125 2.0625 -5.546875 3.15625 -5.546875 C 4 -5.546875 4.375 -5.1875 4.53125 -4.171875 L 5.796875 -4.171875 C 5.65625 -5.84375 4.578125 -6.734375 3.171875 -6.734375 C 1.46875 -6.734375 0.234375 -5.296875 0.234375 -3.21875 C 0.234375 -1.1875 1.453125 0.1875 3.15625 0.1875 C 4.65625 0.1875 5.734375 -0.859375 5.875 -2.421875 Z M 5.71875 -2.421875 "/>
</symbol>
<symbol overflow="visible" id="glyph1-11">
<path style="stroke:none;" d="M 9.25 -0.125 L 9.25 -4.84375 C 9.25 -5.96875 8.5 -6.734375 7.3125 -6.734375 C 6.484375 -6.734375 5.875 -6.4375 5.40625 -5.875 C 5.109375 -6.40625 4.515625 -6.734375 3.703125 -6.734375 C 2.859375 -6.734375 2.203125 -6.390625 1.65625 -5.625 L 1.890625 -5.53125 L 1.890625 -6.546875 L 0.703125 -6.546875 L 0.703125 0 L 1.984375 0 L 1.984375 -4.078125 C 1.984375 -4.984375 2.515625 -5.59375 3.328125 -5.59375 C 4.0625 -5.59375 4.34375 -5.265625 4.34375 -4.46875 L 4.34375 0 L 5.609375 0 L 5.609375 -4.078125 C 5.609375 -4.984375 6.15625 -5.59375 6.96875 -5.59375 C 7.703125 -5.59375 7.984375 -5.25 7.984375 -4.46875 L 7.984375 0 L 9.25 0 Z M 9.25 -0.125 "/>
</symbol>
<symbol overflow="visible" id="glyph2-0">
<path style="stroke:none;" d=""/>
</symbol>
<symbol overflow="visible" id="glyph2-1">
<path style="stroke:none;" d="M -2.53125 -7.578125 C -3.609375 -7.578125 -4.53125 -6.78125 -4.859375 -5.59375 L -5.453125 -3.390625 C -5.71875 -2.34375 -5.9375 -2.09375 -6.609375 -2.09375 C -7.5 -2.09375 -8.03125 -2.734375 -8.03125 -3.90625 C -8.03125 -5.296875 -7.53125 -5.953125 -6.25 -5.953125 L -6.25 -7.28125 C -8.09375 -7.28125 -9.234375 -5.96875 -9.234375 -3.953125 C -9.234375 -2.03125 -8.046875 -0.703125 -6.453125 -0.703125 C -5.390625 -0.703125 -4.578125 -1.40625 -4.28125 -2.5625 L -3.703125 -4.734375 C -3.421875 -5.828125 -3.109375 -6.1875 -2.421875 -6.1875 C -1.46875 -6.1875 -1.03125 -5.609375 -1.03125 -4.109375 C -1.03125 -2.453125 -1.734375 -1.765625 -3.109375 -1.765625 L -3.109375 -0.4375 C -0.90625 -0.4375 0.21875 -1.96875 0.21875 -4.03125 C 0.21875 -6.25 -0.96875 -7.578125 -2.53125 -7.578125 Z M -2.53125 -7.578125 "/>
</symbol>
<symbol overflow="visible" id="glyph2-2">
<path style="stroke:none;" d="M -2.984375 -6.28125 C -3.90625 -6.28125 -4.46875 -6.21875 -4.9375 -6.03125 C -5.96875 -5.625 -6.734375 -4.53125 -6.734375 -3.359375 C -6.734375 -1.609375 -5.296875 -0.34375 -3.234375 -0.34375 C -1.171875 -0.34375 0.1875 -1.578125 0.1875 -3.34375 C 0.1875 -4.78125 -0.765625 -5.90625 -2.171875 -6.1875 L -2.171875 -4.921875 C -1.21875 -4.59375 -1.015625 -4.171875 -1.015625 -3.375 C -1.015625 -2.328125 -1.546875 -1.6875 -2.859375 -1.65625 L -2.859375 -6.28125 Z M -3.78125 -5.1875 C -3.78125 -5.1875 -3.921875 -4.984375 -3.9375 -4.984375 L -3.9375 -1.6875 C -4.921875 -1.765625 -5.546875 -2.34375 -5.546875 -3.34375 C -5.546875 -4.328125 -4.859375 -4.9375 -3.875 -4.9375 Z M -3.78125 -5.1875 "/>
</symbol>
<symbol overflow="visible" id="glyph2-3">
<path style="stroke:none;" d="M -0.234375 -5.765625 L -3.390625 -3.65625 L -6.546875 -5.875 L -6.546875 -4.421875 L -4.375 -2.96875 L -6.546875 -1.53125 L -6.546875 -0.0625 L -3.34375 -2.25 L 0 0.0625 L 0 -1.40625 L -2.296875 -2.921875 L 0 -4.4375 L 0 -5.921875 Z M -0.234375 -5.765625 "/>
</symbol>
<symbol overflow="visible" id="glyph2-4">
<path style="stroke:none;" d=""/>
</symbol>
<symbol overflow="visible" id="glyph2-5">
<path style="stroke:none;" d="M -5.546875 -3.984375 L -6.6875 -3.984375 C -6.71875 -3.6875 -6.734375 -3.59375 -6.734375 -3.46875 C -6.734375 -2.8125 -6.3125 -2.21875 -5.375 -1.640625 L -5.28125 -1.890625 L -6.546875 -1.890625 L -6.546875 -0.703125 L 0 -0.703125 L 0 -1.96875 L -3.390625 -1.96875 C -4.8125 -1.96875 -5.390625 -2.296875 -5.40625 -3.984375 Z M -5.546875 -3.984375 "/>
</symbol>
<symbol overflow="visible" id="glyph2-6">
<path style="stroke:none;" d="M -0.15625 -6.546875 L -1.078125 -6.546875 C -1.015625 -6.3125 -1.015625 -6.265625 -1.015625 -6.203125 C -1.015625 -5.859375 -1.0625 -5.796875 -1.375 -5.796875 L -4.890625 -5.796875 C -6 -5.796875 -6.734375 -4.84375 -6.734375 -3.296875 C -6.734375 -1.78125 -6.015625 -0.703125 -4.421875 -0.640625 L -4.421875 -1.90625 C -5.328125 -2 -5.546875 -2.328125 -5.546875 -3.265625 C -5.546875 -4.15625 -5.34375 -4.53125 -4.734375 -4.53125 L -4.46875 -4.53125 C -4.0625 -4.53125 -4.015625 -4.421875 -3.90625 -3.625 C -3.734375 -2.203125 -3.6875 -1.984375 -3.53125 -1.609375 C -3.234375 -0.875 -2.53125 -0.359375 -1.765625 -0.359375 C -0.625 -0.359375 0.1875 -1.296875 0.1875 -2.5625 C 0.1875 -3.375 -0.1875 -4.25 -0.59375 -4.625 C -0.390625 -4.671875 0.078125 -5.25 0.078125 -5.734375 C 0.078125 -5.9375 0.0625 -6.09375 -0.046875 -6.546875 Z M -2.296875 -4.53125 C -1.40625 -4.53125 -0.953125 -3.75 -0.953125 -2.78125 C -0.953125 -2 -1.109375 -1.6875 -1.78125 -1.6875 C -2.453125 -1.6875 -2.609375 -1.984375 -2.765625 -3.0625 C -2.90625 -4.109375 -2.953125 -4.328125 -3.03125 -4.53125 Z M -2.296875 -4.53125 "/>
</symbol>
<symbol overflow="visible" id="glyph2-7">
<path style="stroke:none;" d="M -0.125 -3.1875 L -1.15625 -3.1875 C -1.0625 -2.921875 -1.0625 -2.765625 -1.0625 -2.5625 C -1.0625 -2.140625 -1.046875 -2.140625 -1.484375 -2.140625 L -5.46875 -2.140625 L -5.46875 -3.1875 L -6.546875 -3.1875 L -6.546875 -2.140625 L -8.28125 -2.140625 L -8.28125 -0.875 L -6.546875 -0.875 L -6.546875 -0.03125 L -5.46875 -0.03125 L -5.46875 -0.875 L -1.046875 -0.875 C -0.40625 -0.875 0.078125 -1.453125 0.078125 -2.234375 C 0.078125 -2.46875 0.0625 -2.71875 -0.03125 -3.1875 Z M -0.125 -3.1875 "/>
</symbol>
<symbol overflow="visible" id="glyph2-8">
<path style="stroke:none;" d="M -0.125 -1.96875 L -6.546875 -1.96875 L -6.546875 -0.703125 L 0 -0.703125 L 0 -1.96875 Z M -7.375 -2.09375 L -8.75 -2.09375 L -8.75 -0.578125 L -7.234375 -0.578125 L -7.234375 -2.09375 Z M -7.375 -2.09375 "/>
</symbol>
<symbol overflow="visible" id="glyph2-9">
<path style="stroke:none;" d="M -3.234375 -6.25 C -5.40625 -6.25 -6.734375 -5.078125 -6.734375 -3.265625 C -6.734375 -1.5 -5.390625 -0.28125 -3.28125 -0.28125 C -1.15625 -0.28125 0.1875 -1.484375 0.1875 -3.28125 C 0.1875 -5.046875 -1.15625 -6.25 -3.234375 -6.25 Z M -3.234375 -4.9375 C -1.765625 -4.9375 -1.015625 -4.375 -1.015625 -3.28125 C -1.015625 -2.15625 -1.75 -1.609375 -3.28125 -1.609375 C -4.78125 -1.609375 -5.546875 -2.15625 -5.546875 -3.28125 C -5.546875 -4.40625 -4.796875 -4.9375 -3.234375 -4.9375 Z M -3.234375 -4.9375 "/>
</symbol>
<symbol overflow="visible" id="glyph2-10">
<path style="stroke:none;" d="M -0.125 -5.96875 L -4.890625 -5.96875 C -5.921875 -5.96875 -6.734375 -5.0625 -6.734375 -3.859375 C -6.734375 -2.921875 -6.34375 -2.203125 -5.453125 -1.65625 L -5.359375 -1.890625 L -6.546875 -1.890625 L -6.546875 -0.703125 L 0 -0.703125 L 0 -1.96875 L -3.59375 -1.96875 C -4.890625 -1.96875 -5.59375 -2.53125 -5.59375 -3.546875 C -5.59375 -4.34375 -5.25 -4.703125 -4.484375 -4.703125 L 0 -4.703125 L 0 -5.96875 Z M -0.125 -5.96875 "/>
</symbol>
<symbol overflow="visible" id="glyph2-11">
<path style="stroke:none;" d="M -0.125 -5.921875 L -6.546875 -5.921875 L -6.546875 -4.640625 L -2.953125 -4.640625 C -1.671875 -4.640625 -0.953125 -4.109375 -0.953125 -3.078125 C -0.953125 -2.28125 -1.3125 -1.90625 -2.0625 -1.90625 L -6.546875 -1.90625 L -6.546875 -0.640625 L -1.671875 -0.640625 C -0.625 -0.640625 0.1875 -1.5625 0.1875 -2.78125 C 0.1875 -3.703125 -0.1875 -4.390625 -1.015625 -4.984375 L -1.109375 -4.734375 L 0 -4.734375 L 0 -5.921875 Z M -0.125 -5.921875 "/>
</symbol>
<symbol overflow="visible" id="glyph2-12">
<path style="stroke:none;" d="M -0.125 -1.9375 L -9.015625 -1.9375 L -9.015625 -0.671875 L 0 -0.671875 L 0 -1.9375 Z M -0.125 -1.9375 "/>
</symbol>
<symbol overflow="visible" id="glyph2-13">
<path style="stroke:none;" d="M -0.125 -6.078125 L -9.015625 -6.078125 L -9.015625 -4.796875 L -5.625 -4.796875 L -5.71875 -5.046875 C -6.359375 -4.625 -6.734375 -3.859375 -6.734375 -3.015625 C -6.734375 -1.375 -5.34375 -0.171875 -3.34375 -0.171875 C -1.21875 -0.171875 0.1875 -1.359375 0.1875 -3.046875 C 0.1875 -3.90625 -0.1875 -4.609375 -0.953125 -5.140625 L -1.0625 -4.90625 L 0 -4.90625 L 0 -6.078125 Z M -3.25 -4.796875 C -1.796875 -4.796875 -1.015625 -4.25 -1.015625 -3.1875 C -1.015625 -2.09375 -1.8125 -1.484375 -3.28125 -1.484375 C -4.734375 -1.484375 -5.53125 -2.09375 -5.53125 -3.1875 C -5.53125 -4.265625 -4.703125 -4.796875 -3.25 -4.796875 Z M -3.25 -4.796875 "/>
</symbol>
<symbol overflow="visible" id="glyph2-14">
<path style="stroke:none;" d="M -3.21875 -6.40625 C -5.328125 -6.40625 -6.734375 -5.25 -6.734375 -3.578125 C -6.734375 -2.71875 -6.3125 -1.9375 -5.5625 -1.46875 L -5.46875 -1.703125 L -6.546875 -1.703125 L -6.546875 -0.515625 L 2.609375 -0.515625 L 2.609375 -1.78125 L -0.890625 -1.78125 L -0.796875 -1.546875 C -0.140625 -2.078125 0.1875 -2.765625 0.1875 -3.59375 C 0.1875 -5.203125 -1.21875 -6.40625 -3.21875 -6.40625 Z M -3.234375 -5.09375 C -1.8125 -5.09375 -1.015625 -4.5 -1.015625 -3.40625 C -1.015625 -2.359375 -1.75 -1.78125 -3.234375 -1.78125 C -4.703125 -1.78125 -5.53125 -2.359375 -5.53125 -3.40625 C -5.53125 -4.515625 -4.734375 -5.09375 -3.234375 -5.09375 Z M -3.234375 -5.09375 "/>
</symbol>
<symbol overflow="visible" id="glyph2-15">
<path style="stroke:none;" d="M -2.984375 -6.28125 C -3.90625 -6.28125 -4.46875 -6.21875 -4.9375 -6.03125 C -5.96875 -5.625 -6.734375 -4.53125 -6.734375 -3.359375 C -6.734375 -1.609375 -5.296875 -0.34375 -3.234375 -0.34375 C -1.171875 -0.34375 0.1875 -1.578125 0.1875 -3.34375 C 0.1875 -4.78125 -0.765625 -5.90625 -2.171875 -6.1875 L -2.171875 -4.921875 C -1.21875 -4.59375 -1.015625 -4.171875 -1.015625 -3.375 C -1.015625 -2.328125 -1.546875 -1.6875 -2.859375 -1.65625 L -2.859375 -6.28125 Z M -3.78125 -5.1875 C -3.78125 -5.1875 -3.921875 -4.984375 -3.9375 -4.984375 L -3.9375 -1.6875 C -4.921875 -1.765625 -5.546875 -2.34375 -5.546875 -3.34375 C -5.546875 -4.328125 -4.859375 -4.9375 -3.875 -4.9375 Z M -9.015625 -5.515625 L -9.015625 -4.078125 L -6.96875 -2.75 L -6.96875 -3.765625 L -8.78125 -5.609375 Z M -9.015625 -5.515625 "/>
</symbol>
<symbol overflow="visible" id="glyph2-16">
<path style="stroke:none;" d="M -0.125 -9.25 L -4.84375 -9.25 C -5.96875 -9.25 -6.734375 -8.5 -6.734375 -7.3125 C -6.734375 -6.484375 -6.4375 -5.875 -5.875 -5.40625 C -6.40625 -5.109375 -6.734375 -4.515625 -6.734375 -3.703125 C -6.734375 -2.859375 -6.390625 -2.203125 -5.625 -1.65625 L -5.53125 -1.890625 L -6.546875 -1.890625 L -6.546875 -0.703125 L 0 -0.703125 L 0 -1.984375 L -4.078125 -1.984375 C -4.984375 -1.984375 -5.59375 -2.515625 -5.59375 -3.328125 C -5.59375 -4.0625 -5.265625 -4.34375 -4.46875 -4.34375 L 0 -4.34375 L 0 -5.609375 L -4.078125 -5.609375 C -4.984375 -5.609375 -5.59375 -6.15625 -5.59375 -6.96875 C -5.59375 -7.703125 -5.25 -7.984375 -4.46875 -7.984375 L 0 -7.984375 L 0 -9.25 Z M -0.125 -9.25 "/>
</symbol>
<symbol overflow="visible" id="glyph2-17">
<path style="stroke:none;" d="M 2.3125 -3.59375 C 0.59375 -2.53125 -1.3125 -1.984375 -3.234375 -1.984375 C -5.140625 -1.984375 -7.078125 -2.53125 -9.015625 -3.734375 L -9.015625 -2.765625 C -7.40625 -1.53125 -5.125 -0.734375 -3.234375 -0.734375 C -1.34375 -0.734375 0.9375 -1.53125 2.546875 -2.765625 L 2.546875 -3.734375 Z M 2.3125 -3.59375 "/>
</symbol>
<symbol overflow="visible" id="glyph2-18">
<path style="stroke:none;" d="M -0.15625 -6.546875 L -1.078125 -6.546875 C -1.015625 -6.3125 -1.015625 -6.265625 -1.015625 -6.203125 C -1.015625 -5.859375 -1.0625 -5.796875 -1.375 -5.796875 L -4.890625 -5.796875 C -6 -5.796875 -6.734375 -4.84375 -6.734375 -3.296875 C -6.734375 -1.78125 -6.015625 -0.703125 -4.421875 -0.640625 L -4.421875 -1.90625 C -5.328125 -2 -5.546875 -2.328125 -5.546875 -3.265625 C -5.546875 -4.15625 -5.34375 -4.53125 -4.734375 -4.53125 L -4.46875 -4.53125 C -4.0625 -4.53125 -4.015625 -4.421875 -3.90625 -3.625 C -3.734375 -2.203125 -3.6875 -1.984375 -3.53125 -1.609375 C -3.234375 -0.875 -2.53125 -0.359375 -1.765625 -0.359375 C -0.625 -0.359375 0.1875 -1.296875 0.1875 -2.5625 C 0.1875 -3.375 -0.1875 -4.25 -0.59375 -4.625 C -0.390625 -4.671875 0.078125 -5.25 0.078125 -5.734375 C 0.078125 -5.9375 0.0625 -6.09375 -0.046875 -6.546875 Z M -2.296875 -4.53125 C -1.40625 -4.53125 -0.953125 -3.75 -0.953125 -2.78125 C -0.953125 -2 -1.109375 -1.6875 -1.78125 -1.6875 C -2.453125 -1.6875 -2.609375 -1.984375 -2.765625 -3.0625 C -2.90625 -4.109375 -2.953125 -4.328125 -3.03125 -4.53125 Z M -7.203125 -3.75 L -9.015625 -2.5625 L -9.015625 -1.15625 L -8.78125 -1.046875 L -6.96875 -2.875 L -6.96875 -3.90625 Z M -7.203125 -3.75 "/>
</symbol>
<symbol overflow="visible" id="glyph2-19">
<path style="stroke:none;" d="M -1.890625 -5.640625 C -2.828125 -5.640625 -3.4375 -4.984375 -3.734375 -3.734375 L -3.953125 -2.765625 C -4.15625 -1.953125 -4.28125 -1.734375 -4.734375 -1.734375 C -5.296875 -1.734375 -5.546875 -2.125 -5.546875 -2.9375 C -5.546875 -3.75 -5.328125 -4.03125 -4.53125 -4.0625 L -4.53125 -5.390625 C -5.90625 -5.375 -6.734375 -4.421875 -6.734375 -2.96875 C -6.734375 -1.515625 -5.84375 -0.421875 -4.6875 -0.421875 C -3.703125 -0.421875 -3.09375 -1.0625 -2.734375 -2.5625 L -2.515625 -3.484375 C -2.34375 -4.1875 -2.265625 -4.3125 -1.8125 -4.3125 C -1.21875 -4.3125 -1.015625 -3.875 -1.015625 -3 C -1.015625 -2.09375 -1.09375 -1.734375 -2.1875 -1.578125 L -2.1875 -0.265625 C -0.59375 -0.3125 0.1875 -1.265625 0.1875 -2.921875 C 0.1875 -4.5 -0.6875 -5.640625 -1.890625 -5.640625 Z M -1.890625 -5.640625 "/>
</symbol>
<symbol overflow="visible" id="glyph2-20">
<path style="stroke:none;" d="M -5.609375 -3.234375 L -6.546875 -3.234375 L -6.546875 -2.1875 L -7.40625 -2.1875 C -7.828125 -2.1875 -7.90625 -2.296875 -7.90625 -2.75 C -7.90625 -2.828125 -7.90625 -2.875 -7.890625 -3.234375 L -8.96875 -3.234375 C -9.03125 -2.875 -9.046875 -2.734375 -9.046875 -2.53125 C -9.046875 -1.609375 -8.390625 -0.90625 -7.484375 -0.90625 L -6.546875 -0.90625 L -6.546875 -0.078125 L -5.46875 -0.078125 L -5.46875 -0.90625 L 0 -0.90625 L 0 -2.1875 L -5.46875 -2.1875 L -5.46875 -3.234375 Z M -0.125 -5.28125 L -6.546875 -5.28125 L -6.546875 -4.015625 L 0 -4.015625 L 0 -5.28125 Z M -7.375 -5.40625 L -8.75 -5.40625 L -8.75 -3.890625 L -7.234375 -3.890625 L -7.234375 -5.40625 Z M -7.375 -5.40625 "/>
</symbol>
<symbol overflow="visible" id="glyph2-21">
<path style="stroke:none;" d="M -3.234375 -3.203125 C -5.125 -3.203125 -7.40625 -2.40625 -9.015625 -1.171875 L -9.015625 -0.203125 C -7.0625 -1.40625 -5.140625 -1.953125 -3.234375 -1.953125 C -1.3125 -1.953125 0.609375 -1.40625 2.546875 -0.203125 L 2.546875 -1.171875 C 0.9375 -2.40625 -1.34375 -3.203125 -3.234375 -3.203125 Z M -3.234375 -3.203125 "/>
</symbol>
</g>
<clipPath id="clip1">
  <path d="M 50.53125 5.976562 L 554 5.976562 L 554 451 L 50.53125 451 Z M 50.53125 5.976562 "/>
</clipPath>
<clipPath id="clip2">
  <path d="M 50.53125 374 L 554 374 L 554 376 L 50.53125 376 Z M 50.53125 374 "/>
</clipPath>
<clipPath id="clip3">
  <path d="M 50.53125 263 L 554 263 L 554 265 L 50.53125 265 Z M 50.53125 263 "/>
</clipPath>
<clipPath id="clip4">
  <path d="M 50.53125 152 L 554 152 L 554 154 L 50.53125 154 Z M 50.53125 152 "/>
</clipPath>
<clipPath id="clip5">
  <path d="M 50.53125 41 L 554 41 L 554 43 L 50.53125 43 Z M 50.53125 41 "/>
</clipPath>
<clipPath id="clip6">
  <path d="M 55 5.976562 L 57 5.976562 L 57 451.46875 L 55 451.46875 Z M 55 5.976562 "/>
</clipPath>
<clipPath id="clip7">
  <path d="M 90 5.976562 L 92 5.976562 L 92 451.46875 L 90 451.46875 Z M 90 5.976562 "/>
</clipPath>
<clipPath id="clip8">
  <path d="M 124 5.976562 L 126 5.976562 L 126 451.46875 L 124 451.46875 Z M 124 5.976562 "/>
</clipPath>
<clipPath id="clip9">
  <path d="M 158 5.976562 L 160 5.976562 L 160 451.46875 L 158 451.46875 Z M 158 5.976562 "/>
</clipPath>
<clipPath id="clip10">
  <path d="M 193 5.976562 L 195 5.976562 L 195 451.46875 L 193 451.46875 Z M 193 5.976562 "/>
</clipPath>
<clipPath id="clip11">
  <path d="M 227 5.976562 L 229 5.976562 L 229 451.46875 L 227 451.46875 Z M 227 5.976562 "/>
</clipPath>
<clipPath id="clip12">
  <path d="M 261 5.976562 L 263 5.976562 L 263 451.46875 L 261 451.46875 Z M 261 5.976562 "/>
</clipPath>
<clipPath id="clip13">
  <path d="M 296 5.976562 L 298 5.976562 L 298 451.46875 L 296 451.46875 Z M 296 5.976562 "/>
</clipPath>
<clipPath id="clip14">
  <path d="M 330 5.976562 L 332 5.976562 L 332 451.46875 L 330 451.46875 Z M 330 5.976562 "/>
</clipPath>
<clipPath id="clip15">
  <path d="M 364 5.976562 L 366 5.976562 L 366 451.46875 L 364 451.46875 Z M 364 5.976562 "/>
</clipPath>
<clipPath id="clip16">
  <path d="M 399 5.976562 L 401 5.976562 L 401 451.46875 L 399 451.46875 Z M 399 5.976562 "/>
</clipPath>
<clipPath id="clip17">
  <path d="M 433 5.976562 L 435 5.976562 L 435 451.46875 L 433 451.46875 Z M 433 5.976562 "/>
</clipPath>
<clipPath id="clip18">
  <path d="M 467 5.976562 L 469 5.976562 L 469 451.46875 L 467 451.46875 Z M 467 5.976562 "/>
</clipPath>
<clipPath id="clip19">
  <path d="M 502 5.976562 L 504 5.976562 L 504 451.46875 L 502 451.46875 Z M 502 5.976562 "/>
</clipPath>
<clipPath id="clip20">
  <path d="M 536 5.976562 L 538 5.976562 L 538 451.46875 L 536 451.46875 Z M 536 5.976562 "/>
</clipPath>
<clipPath id="clip21">
  <path d="M 50.53125 430 L 554 430 L 554 431 L 50.53125 431 Z M 50.53125 430 "/>
</clipPath>
<clipPath id="clip22">
  <path d="M 50.53125 319 L 554 319 L 554 320 L 50.53125 320 Z M 50.53125 319 "/>
</clipPath>
<clipPath id="clip23">
  <path d="M 50.53125 208 L 554 208 L 554 209 L 50.53125 209 Z M 50.53125 208 "/>
</clipPath>
<clipPath id="clip24">
  <path d="M 50.53125 97 L 554 97 L 554 98 L 50.53125 98 Z M 50.53125 97 "/>
</clipPath>
<clipPath id="clip25">
  <path d="M 73 5.976562 L 74 5.976562 L 74 451 L 73 451 Z M 73 5.976562 "/>
</clipPath>
<clipPath id="clip26">
  <path d="M 107 5.976562 L 108 5.976562 L 108 451 L 107 451 Z M 107 5.976562 "/>
</clipPath>
<clipPath id="clip27">
  <path d="M 141 5.976562 L 143 5.976562 L 143 451 L 141 451 Z M 141 5.976562 "/>
</clipPath>
<clipPath id="clip28">
  <path d="M 176 5.976562 L 177 5.976562 L 177 451 L 176 451 Z M 176 5.976562 "/>
</clipPath>
<clipPath id="clip29">
  <path d="M 210 5.976562 L 211 5.976562 L 211 451 L 210 451 Z M 210 5.976562 "/>
</clipPath>
<clipPath id="clip30">
  <path d="M 244 5.976562 L 246 5.976562 L 246 451 L 244 451 Z M 244 5.976562 "/>
</clipPath>
<clipPath id="clip31">
  <path d="M 279 5.976562 L 280 5.976562 L 280 451 L 279 451 Z M 279 5.976562 "/>
</clipPath>
<clipPath id="clip32">
  <path d="M 313 5.976562 L 315 5.976562 L 315 451 L 313 451 Z M 313 5.976562 "/>
</clipPath>
<clipPath id="clip33">
  <path d="M 347 5.976562 L 349 5.976562 L 349 451 L 347 451 Z M 347 5.976562 "/>
</clipPath>
<clipPath id="clip34">
  <path d="M 382 5.976562 L 383 5.976562 L 383 451 L 382 451 Z M 382 5.976562 "/>
</clipPath>
<clipPath id="clip35">
  <path d="M 416 5.976562 L 418 5.976562 L 418 451 L 416 451 Z M 416 5.976562 "/>
</clipPath>
<clipPath id="clip36">
  <path d="M 451 5.976562 L 452 5.976562 L 452 451 L 451 451 Z M 451 5.976562 "/>
</clipPath>
<clipPath id="clip37">
  <path d="M 485 5.976562 L 486 5.976562 L 486 451 L 485 451 Z M 485 5.976562 "/>
</clipPath>
<clipPath id="clip38">
  <path d="M 519 5.976562 L 521 5.976562 L 521 451 L 519 451 Z M 519 5.976562 "/>
</clipPath>
<clipPath id="clip39">
  <path d="M 50.53125 5.976562 L 554 5.976562 L 554 451.46875 L 50.53125 451.46875 Z M 50.53125 5.976562 "/>
</clipPath>
</defs>
<g id="surface2724">
<rect x="0" y="0" width="637" height="487" style="fill:rgb(100%,100%,100%);fill-opacity:1;stroke:none;"/>
<rect x="0" y="0" width="637" height="487" style="fill:rgb(100%,100%,100%);fill-opacity:1;stroke:none;"/>
<path style="fill:none;stroke-width:1.066978;stroke-linecap:round;stroke-linejoin:round;stroke:rgb(100%,100%,100%);stroke-opacity:1;stroke-miterlimit:10;" d="M 0 487 L 637 487 L 637 0 L 0 0 Z M 0 487 "/>
<g clip-path="url(#clip1)" clip-rule="nonzero">
<path style=" stroke:none;fill-rule:nonzero;fill:rgb(100%,100%,100%);fill-opacity:1;" d="M 50.53125 450.46875 L 553.070312 450.46875 L 553.070312 5.976562 L 50.53125 5.976562 Z M 50.53125 450.46875 "/>
</g>
<g clip-path="url(#clip2)" clip-rule="nonzero">
<path style="fill:none;stroke-width:1.066978;stroke-linecap:butt;stroke-linejoin:round;stroke:rgb(98.039216%,98.039216%,98.039216%);stroke-opacity:1;stroke-miterlimit:10;" d="M 50.53125 374.890625 L 553.070312 374.890625 "/>
</g>
<g clip-path="url(#clip3)" clip-rule="nonzero">
<path style="fill:none;stroke-width:1.066978;stroke-linecap:butt;stroke-linejoin:round;stroke:rgb(98.039216%,98.039216%,98.039216%);stroke-opacity:1;stroke-miterlimit:10;" d="M 50.53125 263.820312 L 553.070312 263.820312 "/>
</g>
<g clip-path="url(#clip4)" clip-rule="nonzero">
<path style="fill:none;stroke-width:1.066978;stroke-linecap:butt;stroke-linejoin:round;stroke:rgb(98.039216%,98.039216%,98.039216%);stroke-opacity:1;stroke-miterlimit:10;" d="M 50.53125 152.75 L 553.070312 152.75 "/>
</g>
<g clip-path="url(#clip5)" clip-rule="nonzero">
<path style="fill:none;stroke-width:1.066978;stroke-linecap:butt;stroke-linejoin:round;stroke:rgb(98.039216%,98.039216%,98.039216%);stroke-opacity:1;stroke-miterlimit:10;" d="M 50.53125 41.679688 L 553.070312 41.679688 "/>
</g>
<g clip-path="url(#clip6)" clip-rule="nonzero">
<path style="fill:none;stroke-width:1.066978;stroke-linecap:butt;stroke-linejoin:round;stroke:rgb(98.039216%,98.039216%,98.039216%);stroke-opacity:1;stroke-miterlimit:10;" d="M 56.199219 450.46875 L 56.199219 5.976562 "/>
</g>
<g clip-path="url(#clip7)" clip-rule="nonzero">
<path style="fill:none;stroke-width:1.066978;stroke-linecap:butt;stroke-linejoin:round;stroke:rgb(98.039216%,98.039216%,98.039216%);stroke-opacity:1;stroke-miterlimit:10;" d="M 90.546875 450.46875 L 90.546875 5.976562 "/>
</g>
<g clip-path="url(#clip8)" clip-rule="nonzero">
<path style="fill:none;stroke-width:1.066978;stroke-linecap:butt;stroke-linejoin:round;stroke:rgb(98.039216%,98.039216%,98.039216%);stroke-opacity:1;stroke-miterlimit:10;" d="M 124.898438 450.46875 L 124.898438 5.976562 "/>
</g>
<g clip-path="url(#clip9)" clip-rule="nonzero">
<path style="fill:none;stroke-width:1.066978;stroke-linecap:butt;stroke-linejoin:round;stroke:rgb(98.039216%,98.039216%,98.039216%);stroke-opacity:1;stroke-miterlimit:10;" d="M 159.25 450.46875 L 159.25 5.976562 "/>
</g>
<g clip-path="url(#clip10)" clip-rule="nonzero">
<path style="fill:none;stroke-width:1.066978;stroke-linecap:butt;stroke-linejoin:round;stroke:rgb(98.039216%,98.039216%,98.039216%);stroke-opacity:1;stroke-miterlimit:10;" d="M 193.597656 450.46875 L 193.597656 5.976562 "/>
</g>
<g clip-path="url(#clip11)" clip-rule="nonzero">
<path style="fill:none;stroke-width:1.066978;stroke-linecap:butt;stroke-linejoin:round;stroke:rgb(98.039216%,98.039216%,98.039216%);stroke-opacity:1;stroke-miterlimit:10;" d="M 227.949219 450.46875 L 227.949219 5.976562 "/>
</g>
<g clip-path="url(#clip12)" clip-rule="nonzero">
<path style="fill:none;stroke-width:1.066978;stroke-linecap:butt;stroke-linejoin:round;stroke:rgb(98.039216%,98.039216%,98.039216%);stroke-opacity:1;stroke-miterlimit:10;" d="M 262.296875 450.46875 L 262.296875 5.976562 "/>
</g>
<g clip-path="url(#clip13)" clip-rule="nonzero">
<path style="fill:none;stroke-width:1.066978;stroke-linecap:butt;stroke-linejoin:round;stroke:rgb(98.039216%,98.039216%,98.039216%);stroke-opacity:1;stroke-miterlimit:10;" d="M 296.648438 450.46875 L 296.648438 5.976562 "/>
</g>
<g clip-path="url(#clip14)" clip-rule="nonzero">
<path style="fill:none;stroke-width:1.066978;stroke-linecap:butt;stroke-linejoin:round;stroke:rgb(98.039216%,98.039216%,98.039216%);stroke-opacity:1;stroke-miterlimit:10;" d="M 330.996094 450.46875 L 330.996094 5.976562 "/>
</g>
<g clip-path="url(#clip15)" clip-rule="nonzero">
<path style="fill:none;stroke-width:1.066978;stroke-linecap:butt;stroke-linejoin:round;stroke:rgb(98.039216%,98.039216%,98.039216%);stroke-opacity:1;stroke-miterlimit:10;" d="M 365.347656 450.46875 L 365.347656 5.976562 "/>
</g>
<g clip-path="url(#clip16)" clip-rule="nonzero">
<path style="fill:none;stroke-width:1.066978;stroke-linecap:butt;stroke-linejoin:round;stroke:rgb(98.039216%,98.039216%,98.039216%);stroke-opacity:1;stroke-miterlimit:10;" d="M 399.699219 450.46875 L 399.699219 5.976562 "/>
</g>
<g clip-path="url(#clip17)" clip-rule="nonzero">
<path style="fill:none;stroke-width:1.066978;stroke-linecap:butt;stroke-linejoin:round;stroke:rgb(98.039216%,98.039216%,98.039216%);stroke-opacity:1;stroke-miterlimit:10;" d="M 434.046875 450.46875 L 434.046875 5.976562 "/>
</g>
<g clip-path="url(#clip18)" clip-rule="nonzero">
<path style="fill:none;stroke-width:1.066978;stroke-linecap:butt;stroke-linejoin:round;stroke:rgb(98.039216%,98.039216%,98.039216%);stroke-opacity:1;stroke-miterlimit:10;" d="M 468.398438 450.46875 L 468.398438 5.976562 "/>
</g>
<g clip-path="url(#clip19)" clip-rule="nonzero">
<path style="fill:none;stroke-width:1.066978;stroke-linecap:butt;stroke-linejoin:round;stroke:rgb(98.039216%,98.039216%,98.039216%);stroke-opacity:1;stroke-miterlimit:10;" d="M 502.746094 450.46875 L 502.746094 5.976562 "/>
</g>
<g clip-path="url(#clip20)" clip-rule="nonzero">
<path style="fill:none;stroke-width:1.066978;stroke-linecap:butt;stroke-linejoin:round;stroke:rgb(98.039216%,98.039216%,98.039216%);stroke-opacity:1;stroke-miterlimit:10;" d="M 537.097656 450.46875 L 537.097656 5.976562 "/>
</g>
<g clip-path="url(#clip21)" clip-rule="nonzero">
<path style="fill:none;stroke-width:0.426791;stroke-linecap:butt;stroke-linejoin:round;stroke:rgb(89.803922%,89.803922%,89.803922%);stroke-opacity:1;stroke-miterlimit:10;" d="M 50.53125 430.425781 L 553.070312 430.425781 "/>
</g>
<g clip-path="url(#clip22)" clip-rule="nonzero">
<path style="fill:none;stroke-width:0.426791;stroke-linecap:butt;stroke-linejoin:round;stroke:rgb(89.803922%,89.803922%,89.803922%);stroke-opacity:1;stroke-miterlimit:10;" d="M 50.53125 319.355469 L 553.070312 319.355469 "/>
</g>
<g clip-path="url(#clip23)" clip-rule="nonzero">
<path style="fill:none;stroke-width:0.426791;stroke-linecap:butt;stroke-linejoin:round;stroke:rgb(89.803922%,89.803922%,89.803922%);stroke-opacity:1;stroke-miterlimit:10;" d="M 50.53125 208.285156 L 553.070312 208.285156 "/>
</g>
<g clip-path="url(#clip24)" clip-rule="nonzero">
<path style="fill:none;stroke-width:0.426791;stroke-linecap:butt;stroke-linejoin:round;stroke:rgb(89.803922%,89.803922%,89.803922%);stroke-opacity:1;stroke-miterlimit:10;" d="M 50.53125 97.214844 L 553.070312 97.214844 "/>
</g>
<g clip-path="url(#clip25)" clip-rule="nonzero">
<path style="fill:none;stroke-width:0.426791;stroke-linecap:butt;stroke-linejoin:round;stroke:rgb(89.803922%,89.803922%,89.803922%);stroke-opacity:1;stroke-miterlimit:10;" d="M 73.375 450.46875 L 73.375 5.976562 "/>
</g>
<g clip-path="url(#clip26)" clip-rule="nonzero">
<path style="fill:none;stroke-width:0.426791;stroke-linecap:butt;stroke-linejoin:round;stroke:rgb(89.803922%,89.803922%,89.803922%);stroke-opacity:1;stroke-miterlimit:10;" d="M 107.722656 450.46875 L 107.722656 5.976562 "/>
</g>
<g clip-path="url(#clip27)" clip-rule="nonzero">
<path style="fill:none;stroke-width:0.426791;stroke-linecap:butt;stroke-linejoin:round;stroke:rgb(89.803922%,89.803922%,89.803922%);stroke-opacity:1;stroke-miterlimit:10;" d="M 142.074219 450.46875 L 142.074219 5.976562 "/>
</g>
<g clip-path="url(#clip28)" clip-rule="nonzero">
<path style="fill:none;stroke-width:0.426791;stroke-linecap:butt;stroke-linejoin:round;stroke:rgb(89.803922%,89.803922%,89.803922%);stroke-opacity:1;stroke-miterlimit:10;" d="M 176.421875 450.46875 L 176.421875 5.976562 "/>
</g>
<g clip-path="url(#clip29)" clip-rule="nonzero">
<path style="fill:none;stroke-width:0.426791;stroke-linecap:butt;stroke-linejoin:round;stroke:rgb(89.803922%,89.803922%,89.803922%);stroke-opacity:1;stroke-miterlimit:10;" d="M 210.773438 450.46875 L 210.773438 5.976562 "/>
</g>
<g clip-path="url(#clip30)" clip-rule="nonzero">
<path style="fill:none;stroke-width:0.426791;stroke-linecap:butt;stroke-linejoin:round;stroke:rgb(89.803922%,89.803922%,89.803922%);stroke-opacity:1;stroke-miterlimit:10;" d="M 245.125 450.46875 L 245.125 5.976562 "/>
</g>
<g clip-path="url(#clip31)" clip-rule="nonzero">
<path style="fill:none;stroke-width:0.426791;stroke-linecap:butt;stroke-linejoin:round;stroke:rgb(89.803922%,89.803922%,89.803922%);stroke-opacity:1;stroke-miterlimit:10;" d="M 279.472656 450.46875 L 279.472656 5.976562 "/>
</g>
<g clip-path="url(#clip32)" clip-rule="nonzero">
<path style="fill:none;stroke-width:0.426791;stroke-linecap:butt;stroke-linejoin:round;stroke:rgb(89.803922%,89.803922%,89.803922%);stroke-opacity:1;stroke-miterlimit:10;" d="M 313.824219 450.46875 L 313.824219 5.976562 "/>
</g>
<g clip-path="url(#clip33)" clip-rule="nonzero">
<path style="fill:none;stroke-width:0.426791;stroke-linecap:butt;stroke-linejoin:round;stroke:rgb(89.803922%,89.803922%,89.803922%);stroke-opacity:1;stroke-miterlimit:10;" d="M 348.171875 450.46875 L 348.171875 5.976562 "/>
</g>
<g clip-path="url(#clip34)" clip-rule="nonzero">
<path style="fill:none;stroke-width:0.426791;stroke-linecap:butt;stroke-linejoin:round;stroke:rgb(89.803922%,89.803922%,89.803922%);stroke-opacity:1;stroke-miterlimit:10;" d="M 382.523438 450.46875 L 382.523438 5.976562 "/>
</g>
<g clip-path="url(#clip35)" clip-rule="nonzero">
<path style="fill:none;stroke-width:0.426791;stroke-linecap:butt;stroke-linejoin:round;stroke:rgb(89.803922%,89.803922%,89.803922%);stroke-opacity:1;stroke-miterlimit:10;" d="M 416.871094 450.46875 L 416.871094 5.976562 "/>
</g>
<g clip-path="url(#clip36)" clip-rule="nonzero">
<path style="fill:none;stroke-width:0.426791;stroke-linecap:butt;stroke-linejoin:round;stroke:rgb(89.803922%,89.803922%,89.803922%);stroke-opacity:1;stroke-miterlimit:10;" d="M 451.222656 450.46875 L 451.222656 5.976562 "/>
</g>
<g clip-path="url(#clip37)" clip-rule="nonzero">
<path style="fill:none;stroke-width:0.426791;stroke-linecap:butt;stroke-linejoin:round;stroke:rgb(89.803922%,89.803922%,89.803922%);stroke-opacity:1;stroke-miterlimit:10;" d="M 485.574219 450.46875 L 485.574219 5.976562 "/>
</g>
<g clip-path="url(#clip38)" clip-rule="nonzero">
<path style="fill:none;stroke-width:0.426791;stroke-linecap:butt;stroke-linejoin:round;stroke:rgb(89.803922%,89.803922%,89.803922%);stroke-opacity:1;stroke-miterlimit:10;" d="M 519.921875 450.46875 L 519.921875 5.976562 "/>
</g>
<path style="fill:none;stroke-width:2.133957;stroke-linecap:butt;stroke-linejoin:round;stroke:rgb(89.411765%,10.196078%,10.980392%);stroke-opacity:1;stroke-miterlimit:1;" d="M 97.417969 430.242188 L 102.898438 430.253906 L 108.375 430.261719 L 113.855469 430.265625 L 119.332031 430.265625 L 124.8125 430.261719 L 130.289062 430.257812 L 135.769531 430.253906 L 141.246094 430.25 L 146.726562 430.242188 L 152.203125 430.238281 L 157.683594 430.234375 L 163.160156 430.21875 L 168.640625 430.199219 L 174.117188 430.171875 L 179.597656 430.140625 L 185.074219 430.097656 L 190.554688 430.046875 L 196.03125 429.980469 L 201.511719 429.910156 L 206.992188 429.875 L 212.46875 429.839844 L 217.949219 429.78125 L 223.425781 429.710938 L 228.90625 429.632812 L 234.382812 429.605469 L 239.863281 429.65625 L 245.339844 429.695312 L 250.820312 429.703125 L 256.296875 429.667969 L 261.777344 429.644531 L 267.253906 429.738281 L 272.734375 429.792969 L 278.210938 429.75 L 283.691406 429.632812 L 289.167969 429.597656 L 294.648438 429.65625 L 300.125 429.617188 L 305.605469 429.515625 L 311.082031 429.441406 L 316.5625 429.492188 L 322.039062 429.476562 L 327.519531 429.359375 L 333 429.105469 L 338.476562 428.804688 L 343.957031 428.542969 L 349.433594 428.453125 L 354.914062 428.320312 L 360.390625 428.121094 L 365.871094 427.933594 L 371.347656 427.851562 L 376.828125 427.527344 L 382.304688 427.078125 L 387.785156 426.519531 L 393.261719 426.011719 L 398.742188 425.667969 L 404.21875 425.402344 L 409.699219 425.167969 L 415.175781 424.0625 L 420.65625 422.390625 L 426.132812 420.191406 L 431.613281 418.238281 L 437.089844 419.152344 L 442.570312 417.761719 L 448.046875 411.6875 L 453.527344 414.234375 L 459.007812 413.792969 L 464.484375 408.800781 L 469.964844 403.289062 L 475.441406 388.367188 L 480.921875 383.429688 L 486.398438 363.589844 L 491.878906 361.871094 L 497.355469 329.90625 L 502.835938 298.269531 L 508.3125 277.542969 L 513.792969 312.210938 L 519.269531 323.113281 L 524.75 328.382812 L 530.226562 321.757812 "/>
<path style="fill:none;stroke-width:2.133957;stroke-linecap:butt;stroke-linejoin:round;stroke:rgb(21.568627%,49.411765%,72.156863%);stroke-opacity:1;stroke-miterlimit:1;" d="M 73.375 428.664062 L 79.15625 428.507812 L 84.9375 428.339844 L 90.722656 428.148438 L 96.503906 427.941406 L 102.289062 427.714844 L 108.070312 427.386719 L 113.855469 427.023438 L 119.636719 426.988281 L 125.421875 427.054688 L 131.203125 427.027344 L 136.984375 426.925781 L 142.769531 426.859375 L 148.550781 426.859375 L 154.335938 426.835938 L 160.117188 426.625 L 165.902344 426.34375 L 171.683594 425.988281 L 177.464844 425.578125 L 183.25 424.609375 L 189.03125 423.34375 L 194.816406 422.105469 L 200.597656 421.117188 L 206.382812 420.9375 L 212.164062 421.113281 L 217.949219 421.550781 L 223.730469 422.199219 L 229.511719 422.929688 L 235.296875 423.742188 L 241.078125 424.460938 L 246.863281 425.195312 L 252.644531 425.992188 L 258.429688 426.625 L 264.210938 426.949219 L 269.996094 427.085938 L 275.777344 427.085938 L 281.558594 427.242188 L 287.34375 427.453125 L 293.125 427.5625 L 298.910156 427.628906 L 304.691406 427.742188 L 310.476562 427.882812 L 316.257812 428.0625 L 322.039062 428.21875 L 327.824219 428.171875 L 333.605469 428.21875 L 339.390625 428.296875 L 345.171875 428.410156 L 350.957031 428.527344 L 356.738281 428.628906 L 362.523438 428.722656 L 368.304688 428.945312 L 374.085938 429.097656 L 379.871094 429.15625 L 385.652344 429.15625 L 391.4375 429.175781 L 397.21875 429.320312 L 403.003906 429.488281 L 408.785156 429.46875 L 414.570312 429.398438 L 420.351562 429.285156 L 426.132812 429.261719 L 431.917969 429.234375 L 437.699219 428.726562 L 443.484375 427.996094 L 449.265625 425.203125 L 455.050781 414.789062 L 460.832031 399.796875 L 466.613281 381.136719 L 472.398438 362.96875 L 478.179688 345.464844 L 483.964844 317.550781 L 489.746094 255.015625 L 495.53125 180.695312 L 501.3125 140.734375 L 507.097656 101.414062 L 512.878906 56.664062 L 518.660156 26.183594 L 524.445312 48.054688 L 530.226562 113.617188 "/>
<path style="fill:none;stroke-width:2.133957;stroke-linecap:butt;stroke-linejoin:round;stroke:rgb(30.196078%,68.627451%,29.019608%);stroke-opacity:1;stroke-miterlimit:1;" d="M 155.8125 430.242188 L 160.550781 430.253906 L 165.292969 430.257812 L 170.03125 430.25 L 174.769531 430.230469 L 179.511719 430.203125 L 184.25 430.160156 L 188.988281 430.105469 L 193.730469 430.042969 L 198.46875 429.96875 L 203.207031 429.863281 L 207.945312 429.84375 L 212.6875 429.84375 L 217.425781 429.898438 L 222.164062 429.867188 L 226.90625 429.84375 L 231.644531 429.890625 L 236.382812 429.847656 L 241.121094 429.769531 L 245.863281 429.828125 L 250.601562 429.949219 L 255.339844 430.007812 L 260.082031 430.027344 L 264.820312 430.078125 L 269.558594 430.089844 L 274.300781 430.015625 L 279.039062 430 L 283.777344 430.035156 L 288.515625 430.046875 L 293.257812 430.003906 L 297.996094 429.984375 L 302.734375 430.007812 L 307.476562 430.019531 L 312.214844 429.992188 L 316.953125 429.996094 L 321.691406 429.980469 L 326.433594 429.925781 L 331.171875 429.871094 L 335.910156 429.941406 L 340.652344 429.960938 L 345.390625 429.9375 L 350.128906 429.910156 L 354.867188 429.9375 L 359.609375 430.019531 L 364.347656 430.035156 L 369.085938 429.996094 L 373.828125 429.867188 L 378.566406 429.730469 L 383.304688 429.632812 L 388.046875 429.644531 L 392.785156 429.472656 L 397.523438 429.316406 L 402.261719 429.234375 L 407.003906 429.175781 L 411.742188 429.25 L 416.480469 429.464844 L 421.222656 429.335938 L 425.960938 428.929688 L 430.699219 428.84375 L 435.4375 429.132812 L 440.179688 429.238281 L 444.917969 428.894531 L 449.65625 428.417969 L 454.398438 428.203125 L 459.136719 428.203125 L 463.875 427.75 L 468.617188 425.078125 L 473.355469 420.453125 L 478.09375 414.925781 L 482.832031 410.167969 L 487.574219 405.875 L 492.3125 401.730469 L 497.050781 397.03125 L 501.792969 390.929688 L 506.53125 385.828125 L 511.269531 380.980469 L 516.007812 375.8125 L 520.75 357.929688 L 525.488281 349.753906 L 530.226562 358.074219 "/>
<path style="fill:none;stroke-width:2.133957;stroke-linecap:butt;stroke-linejoin:round;stroke:rgb(59.607843%,30.588235%,63.921569%);stroke-opacity:1;stroke-miterlimit:1;" d="M 76.808594 430.214844 L 82.546875 430.167969 L 88.289062 430.125 L 99.765625 430.054688 L 105.503906 430.015625 L 111.246094 429.996094 L 116.984375 430.019531 L 122.722656 430.046875 L 128.464844 430.035156 L 134.203125 429.953125 L 139.941406 429.914062 L 145.683594 429.9375 L 151.421875 429.988281 L 157.160156 430.003906 L 162.902344 429.832031 L 168.640625 429.570312 L 174.378906 429.304688 L 180.117188 429.125 L 185.859375 428.992188 L 197.335938 428.65625 L 203.078125 428.507812 L 208.816406 428.382812 L 214.554688 428.234375 L 220.296875 428.097656 L 226.035156 428.054688 L 231.773438 428.039062 L 237.515625 427.96875 L 243.253906 428.085938 L 248.992188 428.324219 L 254.730469 428.691406 L 260.472656 428.964844 L 266.210938 429.007812 L 271.949219 429.015625 L 277.691406 429.074219 L 283.429688 429.128906 L 289.167969 429.167969 L 294.910156 429.144531 L 300.648438 428.953125 L 306.386719 428.785156 L 312.128906 428.726562 L 317.867188 428.710938 L 323.605469 428.699219 L 329.347656 428.640625 L 335.085938 428.476562 L 340.824219 428.28125 L 346.5625 428.027344 L 352.304688 427.699219 L 358.042969 427.378906 L 363.78125 427.148438 L 369.523438 426.875 L 375.261719 426.453125 L 381 425.632812 L 386.742188 425.730469 L 392.480469 426.015625 L 398.21875 425.851562 L 403.960938 424.835938 L 409.699219 423.511719 L 415.4375 422.648438 L 421.175781 421.800781 L 426.917969 421.0625 L 432.65625 420.679688 L 438.394531 420.980469 L 444.136719 421.738281 L 449.875 419.722656 L 455.613281 415.996094 L 461.355469 411.742188 L 467.09375 405.835938 L 472.832031 401.609375 L 478.574219 390.714844 L 484.3125 368.933594 L 490.050781 337.847656 L 495.789062 325.703125 L 501.53125 338.039062 L 507.269531 332.511719 L 513.007812 306.203125 L 518.75 268.621094 L 524.488281 257.738281 L 530.226562 267.820312 "/>
<g clip-path="url(#clip39)" clip-rule="nonzero">
<path style="fill:none;stroke-width:1.066978;stroke-linecap:round;stroke-linejoin:round;stroke:rgb(49.803922%,49.803922%,49.803922%);stroke-opacity:1;stroke-miterlimit:10;" d="M 50.53125 450.46875 L 553.070312 450.46875 L 553.070312 5.976562 L 50.53125 5.976562 Z M 50.53125 450.46875 "/>
</g>
<g style="fill:rgb(0%,0%,0%);fill-opacity:1;">
  <use xlink:href="#glyph0-1" x="39.152344" y="433.445312"/>
</g>
<g style="fill:rgb(0%,0%,0%);fill-opacity:1;">
  <use xlink:href="#glyph0-2" x="23.152344" y="322.375"/>
  <use xlink:href="#glyph0-1" x="28.486328" y="322.375"/>
  <use xlink:href="#glyph0-1" x="33.820312" y="322.375"/>
  <use xlink:href="#glyph0-1" x="39.154297" y="322.375"/>
</g>
<g style="fill:rgb(0%,0%,0%);fill-opacity:1;">
  <use xlink:href="#glyph0-3" x="23.152344" y="211.304688"/>
  <use xlink:href="#glyph0-1" x="28.486328" y="211.304688"/>
  <use xlink:href="#glyph0-1" x="33.820312" y="211.304688"/>
  <use xlink:href="#glyph0-1" x="39.154297" y="211.304688"/>
</g>
<g style="fill:rgb(0%,0%,0%);fill-opacity:1;">
  <use xlink:href="#glyph0-4" x="23.152344" y="100.234375"/>
  <use xlink:href="#glyph0-1" x="28.486328" y="100.234375"/>
  <use xlink:href="#glyph0-1" x="33.820312" y="100.234375"/>
  <use xlink:href="#glyph0-1" x="39.154297" y="100.234375"/>
</g>
<path style="fill:none;stroke-width:1.066978;stroke-linecap:butt;stroke-linejoin:round;stroke:rgb(0%,0%,0%);stroke-opacity:1;stroke-miterlimit:10;" d="M 47.542969 430.425781 L 50.53125 430.425781 "/>
<path style="fill:none;stroke-width:1.066978;stroke-linecap:butt;stroke-linejoin:round;stroke:rgb(0%,0%,0%);stroke-opacity:1;stroke-miterlimit:10;" d="M 47.542969 319.355469 L 50.53125 319.355469 "/>
<path style="fill:none;stroke-width:1.066978;stroke-linecap:butt;stroke-linejoin:round;stroke:rgb(0%,0%,0%);stroke-opacity:1;stroke-miterlimit:10;" d="M 47.542969 208.285156 L 50.53125 208.285156 "/>
<path style="fill:none;stroke-width:1.066978;stroke-linecap:butt;stroke-linejoin:round;stroke:rgb(0%,0%,0%);stroke-opacity:1;stroke-miterlimit:10;" d="M 47.542969 97.214844 L 50.53125 97.214844 "/>
<path style="fill:none;stroke-width:1.066978;stroke-linecap:butt;stroke-linejoin:round;stroke:rgb(0%,0%,0%);stroke-opacity:1;stroke-miterlimit:10;" d="M 73.375 453.457031 L 73.375 450.46875 "/>
<path style="fill:none;stroke-width:1.066978;stroke-linecap:butt;stroke-linejoin:round;stroke:rgb(0%,0%,0%);stroke-opacity:1;stroke-miterlimit:10;" d="M 107.722656 453.457031 L 107.722656 450.46875 "/>
<path style="fill:none;stroke-width:1.066978;stroke-linecap:butt;stroke-linejoin:round;stroke:rgb(0%,0%,0%);stroke-opacity:1;stroke-miterlimit:10;" d="M 142.074219 453.457031 L 142.074219 450.46875 "/>
<path style="fill:none;stroke-width:1.066978;stroke-linecap:butt;stroke-linejoin:round;stroke:rgb(0%,0%,0%);stroke-opacity:1;stroke-miterlimit:10;" d="M 176.421875 453.457031 L 176.421875 450.46875 "/>
<path style="fill:none;stroke-width:1.066978;stroke-linecap:butt;stroke-linejoin:round;stroke:rgb(0%,0%,0%);stroke-opacity:1;stroke-miterlimit:10;" d="M 210.773438 453.457031 L 210.773438 450.46875 "/>
<path style="fill:none;stroke-width:1.066978;stroke-linecap:butt;stroke-linejoin:round;stroke:rgb(0%,0%,0%);stroke-opacity:1;stroke-miterlimit:10;" d="M 245.125 453.457031 L 245.125 450.46875 "/>
<path style="fill:none;stroke-width:1.066978;stroke-linecap:butt;stroke-linejoin:round;stroke:rgb(0%,0%,0%);stroke-opacity:1;stroke-miterlimit:10;" d="M 279.472656 453.457031 L 279.472656 450.46875 "/>
<path style="fill:none;stroke-width:1.066978;stroke-linecap:butt;stroke-linejoin:round;stroke:rgb(0%,0%,0%);stroke-opacity:1;stroke-miterlimit:10;" d="M 313.824219 453.457031 L 313.824219 450.46875 "/>
<path style="fill:none;stroke-width:1.066978;stroke-linecap:butt;stroke-linejoin:round;stroke:rgb(0%,0%,0%);stroke-opacity:1;stroke-miterlimit:10;" d="M 348.171875 453.457031 L 348.171875 450.46875 "/>
<path style="fill:none;stroke-width:1.066978;stroke-linecap:butt;stroke-linejoin:round;stroke:rgb(0%,0%,0%);stroke-opacity:1;stroke-miterlimit:10;" d="M 382.523438 453.457031 L 382.523438 450.46875 "/>
<path style="fill:none;stroke-width:1.066978;stroke-linecap:butt;stroke-linejoin:round;stroke:rgb(0%,0%,0%);stroke-opacity:1;stroke-miterlimit:10;" d="M 416.871094 453.457031 L 416.871094 450.46875 "/>
<path style="fill:none;stroke-width:1.066978;stroke-linecap:butt;stroke-linejoin:round;stroke:rgb(0%,0%,0%);stroke-opacity:1;stroke-miterlimit:10;" d="M 451.222656 453.457031 L 451.222656 450.46875 "/>
<path style="fill:none;stroke-width:1.066978;stroke-linecap:butt;stroke-linejoin:round;stroke:rgb(0%,0%,0%);stroke-opacity:1;stroke-miterlimit:10;" d="M 485.574219 453.457031 L 485.574219 450.46875 "/>
<path style="fill:none;stroke-width:1.066978;stroke-linecap:butt;stroke-linejoin:round;stroke:rgb(0%,0%,0%);stroke-opacity:1;stroke-miterlimit:10;" d="M 519.921875 453.457031 L 519.921875 450.46875 "/>
<g style="fill:rgb(0%,0%,0%);fill-opacity:1;">
  <use xlink:href="#glyph0-5" x="62.375" y="462.867188"/>
  <use xlink:href="#glyph0-6" x="67.708984" y="462.867188"/>
  <use xlink:href="#glyph0-6" x="73.042969" y="462.867188"/>
  <use xlink:href="#glyph0-1" x="78.376953" y="462.867188"/>
</g>
<g style="fill:rgb(0%,0%,0%);fill-opacity:1;">
  <use xlink:href="#glyph0-5" x="96.722656" y="462.867188"/>
  <use xlink:href="#glyph0-6" x="102.056641" y="462.867188"/>
  <use xlink:href="#glyph0-4" x="107.390625" y="462.867188"/>
  <use xlink:href="#glyph0-1" x="112.724609" y="462.867188"/>
</g>
<g style="fill:rgb(0%,0%,0%);fill-opacity:1;">
  <use xlink:href="#glyph0-5" x="131.074219" y="462.867188"/>
  <use xlink:href="#glyph0-4" x="136.408203" y="462.867188"/>
  <use xlink:href="#glyph0-1" x="141.742188" y="462.867188"/>
  <use xlink:href="#glyph0-1" x="147.076172" y="462.867188"/>
</g>
<g style="fill:rgb(0%,0%,0%);fill-opacity:1;">
  <use xlink:href="#glyph0-5" x="165.421875" y="462.867188"/>
  <use xlink:href="#glyph0-4" x="170.755859" y="462.867188"/>
  <use xlink:href="#glyph0-5" x="176.089844" y="462.867188"/>
  <use xlink:href="#glyph0-1" x="181.423828" y="462.867188"/>
</g>
<g style="fill:rgb(0%,0%,0%);fill-opacity:1;">
  <use xlink:href="#glyph0-5" x="199.773438" y="462.867188"/>
  <use xlink:href="#glyph0-4" x="205.107422" y="462.867188"/>
  <use xlink:href="#glyph0-7" x="210.441406" y="462.867188"/>
  <use xlink:href="#glyph0-1" x="215.775391" y="462.867188"/>
</g>
<g style="fill:rgb(0%,0%,0%);fill-opacity:1;">
  <use xlink:href="#glyph0-5" x="234.125" y="462.867188"/>
  <use xlink:href="#glyph0-4" x="239.458984" y="462.867188"/>
  <use xlink:href="#glyph0-2" x="244.792969" y="462.867188"/>
  <use xlink:href="#glyph0-1" x="250.126953" y="462.867188"/>
</g>
<g style="fill:rgb(0%,0%,0%);fill-opacity:1;">
  <use xlink:href="#glyph0-5" x="268.472656" y="462.867188"/>
  <use xlink:href="#glyph0-4" x="273.806641" y="462.867188"/>
  <use xlink:href="#glyph0-8" x="279.140625" y="462.867188"/>
  <use xlink:href="#glyph0-1" x="284.474609" y="462.867188"/>
</g>
<g style="fill:rgb(0%,0%,0%);fill-opacity:1;">
  <use xlink:href="#glyph0-5" x="302.824219" y="462.867188"/>
  <use xlink:href="#glyph0-4" x="308.158203" y="462.867188"/>
  <use xlink:href="#glyph0-9" x="313.492188" y="462.867188"/>
  <use xlink:href="#glyph0-1" x="318.826172" y="462.867188"/>
</g>
<g style="fill:rgb(0%,0%,0%);fill-opacity:1;">
  <use xlink:href="#glyph0-5" x="337.171875" y="462.867188"/>
  <use xlink:href="#glyph0-4" x="342.505859" y="462.867188"/>
  <use xlink:href="#glyph0-3" x="347.839844" y="462.867188"/>
  <use xlink:href="#glyph0-1" x="353.173828" y="462.867188"/>
</g>
<g style="fill:rgb(0%,0%,0%);fill-opacity:1;">
  <use xlink:href="#glyph0-5" x="371.523438" y="462.867188"/>
  <use xlink:href="#glyph0-4" x="376.857422" y="462.867188"/>
  <use xlink:href="#glyph0-10" x="382.191406" y="462.867188"/>
  <use xlink:href="#glyph0-1" x="387.525391" y="462.867188"/>
</g>
<g style="fill:rgb(0%,0%,0%);fill-opacity:1;">
  <use xlink:href="#glyph0-5" x="405.871094" y="462.867188"/>
  <use xlink:href="#glyph0-4" x="411.205078" y="462.867188"/>
  <use xlink:href="#glyph0-6" x="416.539062" y="462.867188"/>
  <use xlink:href="#glyph0-1" x="421.873047" y="462.867188"/>
</g>
<g style="fill:rgb(0%,0%,0%);fill-opacity:1;">
  <use xlink:href="#glyph0-5" x="440.222656" y="462.867188"/>
  <use xlink:href="#glyph0-4" x="445.556641" y="462.867188"/>
  <use xlink:href="#glyph0-4" x="450.890625" y="462.867188"/>
  <use xlink:href="#glyph0-1" x="456.224609" y="462.867188"/>
</g>
<g style="fill:rgb(0%,0%,0%);fill-opacity:1;">
  <use xlink:href="#glyph0-7" x="474.574219" y="462.867188"/>
  <use xlink:href="#glyph0-1" x="479.908203" y="462.867188"/>
  <use xlink:href="#glyph0-1" x="485.242188" y="462.867188"/>
  <use xlink:href="#glyph0-1" x="490.576172" y="462.867188"/>
</g>
<g style="fill:rgb(0%,0%,0%);fill-opacity:1;">
  <use xlink:href="#glyph0-7" x="508.921875" y="462.867188"/>
  <use xlink:href="#glyph0-1" x="514.255859" y="462.867188"/>
  <use xlink:href="#glyph0-5" x="519.589844" y="462.867188"/>
  <use xlink:href="#glyph0-1" x="524.923828" y="462.867188"/>
</g>
<g style="fill:rgb(0%,0%,0%);fill-opacity:1;">
  <use xlink:href="#glyph1-1" x="247.300781" y="478.40918"/>
  <use xlink:href="#glyph1-2" x="255.304688" y="478.40918"/>
  <use xlink:href="#glyph1-2" x="261.976562" y="478.40918"/>
  <use xlink:href="#glyph1-3" x="268.648438" y="478.40918"/>
  <use xlink:href="#glyph1-4" x="275.320312" y="478.40918"/>
  <use xlink:href="#glyph1-5" x="281.992188" y="478.40918"/>
  <use xlink:href="#glyph1-6" x="285.328125" y="478.40918"/>
  <use xlink:href="#glyph1-4" x="292" y="478.40918"/>
  <use xlink:href="#glyph1-5" x="298.671875" y="478.40918"/>
  <use xlink:href="#glyph1-2" x="302.007812" y="478.40918"/>
  <use xlink:href="#glyph1-7" x="308.679688" y="478.40918"/>
  <use xlink:href="#glyph1-8" x="315.351562" y="478.40918"/>
  <use xlink:href="#glyph1-9" x="318.015625" y="478.40918"/>
  <use xlink:href="#glyph1-9" x="324.015625" y="478.40918"/>
  <use xlink:href="#glyph1-7" x="330.015625" y="478.40918"/>
  <use xlink:href="#glyph1-2" x="336.6875" y="478.40918"/>
  <use xlink:href="#glyph1-10" x="343.359375" y="478.40918"/>
  <use xlink:href="#glyph1-4" x="349.359375" y="478.40918"/>
</g>
<g style="fill:rgb(0%,0%,0%);fill-opacity:1;">
  <use xlink:href="#glyph2-1" x="18.143555" y="386.222656"/>
  <use xlink:href="#glyph2-2" x="18.143555" y="378.21875"/>
  <use xlink:href="#glyph2-3" x="18.143555" y="371.84668"/>
  <use xlink:href="#glyph2-4" x="18.143555" y="365.84668"/>
  <use xlink:href="#glyph2-5" x="18.143555" y="362.510742"/>
  <use xlink:href="#glyph2-6" x="18.143555" y="358.574219"/>
  <use xlink:href="#glyph2-7" x="18.143555" y="351.902344"/>
  <use xlink:href="#glyph2-8" x="18.143555" y="348.566406"/>
  <use xlink:href="#glyph2-9" x="18.143555" y="345.902344"/>
  <use xlink:href="#glyph2-4" x="18.143555" y="339.230469"/>
  <use xlink:href="#glyph2-6" x="18.143555" y="335.894531"/>
  <use xlink:href="#glyph2-10" x="18.143555" y="329.222656"/>
  <use xlink:href="#glyph2-10" x="18.143555" y="322.550781"/>
  <use xlink:href="#glyph2-11" x="18.143555" y="315.878906"/>
  <use xlink:href="#glyph2-2" x="18.143555" y="309.207031"/>
  <use xlink:href="#glyph2-12" x="18.143555" y="302.535156"/>
  <use xlink:href="#glyph2-4" x="18.143555" y="299.871094"/>
  <use xlink:href="#glyph2-13" x="18.143555" y="296.535156"/>
  <use xlink:href="#glyph2-11" x="18.143555" y="289.863281"/>
  <use xlink:href="#glyph2-4" x="18.143555" y="283.191406"/>
  <use xlink:href="#glyph2-14" x="18.143555" y="279.855469"/>
  <use xlink:href="#glyph2-5" x="18.143555" y="273.183594"/>
  <use xlink:href="#glyph2-15" x="18.143555" y="269.306641"/>
  <use xlink:href="#glyph2-10" x="18.143555" y="262.634766"/>
  <use xlink:href="#glyph2-9" x="18.143555" y="255.962891"/>
  <use xlink:href="#glyph2-16" x="18.143555" y="249.291016"/>
  <use xlink:href="#glyph2-4" x="18.143555" y="239.294922"/>
  <use xlink:href="#glyph2-17" x="18.143555" y="235.958984"/>
  <use xlink:href="#glyph2-14" x="18.143555" y="231.962891"/>
  <use xlink:href="#glyph2-5" x="18.143555" y="225.291016"/>
  <use xlink:href="#glyph2-9" x="18.143555" y="221.354492"/>
  <use xlink:href="#glyph2-14" x="18.143555" y="214.682617"/>
  <use xlink:href="#glyph2-9" x="18.143555" y="208.010742"/>
  <use xlink:href="#glyph2-5" x="18.143555" y="201.338867"/>
  <use xlink:href="#glyph2-7" x="18.143555" y="196.983398"/>
  <use xlink:href="#glyph2-8" x="18.143555" y="193.647461"/>
  <use xlink:href="#glyph2-9" x="18.143555" y="190.983398"/>
  <use xlink:href="#glyph2-10" x="18.143555" y="184.311523"/>
  <use xlink:href="#glyph2-4" x="18.143555" y="177.639648"/>
  <use xlink:href="#glyph2-13" x="18.143555" y="174.303711"/>
  <use xlink:href="#glyph2-9" x="18.143555" y="167.631836"/>
  <use xlink:href="#glyph2-10" x="18.143555" y="160.959961"/>
  <use xlink:href="#glyph2-10" x="18.143555" y="154.288086"/>
  <use xlink:href="#glyph2-15" x="18.143555" y="147.616211"/>
  <use xlink:href="#glyph2-2" x="18.143555" y="140.944336"/>
  <use xlink:href="#glyph2-4" x="18.143555" y="134.272461"/>
  <use xlink:href="#glyph2-18" x="18.143555" y="130.936523"/>
  <use xlink:href="#glyph2-4" x="18.143555" y="124.264648"/>
  <use xlink:href="#glyph2-13" x="18.143555" y="120.928711"/>
  <use xlink:href="#glyph2-2" x="18.143555" y="114.256836"/>
  <use xlink:href="#glyph2-19" x="18.143555" y="107.584961"/>
  <use xlink:href="#glyph2-4" x="18.143555" y="101.584961"/>
  <use xlink:href="#glyph2-20" x="18.143555" y="98.249023"/>
  <use xlink:href="#glyph2-12" x="18.143555" y="92.249023"/>
  <use xlink:href="#glyph2-12" x="18.143555" y="89.584961"/>
  <use xlink:href="#glyph2-2" x="18.143555" y="86.920898"/>
  <use xlink:href="#glyph2-19" x="18.143555" y="80.249023"/>
  <use xlink:href="#glyph2-21" x="18.143555" y="74.249023"/>
</g>
<path style=" stroke:none;fill-rule:nonzero;fill:rgb(100%,100%,100%);fill-opacity:1;" d="M 561.574219 273.695312 L 622.519531 273.695312 L 622.519531 182.75 L 561.574219 182.75 Z M 561.574219 273.695312 "/>
<g style="fill:rgb(0%,0%,0%);fill-opacity:1;">
  <use xlink:href="#glyph1-2" x="565.828125" y="196.280273"/>
  <use xlink:href="#glyph1-7" x="572.5" y="196.280273"/>
  <use xlink:href="#glyph1-11" x="579.171875" y="196.280273"/>
  <use xlink:href="#glyph1-4" x="589.167969" y="196.280273"/>
</g>
<path style="fill-rule:nonzero;fill:rgb(100%,100%,100%);fill-opacity:1;stroke-width:1.066978;stroke-linecap:round;stroke-linejoin:round;stroke:rgb(80%,80%,80%);stroke-opacity:1;stroke-miterlimit:10;" d="M 565.828125 217.605469 L 583.109375 217.605469 L 583.109375 200.324219 L 565.828125 200.324219 Z M 565.828125 217.605469 "/>
<path style="fill:none;stroke-width:2.133957;stroke-linecap:butt;stroke-linejoin:round;stroke:rgb(89.411765%,10.196078%,10.980392%);stroke-opacity:1;stroke-miterlimit:10;" d="M 567.554688 208.964844 L 581.378906 208.964844 "/>
<path style="fill-rule:nonzero;fill:rgb(100%,100%,100%);fill-opacity:1;stroke-width:1.066978;stroke-linecap:round;stroke-linejoin:round;stroke:rgb(80%,80%,80%);stroke-opacity:1;stroke-miterlimit:10;" d="M 565.828125 234.882812 L 583.109375 234.882812 L 583.109375 217.601562 L 565.828125 217.601562 Z M 565.828125 234.882812 "/>
<path style="fill:none;stroke-width:2.133957;stroke-linecap:butt;stroke-linejoin:round;stroke:rgb(21.568627%,49.411765%,72.156863%);stroke-opacity:1;stroke-miterlimit:10;" d="M 567.554688 226.242188 L 581.378906 226.242188 "/>
<path style="fill-rule:nonzero;fill:rgb(100%,100%,100%);fill-opacity:1;stroke-width:1.066978;stroke-linecap:round;stroke-linejoin:round;stroke:rgb(80%,80%,80%);stroke-opacity:1;stroke-miterlimit:10;" d="M 565.828125 252.164062 L 583.109375 252.164062 L 583.109375 234.882812 L 565.828125 234.882812 Z M 565.828125 252.164062 "/>
<path style="fill:none;stroke-width:2.133957;stroke-linecap:butt;stroke-linejoin:round;stroke:rgb(30.196078%,68.627451%,29.019608%);stroke-opacity:1;stroke-miterlimit:10;" d="M 567.554688 243.523438 L 581.378906 243.523438 "/>
<path style="fill-rule:nonzero;fill:rgb(100%,100%,100%);fill-opacity:1;stroke-width:1.066978;stroke-linecap:round;stroke-linejoin:round;stroke:rgb(80%,80%,80%);stroke-opacity:1;stroke-miterlimit:10;" d="M 565.828125 269.445312 L 583.109375 269.445312 L 583.109375 252.164062 L 565.828125 252.164062 Z M 565.828125 269.445312 "/>
<path style="fill:none;stroke-width:2.133957;stroke-linecap:butt;stroke-linejoin:round;stroke:rgb(59.607843%,30.588235%,63.921569%);stroke-opacity:1;stroke-miterlimit:10;" d="M 567.554688 260.804688 L 581.378906 260.804688 "/>
<g style="fill:rgb(0%,0%,0%);fill-opacity:1;">
  <use xlink:href="#glyph0-11" x="585.265625" y="211.984375"/>
  <use xlink:href="#glyph0-12" x="592.192383" y="211.984375"/>
  <use xlink:href="#glyph0-13" x="594.322266" y="211.984375"/>
  <use xlink:href="#glyph0-14" x="599.65625" y="211.984375"/>
  <use xlink:href="#glyph0-15" x="604.990234" y="211.984375"/>
</g>
<g style="fill:rgb(0%,0%,0%);fill-opacity:1;">
  <use xlink:href="#glyph0-16" x="585.265625" y="229.261719"/>
  <use xlink:href="#glyph0-17" x="587.932617" y="229.261719"/>
  <use xlink:href="#glyph0-18" x="592.729492" y="229.261719"/>
  <use xlink:href="#glyph0-19" x="598.063477" y="229.261719"/>
  <use xlink:href="#glyph0-13" x="603.397461" y="229.261719"/>
  <use xlink:href="#glyph0-20" x="608.731445" y="229.261719"/>
  <use xlink:href="#glyph0-20" x="610.861328" y="229.261719"/>
  <use xlink:href="#glyph0-18" x="612.991211" y="229.261719"/>
</g>
<g style="fill:rgb(0%,0%,0%);fill-opacity:1;">
  <use xlink:href="#glyph0-21" x="585.265625" y="246.542969"/>
  <use xlink:href="#glyph0-18" x="593.256836" y="246.542969"/>
  <use xlink:href="#glyph0-22" x="598.59082" y="246.542969"/>
  <use xlink:href="#glyph0-13" x="601.114258" y="246.542969"/>
  <use xlink:href="#glyph0-15" x="606.448242" y="246.542969"/>
</g>
<g style="fill:rgb(0%,0%,0%);fill-opacity:1;">
  <use xlink:href="#glyph0-23" x="585.265625" y="263.824219"/>
  <use xlink:href="#glyph0-15" x="591.665039" y="263.824219"/>
  <use xlink:href="#glyph0-24" x="596.999023" y="263.824219"/>
  <use xlink:href="#glyph0-18" x="601.795898" y="263.824219"/>
</g>
</g>
</svg>
