<?xml version="1.0" encoding="UTF-8" standalone="no"?>
<svg
   xmlns:dc="http://purl.org/dc/elements/1.1/"
   xmlns:cc="http://creativecommons.org/ns#"
   xmlns:rdf="http://www.w3.org/1999/02/22-rdf-syntax-ns#"
   xmlns:svg="http://www.w3.org/2000/svg"
   xmlns="http://www.w3.org/2000/svg"
   xmlns:sodipodi="http://sodipodi.sourceforge.net/DTD/sodipodi-0.dtd"
   xmlns:inkscape="http://www.inkscape.org/namespaces/inkscape"
   width="1052.3622"
   height="744.09448"
   viewBox="0 0 841.88975 595.27559"
   version="1.1"
   id="svg2"
   inkscape:version="0.92.3 (2405546, 2018-03-11)"
   sodipodi:docname="NbNaissances.svg">
  <metadata
     id="metadata848">
    <rdf:RDF>
      <cc:Work
         rdf:about="">
        <dc:format>image/svg+xml</dc:format>
        <dc:type
           rdf:resource="http://purl.org/dc/dcmitype/StillImage" />
        <dc:title />
      </cc:Work>
    </rdf:RDF>
  </metadata>
  <sodipodi:namedview
     pagecolor="#ffffff"
     bordercolor="#666666"
     borderopacity="1"
     objecttolerance="10"
     gridtolerance="10"
     guidetolerance="10"
     inkscape:pageopacity="0"
     inkscape:pageshadow="2"
     inkscape:window-width="1366"
     inkscape:window-height="719"
     id="namedview846"
     showgrid="true"
     inkscape:snap-global="true"
     inkscape:zoom="1.0171563"
     inkscape:cx="372.44044"
     inkscape:cy="383.60698"
     inkscape:window-x="0"
     inkscape:window-y="25"
     inkscape:window-maximized="1"
     inkscape:current-layer="svg2"
     showguides="true"
     inkscape:guide-bbox="true">
    <sodipodi:guide
       orientation="1,0"
       position="45.224123,22.612061"
       id="guide4479"
       inkscape:locked="false" />
    <sodipodi:guide
       orientation="0,1"
       position="659.7259,20.160222"
       id="guide5236"
       inkscape:locked="false" />
    <sodipodi:guide
       orientation="1,0"
       position="742.45233,42.405985"
       id="guide5238"
       inkscape:locked="false" />
  </sodipodi:namedview>
  <defs
     id="defs4">
    <g
       id="g6">
      <symbol
         overflow="visible"
         id="glyph0-0"
         style="overflow:visible">
        <path
           style="stroke:none"
           d=""
           id="path9"
           inkscape:connector-curvature="0" />
      </symbol>
      <symbol
         overflow="visible"
         id="glyph0-1"
         style="overflow:visible">
        <path
           style="stroke:none"
           d="M 5,-3.390625 C 5,-5.75 4.109375,-7.0625 2.640625,-7.0625 c -1.46875,0 -2.375,1.328125 -2.375,3.609375 0,2.296875 0.921875,3.59375 2.375,3.59375 C 4.078125,0.140625 5,-1.15625 5,-3.390625 z M 3.859375,-3.46875 c 0,1.921875 -0.296875,2.65625 -1.234375,2.65625 -0.890625,0 -1.21875,-0.765625 -1.21875,-2.625 0,-1.875 0.328125,-2.609375 1.234375,-2.609375 0.90625,0 1.21875,0.75 1.21875,2.578125 z m 0,0"
           id="path12"
           inkscape:connector-curvature="0" />
      </symbol>
      <symbol
         overflow="visible"
         id="glyph0-2"
         style="overflow:visible">
        <path
           style="stroke:none"
           d="m 5.03125,-4.9375 c 0,-1.140625 -1.015625,-2.125 -2.3125,-2.125 -1.390625,0 -2.328125,0.84375 -2.390625,2.625 l 1.125,0 c 0.078125,-1.265625 0.40625,-1.625 1.25,-1.625 0.765625,0 1.1875,0.421875 1.1875,1.15625 0,0.53125 -0.28125,0.890625 -0.875,1.234375 l -0.890625,0.5 C 0.703125,-2.359375 0.265625,-1.625 0.171875,0 l 4.8125,0 0,-1.09375 -3.5625,0 C 1.5,-1.515625 1.765625,-1.78125 2.59375,-2.28125 L 3.5625,-2.796875 c 0.953125,-0.5 1.46875,-1.296875 1.46875,-2.140625 z m 0,0"
           id="path15"
           inkscape:connector-curvature="0" />
      </symbol>
      <symbol
         overflow="visible"
         id="glyph0-3"
         style="overflow:visible">
        <path
           style="stroke:none"
           d="m 5.0625,-2.375 c 0,-1.34375 -1.03125,-2.359375 -2.34375,-2.359375 -0.46875,0 -0.96875,0.15625 -1.0625,0.234375 l 0.203125,-1.328125 2.84375,0 0,-1.09375 -3.765625,0 -0.546875,3.828125 0.984375,0 c 0.4375,-0.515625 0.671875,-0.640625 1.203125,-0.640625 0.90625,0 1.34375,0.46875 1.34375,1.46875 0,0.984375 -0.4375,1.40625 -1.34375,1.40625 -0.75,0 -1.0625,-0.25 -1.296875,-1.140625 l -1.125,0 c 0.3125,1.484375 1.21875,2.140625 2.4375,2.140625 1.375,0 2.46875,-1.078125 2.46875,-2.515625 z m 0,0"
           id="path18"
           inkscape:connector-curvature="0" />
      </symbol>
      <symbol
         overflow="visible"
         id="glyph0-4"
         style="overflow:visible">
        <path
           style="stroke:none"
           d="m 5.125,-6.078125 0,-0.84375 -4.828125,0 0,1.09375 3.546875,0 C 2.65625,-4.34375 1.65625,-2.265625 1.15625,0 l 1.1875,0 C 2.734375,-2.328125 3.65625,-4.28125 5.125,-6.03125 z m 0,0"
           id="path21"
           inkscape:connector-curvature="0" />
      </symbol>
      <symbol
         overflow="visible"
         id="glyph0-5"
         style="overflow:visible">
        <path
           style="stroke:none"
           d="m 3.46875,-0.125 0,-6.9375 -0.796875,0 c -0.34375,1.171875 -0.390625,1.1875 -1.84375,1.375 l 0,0.84375 1.515625,0 0,4.84375 1.125,0 z m 0,0"
           id="path24"
           inkscape:connector-curvature="0" />
      </symbol>
      <symbol
         overflow="visible"
         id="glyph0-6"
         style="overflow:visible">
        <path
           style="stroke:none"
           d="m 5.0625,-2.046875 c 0,-0.75 -0.53125,-1.421875 -1.046875,-1.671875 0.53125,-0.3125 0.796875,-0.75 0.796875,-1.390625 0,-1.0625 -0.96875,-1.953125 -2.171875,-1.953125 -1.203125,0 -2.1875,0.890625 -2.1875,1.953125 0,0.625 0.265625,1.0625 0.796875,1.390625 -0.515625,0.25 -1.03125,0.921875 -1.03125,1.671875 0,1.234375 1.078125,2.1875 2.421875,2.1875 1.34375,0 2.421875,-0.953125 2.421875,-2.1875 z M 3.671875,-5.09375 c 0,0.625 -0.328125,0.921875 -1.03125,0.921875 -0.71875,0 -1.046875,-0.296875 -1.046875,-0.9375 0,-0.640625 0.328125,-0.9375 1.046875,-0.9375 0.71875,0 1.03125,0.296875 1.03125,0.953125 z m 0.25,3.0625 c 0,0.796875 -0.4375,1.171875 -1.296875,1.171875 -0.828125,0 -1.265625,-0.375 -1.265625,-1.171875 0,-0.796875 0.4375,-1.171875 1.28125,-1.171875 0.84375,0 1.28125,0.375 1.28125,1.171875 z m 0,0"
           id="path27"
           inkscape:connector-curvature="0" />
      </symbol>
      <symbol
         overflow="visible"
         id="glyph0-7"
         style="overflow:visible">
        <path
           style="stroke:none"
           d="m 5.015625,-3.6875 c 0,-2.125 -0.875,-3.375 -2.421875,-3.375 -1.296875,0 -2.375,1.0625 -2.375,2.390625 0,1.265625 1.015625,2.25 2.234375,2.25 0.640625,0 1.21875,-0.28125 1.65625,-0.796875 l -0.25,-0.09375 c 0,1.65625 -0.390625,2.453125 -1.359375,2.453125 -0.59375,0 -0.875,-0.25 -1.046875,-1.03125 l -1.109375,0 c 0.1875,1.25 1.0625,2.03125 2.09375,2.03125 1.59375,0 2.578125,-1.46875 2.578125,-3.828125 z m -1.203125,-1 c 0,0.828125 -0.4375,1.25 -1.265625,1.25 -0.8125,0 -1.1875,-0.390625 -1.1875,-1.296875 0,-0.875 0.4375,-1.328125 1.21875,-1.328125 0.796875,0 1.234375,0.484375 1.234375,1.375 z m 0,0"
           id="path30"
           inkscape:connector-curvature="0" />
      </symbol>
      <symbol
         overflow="visible"
         id="glyph0-8"
         style="overflow:visible">
        <path
           style="stroke:none"
           d="m 4.984375,-2.09375 c 0,-0.828125 -0.46875,-1.453125 -1.28125,-1.71875 l 0,0.25 c 0.640625,-0.25 1.078125,-0.8125 1.078125,-1.5 0,-1.15625 -0.90625,-2 -2.203125,-2 -1.375,0 -2.25,0.875 -2.265625,2.453125 l 1.109375,0 c 0.03125,-1.125 0.3125,-1.453125 1.171875,-1.453125 0.75,0 1.046875,0.3125 1.046875,1.03125 0,0.734375 -0.171875,0.890625 -1.671875,0.890625 l 0,0.96875 0.609375,0 c 0.9375,0 1.265625,0.328125 1.265625,1.078125 0,0.859375 -0.375,1.234375 -1.265625,1.234375 -0.921875,0 -1.234375,-0.328125 -1.296875,-1.453125 l -1.125,0 c 0.109375,1.65625 1,2.453125 2.390625,2.453125 1.40625,0 2.4375,-0.953125 2.4375,-2.234375 z m 0,0"
           id="path33"
           inkscape:connector-curvature="0" />
      </symbol>
      <symbol
         overflow="visible"
         id="glyph0-9"
         style="overflow:visible">
        <path
           style="stroke:none"
           d="m 5.125,-1.75 0,-0.890625 -1.015625,0 0,-4.421875 -0.828125,0 -3.15625,4.375 0,1.0625 2.875,0 0,1.625 1.109375,0 0,-1.625 1.015625,0 z M 3.140625,-2.640625 1.25,-2.640625 3.234375,-5.40625 3,-5.484375 l 0,2.84375 z m 0,0"
           id="path36"
           inkscape:connector-curvature="0" />
      </symbol>
      <symbol
         overflow="visible"
         id="glyph0-10"
         style="overflow:visible">
        <path
           style="stroke:none"
           d="m 5.0625,-2.234375 c 0,-1.265625 -1,-2.25 -2.21875,-2.25 -0.671875,0 -1.3125,0.296875 -1.671875,0.796875 L 1.40625,-3.59375 C 1.421875,-5.25 1.828125,-6.046875 2.796875,-6.046875 c 0.59375,0 0.859375,0.25 1.015625,1.015625 l 1.125,0 C 4.75,-6.265625 3.890625,-7.0625 2.84375,-7.0625 c -1.578125,0 -2.578125,1.46875 -2.578125,3.84375 0,2.109375 0.875,3.359375 2.4375,3.359375 1.28125,0 2.359375,-1.046875 2.359375,-2.375 z m -1.140625,0.0625 c 0,0.859375 -0.4375,1.3125 -1.21875,1.3125 -0.78125,0 -1.25,-0.484375 -1.25,-1.359375 0,-0.84375 0.453125,-1.265625 1.28125,-1.265625 0.8125,0 1.1875,0.40625 1.1875,1.3125 z m 0,0"
           id="path39"
           inkscape:connector-curvature="0" />
      </symbol>
      <symbol
         overflow="visible"
         id="glyph0-11"
         style="overflow:visible">
        <path
           style="stroke:none"
           d="m 4.21875,-1.921875 0,-5.328125 -1.171875,0 0,5 c 0,1.15625 -0.25,1.421875 -0.921875,1.421875 -0.671875,0 -0.921875,-0.328125 -0.921875,-1.140625 l 0,-0.53125 -1.171875,0 0,0.703125 c 0,1.125 0.859375,1.96875 2.078125,1.96875 1.21875,0 2.109375,-0.875 2.109375,-2.09375 z m 0,0"
           id="path42"
           inkscape:connector-curvature="0" />
      </symbol>
      <symbol
         overflow="visible"
         id="glyph0-12"
         style="overflow:visible">
        <path
           style="stroke:none"
           d="m 5.03125,-2.59375 c 0,-1.75 -0.96875,-2.84375 -2.421875,-2.84375 -1.40625,0 -2.40625,1.109375 -2.40625,2.796875 0,1.6875 0.984375,2.78125 2.421875,2.78125 1.40625,0 2.40625,-1.09375 2.40625,-2.734375 z M 3.921875,-2.609375 c 0,1.1875 -0.421875,1.75 -1.296875,1.75 -0.890625,0 -1.3125,-0.5625 -1.3125,-1.78125 0,-1.203125 0.421875,-1.796875 1.3125,-1.796875 0.890625,0 1.296875,0.578125 1.296875,1.828125 z m 0,0"
           id="path45"
           inkscape:connector-curvature="0" />
      </symbol>
      <symbol
         overflow="visible"
         id="glyph0-13"
         style="overflow:visible">
        <path
           style="stroke:none"
           d="m 4.796875,-0.125 0,-3.796875 c 0,-0.84375 -0.734375,-1.515625 -1.71875,-1.515625 -0.703125,0 -1.25,0.265625 -1.71875,0.875 l 0.25,0.09375 0,-2.78125 -1.078125,0 0,7.25 1.078125,0 0,-2.890625 c 0,-1.03125 0.390625,-1.578125 1.21875,-1.578125 0.5625,0 0.890625,0.203125 0.890625,0.859375 L 3.71875,0 4.796875,0 z m 0,0"
           id="path48"
           inkscape:connector-curvature="0" />
      </symbol>
      <symbol
         overflow="visible"
         id="glyph0-14"
         style="overflow:visible">
        <path
           style="stroke:none"
           d="m 4.8125,-0.125 0,-3.796875 c 0,-0.84375 -0.765625,-1.515625 -1.734375,-1.515625 -0.75,0 -1.328125,0.328125 -1.765625,1.03125 l 0.234375,0.09375 0,-0.96875 -1.015625,0 0,5.28125 1.078125,0 0,-2.890625 c 0,-1.03125 0.421875,-1.578125 1.234375,-1.578125 0.625,0 0.890625,0.25 0.890625,0.859375 L 3.734375,0 4.8125,0 z m 0,0"
           id="path51"
           inkscape:connector-curvature="0" />
      </symbol>
      <symbol
         overflow="visible"
         id="glyph0-15"
         style="overflow:visible">
        <path
           style="stroke:none"
           d="m 5.25,-0.125 0,-0.921875 -3.453125,0 0,-6.203125 -1.171875,0 0,7.25 4.625,0 z m 0,0"
           id="path54"
           inkscape:connector-curvature="0" />
      </symbol>
      <symbol
         overflow="visible"
         id="glyph0-16"
         style="overflow:visible">
        <path
           style="stroke:none"
           d="m 1.609375,-0.125 0,-5.15625 -1.078125,0 0,5.28125 1.078125,0 z m 0.09375,-5.78125 0,-1.140625 -1.265625,0 0,1.265625 1.265625,0 z m 0,0"
           id="path57"
           inkscape:connector-curvature="0" />
      </symbol>
      <symbol
         overflow="visible"
         id="glyph0-17"
         style="overflow:visible">
        <path
           style="stroke:none"
           d="m 4.890625,-0.125 0,-7.125 -1.078125,0 0,2.734375 0.234375,-0.09375 C 3.71875,-5.125 3.078125,-5.4375 2.40625,-5.4375 c -1.296875,0 -2.296875,1.15625 -2.296875,2.75 0,1.703125 0.96875,2.828125 2.328125,2.828125 0.6875,0 1.265625,-0.296875 1.703125,-0.921875 l -0.25,-0.078125 0,0.859375 1,0 z M 3.8125,-2.625 c 0,1.171875 -0.421875,1.765625 -1.265625,1.765625 -0.875,0 -1.328125,-0.609375 -1.328125,-1.78125 0,-1.171875 0.453125,-1.78125 1.328125,-1.78125 0.859375,0 1.265625,0.640625 1.265625,1.796875 z m 0,0"
           id="path60"
           inkscape:connector-curvature="0" />
      </symbol>
      <symbol
         overflow="visible"
         id="glyph0-18"
         style="overflow:visible">
        <path
           style="stroke:none"
           d="m 5.265625,-0.140625 0,-0.765625 c -0.21875,0.046875 -0.25,0.046875 -0.3125,0.046875 C 4.6875,-0.859375 4.65625,-0.875 4.65625,-1.125 l 0,-2.796875 C 4.65625,-4.8125 3.875,-5.4375 2.640625,-5.4375 c -1.21875,0 -2.109375,0.609375 -2.171875,1.890625 l 1.078125,0 C 1.625,-4.28125 1.859375,-4.4375 2.609375,-4.4375 c 0.71875,0 0.984375,0.15625 0.984375,0.625 l 0,0.21875 c 0,0.328125 -0.0625,0.34375 -0.703125,0.421875 C 1.765625,-3.03125 1.59375,-3 1.28125,-2.875 c -0.578125,0.25 -1.015625,0.828125 -1.015625,1.453125 0,0.90625 0.765625,1.5625 1.78125,1.5625 0.65625,0 1.375,-0.296875 1.625,-0.578125 0.03125,0.109375 0.515625,0.5 0.90625,0.5 0.171875,0 0.296875,-0.015625 0.6875,-0.109375 z M 3.59375,-1.859375 c 0,0.71875 -0.59375,1.046875 -1.375,1.046875 -0.609375,0 -0.84375,-0.09375 -0.84375,-0.640625 0,-0.515625 0.21875,-0.625 1.078125,-0.75 0.84375,-0.125 1.015625,-0.15625 1.140625,-0.21875 z m 0,0"
           id="path63"
           inkscape:connector-curvature="0" />
      </symbol>
      <symbol
         overflow="visible"
         id="glyph0-19"
         style="overflow:visible">
        <path
           style="stroke:none"
           d="m 4.765625,-0.125 0,-5.15625 -1.078125,0 0,2.90625 c 0,1.015625 -0.390625,1.5625 -1.234375,1.5625 -0.625,0 -0.90625,-0.25 -0.90625,-0.859375 l 0,-3.609375 -1.0625,0 0,3.921875 c 0,0.84375 0.765625,1.5 1.734375,1.5 0.75,0 1.3125,-0.296875 1.78125,-0.953125 l -0.234375,-0.09375 0,0.90625 1,0 z m 0,0"
           id="path66"
           inkscape:connector-curvature="0" />
      </symbol>
      <symbol
         overflow="visible"
         id="glyph0-20"
         style="overflow:visible">
        <path
           style="stroke:none"
           d="m 4.578125,-1.984375 -0.9375,0 c -0.15625,0.921875 -0.421875,1.125 -1.09375,1.125 -0.890625,0 -1.28125,-0.546875 -1.28125,-1.734375 0,-1.25 0.390625,-1.84375 1.25,-1.84375 0.671875,0 0.953125,0.28125 1.078125,1.09375 l 1.0625,0 c -0.09375,-1.34375 -1,-2.09375 -2.125,-2.09375 -1.34375,0 -2.375,1.171875 -2.375,2.84375 0,1.625 1,2.734375 2.359375,2.734375 1.203125,0 2.09375,-0.84375 2.203125,-2.125 z m 0,0"
           id="path69"
           inkscape:connector-curvature="0" />
      </symbol>
      <symbol
         overflow="visible"
         id="glyph0-21"
         style="overflow:visible">
        <path
           style="stroke:none"
           d="m 7.4375,-0.125 0,-7.125 -1.484375,0 -2.0625,6.21875 0.265625,0 -2.109375,-6.21875 -1.46875,0 0,7.25 1.125,0 0,-5.984375 -0.28125,0 L 3.453125,0 l 1.125,0 2.015625,-5.984375 -0.28125,0 0,5.984375 1.125,0 z m 0,0"
           id="path72"
           inkscape:connector-curvature="0" />
      </symbol>
      <symbol
         overflow="visible"
         id="glyph0-22"
         style="overflow:visible">
        <path
           style="stroke:none"
           d="m 3.21875,-4.453125 0,-0.921875 C 2.9375,-5.421875 2.875,-5.4375 2.765625,-5.4375 2.25,-5.4375 1.75,-5.078125 1.296875,-4.34375 l 0.234375,0.109375 0,-1.046875 -1,0 0,5.28125 1.078125,0 0,-2.734375 c 0,-1.125 0.234375,-1.578125 1.609375,-1.59375 z m 0,0"
           id="path75"
           inkscape:connector-curvature="0" />
      </symbol>
      <symbol
         overflow="visible"
         id="glyph0-23"
         style="overflow:visible">
        <path
           style="stroke:none"
           d="m 4.578125,-5.28125 -0.96875,0 L 2.1875,-1.25 2.46875,-1.234375 1.140625,-5.28125 0,-5.28125 1.75,-0.109375 1.4375,0.6875 c -0.125,0.34375 -0.15625,0.359375 -0.5,0.359375 -0.109375,0 -0.25,-0.015625 -0.5625,-0.09375 l 0,0.953125 c 0.203125,0.109375 0.46875,0.1875 0.6875,0.1875 0.5625,0 1.15625,-0.4375 1.421875,-1.15625 l 2.28125,-6.21875 z m 0,0"
           id="path78"
           inkscape:connector-curvature="0" />
      </symbol>
      <symbol
         overflow="visible"
         id="glyph1-0"
         style="overflow:visible">
        <path
           style="stroke:none"
           d=""
           id="path81"
           inkscape:connector-curvature="0" />
      </symbol>
      <symbol
         overflow="visible"
         id="glyph1-1"
         style="overflow:visible">
        <path
           style="stroke:none"
           d="m 7.96875,-0.125 -3.125,-8.890625 -1.609375,0 L 0.015625,0 1.46875,0 l 0.9375,-2.625 3.1875,0 L 6.484375,0 8.015625,0 z M 5.375,-3.828125 l -2.609375,0 1.390625,-3.859375 -0.265625,0 1.296875,3.859375 z m 0,0"
           id="path84"
           inkscape:connector-curvature="0" />
      </symbol>
      <symbol
         overflow="visible"
         id="glyph1-2"
         style="overflow:visible">
        <path
           style="stroke:none"
           d="m 5.96875,-0.125 0,-4.765625 c 0,-1.03125 -0.90625,-1.84375 -2.109375,-1.84375 -0.9375,0 -1.65625,0.390625 -2.203125,1.28125 l 0.234375,0.09375 0,-1.1875 -1.1875,0 0,6.546875 1.265625,0 0,-3.59375 c 0,-1.296875 0.5625,-2 1.578125,-2 0.796875,0 1.15625,0.34375 1.15625,1.109375 L 4.703125,0 5.96875,0 z m 0,0"
           id="path87"
           inkscape:connector-curvature="0" />
      </symbol>
      <symbol
         overflow="visible"
         id="glyph1-3"
         style="overflow:visible">
        <path
           style="stroke:none"
           d="m 6.28125,-2.984375 c 0,-0.921875 -0.0625,-1.484375 -0.25,-1.953125 -0.40625,-1.03125 -1.5,-1.796875 -2.671875,-1.796875 -1.75,0 -3.015625,1.4375 -3.015625,3.5 0,2.0625 1.234375,3.421875 3,3.421875 1.4375,0 2.5625,-0.953125 2.84375,-2.359375 l -1.265625,0 c -0.328125,0.953125 -0.75,1.15625 -1.546875,1.15625 -1.046875,0 -1.6875,-0.53125 -1.71875,-1.84375 l 4.625,0 z M 5.1875,-3.78125 c 0,0 -0.203125,-0.140625 -0.203125,-0.15625 l -3.296875,0 c 0.078125,-0.984375 0.65625,-1.609375 1.65625,-1.609375 0.984375,0 1.59375,0.6875 1.59375,1.671875 z m 0.328125,-5.234375 -1.4375,0 L 2.75,-6.96875 l 1.015625,0 1.84375,-1.8125 z m 0,0"
           id="path90"
           inkscape:connector-curvature="0" />
      </symbol>
      <symbol
         overflow="visible"
         id="glyph1-4"
         style="overflow:visible">
        <path
           style="stroke:none"
           d="m 6.28125,-2.984375 c 0,-0.921875 -0.0625,-1.484375 -0.25,-1.953125 -0.40625,-1.03125 -1.5,-1.796875 -2.671875,-1.796875 -1.75,0 -3.015625,1.4375 -3.015625,3.5 0,2.0625 1.234375,3.421875 3,3.421875 1.4375,0 2.5625,-0.953125 2.84375,-2.359375 l -1.265625,0 c -0.328125,0.953125 -0.75,1.15625 -1.546875,1.15625 -1.046875,0 -1.6875,-0.53125 -1.71875,-1.84375 l 4.625,0 z M 5.1875,-3.78125 c 0,0 -0.203125,-0.140625 -0.203125,-0.15625 l -3.296875,0 c 0.078125,-0.984375 0.65625,-1.609375 1.65625,-1.609375 0.984375,0 1.59375,0.6875 1.59375,1.671875 z m 0,0"
           id="path93"
           inkscape:connector-curvature="0" />
      </symbol>
      <symbol
         overflow="visible"
         id="glyph1-5"
         style="overflow:visible">
        <path
           style="stroke:none"
           d=""
           id="path96"
           inkscape:connector-curvature="0" />
      </symbol>
      <symbol
         overflow="visible"
         id="glyph1-6"
         style="overflow:visible">
        <path
           style="stroke:none"
           d="m 6.078125,-0.125 0,-8.890625 -1.28125,0 0,3.390625 0.25,-0.09375 C 4.625,-6.359375 3.859375,-6.734375 3.015625,-6.734375 c -1.640625,0 -2.84375,1.390625 -2.84375,3.390625 0,2.125 1.1875,3.53125 2.875,3.53125 0.859375,0 1.5625,-0.375 2.09375,-1.140625 L 4.90625,-1.0625 4.90625,0 6.078125,0 z M 4.796875,-3.25 c 0,1.453125 -0.546875,2.234375 -1.609375,2.234375 -1.09375,0 -1.703125,-0.796875 -1.703125,-2.265625 0,-1.453125 0.609375,-2.25 1.703125,-2.25 1.078125,0 1.609375,0.828125 1.609375,2.28125 z m 0,0"
           id="path99"
           inkscape:connector-curvature="0" />
      </symbol>
      <symbol
         overflow="visible"
         id="glyph1-7"
         style="overflow:visible">
        <path
           style="stroke:none"
           d="m 6.546875,-0.15625 0,-0.921875 c -0.234375,0.0625 -0.28125,0.0625 -0.34375,0.0625 -0.34375,0 -0.40625,-0.046875 -0.40625,-0.359375 l 0,-3.515625 c 0,-1.109375 -0.953125,-1.84375 -2.5,-1.84375 -1.515625,0 -2.59375,0.71875 -2.65625,2.3125 l 1.265625,0 c 0.09375,-0.90625 0.421875,-1.125 1.359375,-1.125 0.890625,0 1.265625,0.203125 1.265625,0.8125 l 0,0.265625 c 0,0.40625 -0.109375,0.453125 -0.90625,0.5625 -1.421875,0.171875 -1.640625,0.21875 -2.015625,0.375 -0.734375,0.296875 -1.25,1 -1.25,1.765625 0,1.140625 0.9375,1.953125 2.203125,1.953125 0.8125,0 1.6875,-0.375 2.0625,-0.78125 0.046875,0.203125 0.625,0.671875 1.109375,0.671875 0.203125,0 0.359375,-0.015625 0.8125,-0.125 z M 4.53125,-2.296875 c 0,0.890625 -0.78125,1.34375 -1.75,1.34375 -0.78125,0 -1.09375,-0.15625 -1.09375,-0.828125 0,-0.671875 0.296875,-0.828125 1.375,-0.984375 1.046875,-0.140625 1.265625,-0.1875 1.46875,-0.265625 z m 0,0"
           id="path102"
           inkscape:connector-curvature="0" />
      </symbol>
      <symbol
         overflow="visible"
         id="glyph1-8"
         style="overflow:visible">
        <path
           style="stroke:none"
           d="m 1.96875,-0.125 0,-6.421875 -1.265625,0 0,6.546875 1.265625,0 z m 0.125,-7.25 0,-1.375 -1.515625,0 0,1.515625 1.515625,0 z m 0,0"
           id="path105"
           inkscape:connector-curvature="0" />
      </symbol>
      <symbol
         overflow="visible"
         id="glyph1-9"
         style="overflow:visible">
        <path
           style="stroke:none"
           d="m 5.640625,-1.890625 c 0,-0.9375 -0.65625,-1.546875 -1.90625,-1.84375 l -0.96875,-0.21875 c -0.8125,-0.203125 -1.03125,-0.328125 -1.03125,-0.78125 0,-0.5625 0.390625,-0.8125 1.203125,-0.8125 0.8125,0 1.09375,0.21875 1.125,1.015625 l 1.328125,0 C 5.375,-5.90625 4.421875,-6.734375 2.96875,-6.734375 c -1.453125,0 -2.546875,0.890625 -2.546875,2.046875 0,0.984375 0.640625,1.59375 2.140625,1.953125 l 0.921875,0.21875 c 0.703125,0.171875 0.828125,0.25 0.828125,0.703125 0,0.59375 -0.4375,0.796875 -1.3125,0.796875 -0.90625,0 -1.265625,-0.078125 -1.421875,-1.171875 l -1.3125,0 c 0.046875,1.59375 1,2.375 2.65625,2.375 1.578125,0 2.71875,-0.875 2.71875,-2.078125 z m 0,0"
           id="path108"
           inkscape:connector-curvature="0" />
      </symbol>
      <symbol
         overflow="visible"
         id="glyph1-10"
         style="overflow:visible">
        <path
           style="stroke:none"
           d="m 5.71875,-2.421875 -1.125,0 c -0.1875,1.140625 -0.5625,1.40625 -1.40625,1.40625 -1.109375,0 -1.640625,-0.71875 -1.640625,-2.203125 0,-1.5625 0.515625,-2.328125 1.609375,-2.328125 0.84375,0 1.21875,0.359375 1.375,1.375 l 1.265625,0 c -0.140625,-1.671875 -1.21875,-2.5625 -2.625,-2.5625 -1.703125,0 -2.9375,1.4375 -2.9375,3.515625 0,2.03125 1.21875,3.40625 2.921875,3.40625 1.5,0 2.578125,-1.046875 2.71875,-2.609375 z m 0,0"
           id="path111"
           inkscape:connector-curvature="0" />
      </symbol>
      <symbol
         overflow="visible"
         id="glyph1-11"
         style="overflow:visible">
        <path
           style="stroke:none"
           d="m 7.890625,-0.125 0,-8.890625 -1.34375,0 0,7.28125 0.25,-0.09375 -4.609375,-7.1875 -1.421875,0 0,9.015625 1.328125,0 0,-7.21875 L 1.859375,-7.125 6.421875,0 7.890625,0 z m 0,0"
           id="path114"
           inkscape:connector-curvature="0" />
      </symbol>
      <symbol
         overflow="visible"
         id="glyph1-12"
         style="overflow:visible">
        <path
           style="stroke:none"
           d="m 9.265625,-0.125 0,-8.890625 -1.78125,0 -2.59375,7.75 0.28125,0 -2.640625,-7.75 -1.78125,0 0,9.015625 1.34375,0 0,-7.46875 -0.28125,0 L 4.34375,0 l 1.359375,0 2.5,-7.46875 -0.265625,0 0,7.46875 1.328125,0 z m 0,0"
           id="path117"
           inkscape:connector-curvature="0" />
      </symbol>
      <symbol
         overflow="visible"
         id="glyph1-13"
         style="overflow:visible">
        <path
           style="stroke:none"
           d="m 7.484375,-0.125 0,-1.125 -5.15625,0 0,-2.734375 4.765625,0 0,-1.25 -4.765625,0 0,-2.53125 4.9375,0 0,-1.25 -6.328125,0 0,9.015625 6.546875,0 z m 0,0"
           id="path120"
           inkscape:connector-curvature="0" />
      </symbol>
      <symbol
         overflow="visible"
         id="glyph2-0"
         style="overflow:visible">
        <path
           style="stroke:none"
           d=""
           id="path123"
           inkscape:connector-curvature="0" />
      </symbol>
      <symbol
         overflow="visible"
         id="glyph2-1"
         style="overflow:visible">
        <path
           style="stroke:none"
           d="m -0.125,-7.890625 -8.890625,0 0,1.34375 7.28125,0 -0.09375,-0.25 -7.1875,4.609375 0,1.421875 9.015625,0 0,-1.328125 -7.21875,0 0.09375,0.234375 7.125,-4.5625 0,-1.46875 z m 0,0"
           id="path126"
           inkscape:connector-curvature="0" />
      </symbol>
      <symbol
         overflow="visible"
         id="glyph2-2"
         style="overflow:visible">
        <path
           style="stroke:none"
           d="m -3.234375,-6.25 c -2.171875,0 -3.5,1.171875 -3.5,2.984375 0,1.765625 1.34375,2.984375 3.453125,2.984375 2.125,0 3.46875,-1.203125 3.46875,-3 0,-1.765625 -1.34375,-2.96875 -3.421875,-2.96875 z m 0,1.3125 c 1.46875,0 2.21875,0.5625 2.21875,1.65625 0,1.125 -0.734375,1.671875 -2.265625,1.671875 -1.5,0 -2.265625,-0.546875 -2.265625,-1.671875 0,-1.125 0.75,-1.65625 2.3125,-1.65625 z m 0,0"
           id="path129"
           inkscape:connector-curvature="0" />
      </symbol>
      <symbol
         overflow="visible"
         id="glyph2-3"
         style="overflow:visible">
        <path
           style="stroke:none"
           d="m -0.125,-9.25 -4.71875,0 c -1.125,0 -1.890625,0.75 -1.890625,1.9375 0,0.828125 0.296875,1.4375 0.859375,1.90625 -0.53125,0.296875 -0.859375,0.890625 -0.859375,1.703125 0,0.84375 0.34375,1.5 1.109375,2.046875 l 0.09375,-0.234375 -1.015625,0 0,1.1875 6.546875,0 0,-1.28125 -4.078125,0 c -0.90625,0 -1.515625,-0.53125 -1.515625,-1.34375 0,-0.734375 0.328125,-1.015625 1.125,-1.015625 l 4.46875,0 0,-1.265625 -4.078125,0 c -0.90625,0 -1.515625,-0.546875 -1.515625,-1.359375 0,-0.734375 0.34375,-1.015625 1.125,-1.015625 L 0,-7.984375 0,-9.25 z m 0,0"
           id="path132"
           inkscape:connector-curvature="0" />
      </symbol>
      <symbol
         overflow="visible"
         id="glyph2-4"
         style="overflow:visible">
        <path
           style="stroke:none"
           d="m -3.34375,-6.40625 c -2.046875,0 -3.390625,1.15625 -3.390625,2.8125 0,0.875 0.359375,1.59375 1.078125,2.0625 l 0.09375,-0.25 -3.453125,0 0,1.28125 9.015625,0 0,-1.1875 -1.03125,0 0.09375,0.25 c 0.734375,-0.484375 1.125,-1.21875 1.125,-2.109375 0,-1.65625 -1.5,-2.859375 -3.53125,-2.859375 z m 0.0625,1.3125 c 1.421875,0 2.265625,0.609375 2.265625,1.703125 0,1.046875 -0.828125,1.609375 -2.265625,1.609375 -1.46875,0 -2.296875,-0.5625 -2.25,-1.609375 0,-1.125 0.84375,-1.703125 2.25,-1.703125 z m 0,0"
           id="path135"
           inkscape:connector-curvature="0" />
      </symbol>
      <symbol
         overflow="visible"
         id="glyph2-5"
         style="overflow:visible">
        <path
           style="stroke:none"
           d="m -5.546875,-3.984375 -1.140625,0 c -0.03125,0.296875 -0.046875,0.390625 -0.046875,0.515625 0,0.65625 0.421875,1.25 1.359375,1.828125 l 0.09375,-0.25 -1.265625,0 0,1.1875 6.546875,0 0,-1.265625 -3.390625,0 c -1.421875,0 -2,-0.328125 -2.015625,-2.015625 z m 0,0"
           id="path138"
           inkscape:connector-curvature="0" />
      </symbol>
      <symbol
         overflow="visible"
         id="glyph2-6"
         style="overflow:visible">
        <path
           style="stroke:none"
           d="m -2.984375,-6.28125 c -0.921875,0 -1.484375,0.0625 -1.953125,0.25 -1.03125,0.40625 -1.796875,1.5 -1.796875,2.671875 0,1.75 1.4375,3.015625 3.5,3.015625 2.0625,0 3.421875,-1.234375 3.421875,-3 0,-1.4375 -0.953125,-2.5625 -2.359375,-2.84375 l 0,1.265625 c 0.953125,0.328125 1.15625,0.75 1.15625,1.546875 0,1.046875 -0.53125,1.6875 -1.84375,1.71875 l 0,-4.625 z M -3.78125,-5.1875 c 0,0 -0.140625,0.203125 -0.15625,0.203125 l 0,3.296875 c -0.984375,-0.078125 -1.609375,-0.65625 -1.609375,-1.65625 0,-0.984375 0.6875,-1.59375 1.671875,-1.59375 z m 0,0"
           id="path141"
           inkscape:connector-curvature="0" />
      </symbol>
      <symbol
         overflow="visible"
         id="glyph2-7"
         style="overflow:visible">
        <path
           style="stroke:none"
           d=""
           id="path144"
           inkscape:connector-curvature="0" />
      </symbol>
      <symbol
         overflow="visible"
         id="glyph2-8"
         style="overflow:visible">
        <path
           style="stroke:none"
           d="m -0.125,-6.078125 -8.890625,0 0,1.28125 3.390625,0 -0.09375,-0.25 c -0.640625,0.421875 -1.015625,1.1875 -1.015625,2.03125 0,1.640625 1.390625,2.84375 3.390625,2.84375 2.125,0 3.53125,-1.1875 3.53125,-2.875 0,-0.859375 -0.375,-1.5625 -1.140625,-2.09375 l -0.109375,0.234375 1.0625,0 0,-1.171875 z m -3.125,1.28125 c 1.453125,0 2.234375,0.546875 2.234375,1.609375 0,1.09375 -0.796875,1.703125 -2.265625,1.703125 -1.453125,0 -2.25,-0.609375 -2.25,-1.703125 0,-1.078125 0.828125,-1.609375 2.28125,-1.609375 z m 0,0"
           id="path147"
           inkscape:connector-curvature="0" />
      </symbol>
      <symbol
         overflow="visible"
         id="glyph2-9"
         style="overflow:visible">
        <path
           style="stroke:none"
           d="m -0.125,-5.96875 -4.765625,0 c -1.03125,0 -1.84375,0.90625 -1.84375,2.109375 0,0.9375 0.390625,1.65625 1.28125,2.203125 l 0.09375,-0.234375 -1.1875,0 0,1.1875 6.546875,0 0,-1.265625 -3.59375,0 c -1.296875,0 -2,-0.5625 -2,-1.578125 0,-0.796875 0.34375,-1.15625 1.109375,-1.15625 l 4.484375,0 0,-1.265625 z m 0,0"
           id="path150"
           inkscape:connector-curvature="0" />
      </symbol>
      <symbol
         overflow="visible"
         id="glyph2-10"
         style="overflow:visible">
        <path
           style="stroke:none"
           d="m -0.15625,-6.546875 -0.921875,0 c 0.0625,0.234375 0.0625,0.28125 0.0625,0.34375 0,0.34375 -0.046875,0.40625 -0.359375,0.40625 l -3.515625,0 c -1.109375,0 -1.84375,0.953125 -1.84375,2.5 0,1.515625 0.71875,2.59375 2.3125,2.65625 l 0,-1.265625 c -0.90625,-0.09375 -1.125,-0.421875 -1.125,-1.359375 0,-0.890625 0.203125,-1.265625 0.8125,-1.265625 l 0.265625,0 c 0.40625,0 0.453125,0.109375 0.5625,0.90625 0.171875,1.421875 0.21875,1.640625 0.375,2.015625 0.296875,0.734375 1,1.25 1.765625,1.25 1.140625,0 1.953125,-0.9375 1.953125,-2.203125 0,-0.8125 -0.375,-1.6875 -0.78125,-2.0625 0.203125,-0.046875 0.671875,-0.625 0.671875,-1.109375 0,-0.203125 -0.015625,-0.359375 -0.125,-0.8125 z m -2.140625,2.015625 c 0.890625,0 1.34375,0.78125 1.34375,1.75 0,0.78125 -0.15625,1.09375 -0.828125,1.09375 -0.671875,0 -0.828125,-0.296875 -0.984375,-1.375 -0.140625,-1.046875 -0.1875,-1.265625 -0.265625,-1.46875 z m 0,0"
           id="path153"
           inkscape:connector-curvature="0" />
      </symbol>
      <symbol
         overflow="visible"
         id="glyph2-11"
         style="overflow:visible">
        <path
           style="stroke:none"
           d="m -0.125,-1.96875 -6.421875,0 0,1.265625 6.546875,0 0,-1.265625 z m -7.25,-0.125 -1.375,0 0,1.515625 1.515625,0 0,-1.515625 z m 0,0"
           id="path156"
           inkscape:connector-curvature="0" />
      </symbol>
      <symbol
         overflow="visible"
         id="glyph2-12"
         style="overflow:visible">
        <path
           style="stroke:none"
           d="m -1.890625,-5.640625 c -0.9375,0 -1.546875,0.65625 -1.84375,1.90625 l -0.21875,0.96875 c -0.203125,0.8125 -0.328125,1.03125 -0.78125,1.03125 -0.5625,0 -0.8125,-0.390625 -0.8125,-1.203125 0,-0.8125 0.21875,-1.09375 1.015625,-1.125 l 0,-1.328125 c -1.375,0.015625 -2.203125,0.96875 -2.203125,2.421875 0,1.453125 0.890625,2.546875 2.046875,2.546875 0.984375,0 1.59375,-0.640625 1.953125,-2.140625 l 0.21875,-0.921875 c 0.171875,-0.703125 0.25,-0.828125 0.703125,-0.828125 0.59375,0 0.796875,0.4375 0.796875,1.3125 0,0.90625 -0.078125,1.265625 -1.171875,1.421875 l 0,1.3125 c 1.59375,-0.046875 2.375,-1 2.375,-2.65625 0,-1.578125 -0.875,-2.71875 -2.078125,-2.71875 z m 0,0"
           id="path159"
           inkscape:connector-curvature="0" />
      </symbol>
      <symbol
         overflow="visible"
         id="glyph2-13"
         style="overflow:visible">
        <path
           style="stroke:none"
           d="m -2.421875,-5.71875 0,1.125 c 1.140625,0.1875 1.40625,0.5625 1.40625,1.40625 0,1.109375 -0.71875,1.640625 -2.203125,1.640625 -1.5625,0 -2.328125,-0.515625 -2.328125,-1.609375 0,-0.84375 0.359375,-1.21875 1.375,-1.375 l 0,-1.265625 c -1.671875,0.140625 -2.5625,1.21875 -2.5625,2.625 0,1.703125 1.4375,2.9375 3.515625,2.9375 2.03125,0 3.40625,-1.21875 3.40625,-2.921875 0,-1.5 -1.046875,-2.578125 -2.609375,-2.71875 z m 0,0"
           id="path162"
           inkscape:connector-curvature="0" />
      </symbol>
      <symbol
         overflow="visible"
         id="glyph2-14"
         style="overflow:visible">
        <path
           style="stroke:none"
           d="m 2.3125,-3.59375 c -1.71875,1.0625 -3.625,1.609375 -5.546875,1.609375 -1.90625,0 -3.84375,-0.546875 -5.78125,-1.75 l 0,0.96875 c 1.609375,1.234375 3.890625,2.03125 5.78125,2.03125 1.890625,0 4.171875,-0.796875 5.78125,-2.03125 l 0,-0.96875 z m 0,0"
           id="path165"
           inkscape:connector-curvature="0" />
      </symbol>
      <symbol
         overflow="visible"
         id="glyph2-15"
         style="overflow:visible">
        <path
           style="stroke:none"
           d="m -0.125,-1.9375 -8.890625,0 0,1.265625 9.015625,0 0,-1.265625 z m 0,0"
           id="path168"
           inkscape:connector-curvature="0" />
      </symbol>
      <symbol
         overflow="visible"
         id="glyph2-16"
         style="overflow:visible">
        <path
           style="stroke:none"
           d="m -3.234375,-3.203125 c -1.890625,0 -4.171875,0.796875 -5.78125,2.03125 l 0,0.96875 c 1.953125,-1.203125 3.875,-1.75 5.78125,-1.75 1.921875,0 3.84375,0.546875 5.78125,1.75 l 0,-0.96875 C 0.9375,-2.40625 -1.34375,-3.203125 -3.234375,-3.203125 z m 0,0"
           id="path171"
           inkscape:connector-curvature="0" />
      </symbol>
    </g>
    <clipPath
       id="clip1">
      <path
         d="M 45.53125,5.976562 520,5.976562 520,489 45.53125,489 z m 0,0"
         id="path174"
         inkscape:connector-curvature="0" />
    </clipPath>
    <clipPath
       id="clip2">
      <path
         d="m 45.53125,411 475.05859,0 0,2 -475.05859,0 z m 0,0"
         id="path177"
         inkscape:connector-curvature="0" />
    </clipPath>
    <clipPath
       id="clip3">
      <path
         d="m 45.53125,300 475.05859,0 0,3 -475.05859,0 z m 0,0"
         id="path180"
         inkscape:connector-curvature="0" />
    </clipPath>
    <clipPath
       id="clip4">
      <path
         d="m 45.53125,190 475.05859,0 0,3 -475.05859,0 z m 0,0"
         id="path183"
         inkscape:connector-curvature="0" />
    </clipPath>
    <clipPath
       id="clip5">
      <path
         d="m 45.53125,80 475.05859,0 0,3 -475.05859,0 z m 0,0"
         id="path186"
         inkscape:connector-curvature="0" />
    </clipPath>
    <clipPath
       id="clip6">
      <path
         d="m 50,5.976562 2,0 0,483.492188 -2,0 z m 0,0"
         id="path189"
         inkscape:connector-curvature="0" />
    </clipPath>
    <clipPath
       id="clip7">
      <path
         d="m 82,5.976562 2,0 0,483.492188 -2,0 z m 0,0"
         id="path192"
         inkscape:connector-curvature="0" />
    </clipPath>
    <clipPath
       id="clip8">
      <path
         d="m 115,5.976562 2,0 0,483.492188 -2,0 z m 0,0"
         id="path195"
         inkscape:connector-curvature="0" />
    </clipPath>
    <clipPath
       id="clip9">
      <path
         d="m 147,5.976562 2,0 0,483.492188 -2,0 z m 0,0"
         id="path198"
         inkscape:connector-curvature="0" />
    </clipPath>
    <clipPath
       id="clip10">
      <path
         d="m 179,5.976562 3,0 0,483.492188 -3,0 z m 0,0"
         id="path201"
         inkscape:connector-curvature="0" />
    </clipPath>
    <clipPath
       id="clip11">
      <path
         d="m 212,5.976562 2,0 0,483.492188 -2,0 z m 0,0"
         id="path204"
         inkscape:connector-curvature="0" />
    </clipPath>
    <clipPath
       id="clip12">
      <path
         d="m 244,5.976562 2,0 0,483.492188 -2,0 z m 0,0"
         id="path207"
         inkscape:connector-curvature="0" />
    </clipPath>
    <clipPath
       id="clip13">
      <path
         d="m 277,5.976562 2,0 0,483.492188 -2,0 z m 0,0"
         id="path210"
         inkscape:connector-curvature="0" />
    </clipPath>
    <clipPath
       id="clip14">
      <path
         d="m 309,5.976562 2,0 0,483.492188 -2,0 z m 0,0"
         id="path213"
         inkscape:connector-curvature="0" />
    </clipPath>
    <clipPath
       id="clip15">
      <path
         d="m 341,5.976562 3,0 0,483.492188 -3,0 z m 0,0"
         id="path216"
         inkscape:connector-curvature="0" />
    </clipPath>
    <clipPath
       id="clip16">
      <path
         d="m 374,5.976562 2,0 0,483.492188 -2,0 z m 0,0"
         id="path219"
         inkscape:connector-curvature="0" />
    </clipPath>
    <clipPath
       id="clip17">
      <path
         d="m 406,5.976562 2,0 0,483.492188 -2,0 z m 0,0"
         id="path222"
         inkscape:connector-curvature="0" />
    </clipPath>
    <clipPath
       id="clip18">
      <path
         d="m 439,5.976562 2,0 0,483.492188 -2,0 z m 0,0"
         id="path225"
         inkscape:connector-curvature="0" />
    </clipPath>
    <clipPath
       id="clip19">
      <path
         d="m 471,5.976562 2,0 0,483.492188 -2,0 z m 0,0"
         id="path228"
         inkscape:connector-curvature="0" />
    </clipPath>
    <clipPath
       id="clip20">
      <path
         d="m 503,5.976562 3,0 0,483.492188 -3,0 z m 0,0"
         id="path231"
         inkscape:connector-curvature="0" />
    </clipPath>
    <clipPath
       id="clip21">
      <path
         d="M 45.53125,466 520,466 l 0,1 -474.46875,0 z m 0,0"
         id="path234"
         inkscape:connector-curvature="0" />
    </clipPath>
    <clipPath
       id="clip22">
      <path
         d="M 45.53125,356 520,356 l 0,1 -474.46875,0 z m 0,0"
         id="path237"
         inkscape:connector-curvature="0" />
    </clipPath>
    <clipPath
       id="clip23">
      <path
         d="M 45.53125,246 520,246 l 0,1 -474.46875,0 z m 0,0"
         id="path240"
         inkscape:connector-curvature="0" />
    </clipPath>
    <clipPath
       id="clip24">
      <path
         d="M 45.53125,136 520,136 l 0,1 -474.46875,0 z m 0,0"
         id="path243"
         inkscape:connector-curvature="0" />
    </clipPath>
    <clipPath
       id="clip25">
      <path
         d="M 45.53125,26 520,26 l 0,1 -474.46875,0 z m 0,0"
         id="path246"
         inkscape:connector-curvature="0" />
    </clipPath>
    <clipPath
       id="clip26">
      <path
         d="m 66,5.976562 2,0 L 68,489 l -2,0 z m 0,0"
         id="path249"
         inkscape:connector-curvature="0" />
    </clipPath>
    <clipPath
       id="clip27">
      <path
         d="m 99,5.976562 1,0 L 100,489 l -1,0 z m 0,0"
         id="path252"
         inkscape:connector-curvature="0" />
    </clipPath>
    <clipPath
       id="clip28">
      <path
         d="m 131,5.976562 2,0 L 133,489 l -2,0 z m 0,0"
         id="path255"
         inkscape:connector-curvature="0" />
    </clipPath>
    <clipPath
       id="clip29">
      <path
         d="m 164,5.976562 1,0 L 165,489 l -1,0 z m 0,0"
         id="path258"
         inkscape:connector-curvature="0" />
    </clipPath>
    <clipPath
       id="clip30">
      <path
         d="m 196,5.976562 1,0 L 197,489 l -1,0 z m 0,0"
         id="path261"
         inkscape:connector-curvature="0" />
    </clipPath>
    <clipPath
       id="clip31">
      <path
         d="m 228,5.976562 2,0 L 230,489 l -2,0 z m 0,0"
         id="path264"
         inkscape:connector-curvature="0" />
    </clipPath>
    <clipPath
       id="clip32">
      <path
         d="m 261,5.976562 1,0 L 262,489 l -1,0 z m 0,0"
         id="path267"
         inkscape:connector-curvature="0" />
    </clipPath>
    <clipPath
       id="clip33">
      <path
         d="m 293,5.976562 2,0 L 295,489 l -2,0 z m 0,0"
         id="path270"
         inkscape:connector-curvature="0" />
    </clipPath>
    <clipPath
       id="clip34">
      <path
         d="m 326,5.976562 1,0 L 327,489 l -1,0 z m 0,0"
         id="path273"
         inkscape:connector-curvature="0" />
    </clipPath>
    <clipPath
       id="clip35">
      <path
         d="m 358,5.976562 1,0 L 359,489 l -1,0 z m 0,0"
         id="path276"
         inkscape:connector-curvature="0" />
    </clipPath>
    <clipPath
       id="clip36">
      <path
         d="m 390,5.976562 2,0 L 392,489 l -2,0 z m 0,0"
         id="path279"
         inkscape:connector-curvature="0" />
    </clipPath>
    <clipPath
       id="clip37">
      <path
         d="m 423,5.976562 1,0 L 424,489 l -1,0 z m 0,0"
         id="path282"
         inkscape:connector-curvature="0" />
    </clipPath>
    <clipPath
       id="clip38">
      <path
         d="m 455,5.976562 2,0 L 457,489 l -2,0 z m 0,0"
         id="path285"
         inkscape:connector-curvature="0" />
    </clipPath>
    <clipPath
       id="clip39">
      <path
         d="m 488,5.976562 1,0 L 489,489 l -1,0 z m 0,0"
         id="path288"
         inkscape:connector-curvature="0" />
    </clipPath>
    <clipPath
       id="clip40">
      <path
         d="m 45.53125,5.976562 475.05859,0 0,483.492188 -475.05859,0 z m 0,0"
         id="path291"
         inkscape:connector-curvature="0" />
    </clipPath>
    <clipPath
       id="clip1-3">
      <path
         inkscape:connector-curvature="0"
         d="M 42.53125,5.976562 520,5.976562 520,489 42.53125,489 z m 0,0"
         id="path192-1" />
    </clipPath>
    <clipPath
       id="clip2-5">
      <path
         inkscape:connector-curvature="0"
         d="m 42.53125,402 478.05859,0 0,2 -478.05859,0 z m 0,0"
         id="path195-0" />
    </clipPath>
    <clipPath
       id="clip3-4">
      <path
         inkscape:connector-curvature="0"
         d="m 42.53125,274 478.05859,0 0,2 -478.05859,0 z m 0,0"
         id="path198-5" />
    </clipPath>
    <clipPath
       id="clip4-1">
      <path
         inkscape:connector-curvature="0"
         d="m 42.53125,146 478.05859,0 0,2 -478.05859,0 z m 0,0"
         id="path201-1" />
    </clipPath>
    <clipPath
       id="clip5-0">
      <path
         inkscape:connector-curvature="0"
         d="m 42.53125,19 478.05859,0 0,2 -478.05859,0 z m 0,0"
         id="path204-0" />
    </clipPath>
    <clipPath
       id="clip6-5">
      <path
         inkscape:connector-curvature="0"
         d="m 47,5.976562 2,0 0,483.492188 -2,0 z m 0,0"
         id="path207-2" />
    </clipPath>
    <clipPath
       id="clip7-1">
      <path
         inkscape:connector-curvature="0"
         d="m 79,5.976562 3,0 0,483.492188 -3,0 z m 0,0"
         id="path210-9" />
    </clipPath>
    <clipPath
       id="clip8-8">
      <path
         inkscape:connector-curvature="0"
         d="m 112,5.976562 2,0 0,483.492188 -2,0 z m 0,0"
         id="path213-7" />
    </clipPath>
    <clipPath
       id="clip9-2">
      <path
         inkscape:connector-curvature="0"
         d="m 145,5.976562 2,0 0,483.492188 -2,0 z m 0,0"
         id="path216-8" />
    </clipPath>
    <clipPath
       id="clip10-2">
      <path
         inkscape:connector-curvature="0"
         d="m 177,5.976562 2,0 0,483.492188 -2,0 z m 0,0"
         id="path219-3" />
    </clipPath>
    <clipPath
       id="clip11-5">
      <path
         inkscape:connector-curvature="0"
         d="m 210,5.976562 2,0 0,483.492188 -2,0 z m 0,0"
         id="path222-7" />
    </clipPath>
    <clipPath
       id="clip12-8">
      <path
         inkscape:connector-curvature="0"
         d="m 243,5.976562 2,0 0,483.492188 -2,0 z m 0,0"
         id="path225-6" />
    </clipPath>
    <clipPath
       id="clip13-2">
      <path
         inkscape:connector-curvature="0"
         d="m 275,5.976562 2,0 0,483.492188 -2,0 z m 0,0"
         id="path228-8" />
    </clipPath>
    <clipPath
       id="clip14-9">
      <path
         inkscape:connector-curvature="0"
         d="m 308,5.976562 2,0 0,483.492188 -2,0 z m 0,0"
         id="path231-5" />
    </clipPath>
    <clipPath
       id="clip15-6">
      <path
         inkscape:connector-curvature="0"
         d="m 340,5.976562 2,0 0,483.492188 -2,0 z m 0,0"
         id="path234-8" />
    </clipPath>
    <clipPath
       id="clip16-2">
      <path
         inkscape:connector-curvature="0"
         d="m 373,5.976562 2,0 0,483.492188 -2,0 z m 0,0"
         id="path237-1" />
    </clipPath>
    <clipPath
       id="clip17-9">
      <path
         inkscape:connector-curvature="0"
         d="m 406,5.976562 2,0 0,483.492188 -2,0 z m 0,0"
         id="path240-0" />
    </clipPath>
    <clipPath
       id="clip18-3">
      <path
         inkscape:connector-curvature="0"
         d="m 438,5.976562 2,0 0,483.492188 -2,0 z m 0,0"
         id="path243-6" />
    </clipPath>
    <clipPath
       id="clip19-5">
      <path
         inkscape:connector-curvature="0"
         d="m 471,5.976562 2,0 0,483.492188 -2,0 z m 0,0"
         id="path246-5" />
    </clipPath>
    <clipPath
       id="clip20-7">
      <path
         inkscape:connector-curvature="0"
         d="m 503,5.976562 2,0 0,483.492188 -2,0 z m 0,0"
         id="path249-7" />
    </clipPath>
    <clipPath
       id="clip21-5">
      <path
         inkscape:connector-curvature="0"
         d="M 42.53125,466 520,466 l 0,1 -477.46875,0 z m 0,0"
         id="path252-4" />
    </clipPath>
    <clipPath
       id="clip22-9">
      <path
         inkscape:connector-curvature="0"
         d="M 42.53125,338 520,338 l 0,2 -477.46875,0 z m 0,0"
         id="path255-8" />
    </clipPath>
    <clipPath
       id="clip23-4">
      <path
         inkscape:connector-curvature="0"
         d="M 42.53125,211 520,211 l 0,1 -477.46875,0 z m 0,0"
         id="path258-7" />
    </clipPath>
    <clipPath
       id="clip24-5">
      <path
         inkscape:connector-curvature="0"
         d="M 42.53125,83 520,83 l 0,1 -477.46875,0 z m 0,0"
         id="path261-8" />
    </clipPath>
    <clipPath
       id="clip25-7">
      <path
         inkscape:connector-curvature="0"
         d="m 64,5.976562 1,0 L 65,489 l -1,0 z m 0,0"
         id="path264-9" />
    </clipPath>
    <clipPath
       id="clip26-1">
      <path
         inkscape:connector-curvature="0"
         d="m 96,5.976562 2,0 L 98,489 l -2,0 z m 0,0"
         id="path267-2" />
    </clipPath>
    <clipPath
       id="clip27-7">
      <path
         inkscape:connector-curvature="0"
         d="m 129,5.976562 1,0 L 130,489 l -1,0 z m 0,0"
         id="path270-1" />
    </clipPath>
    <clipPath
       id="clip28-1">
      <path
         inkscape:connector-curvature="0"
         d="m 161,5.976562 2,0 L 163,489 l -2,0 z m 0,0"
         id="path273-9" />
    </clipPath>
    <clipPath
       id="clip29-9">
      <path
         inkscape:connector-curvature="0"
         d="m 194,5.976562 1,0 L 195,489 l -1,0 z m 0,0"
         id="path276-0" />
    </clipPath>
    <clipPath
       id="clip30-4">
      <path
         inkscape:connector-curvature="0"
         d="m 227,5.976562 1,0 L 228,489 l -1,0 z m 0,0"
         id="path279-7" />
    </clipPath>
    <clipPath
       id="clip31-8">
      <path
         inkscape:connector-curvature="0"
         d="m 259,5.976562 2,0 L 261,489 l -2,0 z m 0,0"
         id="path282-9" />
    </clipPath>
    <clipPath
       id="clip32-9">
      <path
         inkscape:connector-curvature="0"
         d="m 292,5.976562 1,0 L 293,489 l -1,0 z m 0,0"
         id="path285-9" />
    </clipPath>
    <clipPath
       id="clip33-9">
      <path
         inkscape:connector-curvature="0"
         d="m 324,5.976562 2,0 L 326,489 l -2,0 z m 0,0"
         id="path288-2" />
    </clipPath>
    <clipPath
       id="clip34-5">
      <path
         inkscape:connector-curvature="0"
         d="m 357,5.976562 1,0 L 358,489 l -1,0 z m 0,0"
         id="path291-6" />
    </clipPath>
    <clipPath
       id="clip35-9">
      <path
         inkscape:connector-curvature="0"
         d="m 390,5.976562 1,0 L 391,489 l -1,0 z m 0,0"
         id="path294" />
    </clipPath>
    <clipPath
       id="clip36-5">
      <path
         inkscape:connector-curvature="0"
         d="m 422,5.976562 2,0 L 424,489 l -2,0 z m 0,0"
         id="path297" />
    </clipPath>
    <clipPath
       id="clip37-3">
      <path
         inkscape:connector-curvature="0"
         d="m 455,5.976562 1,0 L 456,489 l -1,0 z m 0,0"
         id="path300" />
    </clipPath>
    <clipPath
       id="clip38-6">
      <path
         inkscape:connector-curvature="0"
         d="m 487,5.976562 2,0 L 489,489 l -2,0 z m 0,0"
         id="path303" />
    </clipPath>
    <clipPath
       id="clip39-1">
      <path
         inkscape:connector-curvature="0"
         d="m 42.53125,5.976562 478.05859,0 0,483.492188 -478.05859,0 z m 0,0"
         id="path306-4" />
    </clipPath>
    <clipPath
       id="clip1-4">
      <path
         inkscape:connector-curvature="0"
         d="M 66.53125,5.976562 594,5.976562 594,489 66.53125,489 z m 0,0"
         id="path57-8" />
    </clipPath>
    <clipPath
       id="clip2-4">
      <path
         inkscape:connector-curvature="0"
         d="M 66.53125,432 594,432 l 0,2 -527.46875,0 z m 0,0"
         id="path60-7" />
    </clipPath>
    <clipPath
       id="clip3-0">
      <path
         inkscape:connector-curvature="0"
         d="M 66.53125,322 594,322 l 0,2 -527.46875,0 z m 0,0"
         id="path63-3" />
    </clipPath>
    <clipPath
       id="clip4-3">
      <path
         inkscape:connector-curvature="0"
         d="M 66.53125,211 594,211 l 0,2 -527.46875,0 z m 0,0"
         id="path66-6" />
    </clipPath>
    <clipPath
       id="clip5-9">
      <path
         inkscape:connector-curvature="0"
         d="M 66.53125,101 594,101 l 0,2 -527.46875,0 z m 0,0"
         id="path69-6" />
    </clipPath>
    <clipPath
       id="clip6-8">
      <path
         inkscape:connector-curvature="0"
         d="m 116,5.976562 2,0 0,483.492188 -2,0 z m 0,0"
         id="path72-4" />
    </clipPath>
    <clipPath
       id="clip7-5">
      <path
         inkscape:connector-curvature="0"
         d="m 206,5.976562 2,0 0,483.492188 -2,0 z m 0,0"
         id="path75-4" />
    </clipPath>
    <clipPath
       id="clip8-4">
      <path
         inkscape:connector-curvature="0"
         d="m 296,5.976562 2,0 0,483.492188 -2,0 z m 0,0"
         id="path78-5" />
    </clipPath>
    <clipPath
       id="clip9-28">
      <path
         inkscape:connector-curvature="0"
         d="m 386,5.976562 2,0 0,483.492188 -2,0 z m 0,0"
         id="path81-2" />
    </clipPath>
    <clipPath
       id="clip10-3">
      <path
         inkscape:connector-curvature="0"
         d="m 476,5.976562 2,0 0,483.492188 -2,0 z m 0,0"
         id="path84-0" />
    </clipPath>
    <clipPath
       id="clip11-9">
      <path
         inkscape:connector-curvature="0"
         d="m 566,5.976562 2,0 0,483.492188 -2,0 z m 0,0"
         id="path87-1" />
    </clipPath>
    <clipPath
       id="clip12-2">
      <path
         inkscape:connector-curvature="0"
         d="M 66.53125,488 594,488 l 0,1 -527.46875,0 z m 0,0"
         id="path90-2" />
    </clipPath>
    <clipPath
       id="clip13-3">
      <path
         inkscape:connector-curvature="0"
         d="M 66.53125,377 594,377 l 0,2 -527.46875,0 z m 0,0"
         id="path93-6" />
    </clipPath>
    <clipPath
       id="clip14-4">
      <path
         inkscape:connector-curvature="0"
         d="M 66.53125,267 594,267 l 0,1 -527.46875,0 z m 0,0"
         id="path96-3" />
    </clipPath>
    <clipPath
       id="clip15-61">
      <path
         inkscape:connector-curvature="0"
         d="M 66.53125,156 594,156 l 0,2 -527.46875,0 z m 0,0"
         id="path99-7" />
    </clipPath>
    <clipPath
       id="clip16-4">
      <path
         inkscape:connector-curvature="0"
         d="M 66.53125,46 594,46 l 0,1 -527.46875,0 z m 0,0"
         id="path102-7" />
    </clipPath>
    <clipPath
       id="clip17-4">
      <path
         inkscape:connector-curvature="0"
         d="m 72,5.976562 1,0 L 73,489 l -1,0 z m 0,0"
         id="path105-6" />
    </clipPath>
    <clipPath
       id="clip18-0">
      <path
         inkscape:connector-curvature="0"
         d="m 162,5.976562 1,0 L 163,489 l -1,0 z m 0,0"
         id="path108-0" />
    </clipPath>
    <clipPath
       id="clip19-3">
      <path
         inkscape:connector-curvature="0"
         d="m 252,5.976562 1,0 L 253,489 l -1,0 z m 0,0"
         id="path111-9" />
    </clipPath>
    <clipPath
       id="clip20-8">
      <path
         inkscape:connector-curvature="0"
         d="m 342,5.976562 1,0 L 343,489 l -1,0 z m 0,0"
         id="path114-3" />
    </clipPath>
    <clipPath
       id="clip21-54">
      <path
         inkscape:connector-curvature="0"
         d="m 432,5.976562 1,0 L 433,489 l -1,0 z m 0,0"
         id="path117-7" />
    </clipPath>
    <clipPath
       id="clip22-91">
      <path
         inkscape:connector-curvature="0"
         d="m 522,5.976562 1,0 L 523,489 l -1,0 z m 0,0"
         id="path120-1" />
    </clipPath>
    <clipPath
       id="clip23-7">
      <path
         inkscape:connector-curvature="0"
         d="m 66.53125,5.976562 527.46875,0 0,483.492188 -527.46875,0 z m 0,0"
         id="path123-3" />
    </clipPath>
  </defs>
  <flowRoot
     xml:space="preserve"
     id="flowRoot4164"
     style="font-style:normal;font-variant:normal;font-weight:normal;font-stretch:normal;line-height:0.01%;font-family:Ubuntu;-inkscape-font-specification:Ubuntu;text-align:center;letter-spacing:0px;word-spacing:0px;writing-mode:lr-tb;text-anchor:middle;fill:#4d4d4d;fill-opacity:1;stroke:none;"
     transform="matrix(0.80000001,0,0,0.80000001,-54.34746,-17.358557)"><flowRegion
       id="flowRegion4166"
       style="fill:#4d4d4d;"><rect
         id="rect4168"
         width="126.82417"
         height="71.768715"
         x="67.836182"
         y="723.44867"
         style="text-align:center;text-anchor:middle;fill:#4d4d4d;" /></flowRegion><flowPara
       id="flowPara4170"
       style="font-size:14px;line-height:1.25;text-align:center;text-anchor:middle;fill:#4d4d4d;">1875</flowPara></flowRoot>  <flowRoot
     xml:space="preserve"
     id="flowRoot4164-3-0"
     style="font-style:normal;font-variant:normal;font-weight:normal;font-stretch:normal;line-height:0.01%;font-family:Ubuntu;-inkscape-font-specification:Ubuntu;text-align:center;letter-spacing:0px;word-spacing:0px;writing-mode:lr-tb;text-anchor:middle;fill:#4d4d4d;fill-opacity:1;stroke:none;"
     transform="matrix(0.80000001,0,0,0.80000001,34.336863,-17.358557)"><flowRegion
       id="flowRegion4166-3-3"
       style="fill:#4d4d4d;"><rect
         id="rect4168-9-2"
         width="126.82417"
         height="71.768715"
         x="67.836182"
         y="723.44867"
         style="text-align:center;text-anchor:middle;fill:#4d4d4d;" /></flowRegion><flowPara
       id="flowPara4170-2-5"
       style="font-size:14px;line-height:1.25;text-align:center;text-anchor:middle;fill:#4d4d4d;">1900</flowPara></flowRoot>  <flowRoot
     xml:space="preserve"
     id="flowRoot4164-3-6"
     style="font-style:normal;font-variant:normal;font-weight:normal;font-stretch:normal;line-height:0.01%;font-family:Ubuntu;-inkscape-font-specification:Ubuntu;text-align:center;letter-spacing:0px;word-spacing:0px;writing-mode:lr-tb;text-anchor:middle;fill:#4d4d4d;fill-opacity:1;stroke:none;"
     transform="matrix(0.80000001,0,0,0.80000001,126.44385,-17.358557)"><flowRegion
       id="flowRegion4166-3-2"
       style="fill:#4d4d4d;"><rect
         id="rect4168-9-03"
         width="126.82417"
         height="71.768715"
         x="67.836182"
         y="723.44867"
         style="text-align:center;text-anchor:middle;fill:#4d4d4d;" /></flowRegion><flowPara
       id="flowPara4170-2-4"
       style="font-size:14px;line-height:1.25;text-align:center;text-anchor:middle;fill:#4d4d4d;">1925</flowPara></flowRoot>  <flowRoot
     xml:space="preserve"
     id="flowRoot4164-3-80"
     style="font-style:normal;font-variant:normal;font-weight:normal;font-stretch:normal;line-height:0.01%;font-family:Ubuntu;-inkscape-font-specification:Ubuntu;text-align:center;letter-spacing:0px;word-spacing:0px;writing-mode:lr-tb;text-anchor:middle;fill:#4d4d4d;fill-opacity:1;stroke:none;"
     transform="matrix(0.80000001,0,0,0.80000001,214.44386,-17.358557)"><flowRegion
       id="flowRegion4166-3-1"
       style="fill:#4d4d4d;"><rect
         id="rect4168-9-3"
         width="126.82417"
         height="71.768715"
         x="67.836182"
         y="723.44867"
         style="text-align:center;text-anchor:middle;fill:#4d4d4d;" /></flowRegion><flowPara
       id="flowPara4170-2-46"
       style="font-size:14px;line-height:1.25;text-align:center;text-anchor:middle;fill:#4d4d4d;">1950</flowPara></flowRoot>  <flowRoot
     xml:space="preserve"
     id="flowRoot4164-3-07-1"
     style="font-style:normal;font-variant:normal;font-weight:normal;font-stretch:normal;line-height:0.01%;font-family:Ubuntu;-inkscape-font-specification:Ubuntu;text-align:center;letter-spacing:0px;word-spacing:0px;writing-mode:lr-tb;text-anchor:middle;fill:#4d4d4d;fill-opacity:1;stroke:none;"
     transform="matrix(0.80000001,0,0,0.80000001,305.35275,-17.358557)"><flowRegion
       id="flowRegion4166-3-31-9"
       style="fill:#4d4d4d;"><rect
         id="rect4168-9-4-2"
         width="126.82417"
         height="71.768715"
         x="67.836182"
         y="723.44867"
         style="text-align:center;text-anchor:middle;fill:#4d4d4d;" /></flowRegion><flowPara
       id="flowPara4170-2-510-4"
       style="font-size:14px;line-height:1.25;text-align:center;text-anchor:middle;fill:#4d4d4d;">1975</flowPara></flowRoot>  <flowRoot
     xml:space="preserve"
     id="flowRoot4164-3-07-9"
     style="font-style:normal;font-variant:normal;font-weight:normal;font-stretch:normal;line-height:0.01%;font-family:Ubuntu;-inkscape-font-specification:Ubuntu;text-align:center;letter-spacing:0px;word-spacing:0px;writing-mode:lr-tb;text-anchor:middle;fill:#4d4d4d;fill-opacity:1;stroke:none;"
     transform="matrix(0.80000001,0,0,0.80000001,396.62553,-17.358557)"><flowRegion
       id="flowRegion4166-3-31-0"
       style="fill:#4d4d4d;"><rect
         id="rect4168-9-4-97"
         width="126.82417"
         height="71.768715"
         x="67.836182"
         y="723.44867"
         style="text-align:center;text-anchor:middle;fill:#4d4d4d;" /></flowRegion><flowPara
       id="flowPara4170-2-510-0"
       style="font-size:14px;line-height:1.25;text-align:center;text-anchor:middle;fill:#4d4d4d;">2000</flowPara></flowRoot>  <flowRoot
     xml:space="preserve"
     id="flowRoot4164-0"
     style="font-style:normal;font-variant:normal;font-weight:normal;font-stretch:normal;line-height:0.01%;font-family:Ubuntu;-inkscape-font-specification:Ubuntu;text-align:end;letter-spacing:0px;word-spacing:0px;writing-mode:lr-tb;text-anchor:end;fill:#4d4d4d;fill-opacity:1;stroke:none;"
     transform="matrix(0.80000001,0,0,0.80000001,-119.5457,-141.94546)"><flowRegion
       id="flowRegion4166-4"
       style="fill:#4d4d4d;"><rect
         id="rect4168-3"
         width="126.82417"
         height="71.768715"
         x="67.836182"
         y="723.44867"
         style="text-align:end;text-anchor:end;fill:#4d4d4d;" /></flowRegion><flowPara
       id="flowPara4170-7"
       style="font-size:14px;line-height:1.25;text-align:end;text-anchor:end;fill:#4d4d4d;">500</flowPara></flowRoot>  <flowRoot
     xml:space="preserve"
     id="flowRoot4164-0-9"
     style="font-style:normal;font-variant:normal;font-weight:normal;font-stretch:normal;line-height:0.01%;font-family:Ubuntu;-inkscape-font-specification:Ubuntu;text-align:end;letter-spacing:0px;word-spacing:0px;writing-mode:lr-tb;text-anchor:end;fill:#4d4d4d;fill-opacity:1;stroke:none;"
     transform="matrix(0.80000001,0,0,0.80000001,-119.5457,-251.91733)"><flowRegion
       id="flowRegion4166-4-7"
       style="fill:#4d4d4d;"><rect
         id="rect4168-3-3"
         width="126.82417"
         height="71.768715"
         x="67.836182"
         y="723.44867"
         style="text-align:end;text-anchor:end;fill:#4d4d4d;" /></flowRegion><flowPara
       id="flowPara4170-7-8"
       style="font-size:14px;line-height:1.25;text-align:end;text-anchor:end;fill:#4d4d4d;">1000</flowPara></flowRoot>  <flowRoot
     xml:space="preserve"
     id="flowRoot4164-0-9-1"
     style="font-style:normal;font-variant:normal;font-weight:normal;font-stretch:normal;line-height:0.01%;font-family:Ubuntu;-inkscape-font-specification:Ubuntu;text-align:end;letter-spacing:0px;word-spacing:0px;writing-mode:lr-tb;text-anchor:end;fill:#4d4d4d;fill-opacity:1;stroke:none;"
     transform="matrix(0.80000001,0,0,0.80000001,-119.5457,-362.60619)"><flowRegion
       id="flowRegion4166-4-7-2"
       style="fill:#4d4d4d;"><rect
         id="rect4168-3-3-9"
         width="126.82417"
         height="71.768715"
         x="67.836182"
         y="723.44867"
         style="text-align:end;text-anchor:end;fill:#4d4d4d;" /></flowRegion><flowPara
       id="flowPara4170-7-8-2"
       style="font-size:14px;line-height:1.25;text-align:end;text-anchor:end;fill:#4d4d4d;">1500</flowPara></flowRoot>  <flowRoot
     xml:space="preserve"
     id="flowRoot4164-0-9-4"
     style="font-style:normal;font-variant:normal;font-weight:normal;font-stretch:normal;line-height:0.01%;font-family:Ubuntu;-inkscape-font-specification:Ubuntu;text-align:end;letter-spacing:0px;word-spacing:0px;writing-mode:lr-tb;text-anchor:end;fill:#4d4d4d;fill-opacity:1;stroke:none;"
     transform="matrix(0.80000001,0,0,0.80000001,-119.5457,-472.76481)"><flowRegion
       id="flowRegion4166-4-7-5"
       style="fill:#4d4d4d;"><rect
         id="rect4168-3-3-2"
         width="126.82417"
         height="71.768715"
         x="67.836182"
         y="723.44867"
         style="text-align:end;text-anchor:end;fill:#4d4d4d;" /></flowRegion><flowPara
       id="flowPara4170-7-8-0"
       style="font-size:14px;line-height:1.25;text-align:end;text-anchor:end;fill:#4d4d4d;">2000</flowPara></flowRoot>  <flowRoot
     xml:space="preserve"
     id="flowRoot4164-5"
     style="font-style:normal;font-variant:normal;font-weight:normal;font-stretch:normal;line-height:0.01%;font-family:Ubuntu;-inkscape-font-specification:Ubuntu;text-align:center;letter-spacing:0px;word-spacing:0px;writing-mode:lr-tb;text-anchor:middle;fill:#4d4d4d;fill-opacity:1;stroke:none;"
     transform="matrix(0.80000001,0,0,0.80000001,51.14733,-3.3102411)"><flowRegion
       id="flowRegion4166-1"
       style="fill:#4d4d4d;"><rect
         id="rect4168-5"
         width="528.9256"
         height="63.903671"
         x="67.836182"
         y="723.44867"
         style="text-align:center;text-anchor:middle;fill:#4d4d4d;" /></flowRegion><flowPara
       id="flowPara4170-70"
       style="font-weight:500;font-size:18px;line-height:1.25;-inkscape-font-specification:'Ubuntu Medium';text-align:center;text-anchor:middle;fill:#4d4d4d;">Année de naissance</flowPara></flowRoot>  <flowRoot
     xml:space="preserve"
     id="flowRoot4164-5-2"
     style="font-style:normal;font-variant:normal;font-weight:normal;font-stretch:normal;line-height:0.01%;font-family:Ubuntu;-inkscape-font-specification:Ubuntu;text-align:center;letter-spacing:0px;word-spacing:0px;writing-mode:lr-tb;text-anchor:middle;fill:#4d4d4d;fill-opacity:1;stroke:none;"
     transform="matrix(0,-0.80000001,0.80000001,0,-594.74713,585.4214)"><flowRegion
       id="flowRegion4166-1-8"
       style="fill:#4d4d4d;"><rect
         id="rect4168-5-9"
         width="528.9256"
         height="63.903671"
         x="67.836182"
         y="723.44867"
         style="text-align:center;text-anchor:middle;fill:#4d4d4d;" /></flowRegion><flowPara
       id="flowPara4170-70-5"
       style="font-weight:500;font-size:18px;line-height:1.25;-inkscape-font-specification:'Ubuntu Medium';text-align:center;text-anchor:middle;fill:#4d4d4d;">Nombre de naissances (en milliers)</flowPara></flowRoot>  <g
     id="g132"
     clip-rule="nonzero"
     clip-path="url(#clip1-4)"
     transform="translate(-22.332191,67.082255)">
    <path
       inkscape:connector-curvature="0"
       id="path134"
       d="m 66.53125,488.46875 526.49219,0 0,-482.492188 -526.49219,0 z m 0,0"
       style="fill:#ffffff;fill-opacity:1;fill-rule:nonzero;stroke:none" />
  </g>
  <g
     id="g136"
     clip-rule="nonzero"
     clip-path="url(#clip2-4)"
     transform="translate(-22.332191,67.082255)">
    <path
       inkscape:connector-curvature="0"
       id="path138-5"
       d="m 66.53125,433.16797 526.49219,0"
       style="fill:none;stroke:#fafafa;stroke-width:1.06697798;stroke-linecap:butt;stroke-linejoin:round;stroke-miterlimit:10;stroke-opacity:1" />
  </g>
  <g
     id="g140"
     clip-rule="nonzero"
     clip-path="url(#clip3-0)"
     transform="translate(-22.332191,67.082255)">
    <path
       inkscape:connector-curvature="0"
       id="path142"
       d="m 66.53125,322.76172 526.49219,0"
       style="fill:none;stroke:#fafafa;stroke-width:1.06697798;stroke-linecap:butt;stroke-linejoin:round;stroke-miterlimit:10;stroke-opacity:1" />
  </g>
  <g
     id="g144"
     clip-rule="nonzero"
     clip-path="url(#clip4-3)"
     transform="translate(-22.332191,67.082255)">
    <path
       inkscape:connector-curvature="0"
       id="path146"
       d="m 66.53125,212.35156 526.49219,0"
       style="fill:none;stroke:#fafafa;stroke-width:1.06697798;stroke-linecap:butt;stroke-linejoin:round;stroke-miterlimit:10;stroke-opacity:1" />
  </g>
  <g
     id="g148"
     clip-rule="nonzero"
     clip-path="url(#clip5-9)"
     transform="translate(-22.332191,67.082255)">
    <path
       inkscape:connector-curvature="0"
       id="path150-0"
       d="m 66.53125,101.94141 526.49219,0"
       style="fill:none;stroke:#fafafa;stroke-width:1.06697798;stroke-linecap:butt;stroke-linejoin:round;stroke-miterlimit:10;stroke-opacity:1" />
  </g>
  <g
     id="g152"
     clip-rule="nonzero"
     clip-path="url(#clip6-8)"
     transform="translate(-22.332191,67.082255)">
    <path
       inkscape:connector-curvature="0"
       id="path154"
       d="m 117.45313,488.46875 0,-482.492188"
       style="fill:none;stroke:#fafafa;stroke-width:1.06697798;stroke-linecap:butt;stroke-linejoin:round;stroke-miterlimit:10;stroke-opacity:1" />
  </g>
  <g
     id="g156"
     clip-rule="nonzero"
     clip-path="url(#clip7-5)"
     transform="translate(-22.332191,67.082255)">
    <path
       inkscape:connector-curvature="0"
       id="path158"
       d="m 207.42187,488.46875 0,-482.492188"
       style="fill:none;stroke:#fafafa;stroke-width:1.06697798;stroke-linecap:butt;stroke-linejoin:round;stroke-miterlimit:10;stroke-opacity:1" />
  </g>
  <g
     id="g160"
     clip-rule="nonzero"
     clip-path="url(#clip8-4)"
     transform="translate(-22.332191,67.082255)">
    <path
       inkscape:connector-curvature="0"
       id="path162-4"
       d="m 297.38672,488.46875 0,-482.492188"
       style="fill:none;stroke:#fafafa;stroke-width:1.06697798;stroke-linecap:butt;stroke-linejoin:round;stroke-miterlimit:10;stroke-opacity:1" />
  </g>
  <g
     id="g164"
     clip-rule="nonzero"
     clip-path="url(#clip9-28)"
     transform="translate(-22.332191,67.082255)">
    <path
       inkscape:connector-curvature="0"
       id="path166"
       d="m 387.35547,488.46875 0,-482.492188"
       style="fill:none;stroke:#fafafa;stroke-width:1.06697798;stroke-linecap:butt;stroke-linejoin:round;stroke-miterlimit:10;stroke-opacity:1" />
  </g>
  <g
     id="g168"
     clip-rule="nonzero"
     clip-path="url(#clip10-3)"
     transform="translate(-22.332191,67.082255)">
    <path
       inkscape:connector-curvature="0"
       id="path170"
       d="m 477.32422,488.46875 0,-482.492188"
       style="fill:none;stroke:#fafafa;stroke-width:1.06697798;stroke-linecap:butt;stroke-linejoin:round;stroke-miterlimit:10;stroke-opacity:1" />
  </g>
  <g
     id="g172"
     clip-rule="nonzero"
     clip-path="url(#clip11-9)"
     transform="translate(-22.332191,67.082255)">
    <path
       inkscape:connector-curvature="0"
       id="path174-6"
       d="m 567.29297,488.46875 0,-482.492188"
       style="fill:none;stroke:#fafafa;stroke-width:1.06697798;stroke-linecap:butt;stroke-linejoin:round;stroke-miterlimit:10;stroke-opacity:1" />
  </g>
  <g
     id="g176"
     clip-rule="nonzero"
     clip-path="url(#clip12-2)"
     transform="translate(-22.332191,67.082255)">
    <path
       inkscape:connector-curvature="0"
       id="path178"
       d="m 66.53125,488.375 526.49219,0"
       style="fill:none;stroke:#e3e3e3;stroke-width:0.42679101;stroke-linecap:butt;stroke-linejoin:round;stroke-miterlimit:10;stroke-opacity:1" />
  </g>
  <g
     id="g180"
     clip-rule="nonzero"
     clip-path="url(#clip13-3)"
     transform="translate(-22.332191,67.082255)">
    <path
       inkscape:connector-curvature="0"
       id="path182"
       d="m 66.53125,377.96484 526.49219,0"
       style="fill:none;stroke:#e3e3e3;stroke-width:0.42679101;stroke-linecap:butt;stroke-linejoin:round;stroke-miterlimit:10;stroke-opacity:1" />
  </g>
  <g
     id="g184"
     clip-rule="nonzero"
     clip-path="url(#clip14-4)"
     transform="translate(-22.332191,67.082255)">
    <path
       inkscape:connector-curvature="0"
       id="path186-4"
       d="m 66.53125,267.55469 526.49219,0"
       style="fill:none;stroke:#e3e3e3;stroke-width:0.42679101;stroke-linecap:butt;stroke-linejoin:round;stroke-miterlimit:10;stroke-opacity:1" />
  </g>
  <g
     id="g188"
     clip-rule="nonzero"
     clip-path="url(#clip15-61)"
     transform="translate(-22.332191,67.082255)">
    <path
       inkscape:connector-curvature="0"
       id="path190"
       d="m 66.53125,157.14453 526.49219,0"
       style="fill:none;stroke:#e3e3e3;stroke-width:0.42679101;stroke-linecap:butt;stroke-linejoin:round;stroke-miterlimit:10;stroke-opacity:1" />
  </g>
  <g
     id="g192"
     clip-rule="nonzero"
     clip-path="url(#clip16-4)"
     transform="translate(-22.332191,67.082255)">
    <path
       inkscape:connector-curvature="0"
       id="path194"
       d="m 66.53125,46.738281 526.49219,0"
       style="fill:none;stroke:#e3e3e3;stroke-width:0.42679101;stroke-linecap:butt;stroke-linejoin:round;stroke-miterlimit:10;stroke-opacity:1" />
  </g>
  <g
     id="g196"
     clip-rule="nonzero"
     clip-path="url(#clip17-4)"
     transform="translate(-22.332191,67.082255)">
    <path
       inkscape:connector-curvature="0"
       id="path198-6"
       d="m 72.46875,488.46875 0,-482.492188"
       style="fill:none;stroke:#e3e3e3;stroke-width:0.42679101;stroke-linecap:butt;stroke-linejoin:round;stroke-miterlimit:10;stroke-opacity:1" />
  </g>
  <g
     id="g200"
     clip-rule="nonzero"
     clip-path="url(#clip18-0)"
     transform="translate(-22.332191,67.082255)">
    <path
       inkscape:connector-curvature="0"
       id="path202"
       d="m 162.4375,488.46875 0,-482.492188"
       style="fill:none;stroke:#e3e3e3;stroke-width:0.42679101;stroke-linecap:butt;stroke-linejoin:round;stroke-miterlimit:10;stroke-opacity:1" />
  </g>
  <g
     id="g204"
     clip-rule="nonzero"
     clip-path="url(#clip19-3)"
     transform="translate(-22.332191,67.082255)">
    <path
       inkscape:connector-curvature="0"
       id="path206"
       d="m 252.40234,488.46875 0,-482.492188"
       style="fill:none;stroke:#e3e3e3;stroke-width:0.42679101;stroke-linecap:butt;stroke-linejoin:round;stroke-miterlimit:10;stroke-opacity:1" />
  </g>
  <g
     id="g208"
     clip-rule="nonzero"
     clip-path="url(#clip20-8)"
     transform="translate(-22.332191,67.082255)">
    <path
       inkscape:connector-curvature="0"
       id="path210-1"
       d="m 342.37109,488.46875 0,-482.492188"
       style="fill:none;stroke:#e3e3e3;stroke-width:0.42679101;stroke-linecap:butt;stroke-linejoin:round;stroke-miterlimit:10;stroke-opacity:1" />
  </g>
  <g
     id="g212"
     clip-rule="nonzero"
     clip-path="url(#clip21-54)"
     transform="translate(-22.332191,67.082255)">
    <path
       inkscape:connector-curvature="0"
       id="path214"
       d="m 432.33984,488.46875 0,-482.492188"
       style="fill:none;stroke:#e3e3e3;stroke-width:0.42679101;stroke-linecap:butt;stroke-linejoin:round;stroke-miterlimit:10;stroke-opacity:1" />
  </g>
  <g
     id="g216"
     clip-rule="nonzero"
     clip-path="url(#clip22-91)"
     transform="translate(-22.332191,67.082255)">
    <path
       inkscape:connector-curvature="0"
       id="path218"
       d="m 522.30859,488.46875 0,-482.492188"
       style="fill:none;stroke:#e3e3e3;stroke-width:0.42679101;stroke-linecap:butt;stroke-linejoin:round;stroke-miterlimit:10;stroke-opacity:1" />
  </g>
  <path
     inkscape:connector-curvature="0"
     id="path220"
     d="m 68.128747,533.62131 6.058593,-1.24218 6.058599,-2.32812 6.05859,-1.94923 6.05859,-1.17968 6.0586,-3.58984 6.058591,-0.0312 6.05859,-2.70704 6.0586,-2.17188 6.05859,-1.85155 6.05859,-0.89453 6.0586,-1.13672 6.05859,-2.55859 6.0586,2.96484 6.05859,-3.28516 6.05859,-2.9375 6.0586,-3.96875 6.05859,-5.19532 6.05859,-9.91405 6.0586,-36.04688 6.05859,-47.84375 6.0586,-54.26171 6.05859,-21.71875 6.05859,-11.78516 6.0586,-13.75 6.05859,-3.08594 6.05859,-5.23437 6.0586,2.52734 6.05859,3.3203 6.0586,7.85548 6.05859,6.89452 6.05859,11.46095 6.0586,0.95313 6.05859,-3.62111 6.05859,-6.99609 6.0586,-7.91796 6.05859,-19.47267 6.0586,-38.12109 6.05859,7.19141 6.05859,-38.92969 6.0586,-56.44922 6.05859,9.28516 6.05859,-18.84375 6.0586,-21.73828 6.05859,-14.92188 6.0586,-16.11328 6.05859,-7.289059 6.05859,2.636719 6.0586,1.355469 6.05859,13.339841 6.05859,21.44922 6.0586,36.08593 6.05859,12.375 6.0586,-14.81639 6.05859,8.15233 6.05859,40.33984 6.0586,6.59375 6.05859,-5.00389 6.05859,-13.30078 6.0586,-19.01954 6.05859,-13.80859 6.0586,0.33594 6.05859,-4.09767 6.05859,-6.34765 6.0586,-11.4414 6.05859,-23.53907 6.05859,-1.76953 6.0586,13.01563 6.05859,10.72265 6.0586,5.98829 6.05859,-2.25 6.05859,-8.9961 6.0586,-1.47656 6.05859,-3.64453 6.05859,-6.15235 6.0586,-12.97656 6.05859,2.89063 6.0586,21.74218 6.05859,10.98438 6.05859,1.74609"
     style="fill:none;stroke:#800000;stroke-width:1.70716500000000004;stroke-linecap:butt;stroke-linejoin:round;stroke-miterlimit:1;stroke-opacity:1" />
  <g
     id="g222"
     clip-rule="nonzero"
     clip-path="url(#clip23-7)"
     transform="translate(-22.332191,67.082255)">
    <path
       inkscape:connector-curvature="0"
       id="path224"
       d="m 66.53125,488.46875 526.49219,0 0,-482.492188 -526.49219,0 z m 0,0"
       style="fill:none;stroke:#7d7d7d;stroke-width:1.06697798;stroke-linecap:round;stroke-linejoin:round;stroke-miterlimit:10;stroke-opacity:1" />
  </g>
  <path
     inkscape:connector-curvature="0"
     id="path292"
     d="m 41.210778,555.45726 2.988281,0"
     style="fill:none;stroke:#000000;stroke-width:1.06697798;stroke-linecap:butt;stroke-linejoin:round;stroke-miterlimit:10;stroke-opacity:1" />
  <path
     inkscape:connector-curvature="0"
     id="path294-0"
     d="m 41.210778,445.0471 2.988281,0"
     style="fill:none;stroke:#000000;stroke-width:1.06697798;stroke-linecap:butt;stroke-linejoin:round;stroke-miterlimit:10;stroke-opacity:1" />
  <path
     inkscape:connector-curvature="0"
     id="path296"
     d="m 41.210778,334.63694 2.988281,0"
     style="fill:none;stroke:#000000;stroke-width:1.06697798;stroke-linecap:butt;stroke-linejoin:round;stroke-miterlimit:10;stroke-opacity:1" />
  <path
     inkscape:connector-curvature="0"
     id="path298"
     d="m 41.210778,224.22678 2.988281,0"
     style="fill:none;stroke:#000000;stroke-width:1.06697798;stroke-linecap:butt;stroke-linejoin:round;stroke-miterlimit:10;stroke-opacity:1" />
  <path
     inkscape:connector-curvature="0"
     id="path300-3"
     d="m 41.210778,113.82054 2.988281,0"
     style="fill:none;stroke:#000000;stroke-width:1.06697798;stroke-linecap:butt;stroke-linejoin:round;stroke-miterlimit:10;stroke-opacity:1" />
  <path
     inkscape:connector-curvature="0"
     id="path302"
     d="m 50.136559,558.53928 0,-2.98827"
     style="fill:none;stroke:#000000;stroke-width:1.06697798;stroke-linecap:butt;stroke-linejoin:round;stroke-miterlimit:10;stroke-opacity:1" />
  <path
     inkscape:connector-curvature="0"
     id="path304"
     d="m 140.10531,558.53928 0,-2.98827"
     style="fill:none;stroke:#000000;stroke-width:1.06697798;stroke-linecap:butt;stroke-linejoin:round;stroke-miterlimit:10;stroke-opacity:1" />
  <path
     inkscape:connector-curvature="0"
     id="path306"
     d="m 230.07015,558.53928 0,-2.98827"
     style="fill:none;stroke:#000000;stroke-width:1.06697798;stroke-linecap:butt;stroke-linejoin:round;stroke-miterlimit:10;stroke-opacity:1" />
  <path
     inkscape:connector-curvature="0"
     id="path308"
     d="m 320.0389,558.53928 0,-2.98827"
     style="fill:none;stroke:#000000;stroke-width:1.06697798;stroke-linecap:butt;stroke-linejoin:round;stroke-miterlimit:10;stroke-opacity:1" />
  <path
     inkscape:connector-curvature="0"
     id="path310"
     d="m 410.00765,558.53928 0,-2.98827"
     style="fill:none;stroke:#000000;stroke-width:1.06697798;stroke-linecap:butt;stroke-linejoin:round;stroke-miterlimit:10;stroke-opacity:1" />
  <path
     inkscape:connector-curvature="0"
     id="path312"
     d="m 499.9764,558.53928 0,-2.98827"
     style="fill:none;stroke:#000000;stroke-width:1.06697798;stroke-linecap:butt;stroke-linejoin:round;stroke-miterlimit:10;stroke-opacity:1" />
  <flowRoot
     xml:space="preserve"
     id="flowRoot4164-0-5"
     style="font-style:normal;font-variant:normal;font-weight:normal;font-stretch:normal;line-height:0.01%;font-family:Ubuntu;-inkscape-font-specification:Ubuntu;text-align:end;letter-spacing:0px;word-spacing:0px;writing-mode:lr-tb;text-anchor:end;fill:#4d4d4d;fill-opacity:1;stroke:none;"
     transform="matrix(0.80000001,0,0,0.80000001,-119.5457,-31.051716)"><flowRegion
       id="flowRegion4166-4-9"
       style="fill:#4d4d4d;"><rect
         id="rect4168-3-6"
         width="126.82417"
         height="71.768715"
         x="67.836182"
         y="723.44867"
         style="text-align:end;text-anchor:end;fill:#4d4d4d;" /></flowRegion><flowPara
       id="flowPara4170-7-4"
       style="font-size:14px;line-height:1.25;text-align:end;text-anchor:end;fill:#4d4d4d;">0</flowPara></flowRoot></svg>
