<?xml version="1.0" encoding="UTF-8" standalone="no"?>
<!-- Created with Inkscape (http://www.inkscape.org/) -->

<svg
   xmlns:dc="http://purl.org/dc/elements/1.1/"
   xmlns:cc="http://creativecommons.org/ns#"
   xmlns:rdf="http://www.w3.org/1999/02/22-rdf-syntax-ns#"
   xmlns:svg="http://www.w3.org/2000/svg"
   xmlns="http://www.w3.org/2000/svg"
   xmlns:sodipodi="http://sodipodi.sourceforge.net/DTD/sodipodi-0.dtd"
   xmlns:inkscape="http://www.inkscape.org/namespaces/inkscape"
   version="1.1"
   id="svg2"
   xml:space="preserve"
   width="390.23331"
   height="154"
   viewBox="0 0 390.23331 154"
   sodipodi:docname="TabElem2.pdf"
   inkscape:version="0.92.3 (2405546, 2018-03-11)"><metadata
     id="metadata8"><rdf:RDF><cc:Work
         rdf:about=""><dc:format>image/svg+xml</dc:format><dc:type
           rdf:resource="http://purl.org/dc/dcmitype/StillImage" /><dc:title></dc:title></cc:Work></rdf:RDF></metadata><defs
     id="defs6" /><sodipodi:namedview
     pagecolor="#ffffff"
     bordercolor="#666666"
     borderopacity="1"
     objecttolerance="10"
     gridtolerance="10"
     guidetolerance="10"
     inkscape:pageopacity="0"
     inkscape:pageshadow="2"
     inkscape:window-width="1920"
     inkscape:window-height="1031"
     id="namedview4"
     showgrid="false"
     inkscape:zoom="2.1454202"
     inkscape:cx="253.52474"
     inkscape:cy="33.208742"
     inkscape:window-x="0"
     inkscape:window-y="25"
     inkscape:window-maximized="1"
     inkscape:current-layer="g10" /><g
     id="g10"
     inkscape:groupmode="layer"
     inkscape:label="TabElem2"
     transform="matrix(1.3333333,0,0,-1.3333333,0,154)"><path
       inkscape:connector-curvature="0"
       id="path14"
       style="fill:#e6e6e6;fill-opacity:1;fill-rule:nonzero;stroke:none"
       d="M 8.516,98.902 H 139.012 V 6.043 H 8.516 Z" /><text
       id="text18"
       style="font-variant:normal;font-weight:normal;font-size:8px;font-family:Ubuntu;-inkscape-font-specification:Ubuntu;writing-mode:lr-tb;fill:#4d4d4d;fill-opacity:1;fill-rule:nonzero;stroke:none;"
       transform="scale(1,-1)"
       x="13.57345"
       y="-87.910255"><tspan
         id="tspan16"
         sodipodi:role="line"
         y="-87.910255"
         x="13.57345 15.72545 21.54945 27.25345 29.405449 34.65345 36.80545 42.509449">INDIVIDU</tspan></text>
<g
       transform="matrix(1,0,0,-1,0,115.5)"
       id="g20"><path
         inkscape:connector-curvature="0"
         id="path22"
         style="fill:none;stroke:#ffffff;stroke-width:1.20000005;stroke-linecap:butt;stroke-linejoin:miter;stroke-miterlimit:4;stroke-dasharray:none;stroke-opacity:1"
         d="M 7.348,32.598 H 140.375" /></g><text
       id="text62"
       style="font-variant:normal;font-weight:normal;font-size:8px;font-family:Ubuntu;-inkscape-font-specification:Ubuntu;writing-mode:lr-tb;fill:#4d4d4d;fill-opacity:1;fill-rule:nonzero;stroke:none;"
       transform="scale(1,-1)"
       x="63.18906"
       y="-87.910255"><tspan
         id="tspan24"
         sodipodi:role="line"
         y="-87.910255"
         x="63.18906 67.445061 72.013062 77.061058 97.837059 102.86906 107.43706 112.68506 117.25306 123.07706">SEXEREVENU</tspan><tspan
         id="tspan26"
         sodipodi:role="line"
         y="-71.110252"
         x="27.464075 29.616076">I1</tspan><tspan
         id="tspan28"
         sodipodi:role="line"
         y="-59.110256"
         x="27.464075 29.616076">I2</tspan><tspan
         id="tspan30"
         sodipodi:role="line"
         y="-47.110256"
         x="27.464075 29.616076">I3</tspan><tspan
         id="tspan32"
         sodipodi:role="line"
         y="-35.110256"
         x="27.464075 29.616076">I4</tspan><tspan
         id="tspan34"
         sodipodi:role="line"
         y="-23.11025"
         x="27.464075 29.616076">I5</tspan><tspan
         id="tspan36"
         sodipodi:role="line"
         y="-11.11025"
         x="27.464075 29.616076">I6</tspan><tspan
         id="tspan38"
         y="-71.110252"
         x="70.853127"
         style="fill:#4d4d4d;">f</tspan><tspan
         id="tspan40"
         y="-59.110256"
         x="70.118752"
         style="fill:#4d4d4d;">h</tspan><tspan
         id="tspan42"
         y="-47.110256"
         x="70.118752"
         style="fill:#4d4d4d;">h</tspan><tspan
         id="tspan44"
         y="-35.110256"
         x="70.853127"
         style="fill:#4d4d4d;">f</tspan><tspan
         id="tspan46"
         y="-23.11025"
         x="70.853127"
         style="fill:#4d4d4d;">f</tspan><tspan
         id="tspan48"
         y="-11.11025"
         x="70.853127"
         style="fill:#4d4d4d;">f</tspan><tspan
         id="tspan50"
         sodipodi:role="line"
         y="-71.110252"
         x="100.98907 105.50107 110.01307 111.86107 116.37307 120.88506">22 000</tspan><tspan
         id="tspan52"
         sodipodi:role="line"
         y="-59.110256"
         x="100.98907 105.50107 110.01307 111.86107 116.37307 120.88506">28 000</tspan><tspan
         id="tspan54"
         sodipodi:role="line"
         y="-47.110256"
         x="100.98907 105.50107 110.01307 111.86107 116.37307 120.88506">42 000</tspan><tspan
         id="tspan56"
         sodipodi:role="line"
         y="-35.110256"
         x="100.98907 105.50107 110.01307 111.86107 116.37307 120.88506">30 000</tspan><tspan
         id="tspan58"
         sodipodi:role="line"
         y="-23.11025"
         x="100.98907 105.50107 110.01307 111.86107 116.37307 120.88506">16 000</tspan><tspan
         id="tspan60"
         sodipodi:role="line"
         y="-11.11025"
         x="100.98907 105.50107 110.01307 111.86107 116.37307 120.88506">24 000</tspan></text>
<path
       inkscape:connector-curvature="0"
       id="path64"
       style="fill:#e6e6e6;fill-opacity:1;fill-rule:nonzero;stroke:none"
       d="m 186.586,98.953 h 69.895 v -40.91 h -69.895 z" /><text
       id="text72"
       style="font-variant:normal;font-weight:normal;font-size:8px;font-family:Ubuntu;-inkscape-font-specification:Ubuntu;writing-mode:lr-tb;fill:#4d4d4d;fill-opacity:1;fill-rule:nonzero;stroke:none;"
       transform="scale(1,-1)"
       x="191.18906"
       y="-90.310257"><tspan
         id="tspan66"
         sodipodi:role="line"
         y="-90.310257"
         x="191.18906 195.44505 200.01306 205.06107">SEXE</tspan><tspan
         id="tspan68"
         y="-75.110252"
         x="198.85312"
         style="fill:#4d4d4d;">f</tspan><tspan
         id="tspan70"
         y="-63.110252"
         x="198.11874"
         style="fill:#4d4d4d;">h</tspan></text>
<g
       transform="matrix(1,0,0,-1,0,115.5)"
       id="g74"><path
         inkscape:connector-curvature="0"
         id="path76"
         style="fill:none;stroke:#ffffff;stroke-width:1.20000005;stroke-linecap:butt;stroke-linejoin:miter;stroke-miterlimit:4;stroke-dasharray:none;stroke-opacity:1"
         d="m 182.895,28.598 h 74.929" /></g><text
       id="text80"
       style="font-variant:normal;font-weight:500;font-size:8px;font-family:'Ubuntu Medium';-inkscape-font-specification:Ubuntu-Medium;writing-mode:lr-tb;fill:#4d4d4d;fill-opacity:1;fill-rule:nonzero;stroke:none;"
       transform="scale(1,-1)"
       x="8.3999996"
       y="-103.11025"><tspan
         id="tspan78"
         sodipodi:role="line"
         y="-103.11025"
         x="8.3999996 11.744 16.016001 20.784 23.16 27.727999 31.976 36.639999 38.504002 43.072002 45.448002 50.016003 56.936001 61.504002 66.183998 69.528 73.800003 76.008003 79.232002">tableau élémentaire</tspan></text>
<text
       id="text92"
       style="font-variant:normal;font-weight:normal;font-size:8px;font-family:Ubuntu;-inkscape-font-specification:Ubuntu;writing-mode:lr-tb;fill:#4d4d4d;fill-opacity:1;fill-rule:nonzero;stroke:none;"
       transform="scale(1,-1)"
       x="221.03281"
       y="-90.310257"><tspan
         id="tspan86"
         sodipodi:role="line"
         y="-90.310257"
         x="221.03281 226.0648 230.63281 235.88081 240.44881 246.27281">REVENU</tspan><tspan
         id="tspan88"
         sodipodi:role="line"
         y="-74.310257"
         x="224.98904 229.50104 234.01305 235.86104 240.37305 244.88504">23 000</tspan><tspan
         id="tspan90"
         sodipodi:role="line"
         y="-62.310253"
         x="224.98904 229.50104 234.01305 235.86104 240.37305 244.88504">35 000</tspan></text>
<text
       id="text96"
       style="font-variant:normal;font-weight:500;font-size:8px;font-family:'Ubuntu Medium';-inkscape-font-specification:Ubuntu-Medium;writing-mode:lr-tb;fill:#4d4d4d;fill-opacity:1;fill-rule:nonzero;stroke:none;"
       transform="scale(1,-1)"
       x="162.8"
       y="-103.11025"><tspan
         id="tspan94"
         sodipodi:role="line"
         y="-103.11025"
         x="162.8 169.72 174.408 178.56 183.12801 187.808 192.48801 197.056 198.92 203.688 208.256 210.12 215.24001 219.92799 225.392 230.08 236 241.62399 243.48801 247.144 251.71201 254.088 258.87201 263.552 265.41599 269.73599 274.42401 279.67999">moyenne de REVENU selon SEXE</tspan></text>
</g></svg>