<?xml version="1.0" encoding="UTF-8" standalone="no"?>
<!-- Created with Inkscape (http://www.inkscape.org/) -->

<svg
   xmlns:dc="http://purl.org/dc/elements/1.1/"
   xmlns:cc="http://creativecommons.org/ns#"
   xmlns:rdf="http://www.w3.org/1999/02/22-rdf-syntax-ns#"
   xmlns:svg="http://www.w3.org/2000/svg"
   xmlns="http://www.w3.org/2000/svg"
   xmlns:sodipodi="http://sodipodi.sourceforge.net/DTD/sodipodi-0.dtd"
   xmlns:inkscape="http://www.inkscape.org/namespaces/inkscape"
   width="297mm"
   height="210mm"
   viewBox="0 0 297 210"
   version="1.1"
   id="svg1798"
   inkscape:version="0.92.3 (2405546, 2018-03-11)"
   sodipodi:docname="EtrangersFN_2.svg"
   inkscape:export-filename="/home/hc/Documents/UP1/COURS/BASECOURS/statistique/Erreur_IM/EtrangersFN_2.png"
   inkscape:export-xdpi="199"
   inkscape:export-ydpi="199">
  <defs
     id="defs1792">
    <clipPath
       id="clip19">
      <path
         inkscape:connector-curvature="0"
         d="M 42.890625,5.480469 H 520.51953 V 306 H 42.890625 Z m 0,0"
         id="path121" />
    </clipPath>
    <clipPath
       id="clip18">
      <path
         inkscape:connector-curvature="0"
         d="m 403,5.480469 h 2 V 306 h -2 z m 0,0"
         id="path118" />
    </clipPath>
    <clipPath
       id="clip17">
      <path
         inkscape:connector-curvature="0"
         d="m 261,5.480469 h 2 V 306 h -2 z m 0,0"
         id="path115" />
    </clipPath>
    <clipPath
       id="clip16">
      <path
         inkscape:connector-curvature="0"
         d="m 118,5.480469 h 2 V 306 h -2 z m 0,0"
         id="path112" />
    </clipPath>
    <clipPath
       id="clip15">
      <path
         inkscape:connector-curvature="0"
         d="M 42.890625,60 H 520.51953 v 2 H 42.890625 Z m 0,0"
         id="path109" />
    </clipPath>
    <clipPath
       id="clip14">
      <path
         inkscape:connector-curvature="0"
         d="M 42.890625,121 H 520.51953 v 2 H 42.890625 Z m 0,0"
         id="path106" />
    </clipPath>
    <clipPath
       id="clip13">
      <path
         inkscape:connector-curvature="0"
         d="M 42.890625,182 H 520.51953 v 2 H 42.890625 Z m 0,0"
         id="path103" />
    </clipPath>
    <clipPath
       id="clip12">
      <path
         inkscape:connector-curvature="0"
         d="M 42.890625,243 H 520.51953 v 2 H 42.890625 Z m 0,0"
         id="path100" />
    </clipPath>
    <clipPath
       id="clip11">
      <path
         inkscape:connector-curvature="0"
         d="M 42.890625,304 H 520.51953 v 2 H 42.890625 Z m 0,0"
         id="path97" />
    </clipPath>
    <clipPath
       id="clip10">
      <path
         inkscape:connector-curvature="0"
         d="m 475,5.480469 h 1 V 306 h -1 z m 0,0"
         id="path94" />
    </clipPath>
    <clipPath
       id="clip9">
      <path
         inkscape:connector-curvature="0"
         d="m 332,5.480469 h 2 V 306 h -2 z m 0,0"
         id="path91" />
    </clipPath>
    <clipPath
       id="clip8">
      <path
         inkscape:connector-curvature="0"
         d="m 190,5.480469 h 1 V 306 h -1 z m 0,0"
         id="path88" />
    </clipPath>
    <clipPath
       id="clip7">
      <path
         inkscape:connector-curvature="0"
         d="m 47,5.480469 h 2 V 306 h -2 z m 0,0"
         id="path85" />
    </clipPath>
    <clipPath
       id="clip6">
      <path
         inkscape:connector-curvature="0"
         d="M 42.890625,29 H 520 v 2 H 42.890625 Z m 0,0"
         id="path82" />
    </clipPath>
    <clipPath
       id="clip5">
      <path
         inkscape:connector-curvature="0"
         d="M 42.890625,90 H 520 v 2 H 42.890625 Z m 0,0"
         id="path79" />
    </clipPath>
    <clipPath
       id="clip4">
      <path
         inkscape:connector-curvature="0"
         d="M 42.890625,152 H 520 v 1 H 42.890625 Z m 0,0"
         id="path76" />
    </clipPath>
    <clipPath
       id="clip3">
      <path
         inkscape:connector-curvature="0"
         d="M 42.890625,213 H 520 v 1 H 42.890625 Z m 0,0"
         id="path73" />
    </clipPath>
    <clipPath
       id="clip2">
      <path
         inkscape:connector-curvature="0"
         d="M 42.890625,274 H 520 v 1 H 42.890625 Z m 0,0"
         id="path70" />
    </clipPath>
    <clipPath
       id="clip1">
      <path
         inkscape:connector-curvature="0"
         d="M 42.890625,5.480469 H 520 V 306 H 42.890625 Z m 0,0"
         id="path67" />
    </clipPath>
    <clipPath
       id="clip1-3">
      <path
         inkscape:connector-curvature="0"
         d="M 42.890625,5.480469 H 520 V 306 H 42.890625 Z m 0,0"
         id="path58" />
    </clipPath>
    <clipPath
       id="clip2-6">
      <path
         inkscape:connector-curvature="0"
         d="M 42.890625,288 H 520 v 1 H 42.890625 Z m 0,0"
         id="path61" />
    </clipPath>
    <clipPath
       id="clip3-7">
      <path
         inkscape:connector-curvature="0"
         d="M 42.890625,204 H 520 v 1 H 42.890625 Z m 0,0"
         id="path64" />
    </clipPath>
    <clipPath
       id="clip4-5">
      <path
         inkscape:connector-curvature="0"
         d="M 42.890625,120 H 520 v 2 H 42.890625 Z m 0,0"
         id="path67-3" />
    </clipPath>
    <clipPath
       id="clip5-5">
      <path
         inkscape:connector-curvature="0"
         d="M 42.890625,36 H 520 v 2 H 42.890625 Z m 0,0"
         id="path70-6" />
    </clipPath>
    <clipPath
       id="clip6-2">
      <path
         inkscape:connector-curvature="0"
         d="m 92,5.480469 h 2 V 306 h -2 z m 0,0"
         id="path73-9" />
    </clipPath>
    <clipPath
       id="clip7-1">
      <path
         inkscape:connector-curvature="0"
         d="m 234,5.480469 h 1 V 306 h -1 z m 0,0"
         id="path76-2" />
    </clipPath>
    <clipPath
       id="clip8-7">
      <path
         inkscape:connector-curvature="0"
         d="m 375,5.480469 h 2 V 306 h -2 z m 0,0"
         id="path79-0" />
    </clipPath>
    <clipPath
       id="clip9-9">
      <path
         inkscape:connector-curvature="0"
         d="m 516,5.480469 h 2 V 306 h -2 z m 0,0"
         id="path82-3" />
    </clipPath>
    <clipPath
       id="clip10-6">
      <path
         inkscape:connector-curvature="0"
         d="M 42.890625,246 H 520.51953 v 2 H 42.890625 Z m 0,0"
         id="path85-0" />
    </clipPath>
    <clipPath
       id="clip11-6">
      <path
         inkscape:connector-curvature="0"
         d="M 42.890625,162 H 520.51953 v 2 H 42.890625 Z m 0,0"
         id="path88-2" />
    </clipPath>
    <clipPath
       id="clip12-6">
      <path
         inkscape:connector-curvature="0"
         d="M 42.890625,78 H 520.51953 v 2 H 42.890625 Z m 0,0"
         id="path91-1" />
    </clipPath>
    <clipPath
       id="clip13-8">
      <path
         inkscape:connector-curvature="0"
         d="m 163,5.480469 h 2 V 306 h -2 z m 0,0"
         id="path94-7" />
    </clipPath>
    <clipPath
       id="clip14-9">
      <path
         inkscape:connector-curvature="0"
         d="m 304,5.480469 h 2 V 306 h -2 z m 0,0"
         id="path97-2" />
    </clipPath>
    <clipPath
       id="clip15-0">
      <path
         inkscape:connector-curvature="0"
         d="m 445,5.480469 h 3 V 306 h -3 z m 0,0"
         id="path100-2" />
    </clipPath>
    <clipPath
       id="clip16-3">
      <path
         inkscape:connector-curvature="0"
         d="M 42.890625,5.480469 H 520.51953 V 306 H 42.890625 Z m 0,0"
         id="path103-7" />
    </clipPath>
  </defs>
  <sodipodi:namedview
     id="base"
     pagecolor="#ffffff"
     bordercolor="#666666"
     borderopacity="1.0"
     inkscape:pageopacity="0.0"
     inkscape:pageshadow="2"
     inkscape:zoom="0.98994949"
     inkscape:cx="860.29646"
     inkscape:cy="404.79805"
     inkscape:document-units="mm"
     inkscape:current-layer="layer1"
     showgrid="false"
     inkscape:window-width="1366"
     inkscape:window-height="719"
     inkscape:window-x="0"
     inkscape:window-y="25"
     inkscape:window-maximized="1"
     showguides="true"
     inkscape:guide-bbox="true"
     inkscape:snap-text-baseline="true">
    <sodipodi:guide
       position="-1.3363476,165.84074"
       orientation="0,1"
       id="guide2762"
       inkscape:locked="false" />
    <sodipodi:guide
       position="183.88144,54.522983"
       orientation="0,1"
       id="guide1339"
       inkscape:locked="false" />
    <sodipodi:guide
       position="197.31174,120.27129"
       orientation="1,0"
       id="guide1389"
       inkscape:locked="false" />
  </sodipodi:namedview>
  <metadata
     id="metadata1795">
    <rdf:RDF>
      <cc:Work
         rdf:about="">
        <dc:format>image/svg+xml</dc:format>
        <dc:type
           rdf:resource="http://purl.org/dc/dcmitype/StillImage" />
        <dc:title />
      </cc:Work>
    </rdf:RDF>
  </metadata>
  <g
     inkscape:label="Layer 1"
     inkscape:groupmode="layer"
     id="layer1"
     transform="translate(0,-87)">
    <g
       style="clip-rule:nonzero"
       id="g116"
       clip-path="url(#clip1-3)"
       transform="matrix(0.35277777,0,0,0.35277777,184.06,129.22588)">
      <path
         inkscape:connector-curvature="0"
         id="path114"
         d="M 42.890625,305.10937 H 519.51953 V 5.480469 H 42.890625 Z m 0,0"
         style="fill:#ffffff;fill-opacity:1;fill-rule:nonzero;stroke:none" />
    </g>
    <g
       style="clip-rule:nonzero"
       id="g120"
       clip-path="url(#clip2-6)"
       transform="matrix(0.35277777,0,0,0.35277777,184.06,129.22588)">
      <path
         inkscape:connector-curvature="0"
         id="path118-5"
         d="M 42.890625,288.62109 H 519.51953"
         style="fill:none;stroke:#ebebeb;stroke-width:0.53348899;stroke-linecap:butt;stroke-linejoin:round;stroke-miterlimit:10;stroke-opacity:1" />
    </g>
    <g
       style="clip-rule:nonzero"
       id="g124"
       clip-path="url(#clip3-7)"
       transform="matrix(0.35277777,0,0,0.35277777,184.06,129.22588)">
      <path
         inkscape:connector-curvature="0"
         id="path122"
         d="M 42.890625,204.71875 H 519.51953"
         style="fill:none;stroke:#ebebeb;stroke-width:0.53348899;stroke-linecap:butt;stroke-linejoin:round;stroke-miterlimit:10;stroke-opacity:1" />
    </g>
    <g
       style="clip-rule:nonzero"
       id="g128"
       clip-path="url(#clip4-5)"
       transform="matrix(0.35277777,0,0,0.35277777,184.06,129.22588)">
      <path
         inkscape:connector-curvature="0"
         id="path126"
         d="M 42.890625,120.8125 H 519.51953"
         style="fill:none;stroke:#ebebeb;stroke-width:0.53348899;stroke-linecap:butt;stroke-linejoin:round;stroke-miterlimit:10;stroke-opacity:1" />
    </g>
    <g
       style="clip-rule:nonzero"
       id="g132"
       clip-path="url(#clip5-5)"
       transform="matrix(0.35277777,0,0,0.35277777,184.06,129.22588)">
      <path
         inkscape:connector-curvature="0"
         id="path130"
         d="M 42.890625,36.910156 H 519.51953"
         style="fill:none;stroke:#ebebeb;stroke-width:0.53348899;stroke-linecap:butt;stroke-linejoin:round;stroke-miterlimit:10;stroke-opacity:1" />
    </g>
    <g
       style="clip-rule:nonzero"
       id="g136"
       clip-path="url(#clip6-2)"
       transform="matrix(0.35277777,0,0,0.35277777,184.06,129.22588)">
      <path
         inkscape:connector-curvature="0"
         id="path134"
         d="M 93.070312,305.10937 V 5.480469"
         style="fill:none;stroke:#ebebeb;stroke-width:0.53348899;stroke-linecap:butt;stroke-linejoin:round;stroke-miterlimit:10;stroke-opacity:1" />
    </g>
    <g
       style="clip-rule:nonzero"
       id="g140"
       clip-path="url(#clip7-1)"
       transform="matrix(0.35277777,0,0,0.35277777,184.06,129.22588)">
      <path
         inkscape:connector-curvature="0"
         id="path138"
         d="M 234.4375,305.10937 V 5.480469"
         style="fill:none;stroke:#ebebeb;stroke-width:0.53348899;stroke-linecap:butt;stroke-linejoin:round;stroke-miterlimit:10;stroke-opacity:1" />
    </g>
    <g
       style="clip-rule:nonzero"
       id="g144"
       clip-path="url(#clip8-7)"
       transform="matrix(0.35277777,0,0,0.35277777,184.06,129.22588)">
      <path
         inkscape:connector-curvature="0"
         id="path142"
         d="M 375.80469,305.10937 V 5.480469"
         style="fill:none;stroke:#ebebeb;stroke-width:0.53348899;stroke-linecap:butt;stroke-linejoin:round;stroke-miterlimit:10;stroke-opacity:1" />
    </g>
    <g
       style="clip-rule:nonzero"
       id="g148"
       clip-path="url(#clip9-9)"
       transform="matrix(0.35277777,0,0,0.35277777,184.06,129.22588)">
      <path
         inkscape:connector-curvature="0"
         id="path146"
         d="M 517.17187,305.10937 V 5.480469"
         style="fill:none;stroke:#ebebeb;stroke-width:0.53348899;stroke-linecap:butt;stroke-linejoin:round;stroke-miterlimit:10;stroke-opacity:1" />
    </g>
    <g
       style="clip-rule:nonzero"
       id="g152"
       clip-path="url(#clip10-6)"
       transform="matrix(0.35277777,0,0,0.35277777,184.06,129.22588)">
      <path
         inkscape:connector-curvature="0"
         id="path150"
         d="M 42.890625,246.66797 H 519.51953"
         style="fill:none;stroke:#ebebeb;stroke-width:1.06697798;stroke-linecap:butt;stroke-linejoin:round;stroke-miterlimit:10;stroke-opacity:1" />
    </g>
    <g
       style="clip-rule:nonzero"
       id="g156"
       clip-path="url(#clip11-6)"
       transform="matrix(0.35277777,0,0,0.35277777,184.06,129.22588)">
      <path
         inkscape:connector-curvature="0"
         id="path154"
         d="M 42.890625,162.76562 H 519.51953"
         style="fill:none;stroke:#ebebeb;stroke-width:1.06697798;stroke-linecap:butt;stroke-linejoin:round;stroke-miterlimit:10;stroke-opacity:1" />
    </g>
    <g
       style="clip-rule:nonzero"
       id="g160"
       clip-path="url(#clip12-6)"
       transform="matrix(0.35277777,0,0,0.35277777,184.06,129.22588)">
      <path
         inkscape:connector-curvature="0"
         id="path158"
         d="M 42.890625,78.863281 H 519.51953"
         style="fill:none;stroke:#ebebeb;stroke-width:1.06697798;stroke-linecap:butt;stroke-linejoin:round;stroke-miterlimit:10;stroke-opacity:1" />
    </g>
    <g
       style="clip-rule:nonzero"
       id="g164"
       clip-path="url(#clip13-8)"
       transform="matrix(0.35277777,0,0,0.35277777,184.06,129.22588)">
      <path
         inkscape:connector-curvature="0"
         id="path162"
         d="M 163.75391,305.10937 V 5.480469"
         style="fill:none;stroke:#ebebeb;stroke-width:1.06697798;stroke-linecap:butt;stroke-linejoin:round;stroke-miterlimit:10;stroke-opacity:1" />
    </g>
    <g
       style="clip-rule:nonzero"
       id="g168"
       clip-path="url(#clip14-9)"
       transform="matrix(0.35277777,0,0,0.35277777,184.06,129.22588)">
      <path
         inkscape:connector-curvature="0"
         id="path166"
         d="M 305.12109,305.10937 V 5.480469"
         style="fill:none;stroke:#ebebeb;stroke-width:1.06697798;stroke-linecap:butt;stroke-linejoin:round;stroke-miterlimit:10;stroke-opacity:1" />
    </g>
    <g
       style="clip-rule:nonzero"
       id="g172"
       clip-path="url(#clip15-0)"
       transform="matrix(0.35277777,0,0,0.35277777,184.06,129.22588)">
      <path
         inkscape:connector-curvature="0"
         id="path170"
         d="M 446.48828,305.10937 V 5.480469"
         style="fill:none;stroke:#ebebeb;stroke-width:1.06697798;stroke-linecap:butt;stroke-linejoin:round;stroke-miterlimit:10;stroke-opacity:1" />
    </g>
    <path
       inkscape:connector-curvature="0"
       id="path294-6"
       d="m 206.83346,217.09097 3.86953,-1.70325 1.93614,-0.85163 15.47813,-6.81302 1.93614,-0.85163 15.47813,-6.81302 1.93614,-0.85163 15.47812,-6.81302 1.93615,-0.85163 15.47812,-6.81302 1.93615,-0.85162 15.47812,-6.81302 1.93614,-0.85163 15.47813,-6.81302 1.93614,-0.85163 15.47813,-6.81302 1.93614,-0.85163 15.47813,-6.81302 1.93614,-0.85163 7.73906,-3.40651"
       style="fill:none;stroke:#c83737;stroke-width:0.75281256;stroke-linecap:butt;stroke-linejoin:round;stroke-miterlimit:1;stroke-opacity:1" />
    <path
       inkscape:connector-curvature="0"
       id="path174"
       d="m 231.44246,197.8632 c 0,0.91916 -1.37941,0.91916 -1.37941,0 0,-0.91915 1.37941,-0.91915 1.37941,0"
       style="fill:#333333;fill-opacity:1;fill-rule:nonzero;stroke:#333333;stroke-width:0.24999985;stroke-linecap:round;stroke-linejoin:round;stroke-miterlimit:10;stroke-opacity:1" />
    <path
       inkscape:connector-curvature="0"
       id="path176-9"
       d="m 223.57524,199.81864 c 0,0.91915 -1.37941,0.91915 -1.37941,0 0,-0.91915 1.37941,-0.91915 1.37941,0"
       style="fill:#333333;fill-opacity:1;fill-rule:nonzero;stroke:#333333;stroke-width:0.24999985;stroke-linecap:round;stroke-linejoin:round;stroke-miterlimit:10;stroke-opacity:1" />
    <path
       inkscape:connector-curvature="0"
       id="path178"
       d="m 230.56328,199.19301 c 0,0.92053 -1.37942,0.92053 -1.37942,0 0,-0.91915 1.37942,-0.91915 1.37942,0"
       style="fill:#333333;fill-opacity:1;fill-rule:nonzero;stroke:#333333;stroke-width:0.24999985;stroke-linecap:round;stroke-linejoin:round;stroke-miterlimit:10;stroke-opacity:1" />
    <path
       inkscape:connector-curvature="0"
       id="path180-2"
       d="m 207.52386,221.695 c 0,0.91915 -1.37942,0.91915 -1.37942,0 0,-0.91915 1.37942,-0.91915 1.37942,0"
       style="fill:#333333;fill-opacity:1;fill-rule:nonzero;stroke:#333333;stroke-width:0.24999985;stroke-linecap:round;stroke-linejoin:round;stroke-miterlimit:10;stroke-opacity:1" />
    <path
       inkscape:connector-curvature="0"
       id="path182"
       d="m 216.98547,214.68767 c 0,0.91915 -1.37942,0.91915 -1.37942,0 0,-0.92053 1.37942,-0.92053 1.37942,0"
       style="fill:#333333;fill-opacity:1;fill-rule:nonzero;stroke:#333333;stroke-width:0.24999985;stroke-linecap:round;stroke-linejoin:round;stroke-miterlimit:10;stroke-opacity:1" />
    <path
       inkscape:connector-curvature="0"
       id="path184-2"
       d="m 211.3989,218.49933 c 0,0.91915 -1.37942,0.91915 -1.37942,0 0,-0.91916 1.37942,-0.91916 1.37942,0"
       style="fill:#333333;fill-opacity:1;fill-rule:nonzero;stroke:#333333;stroke-width:0.24999985;stroke-linecap:round;stroke-linejoin:round;stroke-miterlimit:10;stroke-opacity:1" />
    <path
       inkscape:connector-curvature="0"
       id="path186"
       d="m 211.05026,232.05647 c 0,0.92053 -1.37942,0.92053 -1.37942,0 0,-0.91916 1.37942,-0.91916 1.37942,0"
       style="fill:#333333;fill-opacity:1;fill-rule:nonzero;stroke:#333333;stroke-width:0.24999985;stroke-linecap:round;stroke-linejoin:round;stroke-miterlimit:10;stroke-opacity:1" />
    <path
       inkscape:connector-curvature="0"
       id="path188-8"
       d="m 223.06675,212.04735 c 0,0.92053 -1.37804,0.92053 -1.37804,0 0,-0.91915 1.37804,-0.91915 1.37804,0"
       style="fill:#333333;fill-opacity:1;fill-rule:nonzero;stroke:#333333;stroke-width:0.24999985;stroke-linecap:round;stroke-linejoin:round;stroke-miterlimit:10;stroke-opacity:1" />
    <path
       inkscape:connector-curvature="0"
       id="path190"
       d="m 209.35251,214.78689 c 0,0.91915 -1.37941,0.91915 -1.37941,0 0,-0.92053 1.37941,-0.92053 1.37941,0"
       style="fill:#333333;fill-opacity:1;fill-rule:nonzero;stroke:#333333;stroke-width:0.24999985;stroke-linecap:round;stroke-linejoin:round;stroke-miterlimit:10;stroke-opacity:1" />
    <path
       inkscape:connector-curvature="0"
       id="path192-9"
       d="m 210.32679,215.4387 c 0,0.91915 -1.37942,0.91915 -1.37942,0 0,-0.91915 1.37942,-0.91915 1.37942,0"
       style="fill:#333333;fill-opacity:1;fill-rule:nonzero;stroke:#333333;stroke-width:0.24999985;stroke-linecap:round;stroke-linejoin:round;stroke-miterlimit:10;stroke-opacity:1" />
    <path
       inkscape:connector-curvature="0"
       id="path194"
       d="m 212.39798,222.04226 c 0,0.91915 -1.37942,0.91915 -1.37942,0 0,-0.91915 1.37942,-0.91915 1.37942,0"
       style="fill:#333333;fill-opacity:1;fill-rule:nonzero;stroke:#333333;stroke-width:0.24999985;stroke-linecap:round;stroke-linejoin:round;stroke-miterlimit:10;stroke-opacity:1" />
    <path
       inkscape:connector-curvature="0"
       id="path196-7"
       d="m 217.25418,218.48692 c 0,0.92053 -1.37941,0.92053 -1.37941,0 0,-0.91915 1.37941,-0.91915 1.37941,0"
       style="fill:#333333;fill-opacity:1;fill-rule:nonzero;stroke:#333333;stroke-width:0.24999985;stroke-linecap:round;stroke-linejoin:round;stroke-miterlimit:10;stroke-opacity:1" />
    <path
       inkscape:connector-curvature="0"
       id="path198"
       d="m 211.68553,225.01193 c 0,0.91916 -1.37941,0.91916 -1.37941,0 0,-0.91915 1.37941,-0.91915 1.37941,0"
       style="fill:#333333;fill-opacity:1;fill-rule:nonzero;stroke:#333333;stroke-width:0.24999985;stroke-linecap:round;stroke-linejoin:round;stroke-miterlimit:10;stroke-opacity:1" />
    <path
       inkscape:connector-curvature="0"
       id="path200-3"
       d="m 274.16716,197.22104 c 0,0.92053 -1.37942,0.92053 -1.37942,0 0,-0.91915 1.37942,-0.91915 1.37942,0"
       style="fill:#333333;fill-opacity:1;fill-rule:nonzero;stroke:#333333;stroke-width:0.24999985;stroke-linecap:round;stroke-linejoin:round;stroke-miterlimit:10;stroke-opacity:1" />
    <path
       inkscape:connector-curvature="0"
       id="path202"
       d="m 235.26652,198.26146 c 0,0.91915 -1.37942,0.91915 -1.37942,0 0,-0.91915 1.37942,-0.91915 1.37942,0"
       style="fill:#333333;fill-opacity:1;fill-rule:nonzero;stroke:#333333;stroke-width:0.24999985;stroke-linecap:round;stroke-linejoin:round;stroke-miterlimit:10;stroke-opacity:1" />
    <path
       inkscape:connector-curvature="0"
       id="path204-6"
       d="m 215.48892,203.56002 c 0,0.91915 -1.37942,0.91915 -1.37942,0 0,-0.91916 1.37942,-0.91916 1.37942,0"
       style="fill:#333333;fill-opacity:1;fill-rule:nonzero;stroke:#333333;stroke-width:0.24999985;stroke-linecap:round;stroke-linejoin:round;stroke-miterlimit:10;stroke-opacity:1" />
    <path
       inkscape:connector-curvature="0"
       id="path206-1"
       d="m 220.9115,212.55309 c 0,0.91915 -1.37804,0.91915 -1.37804,0 0,-0.91915 1.37804,-0.91915 1.37804,0"
       style="fill:#333333;fill-opacity:1;fill-rule:nonzero;stroke:#333333;stroke-width:0.24999985;stroke-linecap:round;stroke-linejoin:round;stroke-miterlimit:10;stroke-opacity:1" />
    <path
       inkscape:connector-curvature="0"
       id="path208-2"
       d="m 218.42965,219.26276 c 0,0.91915 -1.37804,0.91915 -1.37804,0 0,-0.91915 1.37804,-0.91915 1.37804,0"
       style="fill:#333333;fill-opacity:1;fill-rule:nonzero;stroke:#333333;stroke-width:0.24999985;stroke-linecap:round;stroke-linejoin:round;stroke-miterlimit:10;stroke-opacity:1" />
    <path
       inkscape:connector-curvature="0"
       id="path210-9"
       d="m 293.16342,166.55556 c 0,0.91915 -1.37942,0.91915 -1.37942,0 0,-0.92053 1.37942,-0.92053 1.37942,0"
       style="fill:#333333;fill-opacity:1;fill-rule:nonzero;stroke:#333333;stroke-width:0.24999985;stroke-linecap:round;stroke-linejoin:round;stroke-miterlimit:10;stroke-opacity:1" />
    <path
       inkscape:connector-curvature="0"
       id="path212-3"
       d="m 294.02882,171.75489 c 0,0.91916 -1.37941,0.91916 -1.37941,0 0,-0.91915 1.37941,-0.91915 1.37941,0"
       style="fill:#333333;fill-opacity:1;fill-rule:nonzero;stroke:#333333;stroke-width:0.24999985;stroke-linecap:round;stroke-linejoin:round;stroke-miterlimit:10;stroke-opacity:1" />
    <path
       inkscape:connector-curvature="0"
       id="path214-1"
       d="m 288.30859,179.74889 c 0,0.91915 -1.37942,0.91915 -1.37942,0 0,-0.91915 1.37942,-0.91915 1.37942,0"
       style="fill:#333333;fill-opacity:1;fill-rule:nonzero;stroke:#333333;stroke-width:0.24999985;stroke-linecap:round;stroke-linejoin:round;stroke-miterlimit:10;stroke-opacity:1" />
    <path
       inkscape:connector-curvature="0"
       id="path216-9"
       d="m 232.60277,208.33905 c 0,0.92053 -1.37941,0.92053 -1.37941,0 0,-0.91915 1.37941,-0.91915 1.37941,0"
       style="fill:#333333;fill-opacity:1;fill-rule:nonzero;stroke:#333333;stroke-width:0.24999985;stroke-linecap:round;stroke-linejoin:round;stroke-miterlimit:10;stroke-opacity:1" />
    <path
       inkscape:connector-curvature="0"
       id="path218-4"
       d="m 245.42404,188.301 c 0,0.91915 -1.37942,0.91915 -1.37942,0 0,-0.91915 1.37942,-0.91915 1.37942,0"
       style="fill:#333333;fill-opacity:1;fill-rule:nonzero;stroke:#333333;stroke-width:0.24999985;stroke-linecap:round;stroke-linejoin:round;stroke-miterlimit:10;stroke-opacity:1" />
    <path
       inkscape:connector-curvature="0"
       id="path220-7"
       d="m 271.1589,199.3694 c 0,0.91915 -1.37942,0.91915 -1.37942,0 0,-0.91915 1.37942,-0.91915 1.37942,0"
       style="fill:#333333;fill-opacity:1;fill-rule:nonzero;stroke:#333333;stroke-width:0.24999985;stroke-linecap:round;stroke-linejoin:round;stroke-miterlimit:10;stroke-opacity:1" />
    <path
       inkscape:connector-curvature="0"
       id="path222-8"
       d="m 241.44151,194.44154 c 0,0.91915 -1.37942,0.91915 -1.37942,0 0,-0.92053 1.37942,-0.92053 1.37942,0"
       style="fill:#333333;fill-opacity:1;fill-rule:nonzero;stroke:#333333;stroke-width:0.24999985;stroke-linecap:round;stroke-linejoin:round;stroke-miterlimit:10;stroke-opacity:1" />
    <path
       inkscape:connector-curvature="0"
       id="path224-4"
       d="m 253.16999,188.37679 c 0,0.91915 -1.37804,0.91915 -1.37804,0 0,-0.91915 1.37804,-0.91915 1.37804,0"
       style="fill:#333333;fill-opacity:1;fill-rule:nonzero;stroke:#333333;stroke-width:0.24999985;stroke-linecap:round;stroke-linejoin:round;stroke-miterlimit:10;stroke-opacity:1" />
    <path
       inkscape:connector-curvature="0"
       id="path226-5"
       d="m 222.12831,210.52738 c 0,0.91915 -1.37942,0.91915 -1.37942,0 0,-0.91916 1.37942,-0.91916 1.37942,0"
       style="fill:#333333;fill-opacity:1;fill-rule:nonzero;stroke:#333333;stroke-width:0.24999985;stroke-linecap:round;stroke-linejoin:round;stroke-miterlimit:10;stroke-opacity:1" />
    <path
       inkscape:connector-curvature="0"
       id="path228-0"
       d="m 223.45398,210.72719 c 0,0.91915 -1.37942,0.91915 -1.37942,0 0,-0.92053 1.37942,-0.92053 1.37942,0"
       style="fill:#333333;fill-opacity:1;fill-rule:nonzero;stroke:#333333;stroke-width:0.24999985;stroke-linecap:round;stroke-linejoin:round;stroke-miterlimit:10;stroke-opacity:1" />
    <path
       inkscape:connector-curvature="0"
       id="path230-3"
       d="m 219.78839,216.70236 c 0,0.91916 -1.37941,0.91916 -1.37941,0 0,-0.91915 1.37941,-0.91915 1.37941,0"
       style="fill:#333333;fill-opacity:1;fill-rule:nonzero;stroke:#333333;stroke-width:0.24999985;stroke-linecap:round;stroke-linejoin:round;stroke-miterlimit:10;stroke-opacity:1" />
    <path
       inkscape:connector-curvature="0"
       id="path232-6"
       d="m 250.73638,205.11858 c 0,0.91915 -1.37804,0.91915 -1.37804,0 0,-0.92053 1.37804,-0.92053 1.37804,0"
       style="fill:#333333;fill-opacity:1;fill-rule:nonzero;stroke:#333333;stroke-width:0.24999985;stroke-linecap:round;stroke-linejoin:round;stroke-miterlimit:10;stroke-opacity:1" />
    <path
       inkscape:connector-curvature="0"
       id="path234-1"
       d="m 251.68447,187.01391 c 0,0.91915 -1.37942,0.91915 -1.37942,0 0,-0.91915 1.37942,-0.91915 1.37942,0"
       style="fill:#333333;fill-opacity:1;fill-rule:nonzero;stroke:#333333;stroke-width:0.24999985;stroke-linecap:round;stroke-linejoin:round;stroke-miterlimit:10;stroke-opacity:1" />
    <path
       inkscape:connector-curvature="0"
       id="path236-0"
       d="m 225.85866,217.57053 c 0,0.91915 -1.37942,0.91915 -1.37942,0 0,-0.91915 1.37942,-0.91915 1.37942,0"
       style="fill:#333333;fill-opacity:1;fill-rule:nonzero;stroke:#333333;stroke-width:0.24999985;stroke-linecap:round;stroke-linejoin:round;stroke-miterlimit:10;stroke-opacity:1" />
    <path
       inkscape:connector-curvature="0"
       id="path238-6"
       d="m 253.39461,209.90175 c 0,0.92052 -1.37941,0.92052 -1.37941,0 0,-0.91916 1.37941,-0.91916 1.37941,0"
       style="fill:#333333;fill-opacity:1;fill-rule:nonzero;stroke:#333333;stroke-width:0.24999985;stroke-linecap:round;stroke-linejoin:round;stroke-miterlimit:10;stroke-opacity:1" />
    <path
       inkscape:connector-curvature="0"
       id="path240-3"
       d="m 231.6409,203.96378 c 0,0.91915 -1.37942,0.91915 -1.37942,0 0,-0.91915 1.37942,-0.91915 1.37942,0"
       style="fill:#333333;fill-opacity:1;fill-rule:nonzero;stroke:#333333;stroke-width:0.24999985;stroke-linecap:round;stroke-linejoin:round;stroke-miterlimit:10;stroke-opacity:1" />
    <path
       inkscape:connector-curvature="0"
       id="path242-2"
       d="m 254.12359,166.50044 c 0,0.91915 -1.37941,0.91915 -1.37941,0 0,-0.92054 1.37941,-0.92054 1.37941,0"
       style="fill:#333333;fill-opacity:1;fill-rule:nonzero;stroke:#333333;stroke-width:0.24999985;stroke-linecap:round;stroke-linejoin:round;stroke-miterlimit:10;stroke-opacity:1" />
    <path
       inkscape:connector-curvature="0"
       id="path244-0"
       d="m 266.64169,180.67218 c 0,0.91915 -1.37941,0.91915 -1.37941,0 0,-0.91915 1.37941,-0.91915 1.37941,0"
       style="fill:#333333;fill-opacity:1;fill-rule:nonzero;stroke:#333333;stroke-width:0.24999985;stroke-linecap:round;stroke-linejoin:round;stroke-miterlimit:10;stroke-opacity:1" />
    <path
       inkscape:connector-curvature="0"
       id="path246-6"
       d="m 249.46858,169.26616 c 0,0.91915 -1.37804,0.91915 -1.37804,0 0,-0.91916 1.37804,-0.91916 1.37804,0"
       style="fill:#333333;fill-opacity:1;fill-rule:nonzero;stroke:#333333;stroke-width:0.24999985;stroke-linecap:round;stroke-linejoin:round;stroke-miterlimit:10;stroke-opacity:1" />
    <path
       inkscape:connector-curvature="0"
       id="path248-1"
       d="m 231.50861,208.05793 c 0,0.91915 -1.37942,0.91915 -1.37942,0 0,-0.91915 1.37942,-0.91915 1.37942,0"
       style="fill:#333333;fill-opacity:1;fill-rule:nonzero;stroke:#333333;stroke-width:0.24999985;stroke-linecap:round;stroke-linejoin:round;stroke-miterlimit:10;stroke-opacity:1" />
    <path
       inkscape:connector-curvature="0"
       id="path250-5"
       d="m 231.78284,215.66746 c 0,0.91915 -1.37804,0.91915 -1.37804,0 0,-0.91915 1.37804,-0.91915 1.37804,0"
       style="fill:#333333;fill-opacity:1;fill-rule:nonzero;stroke:#333333;stroke-width:0.24999985;stroke-linecap:round;stroke-linejoin:round;stroke-miterlimit:10;stroke-opacity:1" />
    <path
       inkscape:connector-curvature="0"
       id="path252-5"
       d="m 254.31652,205.89441 c 0,0.91915 -1.37942,0.91915 -1.37942,0 0,-0.91915 1.37942,-0.91915 1.37942,0"
       style="fill:#333333;fill-opacity:1;fill-rule:nonzero;stroke:#333333;stroke-width:0.24999985;stroke-linecap:round;stroke-linejoin:round;stroke-miterlimit:10;stroke-opacity:1" />
    <path
       inkscape:connector-curvature="0"
       id="path254-4"
       d="m 245.44884,198.97941 c 0,0.91916 -1.37941,0.91916 -1.37941,0 0,-0.92052 1.37941,-0.92052 1.37941,0"
       style="fill:#333333;fill-opacity:1;fill-rule:nonzero;stroke:#333333;stroke-width:0.24999985;stroke-linecap:round;stroke-linejoin:round;stroke-miterlimit:10;stroke-opacity:1" />
    <path
       inkscape:connector-curvature="0"
       id="path256-7"
       d="m 291.53733,192.85955 c 0,0.92053 -1.37942,0.92053 -1.37942,0 0,-0.91915 1.37942,-0.91915 1.37942,0"
       style="fill:#333333;fill-opacity:1;fill-rule:nonzero;stroke:#333333;stroke-width:0.24999985;stroke-linecap:round;stroke-linejoin:round;stroke-miterlimit:10;stroke-opacity:1" />
    <path
       inkscape:connector-curvature="0"
       id="path258-6"
       d="m 311.5616,181.99647 c 0,0.91916 -1.37941,0.91916 -1.37941,0 0,-0.91915 1.37941,-0.91915 1.37941,0"
       style="fill:#333333;fill-opacity:1;fill-rule:nonzero;stroke:#333333;stroke-width:0.24999985;stroke-linecap:round;stroke-linejoin:round;stroke-miterlimit:10;stroke-opacity:1" />
    <path
       inkscape:connector-curvature="0"
       id="path260-5"
       d="m 285.33754,196.82692 c 0,0.91915 -1.37942,0.91915 -1.37942,0 0,-0.91915 1.37942,-0.91915 1.37942,0"
       style="fill:#333333;fill-opacity:1;fill-rule:nonzero;stroke:#333333;stroke-width:0.24999985;stroke-linecap:round;stroke-linejoin:round;stroke-miterlimit:10;stroke-opacity:1" />
    <path
       inkscape:connector-curvature="0"
       id="path262-6"
       d="m 304.371,185.86325 c 0,0.92053 -1.37941,0.92053 -1.37941,0 0,-0.91915 1.37941,-0.91915 1.37941,0"
       style="fill:#333333;fill-opacity:1;fill-rule:nonzero;stroke:#333333;stroke-width:0.24999985;stroke-linecap:round;stroke-linejoin:round;stroke-miterlimit:10;stroke-opacity:1" />
    <path
       inkscape:connector-curvature="0"
       id="path264-9"
       d="m 333.21196,171.38144 c 0,0.91916 -1.37942,0.91916 -1.37942,0 0,-0.92052 1.37942,-0.92052 1.37942,0"
       style="fill:#333333;fill-opacity:1;fill-rule:nonzero;stroke:#333333;stroke-width:0.24999985;stroke-linecap:round;stroke-linejoin:round;stroke-miterlimit:10;stroke-opacity:1" />
    <path
       inkscape:connector-curvature="0"
       id="path266-3"
       d="m 326.40308,163.78708 c 0,0.91915 -1.37942,0.91915 -1.37942,0 0,-0.91915 1.37942,-0.91915 1.37942,0"
       style="fill:#333333;fill-opacity:1;fill-rule:nonzero;stroke:#333333;stroke-width:0.24999985;stroke-linecap:round;stroke-linejoin:round;stroke-miterlimit:10;stroke-opacity:1" />
    <path
       inkscape:connector-curvature="0"
       id="path268-7"
       d="m 330.53443,156.23543 c 0,0.91915 -1.37941,0.91915 -1.37941,0 0,-0.91915 1.37941,-0.91915 1.37941,0"
       style="fill:#333333;fill-opacity:1;fill-rule:nonzero;stroke:#333333;stroke-width:0.24999985;stroke-linecap:round;stroke-linejoin:round;stroke-miterlimit:10;stroke-opacity:1" />
    <path
       inkscape:connector-curvature="0"
       id="path270-4"
       d="m 360.38136,135.96311 c 0,0.92053 -1.37804,0.92053 -1.37804,0 0,-0.91915 1.37804,-0.91915 1.37804,0"
       style="fill:#333333;fill-opacity:1;fill-rule:nonzero;stroke:#333333;stroke-width:0.24999985;stroke-linecap:round;stroke-linejoin:round;stroke-miterlimit:10;stroke-opacity:1" />
    <path
       inkscape:connector-curvature="0"
       id="path272-5"
       d="m 328.57486,187.07317 c 0,0.91915 -1.37941,0.91915 -1.37941,0 0,-0.91916 1.37941,-0.91916 1.37941,0"
       style="fill:#333333;fill-opacity:1;fill-rule:nonzero;stroke:#333333;stroke-width:0.24999985;stroke-linecap:round;stroke-linejoin:round;stroke-miterlimit:10;stroke-opacity:1" />
    <path
       inkscape:connector-curvature="0"
       id="path274-2"
       d="m 282.93837,190.38597 c 0,0.91915 -1.37941,0.91915 -1.37941,0 0,-0.91915 1.37941,-0.91915 1.37941,0"
       style="fill:#333333;fill-opacity:1;fill-rule:nonzero;stroke:#333333;stroke-width:0.24999985;stroke-linecap:round;stroke-linejoin:round;stroke-miterlimit:10;stroke-opacity:1" />
    <path
       inkscape:connector-curvature="0"
       id="path276-5"
       d="m 274.29256,177.61294 c 0,0.92052 -1.37941,0.92052 -1.37941,0 0,-0.91916 1.37941,-0.91916 1.37941,0"
       style="fill:#333333;fill-opacity:1;fill-rule:nonzero;stroke:#333333;stroke-width:0.24999985;stroke-linecap:round;stroke-linejoin:round;stroke-miterlimit:10;stroke-opacity:1" />
    <path
       inkscape:connector-curvature="0"
       id="path278-4"
       d="m 295.14641,171.84584 c 0,0.92054 -1.37941,0.92054 -1.37941,0 0,-0.91915 1.37941,-0.91915 1.37941,0"
       style="fill:#333333;fill-opacity:1;fill-rule:nonzero;stroke:#333333;stroke-width:0.24999985;stroke-linecap:round;stroke-linejoin:round;stroke-miterlimit:10;stroke-opacity:1" />
    <path
       inkscape:connector-curvature="0"
       id="path280-7"
       d="m 290.69122,170.41268 c 0,0.92054 -1.37942,0.92054 -1.37942,0 0,-0.91915 1.37942,-0.91915 1.37942,0"
       style="fill:#333333;fill-opacity:1;fill-rule:nonzero;stroke:#333333;stroke-width:0.24999985;stroke-linecap:round;stroke-linejoin:round;stroke-miterlimit:10;stroke-opacity:1" />
    <path
       inkscape:connector-curvature="0"
       id="path282-4"
       d="m 293.25161,169.50318 c 0,0.91915 -1.37942,0.91915 -1.37942,0 0,-0.92053 1.37942,-0.92053 1.37942,0"
       style="fill:#333333;fill-opacity:1;fill-rule:nonzero;stroke:#333333;stroke-width:0.24999985;stroke-linecap:round;stroke-linejoin:round;stroke-miterlimit:10;stroke-opacity:1" />
    <path
       inkscape:connector-curvature="0"
       id="path284-4"
       d="m 287.96546,199.12687 c 0,0.91915 -1.37804,0.91915 -1.37804,0 0,-0.92053 1.37804,-0.92053 1.37804,0"
       style="fill:#333333;fill-opacity:1;fill-rule:nonzero;stroke:#333333;stroke-width:0.24999985;stroke-linecap:round;stroke-linejoin:round;stroke-miterlimit:10;stroke-opacity:1" />
    <path
       inkscape:connector-curvature="0"
       id="path286-3"
       d="m 282.78541,184.19169 c 0,0.91915 -1.37941,0.91915 -1.37941,0 0,-0.91915 1.37941,-0.91915 1.37941,0"
       style="fill:#333333;fill-opacity:1;fill-rule:nonzero;stroke:#333333;stroke-width:0.24999985;stroke-linecap:round;stroke-linejoin:round;stroke-miterlimit:10;stroke-opacity:1" />
    <path
       inkscape:connector-curvature="0"
       id="path288-0"
       d="m 353.90183,149.34248 c 0,0.92053 -1.37942,0.92053 -1.37942,0 0,-0.91915 1.37942,-0.91915 1.37942,0"
       style="fill:#333333;fill-opacity:1;fill-rule:nonzero;stroke:#333333;stroke-width:0.24999985;stroke-linecap:round;stroke-linejoin:round;stroke-miterlimit:10;stroke-opacity:1" />
    <path
       inkscape:connector-curvature="0"
       id="path290-7"
       d="m 334.31577,168.93956 c 0,0.92053 -1.37942,0.92053 -1.37942,0 0,-0.91915 1.37942,-0.91915 1.37942,0"
       style="fill:#333333;fill-opacity:1;fill-rule:nonzero;stroke:#333333;stroke-width:0.24999985;stroke-linecap:round;stroke-linejoin:round;stroke-miterlimit:10;stroke-opacity:1" />
    <path
       inkscape:connector-curvature="0"
       id="path292-8"
       d="m 303.47252,167.93222 c 0,0.91915 -1.37942,0.91915 -1.37942,0 0,-0.92053 1.37942,-0.92053 1.37942,0"
       style="fill:#333333;fill-opacity:1;fill-rule:nonzero;stroke:#333333;stroke-width:0.24999985;stroke-linecap:round;stroke-linejoin:round;stroke-miterlimit:10;stroke-opacity:1" />
    <g
       style="clip-rule:nonzero"
       id="g298"
       clip-path="url(#clip16-3)"
       transform="matrix(0.35277777,0,0,0.35277777,184.06,129.22588)">
      <path
         inkscape:connector-curvature="0"
         id="path296-8"
         d="M 42.890625,305.10937 H 519.51953 V 5.480469 H 42.890625 Z m 0,0"
         style="fill:none;stroke:#333333;stroke-width:1.06697798;stroke-linecap:round;stroke-linejoin:round;stroke-miterlimit:10;stroke-opacity:1" />
    </g>
    <path
       inkscape:connector-curvature="0"
       id="path330-8"
       d="m 198.22485,216.24486 h 0.96601"
       style="fill:none;stroke:#333333;stroke-width:0.3764061;stroke-linecap:butt;stroke-linejoin:round;stroke-miterlimit:10;stroke-opacity:1" />
    <path
       inkscape:connector-curvature="0"
       id="path332-4"
       d="m 198.22485,186.64597 h 0.96601"
       style="fill:none;stroke:#333333;stroke-width:0.3764061;stroke-linecap:butt;stroke-linejoin:round;stroke-miterlimit:10;stroke-opacity:1" />
    <path
       inkscape:connector-curvature="0"
       id="path334-3"
       d="m 198.22485,157.04709 h 0.96601"
       style="fill:none;stroke:#333333;stroke-width:0.3764061;stroke-linecap:butt;stroke-linejoin:round;stroke-miterlimit:10;stroke-opacity:1" />
    <path
       inkscape:connector-curvature="0"
       id="path336-1"
       d="m 241.82874,237.82769 v -0.96601"
       style="fill:none;stroke:#333333;stroke-width:0.3764061;stroke-linecap:butt;stroke-linejoin:round;stroke-miterlimit:10;stroke-opacity:1" />
    <path
       inkscape:connector-curvature="0"
       id="path338-4"
       d="m 291.69994,237.82769 v -0.96601"
       style="fill:none;stroke:#333333;stroke-width:0.3764061;stroke-linecap:butt;stroke-linejoin:round;stroke-miterlimit:10;stroke-opacity:1" />
    <path
       inkscape:connector-curvature="0"
       id="path340-9"
       d="m 341.57114,237.82769 v -0.96601"
       style="fill:none;stroke:#333333;stroke-width:0.3764061;stroke-linecap:butt;stroke-linejoin:round;stroke-miterlimit:10;stroke-opacity:1" />
    <flowRoot
       xml:space="preserve"
       id="flowRoot1466-2"
       style="font-style:normal;font-variant:normal;font-weight:normal;font-stretch:normal;font-size:18.66666603px;line-height:1.25;font-family:Ubuntu;-inkscape-font-specification:'Ubuntu, Normal';font-variant-ligatures:normal;font-variant-caps:normal;font-variant-numeric:normal;text-align:start;letter-spacing:0px;word-spacing:0px;writing-mode:lr-tb;text-anchor:start;fill:#333333;fill-opacity:1;stroke:none;"
       transform="matrix(0.26458333,0,0,0.26458333,225.72524,122.04617)"><flowRegion
         id="flowRegion1468-0"
         style="fill:#333333;"><rect
           id="rect1470-6"
           width="435.71719"
           height="98.472092"
           x="155.11533"
           y="459.79056"
           style="fill:#333333;" /></flowRegion><flowPara
         id="flowPara1472-8"
         style="font-style:normal;font-variant:normal;font-weight:normal;font-stretch:normal;font-family:'Liberation Sans';-inkscape-font-specification:'Liberation Sans';fill:#333333;">Pourcentage d'ouvriers</flowPara></flowRoot>    <flowRoot
       xml:space="preserve"
       id="flowRoot1466-35-9-7-9"
       style="font-style:normal;font-variant:normal;font-weight:normal;font-stretch:normal;font-size:18.66666603px;line-height:1.25;font-family:Ubuntu;-inkscape-font-specification:'Ubuntu, Normal';font-variant-ligatures:normal;font-variant-caps:normal;font-variant-numeric:normal;text-align:center;letter-spacing:0px;word-spacing:0px;writing-mode:lr-tb;text-anchor:middle;fill:#333333;fill-opacity:1;stroke:none;"
       transform="matrix(0.26458333,0,0,0.26458333,192.14178,116.21851)"><flowRegion
         id="flowRegion1468-62-2-5-2"
         style="text-align:center;text-anchor:middle;fill:#333333;"><rect
           id="rect1470-9-02-9-6"
           width="64.244278"
           height="45.727146"
           x="155.11533"
           y="459.79056"
           style="text-align:center;text-anchor:middle;fill:#333333;" /></flowRegion><flowPara
         id="flowPara1472-1-3-2-6"
         style="font-style:normal;font-variant:normal;font-weight:normal;font-stretch:normal;font-size:14.66666698px;font-family:'Liberation Sans';-inkscape-font-specification:'Liberation Sans';text-align:center;text-anchor:middle;fill:#333333;">5</flowPara></flowRoot>    <flowRoot
       xml:space="preserve"
       id="flowRoot1466-35-9-7-2-4"
       style="font-style:normal;font-variant:normal;font-weight:normal;font-stretch:normal;font-size:18.66666603px;line-height:1.25;font-family:Ubuntu;-inkscape-font-specification:'Ubuntu, Normal';font-variant-ligatures:normal;font-variant-caps:normal;font-variant-numeric:normal;text-align:center;letter-spacing:0px;word-spacing:0px;writing-mode:lr-tb;text-anchor:middle;fill:#333333;fill-opacity:1;stroke:none;"
       transform="matrix(0.26458333,0,0,0.26458333,242.08492,116.21851)"><flowRegion
         id="flowRegion1468-62-2-5-8-9"
         style="text-align:center;text-anchor:middle;fill:#333333;"><rect
           id="rect1470-9-02-9-9-5"
           width="64.244278"
           height="45.727146"
           x="155.11533"
           y="459.79056"
           style="text-align:center;text-anchor:middle;fill:#333333;" /></flowRegion><flowPara
         id="flowPara1472-1-3-2-7-0"
         style="font-style:normal;font-variant:normal;font-weight:normal;font-stretch:normal;font-size:14.66666698px;font-family:'Liberation Sans';-inkscape-font-specification:'Liberation Sans';text-align:center;text-anchor:middle;fill:#333333;">10</flowPara></flowRoot>    <flowRoot
       xml:space="preserve"
       id="flowRoot1466-35-9-7-3-4"
       style="font-style:normal;font-variant:normal;font-weight:normal;font-stretch:normal;font-size:18.66666603px;line-height:1.25;font-family:Ubuntu;-inkscape-font-specification:'Ubuntu, Normal';font-variant-ligatures:normal;font-variant-caps:normal;font-variant-numeric:normal;text-align:center;letter-spacing:0px;word-spacing:0px;writing-mode:lr-tb;text-anchor:middle;fill:#333333;fill-opacity:1;stroke:none;"
       transform="matrix(0.26458333,0,0,0.26458333,291.97777,116.21851)"><flowRegion
         id="flowRegion1468-62-2-5-6-8"
         style="text-align:center;text-anchor:middle;fill:#333333;"><rect
           id="rect1470-9-02-9-1-7"
           width="64.244278"
           height="45.727146"
           x="155.11533"
           y="459.79056"
           style="text-align:center;text-anchor:middle;fill:#333333;" /></flowRegion><flowPara
         id="flowPara1472-1-3-2-2-1"
         style="font-style:normal;font-variant:normal;font-weight:normal;font-stretch:normal;font-size:14.66666698px;font-family:'Liberation Sans';-inkscape-font-specification:'Liberation Sans';text-align:center;text-anchor:middle;fill:#333333;">15</flowPara></flowRoot>    <flowRoot
       xml:space="preserve"
       id="flowRoot1466-35-6-7"
       style="font-style:normal;font-variant:normal;font-weight:normal;font-stretch:normal;font-size:18.66666603px;line-height:1.25;font-family:Ubuntu;-inkscape-font-specification:'Ubuntu, Normal';font-variant-ligatures:normal;font-variant-caps:normal;font-variant-numeric:normal;text-align:end;letter-spacing:0px;word-spacing:0px;writing-mode:lr-tb;text-anchor:end;fill:#333333;fill-opacity:1;stroke:none;"
       transform="matrix(0.26458333,0,0,0.26458333,92.634409,91.228291)"><flowRegion
         id="flowRegion1468-62-1-2"
         style="text-align:end;text-anchor:end;fill:#333333;"><rect
           id="rect1470-9-8-7"
           width="240.51588"
           height="87.143433"
           x="155.11533"
           y="459.79056"
           style="text-align:end;text-anchor:end;fill:#333333;" /></flowRegion><flowPara
         id="flowPara1472-1-7-2"
         style="font-style:normal;font-variant:normal;font-weight:normal;font-stretch:normal;font-size:14.66666698px;font-family:'Liberation Sans';-inkscape-font-specification:'Liberation Sans';fill:#333333;">5</flowPara></flowRoot>    <flowRoot
       xml:space="preserve"
       id="flowRoot1466-35-6-2"
       style="font-style:normal;font-variant:normal;font-weight:normal;font-stretch:normal;font-size:18.66666603px;line-height:1.25;font-family:Ubuntu;-inkscape-font-specification:'Ubuntu, Normal';font-variant-ligatures:normal;font-variant-caps:normal;font-variant-numeric:normal;text-align:end;letter-spacing:0px;word-spacing:0px;writing-mode:lr-tb;text-anchor:end;fill:#333333;fill-opacity:1;stroke:none;"
       transform="matrix(0.26458333,0,0,0.26458333,92.634409,61.62819)"><flowRegion
         id="flowRegion1468-62-1-6"
         style="text-align:end;text-anchor:end;fill:#333333;"><rect
           id="rect1470-9-8-1"
           width="240.51588"
           height="87.143433"
           x="155.11533"
           y="459.79056"
           style="text-align:end;text-anchor:end;fill:#333333;" /></flowRegion><flowPara
         id="flowPara1472-1-7-0"
         style="font-style:normal;font-variant:normal;font-weight:normal;font-stretch:normal;font-size:14.66666698px;font-family:'Liberation Sans';-inkscape-font-specification:'Liberation Sans';fill:#333333;">10</flowPara></flowRoot>    <flowRoot
       xml:space="preserve"
       id="flowRoot1466-35-6-6"
       style="font-style:normal;font-variant:normal;font-weight:normal;font-stretch:normal;font-size:18.66666603px;line-height:1.25;font-family:Ubuntu;-inkscape-font-specification:'Ubuntu, Normal';font-variant-ligatures:normal;font-variant-caps:normal;font-variant-numeric:normal;text-align:end;letter-spacing:0px;word-spacing:0px;writing-mode:lr-tb;text-anchor:end;fill:#333333;fill-opacity:1;stroke:none;"
       transform="matrix(0.26458333,0,0,0.26458333,92.634409,32.02809)"><flowRegion
         id="flowRegion1468-62-1-1"
         style="text-align:end;text-anchor:end;fill:#333333;"><rect
           id="rect1470-9-8-5"
           width="240.51588"
           height="87.143433"
           x="155.11533"
           y="459.79056"
           style="text-align:end;text-anchor:end;fill:#333333;" /></flowRegion><flowPara
         id="flowPara1472-1-7-9"
         style="font-style:normal;font-variant:normal;font-weight:normal;font-stretch:normal;font-size:14.66666698px;font-family:'Liberation Sans';-inkscape-font-specification:'Liberation Sans';fill:#333333;">15</flowPara></flowRoot>    <flowRoot
       xml:space="preserve"
       id="flowRoot1466-4-1"
       style="font-style:normal;font-variant:normal;font-weight:normal;font-stretch:normal;font-size:18.66666603px;line-height:1.25;font-family:Ubuntu;-inkscape-font-specification:'Ubuntu, Normal';font-variant-ligatures:normal;font-variant-caps:normal;font-variant-numeric:normal;text-align:start;letter-spacing:0px;word-spacing:0px;writing-mode:lr-tb;text-anchor:start;fill:#333333;fill-opacity:1;stroke:none;"
       transform="matrix(0.26458333,0,0,0.26458333,159.73746,9.1092786)"><flowRegion
         id="flowRegion1468-9-7"
         style="fill:#333333;"><rect
           id="rect1470-0-7"
           width="497.86005"
           height="71.386093"
           x="155.11533"
           y="459.79056"
           style="fill:#333333;" /></flowRegion><flowPara
         id="flowPara1472-9-1"
         style="font-style:normal;font-variant:normal;font-weight:bold;font-stretch:normal;font-family:'Liberation Sans';-inkscape-font-specification:'Liberation Sans Bold';fill:#333333;">Circonscription de Tourcoing (Nord)</flowPara><flowPara
         style="font-style:normal;font-variant:normal;font-weight:bold;font-stretch:normal;font-family:'Liberation Sans';-inkscape-font-specification:'Liberation Sans Bold';fill:#333333;"
         id="flowPara1514-1">R<flowSpan
   style="font-size:64.99999762%;baseline-shift:super;fill:#333333;"
   id="flowSpan1516-5">2</flowSpan> = 0,75</flowPara></flowRoot>  </g>
</svg>
