<?xml version="1.0" encoding="UTF-8" standalone="no"?>
<svg
   width="210mm"
   height="297mm"
   viewBox="0 0 210 297"
   version="1.1"
   id="svg8"
   inkscape:version="1.1.2 (0a00cf5339, 2022-02-04)"
   sodipodi:docname="decomp_var_graph.svg"
   xmlns:inkscape="http://www.inkscape.org/namespaces/inkscape"
   xmlns:sodipodi="http://sodipodi.sourceforge.net/DTD/sodipodi-0.dtd"
   xmlns="http://www.w3.org/2000/svg"
   xmlns:svg="http://www.w3.org/2000/svg"
   xmlns:rdf="http://www.w3.org/1999/02/22-rdf-syntax-ns#"
   xmlns:cc="http://creativecommons.org/ns#"
   xmlns:dc="http://purl.org/dc/elements/1.1/">
  <defs
     id="defs2">
    <rect
       x="91.410055"
       y="119.05994"
       width="26.516671"
       height="14.897222"
       id="rect1725" />
    <rect
       x="74.578394"
       y="47.021903"
       width="51.305776"
       height="19.234074"
       id="rect1658" />
    <rect
       x="160.25675"
       y="61.125315"
       width="37.504053"
       height="28.290077"
       id="rect1644" />
    <rect
       x="94.302349"
       y="120.57122"
       width="27.837344"
       height="12.102078"
       id="rect1459" />
    <rect
       x="150.44763"
       y="70.561253"
       width="27.76517"
       height="16.473123"
       id="rect1359" />
    <rect
       x="134.71824"
       y="72.376295"
       width="30.213901"
       height="12.046174"
       id="rect1307" />
    <marker
       style="overflow:visible"
       id="Arrow1Lstart"
       refX="0.0"
       refY="0.0"
       orient="auto"
       inkscape:stockid="Arrow1Lstart"
       inkscape:isstock="true">
      <path
         transform="scale(0.8) translate(12.5,0)"
         style="fill-rule:evenodd;stroke:#333333;stroke-width:1pt;stroke-opacity:1;fill:#333333;fill-opacity:1"
         d="M 0.0,0.0 L 5.0,-5.0 L -12.5,0.0 L 5.0,5.0 L 0.0,0.0 z "
         id="path835" />
    </marker>
    <marker
       style="overflow:visible;"
       id="Arrow1Lend"
       refX="0.0"
       refY="0.0"
       orient="auto"
       inkscape:stockid="Arrow1Lend"
       inkscape:isstock="true">
      <path
         transform="scale(0.8) rotate(180) translate(12.5,0)"
         style="fill-rule:evenodd;stroke:#333333;stroke-width:1pt;stroke-opacity:1;fill:#333333;fill-opacity:1"
         d="M 0.0,0.0 L 5.0,-5.0 L -12.5,0.0 L 5.0,5.0 L 0.0,0.0 z "
         id="path838" />
    </marker>
    <rect
       x="134.71825"
       y="72.376297"
       width="30.213902"
       height="12.046174"
       id="rect1307-0" />
    <rect
       x="134.71825"
       y="72.376297"
       width="30.213902"
       height="12.046174"
       id="rect1330" />
    <rect
       x="94.302345"
       y="120.57122"
       width="27.837343"
       height="12.102078"
       id="rect1459-3" />
    <rect
       x="94.302345"
       y="120.57122"
       width="27.837343"
       height="12.102078"
       id="rect1472" />
    <rect
       x="94.302345"
       y="120.57122"
       width="27.837343"
       height="12.102078"
       id="rect1459-3-5" />
    <rect
       x="94.302345"
       y="120.57122"
       width="27.837343"
       height="12.102078"
       id="rect1525" />
    <rect
       x="134.71825"
       y="72.376297"
       width="30.213902"
       height="12.046174"
       id="rect1307-8" />
    <rect
       x="134.71825"
       y="72.376297"
       width="30.213902"
       height="12.046174"
       id="rect1597" />
    <rect
       x="74.578392"
       y="47.021904"
       width="51.305775"
       height="19.234074"
       id="rect1658-3" />
    <rect
       x="74.578392"
       y="47.021904"
       width="51.305775"
       height="19.234074"
       id="rect1671" />
    <rect
       x="74.578392"
       y="47.021904"
       width="51.305775"
       height="19.234074"
       id="rect1658-3-1" />
    <rect
       x="74.578392"
       y="47.021904"
       width="51.305775"
       height="19.234074"
       id="rect1702" />
    <rect
       x="91.410057"
       y="119.05994"
       width="26.51667"
       height="14.897222"
       id="rect1725-9" />
    <rect
       x="91.410057"
       y="119.05994"
       width="26.51667"
       height="14.897222"
       id="rect1738" />
    <rect
       x="160.25674"
       y="61.125317"
       width="37.504051"
       height="28.290077"
       id="rect1644-0" />
    <rect
       x="150.44763"
       y="70.561256"
       width="27.765169"
       height="16.473124"
       id="rect1359-7" />
    <rect
       x="134.71825"
       y="72.376297"
       width="30.213902"
       height="12.046174"
       id="rect1307-1" />
  </defs>
  <sodipodi:namedview
     id="base"
     pagecolor="#ffffff"
     bordercolor="#666666"
     borderopacity="1.0"
     inkscape:pageopacity="0.0"
     inkscape:pageshadow="2"
     inkscape:zoom="1.4"
     inkscape:cx="380"
     inkscape:cy="231.78571"
     inkscape:document-units="mm"
     inkscape:current-layer="layer1"
     inkscape:document-rotation="0"
     showgrid="false"
     showguides="true"
     inkscape:guide-bbox="true"
     inkscape:window-width="1920"
     inkscape:window-height="1016"
     inkscape:window-x="0"
     inkscape:window-y="0"
     inkscape:window-maximized="1"
     inkscape:pagecheckerboard="0">
    <sodipodi:guide
       position="131.83069,217.22005"
       orientation="1,0"
       id="guide1383" />
    <sodipodi:guide
       position="113.32228,180.47049"
       orientation="0,-1"
       id="guide1691" />
    <sodipodi:guide
       position="113.48735,176.04762"
       orientation="0,-1"
       id="guide21598" />
  </sodipodi:namedview>
  <metadata
     id="metadata5">
    <rdf:RDF>
      <cc:Work
         rdf:about="">
        <dc:format>image/svg+xml</dc:format>
        <dc:type
           rdf:resource="http://purl.org/dc/dcmitype/StillImage" />
        <dc:title />
      </cc:Work>
    </rdf:RDF>
  </metadata>
  <g
     inkscape:label="Layer 1"
     inkscape:groupmode="layer"
     id="layer1">
    <path
       style="fill:#ff0000;stroke:#ff0000;stroke-width:0.207969px;stroke-linecap:butt;stroke-linejoin:miter;stroke-opacity:1"
       d="m 125.88417,66.255977 h 1.74621"
       id="path1313-7" />
    <text
       xml:space="preserve"
       id="text1642"
       style="font-style:normal;font-weight:normal;font-size:4.23333px;line-height:1.25;font-family:sans-serif;white-space:pre;shape-inside:url(#rect1644);fill:#ff0000;fill-opacity:1;stroke:none"
       transform="translate(-39.859667,3.9689766)"><tspan
         x="160.25586"
         y="65.072547"
         id="tspan24636"><tspan
           style="font-family:Ubuntu;-inkscape-font-specification:Ubuntu"
           id="tspan24634">y - y</tspan></tspan></text>
    <path
       style="fill:#ff0000;stroke:#ff0000;stroke-width:0.207969px;stroke-linecap:butt;stroke-linejoin:miter;stroke-opacity:1"
       d="m 79.292221,118.38213 h 1.74621"
       id="path1313-7-2" />
    <text
       xml:space="preserve"
       id="text1642-1"
       style="font-style:normal;font-weight:normal;font-size:4.23333px;line-height:1.25;font-family:sans-serif;white-space:pre;shape-inside:url(#rect1644-0);fill:#ff0000;fill-opacity:1;stroke:none"
       transform="translate(-86.451616,56.095119)"><tspan
         x="160.25586"
         y="65.072547"
         id="tspan24640"><tspan
           style="font-family:Ubuntu;-inkscape-font-specification:Ubuntu"
           id="tspan24638">y - y</tspan></tspan></text>
    <path
       style="fill:#ff0000;stroke:#ff0000;stroke-width:0.5;stroke-linecap:butt;stroke-linejoin:miter;stroke-miterlimit:4;stroke-dasharray:none;stroke-opacity:1"
       d="M 128.94466,64.660178 V 85.659679"
       id="path1301-2" />
    <path
       style="fill:none;stroke:#333333;stroke-width:0.205793;stroke-linecap:butt;stroke-linejoin:miter;stroke-miterlimit:4;stroke-dasharray:none;stroke-opacity:1;marker-start:url(#Arrow1Lstart);marker-end:url(#Arrow1Lend)"
       d="m 67.56358,55.688831 v 55.301209 h 81.67026"
       id="path10" />
    <circle
       style="fill:#999999;stroke:none;stroke-width:0.264999;stroke-miterlimit:4;stroke-dasharray:none"
       id="path1181"
       cx="84.935585"
       cy="93.434814"
       r="0.83370346" />
    <circle
       style="fill:#999999;stroke:none;stroke-width:0.264999;stroke-miterlimit:4;stroke-dasharray:none"
       id="path1181-3"
       cx="91.28125"
       cy="96.383926"
       r="0.83370346" />
    <circle
       style="fill:#999999;stroke:none;stroke-width:0.264999;stroke-miterlimit:4;stroke-dasharray:none"
       id="path1181-6"
       cx="82.587799"
       cy="103.1875"
       r="0.83370346" />
    <circle
       style="fill:#999999;stroke:none;stroke-width:0.264999;stroke-miterlimit:4;stroke-dasharray:none"
       id="path1181-7"
       cx="100.45293"
       cy="87.654396"
       r="0.83370346" />
    <circle
       style="fill:#999999;stroke:none;stroke-width:0.264999;stroke-miterlimit:4;stroke-dasharray:none"
       id="path1181-5"
       cx="95.325607"
       cy="93.133339"
       r="0.83370346" />
    <circle
       style="fill:#999999;stroke:none;stroke-width:0.264999;stroke-miterlimit:4;stroke-dasharray:none"
       id="path1181-35"
       cx="123.85809"
       cy="83.234428"
       r="0.83370346" />
    <circle
       style="fill:#999999;stroke:none;stroke-width:0.264999;stroke-miterlimit:4;stroke-dasharray:none"
       id="path1181-62"
       cx="121.89732"
       cy="71.626488"
       r="0.83370346" />
    <circle
       style="fill:#999999;stroke:none;stroke-width:0.264999;stroke-miterlimit:4;stroke-dasharray:none"
       id="path1181-9"
       cx="113.39286"
       cy="83.154762"
       r="0.83370346" />
    <circle
       style="fill:#999999;stroke:none;stroke-width:0.264999;stroke-miterlimit:4;stroke-dasharray:none"
       id="path1181-1"
       cx="104.32143"
       cy="96.383926"
       r="0.83370346" />
    <circle
       style="fill:#999999;stroke:none;stroke-width:0.264999;stroke-miterlimit:4;stroke-dasharray:none"
       id="path1181-2"
       cx="109.04613"
       cy="69.73661"
       r="0.83370346" />
    <circle
       style="fill:#999999;stroke:none;stroke-width:0.264999;stroke-miterlimit:4;stroke-dasharray:none"
       id="path1181-60"
       cx="78.092674"
       cy="102.50146"
       r="0.83370346" />
    <circle
       style="fill:#999999;stroke:none;stroke-width:0.264999;stroke-miterlimit:4;stroke-dasharray:none"
       id="path1181-626"
       cx="80.432297"
       cy="96.008415"
       r="0.83370346" />
    <circle
       style="fill:#999999;stroke:none;stroke-width:0.264999;stroke-miterlimit:4;stroke-dasharray:none"
       id="path1181-18"
       cx="97.139877"
       cy="79.186012"
       r="0.83370346" />
    <circle
       style="fill:#999999;stroke:none;stroke-width:0.264999;stroke-miterlimit:4;stroke-dasharray:none"
       id="path1181-62-9"
       cx="125.88573"
       cy="72.370026"
       r="0.83370346" />
    <circle
       style="fill:#999999;stroke:none;stroke-width:0.264999;stroke-miterlimit:4;stroke-dasharray:none"
       id="path1181-93-2"
       cx="123.03126"
       cy="77.7686"
       r="0.83370346" />
    <g
       aria-label="ye- y"
       transform="translate(-2.9571388,-1.528756)"
       id="text1305"
       style="font-size:10.5833px;line-height:1.25;white-space:pre;shape-inside:url(#rect1307);fill:#782121">
      <path
         d="m 134.79918,82.151326 q 0.0466,0.02117 0.11854,0.0381 0.0762,0.02117 0.14816,0.02117 0.23284,0 0.36407,-0.105833 0.13123,-0.1016 0.23707,-0.334433 -0.2667,-0.507999 -0.49954,-1.075266 -0.2286,-0.571499 -0.381,-1.155699 h 0.42334 q 0.0466,0.1905 0.11006,0.410633 0.0677,0.220133 0.14817,0.452967 0.0804,0.232833 0.17357,0.465666 0.0931,0.232833 0.19473,0.448733 0.16087,-0.4445 0.2794,-0.880533 0.11853,-0.436033 0.22437,-0.897466 h 0.40639 q -0.15239,0.6223 -0.33866,1.198033 -0.18627,0.571499 -0.40217,1.071032 -0.0847,0.1905 -0.1778,0.325967 -0.0889,0.139699 -0.19896,0.228599 -0.11007,0.0889 -0.24977,0.131234 -0.13547,0.04233 -0.30903,0.04233 -0.0466,0 -0.0974,-0.0085 -0.0508,-0.0042 -0.1016,-0.01693 -0.0466,-0.0085 -0.0889,-0.02117 -0.0381,-0.0127 -0.055,-0.02117 z"
         style="font-size:4.23333px;font-family:Ubuntu;-inkscape-font-specification:Ubuntu"
         id="path21436" />
      <path
         d="m 136.96305,79.33468 q 0,-0.189865 0.055,-0.3302 0.055,-0.143086 0.14584,-0.236643 0.0908,-0.09356 0.20913,-0.140335 0.11832,-0.04678 0.24214,-0.04678 0.28893,0 0.44302,0.18161 0.15409,0.178858 0.15409,0.547581 0,0.01651 0,0.04403 0,0.02476 -0.003,0.04678 h -0.97959 q 0.0165,0.222885 0.12933,0.338454 0.11282,0.11557 0.35221,0.11557 0.13483,0 0.22564,-0.02201 0.0935,-0.02477 0.14033,-0.04678 l 0.0358,0.21463 q -0.0468,0.02476 -0.1651,0.05228 -0.11557,0.02752 -0.26416,0.02752 -0.18711,0 -0.32469,-0.05503 -0.13483,-0.05778 -0.22289,-0.156845 -0.0881,-0.09906 -0.13208,-0.233892 -0.0413,-0.137583 -0.0413,-0.299931 z m 0.98234,-0.140335 q 0.003,-0.173355 -0.0881,-0.283421 -0.088,-0.112819 -0.2449,-0.112819 -0.088,0 -0.15684,0.03577 -0.066,0.03302 -0.11282,0.08805 -0.0468,0.05503 -0.0743,0.126577 -0.0248,0.07154 -0.033,0.145838 z"
         style="font-size:65%;baseline-shift:super"
         id="path21438" />
      <path
         d="m 138.47096,80.288661 h 1.04563 v 0.368299 h -1.04563 z"
         style="font-size:4.23333px;font-family:Ubuntu;-inkscape-font-specification:Ubuntu"
         id="path21440" />
      <path
         d="m 140.68498,82.151326 q 0.0466,0.02117 0.11853,0.0381 0.0762,0.02117 0.14817,0.02117 0.23283,0 0.36407,-0.105833 0.13123,-0.1016 0.23706,-0.334433 -0.2667,-0.507999 -0.49953,-1.075266 -0.2286,-0.571499 -0.381,-1.155699 h 0.42333 q 0.0466,0.1905 0.11007,0.410633 0.0677,0.220133 0.14817,0.452967 0.0804,0.232833 0.17356,0.465666 0.0931,0.232833 0.19474,0.448733 0.16086,-0.4445 0.2794,-0.880533 0.11853,-0.436033 0.22436,-0.897466 h 0.4064 q -0.1524,0.6223 -0.33866,1.198033 -0.18627,0.571499 -0.40217,1.071032 -0.0847,0.1905 -0.1778,0.325967 -0.0889,0.139699 -0.19897,0.228599 -0.11006,0.0889 -0.24976,0.131234 -0.13547,0.04233 -0.30904,0.04233 -0.0466,0 -0.0974,-0.0085 -0.0508,-0.0042 -0.1016,-0.01693 -0.0466,-0.0085 -0.0889,-0.02117 -0.0381,-0.0127 -0.055,-0.02117 z"
         style="font-size:4.23333px;font-family:Ubuntu;-inkscape-font-specification:Ubuntu"
         id="path21442" />
    </g>
    <path
       style="fill:#782121;stroke:#782121;stroke-width:0.207969px;stroke-linecap:butt;stroke-linejoin:miter;stroke-opacity:1"
       d="m 137.7953,77.351823 h 1.74621"
       id="path1313" />
    <g
       id="g24518"
       transform="translate(1.0685948,-1.2710565)">
      <g
         aria-label="ye- y"
         transform="translate(-37.39289,40.453107)"
         id="text1305-0"
         style="font-size:10.5833px;line-height:1.25;white-space:pre;shape-inside:url(#rect1307);fill:#782121">
        <path
           d="m 134.79918,82.151326 q 0.0466,0.02117 0.11854,0.0381 0.0762,0.02117 0.14816,0.02117 0.23284,0 0.36407,-0.105833 0.13123,-0.1016 0.23707,-0.334433 -0.2667,-0.507999 -0.49954,-1.075266 -0.2286,-0.571499 -0.381,-1.155699 h 0.42334 q 0.0466,0.1905 0.11006,0.410633 0.0677,0.220133 0.14817,0.452967 0.0804,0.232833 0.17357,0.465666 0.0931,0.232833 0.19473,0.448733 0.16087,-0.4445 0.2794,-0.880533 0.11853,-0.436033 0.22437,-0.897466 h 0.40639 q -0.15239,0.6223 -0.33866,1.198033 -0.18627,0.571499 -0.40217,1.071032 -0.0847,0.1905 -0.1778,0.325967 -0.0889,0.139699 -0.19896,0.228599 -0.11007,0.0889 -0.24977,0.131234 -0.13547,0.04233 -0.30903,0.04233 -0.0466,0 -0.0974,-0.0085 -0.0508,-0.0042 -0.1016,-0.01693 -0.0466,-0.0085 -0.0889,-0.02117 -0.0381,-0.0127 -0.055,-0.02117 z"
           style="font-size:4.23333px;font-family:Ubuntu;-inkscape-font-specification:Ubuntu"
           id="path21436-4" />
        <path
           d="m 136.96305,79.33468 q 0,-0.189865 0.055,-0.3302 0.055,-0.143086 0.14584,-0.236643 0.0908,-0.09356 0.20913,-0.140335 0.11832,-0.04678 0.24214,-0.04678 0.28893,0 0.44302,0.18161 0.15409,0.178858 0.15409,0.547581 0,0.01651 0,0.04403 0,0.02476 -0.003,0.04678 h -0.97959 q 0.0165,0.222885 0.12933,0.338454 0.11282,0.11557 0.35221,0.11557 0.13483,0 0.22564,-0.02201 0.0935,-0.02477 0.14033,-0.04678 l 0.0358,0.21463 q -0.0468,0.02476 -0.1651,0.05228 -0.11557,0.02752 -0.26416,0.02752 -0.18711,0 -0.32469,-0.05503 -0.13483,-0.05778 -0.22289,-0.156845 -0.0881,-0.09906 -0.13208,-0.233892 -0.0413,-0.137583 -0.0413,-0.299931 z m 0.98234,-0.140335 q 0.003,-0.173355 -0.0881,-0.283421 -0.088,-0.112819 -0.2449,-0.112819 -0.088,0 -0.15684,0.03577 -0.066,0.03302 -0.11282,0.08805 -0.0468,0.05503 -0.0743,0.126577 -0.0248,0.07154 -0.033,0.145838 z"
           style="font-size:65%;baseline-shift:super"
           id="path21438-0" />
        <path
           d="m 138.47096,80.288661 h 1.04563 v 0.368299 h -1.04563 z"
           style="font-size:4.23333px;font-family:Ubuntu;-inkscape-font-specification:Ubuntu"
           id="path21440-8" />
        <path
           d="m 140.68498,82.151326 q 0.0466,0.02117 0.11853,0.0381 0.0762,0.02117 0.14817,0.02117 0.23283,0 0.36407,-0.105833 0.13123,-0.1016 0.23706,-0.334433 -0.2667,-0.507999 -0.49953,-1.075266 -0.2286,-0.571499 -0.381,-1.155699 h 0.42333 q 0.0466,0.1905 0.11007,0.410633 0.0677,0.220133 0.14817,0.452967 0.0804,0.232833 0.17356,0.465666 0.0931,0.232833 0.19474,0.448733 0.16086,-0.4445 0.2794,-0.880533 0.11853,-0.436033 0.22436,-0.897466 h 0.4064 q -0.1524,0.6223 -0.33866,1.198033 -0.18627,0.571499 -0.40217,1.071032 -0.0847,0.1905 -0.1778,0.325967 -0.0889,0.139699 -0.19897,0.228599 -0.11006,0.0889 -0.24976,0.131234 -0.13547,0.04233 -0.30904,0.04233 -0.0466,0 -0.0974,-0.0085 -0.0508,-0.0042 -0.1016,-0.01693 -0.0466,-0.0085 -0.0889,-0.02117 -0.0381,-0.0127 -0.055,-0.02117 z"
           style="font-size:4.23333px;font-family:Ubuntu;-inkscape-font-specification:Ubuntu"
           id="path21442-5" />
      </g>
      <path
         style="fill:#782121;stroke:#782121;stroke-width:0.207969px;stroke-linecap:butt;stroke-linejoin:miter;stroke-opacity:1"
         d="m 103.38834,119.49017 h 1.74621"
         id="path1313-1" />
    </g>
    <g
       aria-label="y - ye"
       transform="translate(-18.620442,-11.320075)"
       id="text1357"
       style="font-size:10.5833px;line-height:1.25;font-family:Ubuntu;-inkscape-font-specification:Ubuntu;white-space:pre;shape-inside:url(#rect1359);fill:#de8787">
      <path
         d="m 150.5277,80.840024 q 0.0466,0.02117 0.11853,0.0381 0.0762,0.02117 0.14817,0.02117 0.23283,0 0.36407,-0.105833 0.13123,-0.1016 0.23706,-0.334434 -0.2667,-0.507999 -0.49953,-1.075265 -0.2286,-0.5715 -0.381,-1.155699 h 0.42333 q 0.0466,0.1905 0.11007,0.410633 0.0677,0.220133 0.14816,0.452966 0.0804,0.232833 0.17357,0.465666 0.0931,0.232833 0.19473,0.448733 0.16087,-0.444499 0.2794,-0.880532 0.11854,-0.436033 0.22437,-0.897466 h 0.4064 q -0.1524,0.622299 -0.33867,1.198032 -0.18626,0.5715 -0.40216,1.071032 -0.0847,0.1905 -0.1778,0.325967 -0.0889,0.1397 -0.19897,0.2286 -0.11007,0.0889 -0.24976,0.131233 -0.13547,0.04233 -0.30904,0.04233 -0.0466,0 -0.0974,-0.0085 -0.0508,-0.0042 -0.1016,-0.01693 -0.0466,-0.0085 -0.0889,-0.02117 -0.0381,-0.0127 -0.055,-0.02117 z"
         style="font-size:4.23333px"
         id="path21520" />
      <path
         d="m 153.63919,78.977359 h 1.04563 v 0.3683 h -1.04563 z"
         style="font-size:4.23333px"
         id="path21522" />
      <path
         d="m 155.85322,80.840024 q 0.0466,0.02117 0.11853,0.0381 0.0762,0.02117 0.14817,0.02117 0.23283,0 0.36406,-0.105833 0.13124,-0.1016 0.23707,-0.334434 -0.2667,-0.507999 -0.49953,-1.075265 -0.2286,-0.5715 -0.381,-1.155699 h 0.42333 q 0.0466,0.1905 0.11007,0.410633 0.0677,0.220133 0.14816,0.452966 0.0804,0.232833 0.17357,0.465666 0.0931,0.232833 0.19473,0.448733 0.16087,-0.444499 0.2794,-0.880532 0.11854,-0.436033 0.22437,-0.897466 h 0.4064 q -0.1524,0.622299 -0.33867,1.198032 -0.18626,0.5715 -0.40216,1.071032 -0.0847,0.1905 -0.1778,0.325967 -0.0889,0.1397 -0.19897,0.2286 -0.11007,0.0889 -0.24977,0.131233 -0.13546,0.04233 -0.30903,0.04233 -0.0466,0 -0.0974,-0.0085 -0.0508,-0.0042 -0.1016,-0.01693 -0.0466,-0.0085 -0.0889,-0.02117 -0.0381,-0.0127 -0.055,-0.02117 z"
         style="font-size:4.23333px"
         id="path21524" />
      <path
         d="m 158.01708,78.023378 q 0,-0.189865 0.055,-0.330199 0.055,-0.143087 0.14583,-0.236644 0.0908,-0.09356 0.20913,-0.140334 0.11832,-0.04678 0.24215,-0.04678 0.28892,0 0.44302,0.18161 0.15409,0.178858 0.15409,0.547581 0,0.01651 0,0.04403 0,0.02476 -0.003,0.04678 h -0.9796 q 0.0165,0.222885 0.12933,0.338455 0.11282,0.11557 0.35222,0.11557 0.13483,0 0.22563,-0.02201 0.0936,-0.02477 0.14034,-0.04678 l 0.0358,0.21463 q -0.0468,0.02477 -0.1651,0.05228 -0.11557,0.02752 -0.26416,0.02752 -0.18711,0 -0.3247,-0.05503 -0.13483,-0.05778 -0.22288,-0.156845 -0.0881,-0.09906 -0.13208,-0.233891 -0.0413,-0.137584 -0.0413,-0.299932 z m 0.98235,-0.140335 q 0.003,-0.173354 -0.0881,-0.283421 -0.0881,-0.112818 -0.24489,-0.112818 -0.0881,0 -0.15685,0.03577 -0.066,0.03302 -0.11282,0.08805 -0.0468,0.05503 -0.0743,0.126576 -0.0248,0.07154 -0.033,0.145838 z"
         style="font-size:65%;baseline-shift:super"
         id="path21526" />
    </g>
    <g
       aria-label="y - ye"
       transform="translate(-24.528482,40.493353)"
       id="text1357-6"
       style="font-size:10.5833px;line-height:1.25;font-family:Ubuntu;-inkscape-font-specification:Ubuntu;white-space:pre;shape-inside:url(#rect1359);fill:#de8787">
      <path
         d="m 150.5277,80.840024 q 0.0466,0.02117 0.11853,0.0381 0.0762,0.02117 0.14817,0.02117 0.23283,0 0.36407,-0.105833 0.13123,-0.1016 0.23706,-0.334434 -0.2667,-0.507999 -0.49953,-1.075265 -0.2286,-0.5715 -0.381,-1.155699 h 0.42333 q 0.0466,0.1905 0.11007,0.410633 0.0677,0.220133 0.14816,0.452966 0.0804,0.232833 0.17357,0.465666 0.0931,0.232833 0.19473,0.448733 0.16087,-0.444499 0.2794,-0.880532 0.11854,-0.436033 0.22437,-0.897466 h 0.4064 q -0.1524,0.622299 -0.33867,1.198032 -0.18626,0.5715 -0.40216,1.071032 -0.0847,0.1905 -0.1778,0.325967 -0.0889,0.1397 -0.19897,0.2286 -0.11007,0.0889 -0.24976,0.131233 -0.13547,0.04233 -0.30904,0.04233 -0.0466,0 -0.0974,-0.0085 -0.0508,-0.0042 -0.1016,-0.01693 -0.0466,-0.0085 -0.0889,-0.02117 -0.0381,-0.0127 -0.055,-0.02117 z"
         style="font-size:4.23333px"
         id="path21520-6" />
      <path
         d="m 153.63919,78.977359 h 1.04563 v 0.3683 h -1.04563 z"
         style="font-size:4.23333px"
         id="path21522-2" />
      <path
         d="m 155.85322,80.840024 q 0.0466,0.02117 0.11853,0.0381 0.0762,0.02117 0.14817,0.02117 0.23283,0 0.36406,-0.105833 0.13124,-0.1016 0.23707,-0.334434 -0.2667,-0.507999 -0.49953,-1.075265 -0.2286,-0.5715 -0.381,-1.155699 h 0.42333 q 0.0466,0.1905 0.11007,0.410633 0.0677,0.220133 0.14816,0.452966 0.0804,0.232833 0.17357,0.465666 0.0931,0.232833 0.19473,0.448733 0.16087,-0.444499 0.2794,-0.880532 0.11854,-0.436033 0.22437,-0.897466 h 0.4064 q -0.1524,0.622299 -0.33867,1.198032 -0.18626,0.5715 -0.40216,1.071032 -0.0847,0.1905 -0.1778,0.325967 -0.0889,0.1397 -0.19897,0.2286 -0.11007,0.0889 -0.24977,0.131233 -0.13546,0.04233 -0.30903,0.04233 -0.0466,0 -0.0974,-0.0085 -0.0508,-0.0042 -0.1016,-0.01693 -0.0466,-0.0085 -0.0889,-0.02117 -0.0381,-0.0127 -0.055,-0.02117 z"
         style="font-size:4.23333px"
         id="path21524-1" />
      <path
         d="m 158.01708,78.023378 q 0,-0.189865 0.055,-0.330199 0.055,-0.143087 0.14583,-0.236644 0.0908,-0.09356 0.20913,-0.140334 0.11832,-0.04678 0.24215,-0.04678 0.28892,0 0.44302,0.18161 0.15409,0.178858 0.15409,0.547581 0,0.01651 0,0.04403 0,0.02476 -0.003,0.04678 h -0.9796 q 0.0165,0.222885 0.12933,0.338455 0.11282,0.11557 0.35222,0.11557 0.13483,0 0.22563,-0.02201 0.0936,-0.02477 0.14034,-0.04678 l 0.0358,0.21463 q -0.0468,0.02477 -0.1651,0.05228 -0.11557,0.02752 -0.26416,0.02752 -0.18711,0 -0.3247,-0.05503 -0.13483,-0.05778 -0.22288,-0.156845 -0.0881,-0.09906 -0.13208,-0.233891 -0.0413,-0.137584 -0.0413,-0.299932 z m 0.98235,-0.140335 q 0.003,-0.173354 -0.0881,-0.283421 -0.0881,-0.112818 -0.24489,-0.112818 -0.0881,0 -0.15685,0.03577 -0.066,0.03302 -0.11282,0.08805 -0.0468,0.05503 -0.0743,0.126576 -0.0248,0.07154 -0.033,0.145838 z"
         style="font-size:65%;baseline-shift:super"
         id="path21526-9" />
    </g>
    <path
       style="fill:#de8787;stroke:#de8787;stroke-width:0.5;stroke-linecap:butt;stroke-linejoin:miter;stroke-miterlimit:4;stroke-dasharray:none;stroke-opacity:1"
       d="m 129.82296,64.58811 v 8.002725"
       id="path1301" />
    <path
       style="fill:#782121;stroke:#782121;stroke-width:0.5;stroke-linecap:butt;stroke-linejoin:miter;stroke-miterlimit:4;stroke-dasharray:none;stroke-opacity:1"
       d="M 129.82296,85.66939 V 72.590835"
       id="path1303" />
    <circle
       style="fill:#999999;stroke:none;stroke-width:0.264999;stroke-miterlimit:4;stroke-dasharray:none"
       id="path1181-93"
       cx="117.51054"
       cy="87.825188"
       r="0.83370346" />
    <circle
       style="fill:#333333;stroke:#333333;stroke-width:0.264999;stroke-miterlimit:4;stroke-dasharray:none"
       id="path1181-70"
       cx="129.40511"
       cy="64.409172"
       r="0.83370346" />
    <text
       xml:space="preserve"
       id="text1457"
       style="font-style:normal;font-weight:normal;font-size:10.5833px;line-height:1.25;font-family:sans-serif;white-space:pre;shape-inside:url(#rect1459);fill:#333333;fill-opacity:1;stroke:none;stroke-width:1.3212"
       transform="matrix(0.75688761,0,0,0.75688761,75.982613,15.966614)"><tspan
         x="94.302734"
         y="129.93405"
         id="tspan24644"><tspan
           style="font-size:4.93889px;font-family:Ubuntu;-inkscape-font-specification:Ubuntu"
           id="tspan24642">x</tspan></tspan></text>
    <text
       xml:space="preserve"
       id="text1457-7"
       style="font-style:normal;font-weight:normal;font-size:10.5833px;line-height:1.25;font-family:sans-serif;white-space:pre;shape-inside:url(#rect1459-3);fill:#333333;fill-opacity:1;stroke:none;stroke-width:1.3212"
       transform="matrix(0.75688761,0,0,0.75688761,-7.3032815,-40.617047)"><tspan
         x="94.302734"
         y="129.93405"
         id="tspan24648"><tspan
           style="font-size:4.93889px;font-family:Ubuntu;-inkscape-font-specification:Ubuntu"
           id="tspan24646">y</tspan></tspan></text>
    <text
       xml:space="preserve"
       id="text1457-7-9"
       style="font-style:normal;font-weight:normal;font-size:3.52778px;line-height:1.25;font-family:sans-serif;white-space:pre;shape-inside:url(#rect1459-3-5);fill:#333333;fill-opacity:1;stroke:none"
       transform="translate(-29.480486,-37.392416)"><tspan
         x="94.302734"
         y="123.69157"
         id="tspan24652"><tspan
           style="font-style:italic;font-weight:300;font-size:3.175px;font-family:Ubuntu;-inkscape-font-specification:'Ubuntu Light Italic'"
           id="tspan24650">y</tspan></tspan></text>
    <path
       style="fill:#333333;stroke:#333333;stroke-width:0.15;stroke-linecap:butt;stroke-linejoin:miter;stroke-miterlimit:4;stroke-dasharray:none;stroke-opacity:1"
       d="m 65.381105,84.307375 h 1.009344"
       id="path1313-2" />
    <path
       style="fill:none;stroke:#333333;stroke-width:0.23164;stroke-linecap:butt;stroke-linejoin:miter;stroke-miterlimit:4;stroke-dasharray:0.694918, 0.23164;stroke-dashoffset:0;stroke-opacity:1"
       d="M 67.194115,85.740409 H 141.83136"
       id="path1297" />
    <text
       xml:space="preserve"
       id="text1656"
       style="font-style:normal;font-weight:normal;font-size:10.5833px;line-height:1.25;font-family:sans-serif;white-space:pre;shape-inside:url(#rect1658);fill:#ff0000;fill-opacity:1;stroke:none"
       transform="translate(-5.306106,59.975571)"><tspan
         x="74.578125"
         y="56.385224"
         id="tspan24656"><tspan
           style="font-size:3.52778px;font-family:Ubuntu;-inkscape-font-specification:Ubuntu"
           id="tspan24654">Var. totale</tspan></tspan></text>
    <text
       xml:space="preserve"
       id="text1656-6"
       style="font-style:normal;font-weight:normal;font-size:10.5833px;line-height:1.25;font-family:sans-serif;white-space:pre;shape-inside:url(#rect1658-3);fill:#800000;fill-opacity:1;stroke:none"
       transform="translate(17.000581,60.032396)"><tspan
         x="74.578125"
         y="56.385224"
         id="tspan24660"><tspan
           style="font-size:3.52778px;font-family:Ubuntu;-inkscape-font-specification:Ubuntu"
           id="tspan24658">Var. expliquée</tspan></tspan></text>
    <text
       xml:space="preserve"
       id="text1656-6-2"
       style="font-style:normal;font-weight:normal;font-size:10.5833px;line-height:1.25;font-family:sans-serif;white-space:pre;shape-inside:url(#rect1658-3-1);fill:#d35f5f;fill-opacity:1;stroke:none"
       transform="translate(44.375178,60.034528)"><tspan
         x="74.578125"
         y="56.385224"
         id="tspan24664"><tspan
           style="font-size:3.52778px;font-family:Ubuntu;-inkscape-font-specification:Ubuntu"
           id="tspan24662">Var. résiduelle</tspan></tspan></text>
    <text
       xml:space="preserve"
       id="text1723"
       style="font-style:normal;font-weight:normal;font-size:10.5833px;line-height:1.25;font-family:sans-serif;white-space:pre;shape-inside:url(#rect1725);fill:#333333;fill-opacity:1;stroke:none"
       transform="translate(-4.1800974,-11.573163)"><tspan
         x="91.410156"
         y="128.42429"
         id="tspan24668"><tspan
           style="font-size:4.23333px;font-family:Ubuntu;-inkscape-font-specification:Ubuntu"
           id="tspan24666">=</tspan></tspan></text>
    <text
       xml:space="preserve"
       id="text1723-3"
       style="font-style:normal;font-weight:normal;font-size:10.5833px;line-height:1.25;font-family:sans-serif;white-space:pre;shape-inside:url(#rect1725-9);fill:#333333;fill-opacity:1;stroke:none"
       transform="translate(24.009926,-11.853187)"><tspan
         x="91.410156"
         y="128.42429"
         id="tspan24672"><tspan
           style="font-size:4.23333px;font-family:Ubuntu;-inkscape-font-specification:Ubuntu"
           id="tspan24670">+</tspan></tspan></text>
    <path
       style="fill:none;stroke:#000000;stroke-width:0.231512;stroke-linecap:butt;stroke-linejoin:miter;stroke-miterlimit:4;stroke-dasharray:none;stroke-opacity:1"
       d="M 73.007849,103.76298 133.62181,70.490509"
       id="path1299" />
  </g>
</svg>
