<?xml version="1.0" encoding="UTF-8" standalone="no"?>
<svg
   xmlns:dc="http://purl.org/dc/elements/1.1/"
   xmlns:cc="http://creativecommons.org/ns#"
   xmlns:rdf="http://www.w3.org/1999/02/22-rdf-syntax-ns#"
   xmlns:svg="http://www.w3.org/2000/svg"
   xmlns="http://www.w3.org/2000/svg"
   xmlns:xlink="http://www.w3.org/1999/xlink"
   xmlns:sodipodi="http://sodipodi.sourceforge.net/DTD/sodipodi-0.dtd"
   xmlns:inkscape="http://www.inkscape.org/namespaces/inkscape"
   width="599pt"
   height="374pt"
   viewBox="0 0 599 374"
   version="1.1"
   id="svg306"
   sodipodi:docname="modele_specifique.svg"
   inkscape:version="1.0.1 (0767f8302a, 2020-10-17)">
  <metadata
     id="metadata310">
    <rdf:RDF>
      <cc:Work
         rdf:about="">
        <dc:format>image/svg+xml</dc:format>
        <dc:type
           rdf:resource="http://purl.org/dc/dcmitype/StillImage" />
        <dc:title />
      </cc:Work>
    </rdf:RDF>
  </metadata>
  <sodipodi:namedview
     pagecolor="#ffffff"
     bordercolor="#666666"
     borderopacity="1"
     objecttolerance="10"
     gridtolerance="10"
     guidetolerance="10"
     inkscape:pageopacity="0"
     inkscape:pageshadow="2"
     inkscape:window-width="1366"
     inkscape:window-height="704"
     id="namedview308"
     showgrid="false"
     showguides="true"
     inkscape:guide-bbox="true"
     inkscape:zoom="1.118984"
     inkscape:cx="450.08409"
     inkscape:cy="344.06295"
     inkscape:window-x="0"
     inkscape:window-y="27"
     inkscape:window-maximized="1"
     inkscape:current-layer="svg306"
     inkscape:document-rotation="0">
    <sodipodi:guide
       position="54.029039,118.07297"
       orientation="1,0"
       id="guide1254" />
  </sodipodi:namedview>
  <defs
     id="defs103">
    <rect
       x="1.2644399"
       y="383.97829"
       width="494.40709"
       height="185.01933"
       id="rect1237" />
    <g
       id="g44">
      <symbol
         overflow="visible"
         id="glyph0-0">
        <path
           style="stroke:none;"
           d=""
           id="path2" />
      </symbol>
      <symbol
         overflow="visible"
         id="glyph0-1">
        <path
           style="stroke:none;"
           d="M 1.9375 -2.921875 L 2.359375 -2.921875 C 3.203125 -2.921875 3.65625 -2.53125 3.65625 -1.765625 C 3.65625 -0.96875 3.171875 -0.484375 2.375 -0.484375 C 1.515625 -0.484375 1.109375 -0.921875 1.0625 -1.84375 L 0.28125 -1.84375 C 0.3125 -1.34375 0.40625 -1 0.546875 -0.71875 C 0.875 -0.109375 1.484375 0.203125 2.34375 0.203125 C 3.625 0.203125 4.453125 -0.578125 4.453125 -1.78125 C 4.453125 -2.59375 4.140625 -3.03125 3.390625 -3.296875 C 3.96875 -3.53125 4.265625 -3.96875 4.265625 -4.609375 C 4.265625 -5.703125 3.546875 -6.359375 2.359375 -6.359375 C 1.109375 -6.359375 0.4375 -5.65625 0.40625 -4.3125 L 1.1875 -4.3125 C 1.203125 -4.703125 1.234375 -4.921875 1.328125 -5.109375 C 1.5 -5.46875 1.890625 -5.6875 2.375 -5.6875 C 3.0625 -5.6875 3.46875 -5.265625 3.46875 -4.578125 C 3.46875 -4.140625 3.3125 -3.859375 2.96875 -3.71875 C 2.765625 -3.625 2.484375 -3.59375 1.9375 -3.578125 Z M 1.9375 -2.921875 "
           id="path5" />
      </symbol>
      <symbol
         overflow="visible"
         id="glyph0-2">
        <path
           style="stroke:none;"
           d="M 4.375 -4.703125 C 4.234375 -5.75 3.5625 -6.359375 2.609375 -6.359375 C 1.921875 -6.359375 1.3125 -6.03125 0.9375 -5.453125 C 0.546875 -4.828125 0.375 -4.0625 0.375 -2.90625 C 0.375 -1.828125 0.53125 -1.15625 0.90625 -0.59375 C 1.234375 -0.078125 1.78125 0.203125 2.46875 0.203125 C 3.65625 0.203125 4.515625 -0.6875 4.515625 -1.921875 C 4.515625 -3.09375 3.71875 -3.921875 2.609375 -3.921875 C 1.984375 -3.921875 1.5 -3.6875 1.171875 -3.234375 C 1.171875 -4.796875 1.671875 -5.671875 2.5625 -5.671875 C 3.109375 -5.671875 3.484375 -5.328125 3.609375 -4.703125 Z M 2.5 -3.234375 C 3.25 -3.234375 3.71875 -2.703125 3.71875 -1.859375 C 3.71875 -1.0625 3.1875 -0.484375 2.484375 -0.484375 C 1.765625 -0.484375 1.21875 -1.09375 1.21875 -1.90625 C 1.21875 -2.6875 1.734375 -3.234375 2.5 -3.234375 Z M 2.5 -3.234375 "
           id="path8" />
      </symbol>
      <symbol
         overflow="visible"
         id="glyph0-3">
        <path
           style="stroke:none;"
           d="M 0.46875 -1.453125 C 0.609375 -0.40625 1.28125 0.203125 2.234375 0.203125 C 2.921875 0.203125 3.546875 -0.125 3.921875 -0.703125 C 4.296875 -1.328125 4.484375 -2.109375 4.484375 -3.25 C 4.484375 -4.328125 4.3125 -5 3.953125 -5.5625 C 3.609375 -6.09375 3.0625 -6.359375 2.375 -6.359375 C 1.1875 -6.359375 0.328125 -5.46875 0.328125 -4.234375 C 0.328125 -3.0625 1.125 -2.25 2.25 -2.25 C 2.84375 -2.25 3.28125 -2.453125 3.671875 -2.9375 C 3.671875 -1.359375 3.171875 -0.484375 2.28125 -0.484375 C 1.734375 -0.484375 1.359375 -0.828125 1.234375 -1.453125 Z M 2.359375 -5.6875 C 3.09375 -5.6875 3.640625 -5.078125 3.640625 -4.25 C 3.640625 -3.46875 3.109375 -2.921875 2.34375 -2.921875 C 1.59375 -2.921875 1.125 -3.453125 1.125 -4.296875 C 1.125 -5.109375 1.640625 -5.6875 2.359375 -5.6875 Z M 2.359375 -5.6875 "
           id="path11" />
      </symbol>
      <symbol
         overflow="visible"
         id="glyph0-4">
        <path
           style="stroke:none;"
           d="M 2.28125 -4.53125 L 2.28125 0 L 3.046875 0 L 3.046875 -6.359375 L 2.546875 -6.359375 C 2.265625 -5.390625 2.09375 -5.25 0.890625 -5.09375 L 0.890625 -4.53125 Z M 2.28125 -4.53125 "
           id="path14" />
      </symbol>
      <symbol
         overflow="visible"
         id="glyph0-5">
        <path
           style="stroke:none;"
           d="M 4.453125 -0.765625 L 1.171875 -0.765625 C 1.25 -1.296875 1.53125 -1.625 2.296875 -2.09375 L 3.171875 -2.59375 C 4.046875 -3.0625 4.5 -3.71875 4.5 -4.5 C 4.5 -5.03125 4.28125 -5.53125 3.921875 -5.875 C 3.546875 -6.203125 3.09375 -6.359375 2.5 -6.359375 C 1.703125 -6.359375 1.125 -6.078125 0.78125 -5.53125 C 0.546875 -5.203125 0.453125 -4.796875 0.4375 -4.15625 L 1.21875 -4.15625 C 1.234375 -4.59375 1.296875 -4.84375 1.40625 -5.0625 C 1.59375 -5.4375 2 -5.6875 2.46875 -5.6875 C 3.171875 -5.6875 3.703125 -5.171875 3.703125 -4.484375 C 3.703125 -3.96875 3.40625 -3.53125 2.859375 -3.21875 L 2.046875 -2.75 C 0.75 -2 0.375 -1.40625 0.296875 -0.015625 L 4.453125 -0.015625 Z M 4.453125 -0.765625 "
           id="path17" />
      </symbol>
      <symbol
         overflow="visible"
         id="glyph0-6">
        <path
           style="stroke:none;"
           d="M 2.421875 -6.359375 C 1.84375 -6.359375 1.3125 -6.09375 0.984375 -5.671875 C 0.578125 -5.109375 0.375 -4.25 0.375 -3.078125 C 0.375 -0.9375 1.078125 0.203125 2.421875 0.203125 C 3.734375 0.203125 4.453125 -0.9375 4.453125 -3.03125 C 4.453125 -4.25 4.265625 -5.078125 3.859375 -5.671875 C 3.53125 -6.109375 3.015625 -6.359375 2.421875 -6.359375 Z M 2.421875 -5.671875 C 3.25 -5.671875 3.671875 -4.828125 3.671875 -3.09375 C 3.671875 -1.28125 3.265625 -0.4375 2.40625 -0.4375 C 1.578125 -0.4375 1.171875 -1.3125 1.171875 -3.0625 C 1.171875 -4.828125 1.578125 -5.671875 2.421875 -5.671875 Z M 2.421875 -5.671875 "
           id="path20" />
      </symbol>
      <symbol
         overflow="visible"
         id="glyph0-7">
        <path
           style="stroke:none;"
           d="M 1.6875 -0.921875 L 0.765625 -0.921875 L 0.765625 0 L 1.6875 0 Z M 1.6875 -0.921875 "
           id="path23" />
      </symbol>
      <symbol
         overflow="visible"
         id="glyph0-8">
        <path
           style="stroke:none;"
           d="M 4.1875 -6.234375 L 0.96875 -6.234375 L 0.5 -2.84375 L 1.21875 -2.84375 C 1.578125 -3.265625 1.875 -3.421875 2.359375 -3.421875 C 3.203125 -3.421875 3.71875 -2.84375 3.71875 -1.921875 C 3.71875 -1.03125 3.203125 -0.484375 2.359375 -0.484375 C 1.6875 -0.484375 1.265625 -0.828125 1.078125 -1.53125 L 0.3125 -1.53125 C 0.40625 -1.015625 0.5 -0.78125 0.6875 -0.546875 C 1.03125 -0.078125 1.671875 0.203125 2.375 0.203125 C 3.640625 0.203125 4.515625 -0.71875 4.515625 -2.03125 C 4.515625 -3.265625 3.6875 -4.109375 2.5 -4.109375 C 2.0625 -4.109375 1.703125 -4 1.34375 -3.734375 L 1.59375 -5.46875 L 4.1875 -5.46875 Z M 4.1875 -6.234375 "
           id="path26" />
      </symbol>
      <symbol
         overflow="visible"
         id="glyph0-9">
        <path
           style="stroke:none;"
           d="M 4.578125 -6.234375 L 0.40625 -6.234375 L 0.40625 -5.46875 L 3.78125 -5.46875 C 2.28125 -3.359375 1.6875 -2.046875 1.21875 0 L 2.046875 0 C 2.390625 -2 3.171875 -3.71875 4.578125 -5.59375 Z M 4.578125 -6.234375 "
           id="path29" />
      </symbol>
      <symbol
         overflow="visible"
         id="glyph1-0">
        <path
           style="stroke:none;"
           d=""
           id="path32" />
      </symbol>
      <symbol
         overflow="visible"
         id="glyph1-1">
        <path
           style="stroke:none;"
           d="M 4.296875 -4.109375 L 7 -8.015625 L 5.78125 -8.015625 L 3.71875 -4.875 L 1.65625 -8.015625 L 0.421875 -8.015625 L 3.078125 -4.109375 L 0.234375 0 L 1.484375 0 L 3.6875 -3.34375 L 5.875 0 L 7.140625 0 Z M 4.296875 -4.109375 "
           id="path35" />
      </symbol>
      <symbol
         overflow="visible"
         id="glyph2-0">
        <path
           style="stroke:none;"
           d=""
           id="path38" />
      </symbol>
      <symbol
         overflow="visible"
         id="glyph2-1">
        <path
           style="stroke:none;"
           d="M -3.140625 -4.25 L -8.015625 -7.265625 L -8.015625 -6.046875 L -4.109375 -3.765625 L -8.015625 -1.40625 L -8.015625 -0.140625 L -3.140625 -3.234375 L 0 -3.234375 L 0 -4.25 Z M -3.140625 -4.25 "
           id="path41" />
      </symbol>
    </g>
    <clipPath
       id="clip1">
      <path
         d="M 35.152344 5.480469 L 593.523438 5.480469 L 593.523438 339.601562 L 35.152344 339.601562 Z M 35.152344 5.480469 "
         id="path46" />
    </clipPath>
    <clipPath
       id="clip2">
      <path
         d="M 35.152344 302 L 593.523438 302 L 593.523438 304 L 35.152344 304 Z M 35.152344 302 "
         id="path49" />
    </clipPath>
    <clipPath
       id="clip3">
      <path
         d="M 35.152344 220 L 593.523438 220 L 593.523438 221 L 35.152344 221 Z M 35.152344 220 "
         id="path52" />
    </clipPath>
    <clipPath
       id="clip4">
      <path
         d="M 35.152344 137 L 593.523438 137 L 593.523438 139 L 35.152344 139 Z M 35.152344 137 "
         id="path55" />
    </clipPath>
    <clipPath
       id="clip5">
      <path
         d="M 35.152344 55 L 593.523438 55 L 593.523438 56 L 35.152344 56 Z M 35.152344 55 "
         id="path58" />
    </clipPath>
    <clipPath
       id="clip6">
      <path
         d="M 104 5.480469 L 106 5.480469 L 106 339.601562 L 104 339.601562 Z M 104 5.480469 "
         id="path61" />
    </clipPath>
    <clipPath
       id="clip7">
      <path
         d="M 243 5.480469 L 245 5.480469 L 245 339.601562 L 243 339.601562 Z M 243 5.480469 "
         id="path64" />
    </clipPath>
    <clipPath
       id="clip8">
      <path
         d="M 383 5.480469 L 384 5.480469 L 384 339.601562 L 383 339.601562 Z M 383 5.480469 "
         id="path67" />
    </clipPath>
    <clipPath
       id="clip9">
      <path
         d="M 522 5.480469 L 523 5.480469 L 523 339.601562 L 522 339.601562 Z M 522 5.480469 "
         id="path70" />
    </clipPath>
    <clipPath
       id="clip10">
      <path
         d="M 35.152344 261 L 593.523438 261 L 593.523438 263 L 35.152344 263 Z M 35.152344 261 "
         id="path73" />
    </clipPath>
    <clipPath
       id="clip11">
      <path
         d="M 35.152344 178 L 593.523438 178 L 593.523438 180 L 35.152344 180 Z M 35.152344 178 "
         id="path76" />
    </clipPath>
    <clipPath
       id="clip12">
      <path
         d="M 35.152344 96 L 593.523438 96 L 593.523438 98 L 35.152344 98 Z M 35.152344 96 "
         id="path79" />
    </clipPath>
    <clipPath
       id="clip13">
      <path
         d="M 35.152344 13 L 593.523438 13 L 593.523438 15 L 35.152344 15 Z M 35.152344 13 "
         id="path82" />
    </clipPath>
    <clipPath
       id="clip14">
      <path
         d="M 35.152344 5.480469 L 36 5.480469 L 36 339.601562 L 35.152344 339.601562 Z M 35.152344 5.480469 "
         id="path85" />
    </clipPath>
    <clipPath
       id="clip15">
      <path
         d="M 173 5.480469 L 175 5.480469 L 175 339.601562 L 173 339.601562 Z M 173 5.480469 "
         id="path88" />
    </clipPath>
    <clipPath
       id="clip16">
      <path
         d="M 313 5.480469 L 315 5.480469 L 315 339.601562 L 313 339.601562 Z M 313 5.480469 "
         id="path91" />
    </clipPath>
    <clipPath
       id="clip17">
      <path
         d="M 452 5.480469 L 454 5.480469 L 454 339.601562 L 452 339.601562 Z M 452 5.480469 "
         id="path94" />
    </clipPath>
    <clipPath
       id="clip18">
      <path
         d="M 591 5.480469 L 593 5.480469 L 593 339.601562 L 591 339.601562 Z M 591 5.480469 "
         id="path97" />
    </clipPath>
    <clipPath
       id="clip19">
      <path
         d="M 35.152344 5.480469 L 593.523438 5.480469 L 593.523438 339.601562 L 35.152344 339.601562 Z M 35.152344 5.480469 "
         id="path100" />
    </clipPath>
    <rect
       x="1.2644399"
       y="383.9783"
       width="494.4071"
       height="185.01933"
       id="rect1237-3" />
    <rect
       x="1.2644399"
       y="383.9783"
       width="494.4071"
       height="185.01933"
       id="rect1265" />
  </defs>
  <g
     clip-path="url(#clip1)"
     clip-rule="nonzero"
     id="g113">
    <path
       style="fill:#ffffff;fill-opacity:1;fill-rule:nonzero;stroke:none"
       d="M 35.152344,339.59766 H 593.52344 V 5.476562 H 35.152344 Z m 0,0"
       id="path111" />
  </g>
  <g
     clip-path="url(#clip2)"
     clip-rule="nonzero"
     id="g117">
    <path
       style="fill:none;stroke:#ebebeb;stroke-width:0.533489;stroke-linecap:butt;stroke-linejoin:round;stroke-miterlimit:10;stroke-opacity:1"
       d="M 35.152344,303.12891 H 593.51953"
       id="path115" />
  </g>
  <g
     clip-path="url(#clip3)"
     clip-rule="nonzero"
     id="g121">
    <path
       style="fill:none;stroke:#ebebeb;stroke-width:0.533489;stroke-linecap:butt;stroke-linejoin:round;stroke-miterlimit:10;stroke-opacity:1"
       d="M 35.152344,220.50781 H 593.51953"
       id="path119" />
  </g>
  <g
     clip-path="url(#clip4)"
     clip-rule="nonzero"
     id="g125">
    <path
       style="fill:none;stroke:#ebebeb;stroke-width:0.533489;stroke-linecap:butt;stroke-linejoin:round;stroke-miterlimit:10;stroke-opacity:1"
       d="M 35.152344,137.88672 H 593.51953"
       id="path123" />
  </g>
  <g
     clip-path="url(#clip5)"
     clip-rule="nonzero"
     id="g129">
    <path
       style="fill:none;stroke:#ebebeb;stroke-width:0.533489;stroke-linecap:butt;stroke-linejoin:round;stroke-miterlimit:10;stroke-opacity:1"
       d="M 35.152344,55.265625 H 593.51953"
       id="path127" />
  </g>
  <g
     clip-path="url(#clip6)"
     clip-rule="nonzero"
     id="g133">
    <path
       style="fill:none;stroke:#ebebeb;stroke-width:0.533489;stroke-linecap:butt;stroke-linejoin:round;stroke-miterlimit:10;stroke-opacity:1"
       d="M 104.78516,339.59766 V 5.480469"
       id="path131" />
  </g>
  <g
     clip-path="url(#clip7)"
     clip-rule="nonzero"
     id="g137">
    <path
       style="fill:none;stroke:#ebebeb;stroke-width:0.533489;stroke-linecap:butt;stroke-linejoin:round;stroke-miterlimit:10;stroke-opacity:1"
       d="M 244.04297,339.59766 V 5.480469"
       id="path135" />
  </g>
  <g
     clip-path="url(#clip8)"
     clip-rule="nonzero"
     id="g141">
    <path
       style="fill:none;stroke:#ebebeb;stroke-width:0.533489;stroke-linecap:butt;stroke-linejoin:round;stroke-miterlimit:10;stroke-opacity:1"
       d="M 383.29687,339.59766 V 5.480469"
       id="path139" />
  </g>
  <g
     clip-path="url(#clip9)"
     clip-rule="nonzero"
     id="g145">
    <path
       style="fill:none;stroke:#ebebeb;stroke-width:0.533489;stroke-linecap:butt;stroke-linejoin:round;stroke-miterlimit:10;stroke-opacity:1"
       d="M 522.55469,339.59766 V 5.480469"
       id="path143" />
  </g>
  <g
     clip-path="url(#clip10)"
     clip-rule="nonzero"
     id="g149">
    <path
       style="fill:none;stroke:#ebebeb;stroke-width:1.06698;stroke-linecap:butt;stroke-linejoin:round;stroke-miterlimit:10;stroke-opacity:1"
       d="M 35.152344,261.82031 H 593.51953"
       id="path147" />
  </g>
  <g
     clip-path="url(#clip11)"
     clip-rule="nonzero"
     id="g153">
    <path
       style="fill:none;stroke:#ebebeb;stroke-width:1.06698;stroke-linecap:butt;stroke-linejoin:round;stroke-miterlimit:10;stroke-opacity:1"
       d="M 35.152344,179.19922 H 593.51953"
       id="path151" />
  </g>
  <g
     clip-path="url(#clip12)"
     clip-rule="nonzero"
     id="g157">
    <path
       style="fill:none;stroke:#ebebeb;stroke-width:1.06698;stroke-linecap:butt;stroke-linejoin:round;stroke-miterlimit:10;stroke-opacity:1"
       d="M 35.152344,96.574219 H 593.51953"
       id="path155" />
  </g>
  <g
     clip-path="url(#clip13)"
     clip-rule="nonzero"
     id="g161">
    <path
       style="fill:none;stroke:#ebebeb;stroke-width:1.06698;stroke-linecap:butt;stroke-linejoin:round;stroke-miterlimit:10;stroke-opacity:1"
       d="M 35.152344,13.953125 H 593.51953"
       id="path159" />
  </g>
  <g
     clip-path="url(#clip14)"
     clip-rule="nonzero"
     id="g165">
    <path
       style="fill:none;stroke:#ebebeb;stroke-width:1.06698;stroke-linecap:butt;stroke-linejoin:round;stroke-miterlimit:10;stroke-opacity:1"
       d="M 35.15625,339.59766 V 5.480469"
       id="path163" />
  </g>
  <g
     clip-path="url(#clip15)"
     clip-rule="nonzero"
     id="g169">
    <path
       style="fill:none;stroke:#ebebeb;stroke-width:1.06698;stroke-linecap:butt;stroke-linejoin:round;stroke-miterlimit:10;stroke-opacity:1"
       d="M 174.41406,339.59766 V 5.480469"
       id="path167" />
  </g>
  <g
     clip-path="url(#clip16)"
     clip-rule="nonzero"
     id="g173">
    <path
       style="fill:none;stroke:#ebebeb;stroke-width:1.06698;stroke-linecap:butt;stroke-linejoin:round;stroke-miterlimit:10;stroke-opacity:1"
       d="M 313.67187,339.59766 V 5.480469"
       id="path171" />
  </g>
  <g
     clip-path="url(#clip17)"
     clip-rule="nonzero"
     id="g177">
    <path
       style="fill:none;stroke:#ebebeb;stroke-width:1.06698;stroke-linecap:butt;stroke-linejoin:round;stroke-miterlimit:10;stroke-opacity:1"
       d="M 452.92578,339.59766 V 5.480469"
       id="path175" />
  </g>
  <g
     clip-path="url(#clip18)"
     clip-rule="nonzero"
     id="g181">
    <path
       style="fill:none;stroke:#ebebeb;stroke-width:1.06698;stroke-linecap:butt;stroke-linejoin:round;stroke-miterlimit:10;stroke-opacity:1"
       d="M 592.18359,339.59766 V 5.480469"
       id="path179" />
  </g>
  <path
     style="fill:none;stroke:#b02121;stroke-width:1.5;stroke-linecap:butt;stroke-linejoin:round;stroke-miterlimit:10;stroke-dasharray:none;stroke-opacity:1"
     d="m 60.53125,318.28516 6.425781,0.93359 6.425781,1.37891 6.425782,1.52343 6.425781,1.3711 6.425781,0.91797 6.421875,-0.40625 6.425779,-2.19532 6.42578,-3.74609 6.42579,-5.07031 6.42578,-6.16016 6.42578,-7.01562 6.42578,-7.64454 6.42578,-8.03515 6.42578,-8.19922 6.42578,-8.13281 6.42578,-7.82813 6.42188,-7.29687 6.42578,-6.53125 6.42578,-5.53516 6.42578,-4.30469 6.42578,-2.84765 6.42578,-3.39844 6.42579,-5.48828 6.42578,-6.89844 6.42578,-7.62891 6.42578,-7.67187 6.42578,-7.03125 6.42188,-5.71484 6.42578,-3.71094 c 0,0 4.27898,-1.33777 6.42578,-1.02735 3.61823,0.52318 7.47737,1.98692 9.89595,4.72841 2.06732,2.34333 2.95561,8.89659 2.95561,8.89659 0,0 6.55099,43.04629 21.87964,40.93861 5.86428,-0.80634 2.91771,-12.90584 2.04022,-25.04331 -1.28899,-17.82926 1.40604,-36.08815 39.10921,-21.60572 11.36896,-0.065 1.9668,-31.46032 13.33575,-31.39229 11.92438,0.0714 8.53185,22.51807 13.59221,33.091 l 6.42578,5.0625 6.42578,1.3789 6.42579,-1.49219 6.42187,-3.54687 6.42578,-4.78516 6.42578,-5.21093 6.42578,-4.82032 6.42579,-3.60937 6.42578,-1.62891 6.42578,-0.25 6.42578,0.40625 6.42578,0.76172 6.42578,0.81641 6.42578,0.5664 6.42188,0.0195 6.42578,-0.82421 6.42578,-1.97657 6.42578,-3.42578 6.42578,-6.58984 6.42578,-14.10938 6.42579,-19.01953 6.42578,-20.64062 6.42578,-18.984378 6.42578,-14.039062 c 0,0 3.53765,-5.890753 6.42578,-5.816406 3.38983,0.08726 5.67002,4.169969 7.18078,7.205778 5.56788,11.188406 5.22676,37.125678 5.22676,37.125678 0,0 0.26307,7.82741 3.05566,7.80103 9.83059,-0.0928 10.23602,-27.65983 10.23602,-27.65983 l 5.42919,-46.090711 c 0,0 1.12757,-28.296941 11.23851,-28.176352 6.26598,0.07473 6.54632,17.622663 6.54632,17.622663 l 2.4891,41.730338"
     id="path183"
     sodipodi:nodetypes="ccccccccccccccccccccccccccccccaacsscacccccccccccccccccccccccccaacaccacc" />
  <path
     style="fill:#000000;fill-opacity:1;fill-rule:nonzero;stroke:#000000;stroke-width:0.708661;stroke-linecap:round;stroke-linejoin:round;stroke-miterlimit:10;stroke-opacity:1"
     d="m 197.30078,233.5 c 0,2.60547 -3.91016,2.60547 -3.91016,0 0,-2.60547 3.91016,-2.60547 3.91016,0"
     id="path185" />
  <path
     style="fill:#000000;fill-opacity:1;fill-rule:nonzero;stroke:#000000;stroke-width:0.708661;stroke-linecap:round;stroke-linejoin:round;stroke-miterlimit:10;stroke-opacity:1"
     d="m 476.21875,170.14844 c 0,2.60937 -3.91016,2.60937 -3.91016,0 0,-2.60547 3.91016,-2.60547 3.91016,0"
     id="path187" />
  <path
     style="fill:#000000;fill-opacity:1;fill-rule:nonzero;stroke:#000000;stroke-width:0.708661;stroke-linecap:round;stroke-linejoin:round;stroke-miterlimit:10;stroke-opacity:1"
     d="m 264.92187,189.91406 c 0,2.60547 -3.91015,2.60547 -3.91015,0 0,-2.60937 3.91015,-2.60937 3.91015,0"
     id="path189" />
  <path
     style="fill:#000000;fill-opacity:1;fill-rule:nonzero;stroke:#000000;stroke-width:0.708661;stroke-linecap:round;stroke-linejoin:round;stroke-miterlimit:10;stroke-opacity:1"
     d="m 528.97656,88.765625 c 0,2.605469 -3.91015,2.605469 -3.91015,0 0,-2.605469 3.91015,-2.605469 3.91015,0"
     id="path191" />
  <path
     style="fill:#000000;fill-opacity:1;fill-rule:nonzero;stroke:#000000;stroke-width:0.708661;stroke-linecap:round;stroke-linejoin:round;stroke-miterlimit:10;stroke-opacity:1"
     d="m 560.97656,22.761719 c 0,2.605469 -3.90625,2.605469 -3.90625,0 0,-2.605469 3.90625,-2.605469 3.90625,0"
     id="path193" />
  <path
     style="fill:#000000;fill-opacity:1;fill-rule:nonzero;stroke:#000000;stroke-width:0.708661;stroke-linecap:round;stroke-linejoin:round;stroke-miterlimit:10;stroke-opacity:1"
     d="m 62.484375,318.28516 c 0,2.60546 -3.90625,2.60546 -3.90625,0 0,-2.60547 3.90625,-2.60547 3.90625,0"
     id="path195" />
  <path
     style="fill:#000000;fill-opacity:1;fill-rule:nonzero;stroke:#000000;stroke-width:0.708661;stroke-linecap:round;stroke-linejoin:round;stroke-miterlimit:10;stroke-opacity:1"
     d="m 331.28125,193.09375 c 0,2.60547 -3.91016,2.60547 -3.91016,0 0,-2.60547 3.91016,-2.60547 3.91016,0"
     id="path197" />
  <path
     style="fill:#000000;fill-opacity:1;fill-rule:nonzero;stroke:#000000;stroke-width:0.708661;stroke-linecap:round;stroke-linejoin:round;stroke-miterlimit:10;stroke-opacity:1"
     d="m 534.21484,124.66016 c 0,2.60937 -3.91015,2.60937 -3.91015,0 0,-2.60547 3.91015,-2.60547 3.91015,0"
     id="path199" />
  <path
     style="fill:#000000;fill-opacity:1;fill-rule:nonzero;stroke:#000000;stroke-width:0.708661;stroke-linecap:round;stroke-linejoin:round;stroke-miterlimit:10;stroke-opacity:1"
     d="m 344.27734,160.48047 c 0,2.60547 -3.91015,2.60547 -3.91015,0 0,-2.60547 3.91015,-2.60547 3.91015,0"
     id="path201" />
  <path
     style="fill:#000000;fill-opacity:1;fill-rule:nonzero;stroke:#000000;stroke-width:0.708661;stroke-linecap:round;stroke-linejoin:round;stroke-miterlimit:10;stroke-opacity:1"
     d="m 292.95703,198.22266 c 0,2.60937 -3.91016,2.60937 -3.91016,0 0,-2.60547 3.91016,-2.60547 3.91016,0"
     id="path203" />
  <path
     style="fill:#000000;fill-opacity:1;fill-rule:nonzero;stroke:#000000;stroke-width:0.708661;stroke-linecap:round;stroke-linejoin:round;stroke-miterlimit:10;stroke-opacity:1"
     d="m 570.09375,82.304688 c 0,2.605468 -3.91016,2.605468 -3.91016,0 0,-2.609376 3.91016,-2.609376 3.91016,0"
     id="path205" />
  <path
     style="fill:#000000;fill-opacity:1;fill-rule:nonzero;stroke:#000000;stroke-width:0.708661;stroke-linecap:round;stroke-linejoin:round;stroke-miterlimit:10;stroke-opacity:1"
     d="m 289.62891,239.03125 c 0,2.60547 -3.90625,2.60547 -3.90625,0 0,-2.60547 3.90625,-2.60547 3.90625,0"
     id="path207" />
  <path
     style="fill:#000000;fill-opacity:1;fill-rule:nonzero;stroke:#000000;stroke-width:0.708661;stroke-linecap:round;stroke-linejoin:round;stroke-miterlimit:10;stroke-opacity:1"
     d="m 414.53516,176.01562 c 0,2.60547 -3.90625,2.60547 -3.90625,0 0,-2.60546 3.90625,-2.60546 3.90625,0"
     id="path209" />
  <path
     style="fill:#000000;fill-opacity:1;fill-rule:nonzero;stroke:#000000;stroke-width:0.708661;stroke-linecap:round;stroke-linejoin:round;stroke-miterlimit:10;stroke-opacity:1"
     d="m 356.08203,192.08594 c 0,2.60547 -3.90625,2.60547 -3.90625,0 0,-2.60938 3.90625,-2.60938 3.90625,0"
     id="path211" />
  <path
     style="fill:#000000;fill-opacity:1;fill-rule:nonzero;stroke:#000000;stroke-width:0.708661;stroke-linecap:round;stroke-linejoin:round;stroke-miterlimit:10;stroke-opacity:1"
     d="m 94.441406,324.39453 c 0,2.60938 -3.910156,2.60938 -3.910156,0 0,-2.60547 3.910156,-2.60547 3.910156,0"
     id="path213" />
  <g
     clip-path="url(#clip19)"
     clip-rule="nonzero"
     id="g217">
    <path
       style="fill:none;stroke:#333333;stroke-width:1.06698;stroke-linecap:round;stroke-linejoin:round;stroke-miterlimit:10;stroke-opacity:1"
       d="M 35.152344,339.59766 H 593.52344 V 5.476562 H 35.152344 Z m 0,0"
       id="path215" />
  </g>
  <g
     style="fill:#4c4c4c;fill-opacity:1"
     id="g221">
    <use
       xlink:href="#glyph0-1"
       x="25.21875"
       y="264.73535"
       id="use219"
       width="100%"
       height="100%" />
  </g>
  <g
     style="fill:#4c4c4c;fill-opacity:1"
     id="g225">
    <use
       xlink:href="#glyph0-2"
       x="25.21875"
       y="182.11426"
       id="use223"
       width="100%"
       height="100%" />
  </g>
  <g
     style="fill:#4c4c4c;fill-opacity:1"
     id="g229">
    <use
       xlink:href="#glyph0-3"
       x="25.21875"
       y="99.489258"
       id="use227"
       width="100%"
       height="100%" />
  </g>
  <g
     style="fill:#4c4c4c;fill-opacity:1"
     id="g235">
    <use
       xlink:href="#glyph0-4"
       x="20.21875"
       y="16.868164"
       id="use231"
       width="100%"
       height="100%" />
    <use
       xlink:href="#glyph0-5"
       x="25.21875"
       y="16.868164"
       id="use233"
       width="100%"
       height="100%" />
  </g>
  <path
     style="fill:none;stroke:#333333;stroke-width:1.06698;stroke-linecap:butt;stroke-linejoin:round;stroke-miterlimit:10;stroke-opacity:1"
     d="m 32.410156,261.82031 h 2.742188"
     id="path237" />
  <path
     style="fill:none;stroke:#333333;stroke-width:1.06698;stroke-linecap:butt;stroke-linejoin:round;stroke-miterlimit:10;stroke-opacity:1"
     d="m 32.410156,179.19922 h 2.742188"
     id="path239" />
  <path
     style="fill:none;stroke:#333333;stroke-width:1.06698;stroke-linecap:butt;stroke-linejoin:round;stroke-miterlimit:10;stroke-opacity:1"
     d="m 32.410156,96.574219 h 2.742188"
     id="path241" />
  <path
     style="fill:none;stroke:#333333;stroke-width:1.06698;stroke-linecap:butt;stroke-linejoin:round;stroke-miterlimit:10;stroke-opacity:1"
     d="m 32.410156,13.953125 h 2.742188"
     id="path243" />
  <path
     style="fill:none;stroke:#333333;stroke-width:1.06698;stroke-linecap:butt;stroke-linejoin:round;stroke-miterlimit:10;stroke-opacity:1"
     d="m 35.15625,342.33984 v -2.74218"
     id="path245" />
  <path
     style="fill:none;stroke:#333333;stroke-width:1.06698;stroke-linecap:butt;stroke-linejoin:round;stroke-miterlimit:10;stroke-opacity:1"
     d="m 174.41406,342.33984 v -2.74218"
     id="path247" />
  <path
     style="fill:none;stroke:#333333;stroke-width:1.06698;stroke-linecap:butt;stroke-linejoin:round;stroke-miterlimit:10;stroke-opacity:1"
     d="m 313.67187,342.33984 v -2.74218"
     id="path249" />
  <path
     style="fill:none;stroke:#333333;stroke-width:1.06698;stroke-linecap:butt;stroke-linejoin:round;stroke-miterlimit:10;stroke-opacity:1"
     d="m 452.92578,342.33984 v -2.74218"
     id="path251" />
  <path
     style="fill:none;stroke:#333333;stroke-width:1.06698;stroke-linecap:butt;stroke-linejoin:round;stroke-miterlimit:10;stroke-opacity:1"
     d="m 592.18359,342.33984 v -2.74218"
     id="path253" />
  <g
     style="fill:#4c4c4c;fill-opacity:1"
     id="g261">
    <use
       xlink:href="#glyph0-6"
       x="29.15625"
       y="350.94629"
       id="use255"
       width="100%"
       height="100%" />
    <use
       xlink:href="#glyph0-7"
       x="34.15625"
       y="350.94629"
       id="use257"
       width="100%"
       height="100%" />
    <use
       xlink:href="#glyph0-6"
       x="36.15625"
       y="350.94629"
       id="use259"
       width="100%"
       height="100%" />
  </g>
  <g
     style="fill:#4c4c4c;fill-opacity:1"
     id="g269">
    <use
       xlink:href="#glyph0-5"
       x="168.41406"
       y="350.94629"
       id="use263"
       width="100%"
       height="100%" />
    <use
       xlink:href="#glyph0-7"
       x="173.41406"
       y="350.94629"
       id="use265"
       width="100%"
       height="100%" />
    <use
       xlink:href="#glyph0-8"
       x="175.41406"
       y="350.94629"
       id="use267"
       width="100%"
       height="100%" />
  </g>
  <g
     style="fill:#4c4c4c;fill-opacity:1"
     id="g277">
    <use
       xlink:href="#glyph0-8"
       x="307.67188"
       y="350.94629"
       id="use271"
       width="100%"
       height="100%" />
    <use
       xlink:href="#glyph0-7"
       x="312.67188"
       y="350.94629"
       id="use273"
       width="100%"
       height="100%" />
    <use
       xlink:href="#glyph0-6"
       x="314.67188"
       y="350.94629"
       id="use275"
       width="100%"
       height="100%" />
  </g>
  <g
     style="fill:#4c4c4c;fill-opacity:1"
     id="g285">
    <use
       xlink:href="#glyph0-9"
       x="446.92578"
       y="350.94629"
       id="use279"
       width="100%"
       height="100%" />
    <use
       xlink:href="#glyph0-7"
       x="451.92578"
       y="350.94629"
       id="use281"
       width="100%"
       height="100%" />
    <use
       xlink:href="#glyph0-8"
       x="453.92578"
       y="350.94629"
       id="use283"
       width="100%"
       height="100%" />
  </g>
  <g
     style="fill:#4c4c4c;fill-opacity:1"
     id="g295">
    <use
       xlink:href="#glyph0-4"
       x="583.68359"
       y="350.94629"
       id="use287"
       width="100%"
       height="100%" />
    <use
       xlink:href="#glyph0-6"
       x="588.68359"
       y="350.94629"
       id="use289"
       width="100%"
       height="100%" />
    <use
       xlink:href="#glyph0-7"
       x="593.68359"
       y="350.94629"
       id="use291"
       width="100%"
       height="100%" />
    <use
       xlink:href="#glyph0-6"
       x="595.68359"
       y="350.94629"
       id="use293"
       width="100%"
       height="100%" />
  </g>
  <g
     style="fill:#000000;fill-opacity:1"
     id="g299">
    <use
       xlink:href="#glyph1-1"
       x="310.83594"
       y="364.53809"
       id="use297"
       width="100%"
       height="100%" />
  </g>
  <g
     style="fill:#000000;fill-opacity:1"
     id="g303">
    <use
       xlink:href="#glyph2-1"
       x="13.499023"
       y="176.03906"
       id="use301"
       width="100%"
       height="100%" />
  </g>
  <text
     xml:space="preserve"
     id="text1235"
     style="font-size:12px;line-height:1.25;font-family:Ubuntu;-inkscape-font-specification:'Ubuntu, Normal';white-space:pre;shape-inside:url(#rect1237);"
     transform="translate(52.492065,-369.45913)"><tspan
       x="1.2636719"
       y="395.16842"><tspan
         style="font-style:normal;font-variant:normal;font-weight:500;font-stretch:normal;font-family:Ubuntu;-inkscape-font-specification:'Ubuntu Medium'">Modèle spécifique : parfaitement adapté à ces données, mais sans aucune généricité</tspan></tspan></text>
  <text
     xml:space="preserve"
     id="text1235-6"
     style="font-size:12px;line-height:1.25;font-family:Ubuntu;-inkscape-font-specification:'Ubuntu, Normal';white-space:pre;shape-inside:url(#rect1237-3);"
     transform="translate(52.993231,-349.0124)"><tspan
       x="1.2636719"
       y="395.16842"><tspan>Variance totale = Variance expliquée
</tspan></tspan><tspan
       x="1.2636719"
       y="410.16842"><tspan>Variance résiduelle nulle</tspan></tspan></text>
</svg>
