<?xml version="1.0" encoding="UTF-8" standalone="no"?>
<svg
   xmlns:dc="http://purl.org/dc/elements/1.1/"
   xmlns:cc="http://creativecommons.org/ns#"
   xmlns:rdf="http://www.w3.org/1999/02/22-rdf-syntax-ns#"
   xmlns:svg="http://www.w3.org/2000/svg"
   xmlns="http://www.w3.org/2000/svg"
   xmlns:xlink="http://www.w3.org/1999/xlink"
   xmlns:sodipodi="http://sodipodi.sourceforge.net/DTD/sodipodi-0.dtd"
   xmlns:inkscape="http://www.inkscape.org/namespaces/inkscape"
   width="599pt"
   height="374pt"
   viewBox="0 0 599 374"
   version="1.1"
   id="svg311"
   sodipodi:docname="modele_vide.svg"
   inkscape:version="1.0.1 (0767f8302a, 2020-10-17)">
  <metadata
     id="metadata315">
    <rdf:RDF>
      <cc:Work
         rdf:about="">
        <dc:format>image/svg+xml</dc:format>
        <dc:type
           rdf:resource="http://purl.org/dc/dcmitype/StillImage" />
        <dc:title></dc:title>
      </cc:Work>
    </rdf:RDF>
  </metadata>
  <sodipodi:namedview
     pagecolor="#ffffff"
     bordercolor="#666666"
     borderopacity="1"
     objecttolerance="10"
     gridtolerance="10"
     guidetolerance="10"
     inkscape:pageopacity="0"
     inkscape:pageshadow="2"
     inkscape:window-width="1366"
     inkscape:window-height="704"
     id="namedview313"
     showgrid="false"
     inkscape:zoom="0.79124114"
     inkscape:cx="382.55097"
     inkscape:cy="142.2607"
     inkscape:window-x="0"
     inkscape:window-y="27"
     inkscape:window-maximized="1"
     inkscape:current-layer="svg311" />
  <defs
     id="defs106">
    <g
       id="g44">
      <symbol
         overflow="visible"
         id="glyph0-0">
        <path
           style="stroke:none;"
           d=""
           id="path2" />
      </symbol>
      <symbol
         overflow="visible"
         id="glyph0-1">
        <path
           style="stroke:none;"
           d="M 1.9375 -2.921875 L 2.359375 -2.921875 C 3.203125 -2.921875 3.65625 -2.53125 3.65625 -1.765625 C 3.65625 -0.96875 3.171875 -0.484375 2.375 -0.484375 C 1.515625 -0.484375 1.109375 -0.921875 1.0625 -1.84375 L 0.28125 -1.84375 C 0.3125 -1.34375 0.40625 -1 0.546875 -0.71875 C 0.875 -0.109375 1.484375 0.203125 2.34375 0.203125 C 3.625 0.203125 4.453125 -0.578125 4.453125 -1.78125 C 4.453125 -2.59375 4.140625 -3.03125 3.390625 -3.296875 C 3.96875 -3.53125 4.265625 -3.96875 4.265625 -4.609375 C 4.265625 -5.703125 3.546875 -6.359375 2.359375 -6.359375 C 1.109375 -6.359375 0.4375 -5.65625 0.40625 -4.3125 L 1.1875 -4.3125 C 1.203125 -4.703125 1.234375 -4.921875 1.328125 -5.109375 C 1.5 -5.46875 1.890625 -5.6875 2.375 -5.6875 C 3.0625 -5.6875 3.46875 -5.265625 3.46875 -4.578125 C 3.46875 -4.140625 3.3125 -3.859375 2.96875 -3.71875 C 2.765625 -3.625 2.484375 -3.59375 1.9375 -3.578125 Z M 1.9375 -2.921875 "
           id="path5" />
      </symbol>
      <symbol
         overflow="visible"
         id="glyph0-2">
        <path
           style="stroke:none;"
           d="M 4.375 -4.703125 C 4.234375 -5.75 3.5625 -6.359375 2.609375 -6.359375 C 1.921875 -6.359375 1.3125 -6.03125 0.9375 -5.453125 C 0.546875 -4.828125 0.375 -4.0625 0.375 -2.90625 C 0.375 -1.828125 0.53125 -1.15625 0.90625 -0.59375 C 1.234375 -0.078125 1.78125 0.203125 2.46875 0.203125 C 3.65625 0.203125 4.515625 -0.6875 4.515625 -1.921875 C 4.515625 -3.09375 3.71875 -3.921875 2.609375 -3.921875 C 1.984375 -3.921875 1.5 -3.6875 1.171875 -3.234375 C 1.171875 -4.796875 1.671875 -5.671875 2.5625 -5.671875 C 3.109375 -5.671875 3.484375 -5.328125 3.609375 -4.703125 Z M 2.5 -3.234375 C 3.25 -3.234375 3.71875 -2.703125 3.71875 -1.859375 C 3.71875 -1.0625 3.1875 -0.484375 2.484375 -0.484375 C 1.765625 -0.484375 1.21875 -1.09375 1.21875 -1.90625 C 1.21875 -2.6875 1.734375 -3.234375 2.5 -3.234375 Z M 2.5 -3.234375 "
           id="path8" />
      </symbol>
      <symbol
         overflow="visible"
         id="glyph0-3">
        <path
           style="stroke:none;"
           d="M 0.46875 -1.453125 C 0.609375 -0.40625 1.28125 0.203125 2.234375 0.203125 C 2.921875 0.203125 3.546875 -0.125 3.921875 -0.703125 C 4.296875 -1.328125 4.484375 -2.109375 4.484375 -3.25 C 4.484375 -4.328125 4.3125 -5 3.953125 -5.5625 C 3.609375 -6.09375 3.0625 -6.359375 2.375 -6.359375 C 1.1875 -6.359375 0.328125 -5.46875 0.328125 -4.234375 C 0.328125 -3.0625 1.125 -2.25 2.25 -2.25 C 2.84375 -2.25 3.28125 -2.453125 3.671875 -2.9375 C 3.671875 -1.359375 3.171875 -0.484375 2.28125 -0.484375 C 1.734375 -0.484375 1.359375 -0.828125 1.234375 -1.453125 Z M 2.359375 -5.6875 C 3.09375 -5.6875 3.640625 -5.078125 3.640625 -4.25 C 3.640625 -3.46875 3.109375 -2.921875 2.34375 -2.921875 C 1.59375 -2.921875 1.125 -3.453125 1.125 -4.296875 C 1.125 -5.109375 1.640625 -5.6875 2.359375 -5.6875 Z M 2.359375 -5.6875 "
           id="path11" />
      </symbol>
      <symbol
         overflow="visible"
         id="glyph0-4">
        <path
           style="stroke:none;"
           d="M 2.28125 -4.53125 L 2.28125 0 L 3.046875 0 L 3.046875 -6.359375 L 2.546875 -6.359375 C 2.265625 -5.390625 2.09375 -5.25 0.890625 -5.09375 L 0.890625 -4.53125 Z M 2.28125 -4.53125 "
           id="path14" />
      </symbol>
      <symbol
         overflow="visible"
         id="glyph0-5">
        <path
           style="stroke:none;"
           d="M 4.453125 -0.765625 L 1.171875 -0.765625 C 1.25 -1.296875 1.53125 -1.625 2.296875 -2.09375 L 3.171875 -2.59375 C 4.046875 -3.0625 4.5 -3.71875 4.5 -4.5 C 4.5 -5.03125 4.28125 -5.53125 3.921875 -5.875 C 3.546875 -6.203125 3.09375 -6.359375 2.5 -6.359375 C 1.703125 -6.359375 1.125 -6.078125 0.78125 -5.53125 C 0.546875 -5.203125 0.453125 -4.796875 0.4375 -4.15625 L 1.21875 -4.15625 C 1.234375 -4.59375 1.296875 -4.84375 1.40625 -5.0625 C 1.59375 -5.4375 2 -5.6875 2.46875 -5.6875 C 3.171875 -5.6875 3.703125 -5.171875 3.703125 -4.484375 C 3.703125 -3.96875 3.40625 -3.53125 2.859375 -3.21875 L 2.046875 -2.75 C 0.75 -2 0.375 -1.40625 0.296875 -0.015625 L 4.453125 -0.015625 Z M 4.453125 -0.765625 "
           id="path17" />
      </symbol>
      <symbol
         overflow="visible"
         id="glyph0-6">
        <path
           style="stroke:none;"
           d="M 2.421875 -6.359375 C 1.84375 -6.359375 1.3125 -6.09375 0.984375 -5.671875 C 0.578125 -5.109375 0.375 -4.25 0.375 -3.078125 C 0.375 -0.9375 1.078125 0.203125 2.421875 0.203125 C 3.734375 0.203125 4.453125 -0.9375 4.453125 -3.03125 C 4.453125 -4.25 4.265625 -5.078125 3.859375 -5.671875 C 3.53125 -6.109375 3.015625 -6.359375 2.421875 -6.359375 Z M 2.421875 -5.671875 C 3.25 -5.671875 3.671875 -4.828125 3.671875 -3.09375 C 3.671875 -1.28125 3.265625 -0.4375 2.40625 -0.4375 C 1.578125 -0.4375 1.171875 -1.3125 1.171875 -3.0625 C 1.171875 -4.828125 1.578125 -5.671875 2.421875 -5.671875 Z M 2.421875 -5.671875 "
           id="path20" />
      </symbol>
      <symbol
         overflow="visible"
         id="glyph0-7">
        <path
           style="stroke:none;"
           d="M 1.6875 -0.921875 L 0.765625 -0.921875 L 0.765625 0 L 1.6875 0 Z M 1.6875 -0.921875 "
           id="path23" />
      </symbol>
      <symbol
         overflow="visible"
         id="glyph0-8">
        <path
           style="stroke:none;"
           d="M 4.1875 -6.234375 L 0.96875 -6.234375 L 0.5 -2.84375 L 1.21875 -2.84375 C 1.578125 -3.265625 1.875 -3.421875 2.359375 -3.421875 C 3.203125 -3.421875 3.71875 -2.84375 3.71875 -1.921875 C 3.71875 -1.03125 3.203125 -0.484375 2.359375 -0.484375 C 1.6875 -0.484375 1.265625 -0.828125 1.078125 -1.53125 L 0.3125 -1.53125 C 0.40625 -1.015625 0.5 -0.78125 0.6875 -0.546875 C 1.03125 -0.078125 1.671875 0.203125 2.375 0.203125 C 3.640625 0.203125 4.515625 -0.71875 4.515625 -2.03125 C 4.515625 -3.265625 3.6875 -4.109375 2.5 -4.109375 C 2.0625 -4.109375 1.703125 -4 1.34375 -3.734375 L 1.59375 -5.46875 L 4.1875 -5.46875 Z M 4.1875 -6.234375 "
           id="path26" />
      </symbol>
      <symbol
         overflow="visible"
         id="glyph0-9">
        <path
           style="stroke:none;"
           d="M 4.578125 -6.234375 L 0.40625 -6.234375 L 0.40625 -5.46875 L 3.78125 -5.46875 C 2.28125 -3.359375 1.6875 -2.046875 1.21875 0 L 2.046875 0 C 2.390625 -2 3.171875 -3.71875 4.578125 -5.59375 Z M 4.578125 -6.234375 "
           id="path29" />
      </symbol>
      <symbol
         overflow="visible"
         id="glyph1-0">
        <path
           style="stroke:none;"
           d=""
           id="path32" />
      </symbol>
      <symbol
         overflow="visible"
         id="glyph1-1">
        <path
           style="stroke:none;"
           d="M 4.296875 -4.109375 L 7 -8.015625 L 5.78125 -8.015625 L 3.71875 -4.875 L 1.65625 -8.015625 L 0.421875 -8.015625 L 3.078125 -4.109375 L 0.234375 0 L 1.484375 0 L 3.6875 -3.34375 L 5.875 0 L 7.140625 0 Z M 4.296875 -4.109375 "
           id="path35" />
      </symbol>
      <symbol
         overflow="visible"
         id="glyph2-0">
        <path
           style="stroke:none;"
           d=""
           id="path38" />
      </symbol>
      <symbol
         overflow="visible"
         id="glyph2-1">
        <path
           style="stroke:none;"
           d="M -3.140625 -4.25 L -8.015625 -7.265625 L -8.015625 -6.046875 L -4.109375 -3.765625 L -8.015625 -1.40625 L -8.015625 -0.140625 L -3.140625 -3.234375 L 0 -3.234375 L 0 -4.25 Z M -3.140625 -4.25 "
           id="path41" />
      </symbol>
    </g>
    <clipPath
       id="clip1">
      <path
         d="M 35.152344 5.480469 L 593.523438 5.480469 L 593.523438 339.601562 L 35.152344 339.601562 Z M 35.152344 5.480469 "
         id="path46" />
    </clipPath>
    <clipPath
       id="clip2">
      <path
         d="M 35.152344 302 L 593.523438 302 L 593.523438 304 L 35.152344 304 Z M 35.152344 302 "
         id="path49" />
    </clipPath>
    <clipPath
       id="clip3">
      <path
         d="M 35.152344 219 L 593.523438 219 L 593.523438 221 L 35.152344 221 Z M 35.152344 219 "
         id="path52" />
    </clipPath>
    <clipPath
       id="clip4">
      <path
         d="M 35.152344 136 L 593.523438 136 L 593.523438 137 L 35.152344 137 Z M 35.152344 136 "
         id="path55" />
    </clipPath>
    <clipPath
       id="clip5">
      <path
         d="M 35.152344 53 L 593.523438 53 L 593.523438 54 L 35.152344 54 Z M 35.152344 53 "
         id="path58" />
    </clipPath>
    <clipPath
       id="clip6">
      <path
         d="M 104 5.480469 L 106 5.480469 L 106 339.601562 L 104 339.601562 Z M 104 5.480469 "
         id="path61" />
    </clipPath>
    <clipPath
       id="clip7">
      <path
         d="M 243 5.480469 L 245 5.480469 L 245 339.601562 L 243 339.601562 Z M 243 5.480469 "
         id="path64" />
    </clipPath>
    <clipPath
       id="clip8">
      <path
         d="M 383 5.480469 L 384 5.480469 L 384 339.601562 L 383 339.601562 Z M 383 5.480469 "
         id="path67" />
    </clipPath>
    <clipPath
       id="clip9">
      <path
         d="M 522 5.480469 L 523 5.480469 L 523 339.601562 L 522 339.601562 Z M 522 5.480469 "
         id="path70" />
    </clipPath>
    <clipPath
       id="clip10">
      <path
         d="M 35.152344 260 L 593.523438 260 L 593.523438 262 L 35.152344 262 Z M 35.152344 260 "
         id="path73" />
    </clipPath>
    <clipPath
       id="clip11">
      <path
         d="M 35.152344 177 L 593.523438 177 L 593.523438 179 L 35.152344 179 Z M 35.152344 177 "
         id="path76" />
    </clipPath>
    <clipPath
       id="clip12">
      <path
         d="M 35.152344 94 L 593.523438 94 L 593.523438 96 L 35.152344 96 Z M 35.152344 94 "
         id="path79" />
    </clipPath>
    <clipPath
       id="clip13">
      <path
         d="M 35.152344 11 L 593.523438 11 L 593.523438 13 L 35.152344 13 Z M 35.152344 11 "
         id="path82" />
    </clipPath>
    <clipPath
       id="clip14">
      <path
         d="M 35.152344 5.480469 L 36 5.480469 L 36 339.601562 L 35.152344 339.601562 Z M 35.152344 5.480469 "
         id="path85" />
    </clipPath>
    <clipPath
       id="clip15">
      <path
         d="M 173 5.480469 L 175 5.480469 L 175 339.601562 L 173 339.601562 Z M 173 5.480469 "
         id="path88" />
    </clipPath>
    <clipPath
       id="clip16">
      <path
         d="M 313 5.480469 L 315 5.480469 L 315 339.601562 L 313 339.601562 Z M 313 5.480469 "
         id="path91" />
    </clipPath>
    <clipPath
       id="clip17">
      <path
         d="M 452 5.480469 L 454 5.480469 L 454 339.601562 L 452 339.601562 Z M 452 5.480469 "
         id="path94" />
    </clipPath>
    <clipPath
       id="clip18">
      <path
         d="M 591 5.480469 L 593 5.480469 L 593 339.601562 L 591 339.601562 Z M 591 5.480469 "
         id="path97" />
    </clipPath>
    <clipPath
       id="clip19">
      <path
         d="M 35.152344 178 L 593.523438 178 L 593.523438 181 L 35.152344 181 Z M 35.152344 178 "
         id="path100" />
    </clipPath>
    <clipPath
       id="clip20">
      <path
         d="M 35.152344 5.480469 L 593.523438 5.480469 L 593.523438 339.601562 L 35.152344 339.601562 Z M 35.152344 5.480469 "
         id="path103" />
    </clipPath>
    <rect
       x="1.2644399"
       y="383.9783"
       width="494.4071"
       height="185.01933"
       id="rect1237" />
    <rect
       x="1.2644399"
       y="383.9783"
       width="494.4071"
       height="185.01933"
       id="rect1483" />
    <rect
       x="1.2644399"
       y="383.9783"
       width="494.4071"
       height="185.01933"
       id="rect1237-3" />
    <rect
       x="1.2644399"
       y="383.9783"
       width="494.4071"
       height="185.01933"
       id="rect1486" />
  </defs>
  <g
     clip-path="url(#clip1)"
     clip-rule="nonzero"
     id="g116">
    <path
       style="fill:#ffffff;fill-opacity:1;fill-rule:nonzero;stroke:none"
       d="M 35.152344,339.59766 H 593.52344 V 5.476562 H 35.152344 Z m 0,0"
       id="path114" />
  </g>
  <g
     clip-path="url(#clip2)"
     clip-rule="nonzero"
     id="g120">
    <path
       style="fill:none;stroke:#ebebeb;stroke-width:0.533489;stroke-linecap:butt;stroke-linejoin:round;stroke-miterlimit:10;stroke-opacity:1"
       d="M 35.152344,302.99609 H 593.51953"
       id="path118" />
  </g>
  <g
     clip-path="url(#clip3)"
     clip-rule="nonzero"
     id="g124">
    <path
       style="fill:none;stroke:#ebebeb;stroke-width:0.533489;stroke-linecap:butt;stroke-linejoin:round;stroke-miterlimit:10;stroke-opacity:1"
       d="M 35.152344,219.79687 H 593.51953"
       id="path122" />
  </g>
  <g
     clip-path="url(#clip4)"
     clip-rule="nonzero"
     id="g128">
    <path
       style="fill:none;stroke:#ebebeb;stroke-width:0.533489;stroke-linecap:butt;stroke-linejoin:round;stroke-miterlimit:10;stroke-opacity:1"
       d="M 35.152344,136.59766 H 593.51953"
       id="path126" />
  </g>
  <g
     clip-path="url(#clip5)"
     clip-rule="nonzero"
     id="g132">
    <path
       style="fill:none;stroke:#ebebeb;stroke-width:0.533489;stroke-linecap:butt;stroke-linejoin:round;stroke-miterlimit:10;stroke-opacity:1"
       d="M 35.152344,53.398438 H 593.51953"
       id="path130" />
  </g>
  <g
     clip-path="url(#clip6)"
     clip-rule="nonzero"
     id="g136">
    <path
       style="fill:none;stroke:#ebebeb;stroke-width:0.533489;stroke-linecap:butt;stroke-linejoin:round;stroke-miterlimit:10;stroke-opacity:1"
       d="M 104.78516,339.59766 V 5.480469"
       id="path134" />
  </g>
  <g
     clip-path="url(#clip7)"
     clip-rule="nonzero"
     id="g140">
    <path
       style="fill:none;stroke:#ebebeb;stroke-width:0.533489;stroke-linecap:butt;stroke-linejoin:round;stroke-miterlimit:10;stroke-opacity:1"
       d="M 244.04297,339.59766 V 5.480469"
       id="path138" />
  </g>
  <g
     clip-path="url(#clip8)"
     clip-rule="nonzero"
     id="g144">
    <path
       style="fill:none;stroke:#ebebeb;stroke-width:0.533489;stroke-linecap:butt;stroke-linejoin:round;stroke-miterlimit:10;stroke-opacity:1"
       d="M 383.29687,339.59766 V 5.480469"
       id="path142" />
  </g>
  <g
     clip-path="url(#clip9)"
     clip-rule="nonzero"
     id="g148">
    <path
       style="fill:none;stroke:#ebebeb;stroke-width:0.533489;stroke-linecap:butt;stroke-linejoin:round;stroke-miterlimit:10;stroke-opacity:1"
       d="M 522.55469,339.59766 V 5.480469"
       id="path146" />
  </g>
  <g
     clip-path="url(#clip10)"
     clip-rule="nonzero"
     id="g152">
    <path
       style="fill:none;stroke:#ebebeb;stroke-width:1.06698;stroke-linecap:butt;stroke-linejoin:round;stroke-miterlimit:10;stroke-opacity:1"
       d="M 35.152344,261.39844 H 593.51953"
       id="path150" />
  </g>
  <g
     clip-path="url(#clip11)"
     clip-rule="nonzero"
     id="g156">
    <path
       style="fill:none;stroke:#ebebeb;stroke-width:1.06698;stroke-linecap:butt;stroke-linejoin:round;stroke-miterlimit:10;stroke-opacity:1"
       d="M 35.152344,178.19531 H 593.51953"
       id="path154" />
  </g>
  <g
     clip-path="url(#clip12)"
     clip-rule="nonzero"
     id="g160">
    <path
       style="fill:none;stroke:#ebebeb;stroke-width:1.06698;stroke-linecap:butt;stroke-linejoin:round;stroke-miterlimit:10;stroke-opacity:1"
       d="M 35.152344,94.996094 H 593.51953"
       id="path158" />
  </g>
  <g
     clip-path="url(#clip13)"
     clip-rule="nonzero"
     id="g164">
    <path
       style="fill:none;stroke:#ebebeb;stroke-width:1.06698;stroke-linecap:butt;stroke-linejoin:round;stroke-miterlimit:10;stroke-opacity:1"
       d="M 35.152344,11.796875 H 593.51953"
       id="path162" />
  </g>
  <g
     clip-path="url(#clip14)"
     clip-rule="nonzero"
     id="g168">
    <path
       style="fill:none;stroke:#ebebeb;stroke-width:1.06698;stroke-linecap:butt;stroke-linejoin:round;stroke-miterlimit:10;stroke-opacity:1"
       d="M 35.15625,339.59766 V 5.480469"
       id="path166" />
  </g>
  <g
     clip-path="url(#clip15)"
     clip-rule="nonzero"
     id="g172">
    <path
       style="fill:none;stroke:#ebebeb;stroke-width:1.06698;stroke-linecap:butt;stroke-linejoin:round;stroke-miterlimit:10;stroke-opacity:1"
       d="M 174.41406,339.59766 V 5.480469"
       id="path170" />
  </g>
  <g
     clip-path="url(#clip16)"
     clip-rule="nonzero"
     id="g176">
    <path
       style="fill:none;stroke:#ebebeb;stroke-width:1.06698;stroke-linecap:butt;stroke-linejoin:round;stroke-miterlimit:10;stroke-opacity:1"
       d="M 313.67187,339.59766 V 5.480469"
       id="path174" />
  </g>
  <g
     clip-path="url(#clip17)"
     clip-rule="nonzero"
     id="g180">
    <path
       style="fill:none;stroke:#ebebeb;stroke-width:1.06698;stroke-linecap:butt;stroke-linejoin:round;stroke-miterlimit:10;stroke-opacity:1"
       d="M 452.92578,339.59766 V 5.480469"
       id="path178" />
  </g>
  <g
     clip-path="url(#clip18)"
     clip-rule="nonzero"
     id="g184">
    <path
       style="fill:none;stroke:#ebebeb;stroke-width:1.06698;stroke-linecap:butt;stroke-linejoin:round;stroke-miterlimit:10;stroke-opacity:1"
       d="M 592.18359,339.59766 V 5.480469"
       id="path182" />
  </g>
  <g
     clip-path="url(#clip19)"
     clip-rule="nonzero"
     id="g188"
     style="stroke-width:1.5;stroke-miterlimit:10;stroke-dasharray:none">
    <path
       style="fill:none;stroke:#b02121;stroke-width:1.5;stroke-linecap:butt;stroke-linejoin:round;stroke-miterlimit:10;stroke-opacity:1;stroke-dasharray:none"
       d="M 35.152344,179.92187 H 593.51953"
       id="path186" />
  </g>
  <path
     style="fill:#000000;fill-opacity:1;fill-rule:nonzero;stroke:#000000;stroke-width:0.708661;stroke-linecap:round;stroke-linejoin:round;stroke-miterlimit:10;stroke-opacity:1"
     d="m 197.30078,232.87891 c 0,2.60546 -3.91016,2.60546 -3.91016,0 0,-2.60547 3.91016,-2.60547 3.91016,0"
     id="path190" />
  <path
     style="fill:#000000;fill-opacity:1;fill-rule:nonzero;stroke:#000000;stroke-width:0.708661;stroke-linecap:round;stroke-linejoin:round;stroke-miterlimit:10;stroke-opacity:1"
     d="m 476.21875,169.08594 c 0,2.60547 -3.91016,2.60547 -3.91016,0 0,-2.60547 3.91016,-2.60547 3.91016,0"
     id="path192" />
  <path
     style="fill:#000000;fill-opacity:1;fill-rule:nonzero;stroke:#000000;stroke-width:0.708661;stroke-linecap:round;stroke-linejoin:round;stroke-miterlimit:10;stroke-opacity:1"
     d="m 264.92187,188.98828 c 0,2.60547 -3.91015,2.60547 -3.91015,0 0,-2.60937 3.91015,-2.60937 3.91015,0"
     id="path194" />
  <path
     style="fill:#000000;fill-opacity:1;fill-rule:nonzero;stroke:#000000;stroke-width:0.708661;stroke-linecap:round;stroke-linejoin:round;stroke-miterlimit:10;stroke-opacity:1"
     d="m 528.97656,87.132812 c 0,2.605469 -3.91015,2.605469 -3.91015,0 0,-2.609374 3.91015,-2.609374 3.91015,0"
     id="path196" />
  <path
     style="fill:#000000;fill-opacity:1;fill-rule:nonzero;stroke:#000000;stroke-width:0.708661;stroke-linecap:round;stroke-linejoin:round;stroke-miterlimit:10;stroke-opacity:1"
     d="m 560.97656,20.667969 c 0,2.605469 -3.90625,2.605469 -3.90625,0 0,-2.609375 3.90625,-2.609375 3.90625,0"
     id="path198" />
  <path
     style="fill:#000000;fill-opacity:1;fill-rule:nonzero;stroke:#000000;stroke-width:0.708661;stroke-linecap:round;stroke-linejoin:round;stroke-miterlimit:10;stroke-opacity:1"
     d="m 62.484375,318.25781 c 0,2.60547 -3.90625,2.60547 -3.90625,0 0,-2.60547 3.90625,-2.60547 3.90625,0"
     id="path200" />
  <path
     style="fill:#000000;fill-opacity:1;fill-rule:nonzero;stroke:#000000;stroke-width:0.708661;stroke-linecap:round;stroke-linejoin:round;stroke-miterlimit:10;stroke-opacity:1"
     d="m 331.28125,192.19141 c 0,2.60546 -3.91016,2.60546 -3.91016,0 0,-2.60938 3.91016,-2.60938 3.91016,0"
     id="path202" />
  <path
     style="fill:#000000;fill-opacity:1;fill-rule:nonzero;stroke:#000000;stroke-width:0.708661;stroke-linecap:round;stroke-linejoin:round;stroke-miterlimit:10;stroke-opacity:1"
     d="m 534.21484,123.28125 c 0,2.60547 -3.91015,2.60547 -3.91015,0 0,-2.60937 3.91015,-2.60937 3.91015,0"
     id="path204" />
  <path
     style="fill:#000000;fill-opacity:1;fill-rule:nonzero;stroke:#000000;stroke-width:0.708661;stroke-linecap:round;stroke-linejoin:round;stroke-miterlimit:10;stroke-opacity:1"
     d="m 344.27734,159.34766 c 0,2.60546 -3.91015,2.60546 -3.91015,0 0,-2.60547 3.91015,-2.60547 3.91015,0"
     id="path206" />
  <path
     style="fill:#000000;fill-opacity:1;fill-rule:nonzero;stroke:#000000;stroke-width:0.708661;stroke-linecap:round;stroke-linejoin:round;stroke-miterlimit:10;stroke-opacity:1"
     d="m 291.45703,197.35547 c 0,2.60937 -3.91016,2.60937 -3.91016,0 0,-2.60547 3.91016,-2.60547 3.91016,0"
     id="path208" />
  <path
     style="fill:#000000;fill-opacity:1;fill-rule:nonzero;stroke:#000000;stroke-width:0.708661;stroke-linecap:round;stroke-linejoin:round;stroke-miterlimit:10;stroke-opacity:1"
     d="m 570.09375,80.625 c 0,2.605469 -3.91016,2.605469 -3.91016,0 0,-2.605469 3.91016,-2.605469 3.91016,0"
     id="path210" />
  <path
     style="fill:#000000;fill-opacity:1;fill-rule:nonzero;stroke:#000000;stroke-width:0.708661;stroke-linecap:round;stroke-linejoin:round;stroke-miterlimit:10;stroke-opacity:1"
     d="m 289.62891,238.44922 c 0,2.60937 -3.90625,2.60937 -3.90625,0 0,-2.60547 3.90625,-2.60547 3.90625,0"
     id="path212" />
  <path
     style="fill:#000000;fill-opacity:1;fill-rule:nonzero;stroke:#000000;stroke-width:0.708661;stroke-linecap:round;stroke-linejoin:round;stroke-miterlimit:10;stroke-opacity:1"
     d="m 414.53516,174.99219 c 0,2.60547 -3.90625,2.60547 -3.90625,0 0,-2.60547 3.90625,-2.60547 3.90625,0"
     id="path214" />
  <path
     style="fill:#000000;fill-opacity:1;fill-rule:nonzero;stroke:#000000;stroke-width:0.708661;stroke-linecap:round;stroke-linejoin:round;stroke-miterlimit:10;stroke-opacity:1"
     d="m 356.08203,191.17578 c 0,2.60547 -3.90625,2.60547 -3.90625,0 0,-2.60937 3.90625,-2.60937 3.90625,0"
     id="path216" />
  <path
     style="fill:#000000;fill-opacity:1;fill-rule:nonzero;stroke:#000000;stroke-width:0.708661;stroke-linecap:round;stroke-linejoin:round;stroke-miterlimit:10;stroke-opacity:1"
     d="m 94.441406,324.41016 c 0,2.60937 -3.910156,2.60937 -3.910156,0 0,-2.60547 3.910156,-2.60547 3.910156,0"
     id="path218" />
  <g
     clip-path="url(#clip20)"
     clip-rule="nonzero"
     id="g222">
    <path
       style="fill:none;stroke:#333333;stroke-width:1.06698;stroke-linecap:round;stroke-linejoin:round;stroke-miterlimit:10;stroke-opacity:1"
       d="M 35.152344,339.59766 H 593.52344 V 5.476562 H 35.152344 Z m 0,0"
       id="path220" />
  </g>
  <g
     style="fill:#4c4c4c;fill-opacity:1"
     id="g226">
    <use
       xlink:href="#glyph0-1"
       x="25.21875"
       y="264.31348"
       id="use224"
       width="100%"
       height="100%" />
  </g>
  <g
     style="fill:#4c4c4c;fill-opacity:1"
     id="g230">
    <use
       xlink:href="#glyph0-2"
       x="25.21875"
       y="181.11035"
       id="use228"
       width="100%"
       height="100%" />
  </g>
  <g
     style="fill:#4c4c4c;fill-opacity:1"
     id="g234">
    <use
       xlink:href="#glyph0-3"
       x="25.21875"
       y="97.911133"
       id="use232"
       width="100%"
       height="100%" />
  </g>
  <g
     style="fill:#4c4c4c;fill-opacity:1"
     id="g240">
    <use
       xlink:href="#glyph0-4"
       x="20.21875"
       y="14.711914"
       id="use236"
       width="100%"
       height="100%" />
    <use
       xlink:href="#glyph0-5"
       x="25.21875"
       y="14.711914"
       id="use238"
       width="100%"
       height="100%" />
  </g>
  <path
     style="fill:none;stroke:#333333;stroke-width:1.06698;stroke-linecap:butt;stroke-linejoin:round;stroke-miterlimit:10;stroke-opacity:1"
     d="m 32.410156,261.39844 h 2.742188"
     id="path242" />
  <path
     style="fill:none;stroke:#333333;stroke-width:1.06698;stroke-linecap:butt;stroke-linejoin:round;stroke-miterlimit:10;stroke-opacity:1"
     d="m 32.410156,178.19531 h 2.742188"
     id="path244" />
  <path
     style="fill:none;stroke:#333333;stroke-width:1.06698;stroke-linecap:butt;stroke-linejoin:round;stroke-miterlimit:10;stroke-opacity:1"
     d="m 32.410156,94.996094 h 2.742188"
     id="path246" />
  <path
     style="fill:none;stroke:#333333;stroke-width:1.06698;stroke-linecap:butt;stroke-linejoin:round;stroke-miterlimit:10;stroke-opacity:1"
     d="m 32.410156,11.796875 h 2.742188"
     id="path248" />
  <path
     style="fill:none;stroke:#333333;stroke-width:1.06698;stroke-linecap:butt;stroke-linejoin:round;stroke-miterlimit:10;stroke-opacity:1"
     d="m 35.15625,342.33984 v -2.74218"
     id="path250" />
  <path
     style="fill:none;stroke:#333333;stroke-width:1.06698;stroke-linecap:butt;stroke-linejoin:round;stroke-miterlimit:10;stroke-opacity:1"
     d="m 174.41406,342.33984 v -2.74218"
     id="path252" />
  <path
     style="fill:none;stroke:#333333;stroke-width:1.06698;stroke-linecap:butt;stroke-linejoin:round;stroke-miterlimit:10;stroke-opacity:1"
     d="m 313.67187,342.33984 v -2.74218"
     id="path254" />
  <path
     style="fill:none;stroke:#333333;stroke-width:1.06698;stroke-linecap:butt;stroke-linejoin:round;stroke-miterlimit:10;stroke-opacity:1"
     d="m 452.92578,342.33984 v -2.74218"
     id="path256" />
  <path
     style="fill:none;stroke:#333333;stroke-width:1.06698;stroke-linecap:butt;stroke-linejoin:round;stroke-miterlimit:10;stroke-opacity:1"
     d="m 592.18359,342.33984 v -2.74218"
     id="path258" />
  <g
     style="fill:#4c4c4c;fill-opacity:1"
     id="g266">
    <use
       xlink:href="#glyph0-6"
       x="29.15625"
       y="350.94629"
       id="use260"
       width="100%"
       height="100%" />
    <use
       xlink:href="#glyph0-7"
       x="34.15625"
       y="350.94629"
       id="use262"
       width="100%"
       height="100%" />
    <use
       xlink:href="#glyph0-6"
       x="36.15625"
       y="350.94629"
       id="use264"
       width="100%"
       height="100%" />
  </g>
  <g
     style="fill:#4c4c4c;fill-opacity:1"
     id="g274">
    <use
       xlink:href="#glyph0-5"
       x="168.41406"
       y="350.94629"
       id="use268"
       width="100%"
       height="100%" />
    <use
       xlink:href="#glyph0-7"
       x="173.41406"
       y="350.94629"
       id="use270"
       width="100%"
       height="100%" />
    <use
       xlink:href="#glyph0-8"
       x="175.41406"
       y="350.94629"
       id="use272"
       width="100%"
       height="100%" />
  </g>
  <g
     style="fill:#4c4c4c;fill-opacity:1"
     id="g282">
    <use
       xlink:href="#glyph0-8"
       x="307.67188"
       y="350.94629"
       id="use276"
       width="100%"
       height="100%" />
    <use
       xlink:href="#glyph0-7"
       x="312.67188"
       y="350.94629"
       id="use278"
       width="100%"
       height="100%" />
    <use
       xlink:href="#glyph0-6"
       x="314.67188"
       y="350.94629"
       id="use280"
       width="100%"
       height="100%" />
  </g>
  <g
     style="fill:#4c4c4c;fill-opacity:1"
     id="g290">
    <use
       xlink:href="#glyph0-9"
       x="446.92578"
       y="350.94629"
       id="use284"
       width="100%"
       height="100%" />
    <use
       xlink:href="#glyph0-7"
       x="451.92578"
       y="350.94629"
       id="use286"
       width="100%"
       height="100%" />
    <use
       xlink:href="#glyph0-8"
       x="453.92578"
       y="350.94629"
       id="use288"
       width="100%"
       height="100%" />
  </g>
  <g
     style="fill:#4c4c4c;fill-opacity:1"
     id="g300">
    <use
       xlink:href="#glyph0-4"
       x="583.68359"
       y="350.94629"
       id="use292"
       width="100%"
       height="100%" />
    <use
       xlink:href="#glyph0-6"
       x="588.68359"
       y="350.94629"
       id="use294"
       width="100%"
       height="100%" />
    <use
       xlink:href="#glyph0-7"
       x="593.68359"
       y="350.94629"
       id="use296"
       width="100%"
       height="100%" />
    <use
       xlink:href="#glyph0-6"
       x="595.68359"
       y="350.94629"
       id="use298"
       width="100%"
       height="100%" />
  </g>
  <g
     style="fill:#000000;fill-opacity:1"
     id="g304">
    <use
       xlink:href="#glyph1-1"
       x="310.83594"
       y="364.53809"
       id="use302"
       width="100%"
       height="100%" />
  </g>
  <g
     style="fill:#000000;fill-opacity:1"
     id="g308">
    <use
       xlink:href="#glyph2-1"
       x="13.499023"
       y="176.03906"
       id="use306"
       width="100%"
       height="100%" />
  </g>
  <text
     xml:space="preserve"
     id="text1235"
     style="font-size:12px;line-height:1.25;font-family:Ubuntu;-inkscape-font-specification:'Ubuntu, Normal';white-space:pre;shape-inside:url(#rect1237);"
     transform="translate(45.946058,-369.74716)"><tspan
       x="1.2636719"
       y="395.16842"><tspan
         style="font-style:normal;font-variant:normal;font-weight:500;font-stretch:normal;font-family:Ubuntu;-inkscape-font-specification:'Ubuntu Medium'">Modèle nul ou vide : pas de relation générique</tspan></tspan></text>
  <text
     xml:space="preserve"
     id="text1235-6"
     style="font-size:12px;line-height:1.25;font-family:Ubuntu;-inkscape-font-specification:'Ubuntu, Normal';white-space:pre;shape-inside:url(#rect1237-3);"
     transform="translate(46.447228,-349.30045)"><tspan
       x="1.2636719"
       y="395.16842"><tspan>Variance expliquée nulle
</tspan></tspan><tspan
       x="1.2636719"
       y="410.16842"><tspan>Toute la v</tspan><tspan>ariance est résiduelle</tspan></tspan></text>
</svg>
