<?xml version="1.0" encoding="UTF-8" standalone="no"?>
<svg
   xmlns:dc="http://purl.org/dc/elements/1.1/"
   xmlns:cc="http://creativecommons.org/ns#"
   xmlns:rdf="http://www.w3.org/1999/02/22-rdf-syntax-ns#"
   xmlns:svg="http://www.w3.org/2000/svg"
   xmlns="http://www.w3.org/2000/svg"
   xmlns:xlink="http://www.w3.org/1999/xlink"
   xmlns:sodipodi="http://sodipodi.sourceforge.net/DTD/sodipodi-0.dtd"
   xmlns:inkscape="http://www.inkscape.org/namespaces/inkscape"
   width="566pt"
   height="340pt"
   viewBox="0 0 566 340"
   version="1.1"
   id="svg2"
   inkscape:version="0.92.3 (2405546, 2018-03-11)"
   sodipodi:docname="obeses1.svg">
  <metadata
     id="metadata471">
    <rdf:RDF>
      <cc:Work
         rdf:about="">
        <dc:format>image/svg+xml</dc:format>
        <dc:type
           rdf:resource="http://purl.org/dc/dcmitype/StillImage" />
        <dc:title />
      </cc:Work>
    </rdf:RDF>
  </metadata>
  <sodipodi:namedview
     pagecolor="#ffffff"
     bordercolor="#666666"
     borderopacity="1"
     objecttolerance="10"
     gridtolerance="10"
     guidetolerance="10"
     inkscape:pageopacity="0"
     inkscape:pageshadow="2"
     inkscape:window-width="1366"
     inkscape:window-height="719"
     id="namedview469"
     showgrid="true"
     inkscape:zoom="0.8961131"
     inkscape:cx="395.75194"
     inkscape:cy="295.99397"
     inkscape:window-x="0"
     inkscape:window-y="25"
     inkscape:window-maximized="1"
     inkscape:current-layer="svg2"
     inkscape:snap-bbox="true"
     inkscape:bbox-nodes="true">
    <inkscape:grid
       type="xygrid"
       id="grid4350"
       dotted="true" />
  </sodipodi:namedview>
  <defs
     id="defs4">
    <g
       id="g6">
      <symbol
         overflow="visible"
         id="glyph0-0">
        <path
           style="stroke:none;"
           d=""
           id="path9" />
      </symbol>
      <symbol
         overflow="visible"
         id="glyph0-1">
        <path
           style="stroke:none;"
           d="M 5 -3.390625 C 5 -5.75 4.109375 -7.0625 2.640625 -7.0625 C 1.171875 -7.0625 0.265625 -5.734375 0.265625 -3.453125 C 0.265625 -1.15625 1.1875 0.140625 2.640625 0.140625 C 4.078125 0.140625 5 -1.15625 5 -3.390625 Z M 3.859375 -3.46875 C 3.859375 -1.546875 3.5625 -0.8125 2.625 -0.8125 C 1.734375 -0.8125 1.40625 -1.578125 1.40625 -3.4375 C 1.40625 -5.3125 1.734375 -6.046875 2.640625 -6.046875 C 3.546875 -6.046875 3.859375 -5.296875 3.859375 -3.46875 Z M 3.859375 -3.46875 "
           id="path12" />
      </symbol>
      <symbol
         overflow="visible"
         id="glyph0-2">
        <path
           style="stroke:none;"
           d="M 5.0625 -2.375 C 5.0625 -3.71875 4.03125 -4.734375 2.71875 -4.734375 C 2.25 -4.734375 1.75 -4.578125 1.65625 -4.5 L 1.859375 -5.828125 L 4.703125 -5.828125 L 4.703125 -6.921875 L 0.9375 -6.921875 L 0.390625 -3.09375 L 1.375 -3.09375 C 1.8125 -3.609375 2.046875 -3.734375 2.578125 -3.734375 C 3.484375 -3.734375 3.921875 -3.265625 3.921875 -2.265625 C 3.921875 -1.28125 3.484375 -0.859375 2.578125 -0.859375 C 1.828125 -0.859375 1.515625 -1.109375 1.28125 -2 L 0.15625 -2 C 0.46875 -0.515625 1.375 0.140625 2.59375 0.140625 C 3.96875 0.140625 5.0625 -0.9375 5.0625 -2.375 Z M 5.0625 -2.375 "
           id="path15" />
      </symbol>
      <symbol
         overflow="visible"
         id="glyph0-3">
        <path
           style="stroke:none;"
           d="M 3.46875 -0.125 L 3.46875 -7.0625 L 2.671875 -7.0625 C 2.328125 -5.890625 2.28125 -5.875 0.828125 -5.6875 L 0.828125 -4.84375 L 2.34375 -4.84375 L 2.34375 0 L 3.46875 0 Z M 3.46875 -0.125 "
           id="path18" />
      </symbol>
      <symbol
         overflow="visible"
         id="glyph0-4">
        <path
           style="stroke:none;"
           d="M 5.03125 -4.9375 C 5.03125 -6.078125 4.015625 -7.0625 2.71875 -7.0625 C 1.328125 -7.0625 0.390625 -6.21875 0.328125 -4.4375 L 1.453125 -4.4375 C 1.53125 -5.703125 1.859375 -6.0625 2.703125 -6.0625 C 3.46875 -6.0625 3.890625 -5.640625 3.890625 -4.90625 C 3.890625 -4.375 3.609375 -4.015625 3.015625 -3.671875 L 2.125 -3.171875 C 0.703125 -2.359375 0.265625 -1.625 0.171875 0 L 4.984375 0 L 4.984375 -1.09375 L 1.421875 -1.09375 C 1.5 -1.515625 1.765625 -1.78125 2.59375 -2.28125 L 3.5625 -2.796875 C 4.515625 -3.296875 5.03125 -4.09375 5.03125 -4.9375 Z M 5.03125 -4.9375 "
           id="path21" />
      </symbol>
      <symbol
         overflow="visible"
         id="glyph1-0">
        <path
           style="stroke:none;"
           d=""
           id="path24" />
      </symbol>
      <symbol
         overflow="visible"
         id="glyph1-1">
        <path
           style="stroke:none;"
           d="M 7.890625 -0.125 L 7.890625 -9.015625 L 6.546875 -9.015625 L 6.546875 -1.734375 L 6.796875 -1.828125 L 2.1875 -9.015625 L 0.765625 -9.015625 L 0.765625 0 L 2.09375 0 L 2.09375 -7.21875 L 1.859375 -7.125 L 6.421875 0 L 7.890625 0 Z M 7.890625 -0.125 "
           id="path27" />
      </symbol>
      <symbol
         overflow="visible"
         id="glyph1-2">
        <path
           style="stroke:none;"
           d="M 7.609375 -2.625 C 7.609375 -3.6875 7 -4.453125 5.875 -4.890625 L 5.875 -4.625 C 6.671875 -4.984375 7.21875 -5.765625 7.21875 -6.65625 C 7.21875 -7.9375 6.15625 -9.015625 4.5 -9.015625 L 0.796875 -9.015625 L 0.796875 0 L 4.890625 0 C 6.46875 0 7.609375 -1.1875 7.609375 -2.625 Z M 5.828125 -6.5 C 5.828125 -5.609375 5.453125 -5.25 4.21875 -5.25 L 2.203125 -5.25 L 2.203125 -7.765625 L 4.21875 -7.765625 C 5.453125 -7.765625 5.828125 -7.390625 5.828125 -6.5 Z M 6.21875 -2.609375 C 6.21875 -1.78125 5.84375 -1.25 4.78125 -1.25 L 2.203125 -1.25 L 2.203125 -4 L 4.78125 -4 C 5.84375 -4 6.21875 -3.46875 6.21875 -2.609375 Z M 6.21875 -2.609375 "
           id="path30" />
      </symbol>
      <symbol
         overflow="visible"
         id="glyph1-3">
        <path
           style="stroke:none;"
           d="M 7.53125 -6.3125 C 7.53125 -7.953125 6.4375 -9.015625 4.703125 -9.015625 L 0.953125 -9.015625 L 0.953125 0 L 2.34375 0 L 2.34375 -3.703125 L 4.953125 -3.703125 C 6.390625 -3.703125 7.53125 -4.859375 7.53125 -6.3125 Z M 6.09375 -6.359375 C 6.09375 -5.40625 5.609375 -4.953125 4.53125 -4.953125 L 2.34375 -4.953125 L 2.34375 -7.765625 L 4.53125 -7.765625 C 5.609375 -7.765625 6.09375 -7.3125 6.09375 -6.359375 Z M 6.09375 -6.359375 "
           id="path33" />
      </symbol>
      <symbol
         overflow="visible"
         id="glyph1-4">
        <path
           style="stroke:none;"
           d="M 6.25 -3.234375 C 6.25 -5.40625 5.078125 -6.734375 3.265625 -6.734375 C 1.5 -6.734375 0.28125 -5.390625 0.28125 -3.28125 C 0.28125 -1.15625 1.484375 0.1875 3.28125 0.1875 C 5.046875 0.1875 6.25 -1.15625 6.25 -3.234375 Z M 4.9375 -3.234375 C 4.9375 -1.765625 4.375 -1.015625 3.28125 -1.015625 C 2.15625 -1.015625 1.609375 -1.75 1.609375 -3.28125 C 1.609375 -4.78125 2.15625 -5.546875 3.28125 -5.546875 C 4.40625 -5.546875 4.9375 -4.796875 4.9375 -3.234375 Z M 4.9375 -3.234375 "
           id="path36" />
      </symbol>
      <symbol
         overflow="visible"
         id="glyph1-5">
        <path
           style="stroke:none;"
           d="M 3.984375 -5.546875 L 3.984375 -6.6875 C 3.6875 -6.71875 3.59375 -6.734375 3.46875 -6.734375 C 2.8125 -6.734375 2.21875 -6.3125 1.640625 -5.375 L 1.890625 -5.28125 L 1.890625 -6.546875 L 0.703125 -6.546875 L 0.703125 0 L 1.96875 0 L 1.96875 -3.390625 C 1.96875 -4.8125 2.296875 -5.390625 3.984375 -5.40625 Z M 3.984375 -5.546875 "
           id="path39" />
      </symbol>
      <symbol
         overflow="visible"
         id="glyph2-0">
        <path
           style="stroke:none;"
           d=""
           id="path42" />
      </symbol>
      <symbol
         overflow="visible"
         id="glyph2-1">
        <path
           style="stroke:none;"
           d="M -0.125 -7.890625 L -9.015625 -7.890625 L -9.015625 -6.546875 L -1.734375 -6.546875 L -1.828125 -6.796875 L -9.015625 -2.1875 L -9.015625 -0.765625 L 0 -0.765625 L 0 -2.09375 L -7.21875 -2.09375 L -7.125 -1.859375 L 0 -6.421875 L 0 -7.890625 Z M -0.125 -7.890625 "
           id="path45" />
      </symbol>
      <symbol
         overflow="visible"
         id="glyph2-2">
        <path
           style="stroke:none;"
           d="M -2.625 -7.609375 C -3.6875 -7.609375 -4.453125 -7 -4.890625 -5.875 L -4.625 -5.875 C -4.984375 -6.671875 -5.765625 -7.21875 -6.65625 -7.21875 C -7.9375 -7.21875 -9.015625 -6.15625 -9.015625 -4.5 L -9.015625 -0.796875 L 0 -0.796875 L 0 -4.890625 C 0 -6.46875 -1.1875 -7.609375 -2.625 -7.609375 Z M -6.5 -5.828125 C -5.609375 -5.828125 -5.25 -5.453125 -5.25 -4.21875 L -5.25 -2.203125 L -7.765625 -2.203125 L -7.765625 -4.21875 C -7.765625 -5.453125 -7.390625 -5.828125 -6.5 -5.828125 Z M -2.609375 -6.21875 C -1.78125 -6.21875 -1.25 -5.84375 -1.25 -4.78125 L -1.25 -2.203125 L -4 -2.203125 L -4 -4.78125 C -4 -5.84375 -3.46875 -6.21875 -2.609375 -6.21875 Z M -2.609375 -6.21875 "
           id="path48" />
      </symbol>
      <symbol
         overflow="visible"
         id="glyph2-3">
        <path
           style="stroke:none;"
           d="M -4.375 -9.03125 C -7.1875 -9.03125 -9.234375 -7.234375 -9.234375 -4.671875 C -9.234375 -2.15625 -7.171875 -0.3125 -4.4375 -0.3125 C -1.703125 -0.3125 0.21875 -2.15625 0.21875 -4.6875 C 0.21875 -7.25 -1.796875 -9.03125 -4.375 -9.03125 Z M -4.390625 -7.640625 C -2.28125 -7.640625 -1.03125 -6.53125 -1.03125 -4.6875 C -1.03125 -2.8125 -2.28125 -1.703125 -4.4375 -1.703125 C -6.59375 -1.703125 -7.984375 -2.8125 -7.984375 -4.671875 C -7.984375 -6.5625 -6.59375 -7.640625 -4.390625 -7.640625 Z M -4.390625 -7.640625 "
           id="path51" />
      </symbol>
      <symbol
         overflow="visible"
         id="glyph2-4">
        <path
           style="stroke:none;"
           d="M -3.34375 -6.40625 C -5.390625 -6.40625 -6.734375 -5.25 -6.734375 -3.59375 C -6.734375 -2.71875 -6.375 -2 -5.65625 -1.53125 L -5.5625 -1.78125 L -9.015625 -1.78125 L -9.015625 -0.5 L 0 -0.5 L 0 -1.6875 L -1.03125 -1.6875 L -0.9375 -1.4375 C -0.203125 -1.921875 0.1875 -2.65625 0.1875 -3.546875 C 0.1875 -5.203125 -1.3125 -6.40625 -3.34375 -6.40625 Z M -3.28125 -5.09375 C -1.859375 -5.09375 -1.015625 -4.484375 -1.015625 -3.390625 C -1.015625 -2.34375 -1.84375 -1.78125 -3.28125 -1.78125 C -4.75 -1.78125 -5.578125 -2.34375 -5.53125 -3.390625 C -5.53125 -4.515625 -4.6875 -5.09375 -3.28125 -5.09375 Z M -3.28125 -5.09375 "
           id="path54" />
      </symbol>
      <symbol
         overflow="visible"
         id="glyph2-5">
        <path
           style="stroke:none;"
           d="M -2.984375 -6.28125 C -3.90625 -6.28125 -4.46875 -6.21875 -4.9375 -6.03125 C -5.96875 -5.625 -6.734375 -4.53125 -6.734375 -3.359375 C -6.734375 -1.609375 -5.296875 -0.34375 -3.234375 -0.34375 C -1.171875 -0.34375 0.1875 -1.578125 0.1875 -3.34375 C 0.1875 -4.78125 -0.765625 -5.90625 -2.171875 -6.1875 L -2.171875 -4.921875 C -1.21875 -4.59375 -1.015625 -4.171875 -1.015625 -3.375 C -1.015625 -2.328125 -1.546875 -1.6875 -2.859375 -1.65625 L -2.859375 -6.28125 Z M -3.78125 -5.1875 C -3.78125 -5.1875 -3.921875 -4.984375 -3.9375 -4.984375 L -3.9375 -1.6875 C -4.921875 -1.765625 -5.546875 -2.34375 -5.546875 -3.34375 C -5.546875 -4.328125 -4.859375 -4.9375 -3.875 -4.9375 Z M -3.78125 -5.1875 "
           id="path57" />
      </symbol>
      <symbol
         overflow="visible"
         id="glyph2-6">
        <path
           style="stroke:none;"
           d="M -1.890625 -5.640625 C -2.828125 -5.640625 -3.4375 -4.984375 -3.734375 -3.734375 L -3.953125 -2.765625 C -4.15625 -1.953125 -4.28125 -1.734375 -4.734375 -1.734375 C -5.296875 -1.734375 -5.546875 -2.125 -5.546875 -2.9375 C -5.546875 -3.75 -5.328125 -4.03125 -4.53125 -4.0625 L -4.53125 -5.390625 C -5.90625 -5.375 -6.734375 -4.421875 -6.734375 -2.96875 C -6.734375 -1.515625 -5.84375 -0.421875 -4.6875 -0.421875 C -3.703125 -0.421875 -3.09375 -1.0625 -2.734375 -2.5625 L -2.515625 -3.484375 C -2.34375 -4.1875 -2.265625 -4.3125 -1.8125 -4.3125 C -1.21875 -4.3125 -1.015625 -3.875 -1.015625 -3 C -1.015625 -2.09375 -1.09375 -1.734375 -2.1875 -1.578125 L -2.1875 -0.265625 C -0.59375 -0.3125 0.1875 -1.265625 0.1875 -2.921875 C 0.1875 -4.5 -0.6875 -5.640625 -1.890625 -5.640625 Z M -1.890625 -5.640625 "
           id="path60" />
      </symbol>
    </g>
    <clipPath
       id="clip1">
      <path
         d="M 66.53125 5.976562 L 561 5.976562 L 561 304 L 66.53125 304 Z M 66.53125 5.976562 "
         id="path63" />
    </clipPath>
    <clipPath
       id="clip2">
      <path
         d="M 66.53125 248 L 561 248 L 561 250 L 66.53125 250 Z M 66.53125 248 "
         id="path66" />
    </clipPath>
    <clipPath
       id="clip3">
      <path
         d="M 66.53125 166 L 561 166 L 561 168 L 66.53125 168 Z M 66.53125 166 "
         id="path69" />
    </clipPath>
    <clipPath
       id="clip4">
      <path
         d="M 66.53125 84 L 561 84 L 561 86 L 66.53125 86 Z M 66.53125 84 "
         id="path72" />
    </clipPath>
    <clipPath
       id="clip5">
      <path
         d="M 142 5.976562 L 144 5.976562 L 144 304.46875 L 142 304.46875 Z M 142 5.976562 "
         id="path75" />
    </clipPath>
    <clipPath
       id="clip6">
      <path
         d="M 249 5.976562 L 251 5.976562 L 251 304.46875 L 249 304.46875 Z M 249 5.976562 "
         id="path78" />
    </clipPath>
    <clipPath
       id="clip7">
      <path
         d="M 356 5.976562 L 358 5.976562 L 358 304.46875 L 356 304.46875 Z M 356 5.976562 "
         id="path81" />
    </clipPath>
    <clipPath
       id="clip8">
      <path
         d="M 463 5.976562 L 466 5.976562 L 466 304.46875 L 463 304.46875 Z M 463 5.976562 "
         id="path84" />
    </clipPath>
    <clipPath
       id="clip9">
      <path
         d="M 66.53125 289 L 561 289 L 561 291 L 66.53125 291 Z M 66.53125 289 "
         id="path87" />
    </clipPath>
    <clipPath
       id="clip10">
      <path
         d="M 66.53125 207 L 561 207 L 561 209 L 66.53125 209 Z M 66.53125 207 "
         id="path90" />
    </clipPath>
    <clipPath
       id="clip11">
      <path
         d="M 66.53125 125 L 561 125 L 561 126 L 66.53125 126 Z M 66.53125 125 "
         id="path93" />
    </clipPath>
    <clipPath
       id="clip12">
      <path
         d="M 66.53125 43 L 561 43 L 561 44 L 66.53125 44 Z M 66.53125 43 "
         id="path96" />
    </clipPath>
    <clipPath
       id="clip13">
      <path
         d="M 88 5.976562 L 90 5.976562 L 90 304 L 88 304 Z M 88 5.976562 "
         id="path99" />
    </clipPath>
    <clipPath
       id="clip14">
      <path
         d="M 196 5.976562 L 197 5.976562 L 197 304 L 196 304 Z M 196 5.976562 "
         id="path102" />
    </clipPath>
    <clipPath
       id="clip15">
      <path
         d="M 303 5.976562 L 304 5.976562 L 304 304 L 303 304 Z M 303 5.976562 "
         id="path105" />
    </clipPath>
    <clipPath
       id="clip16">
      <path
         d="M 410 5.976562 L 412 5.976562 L 412 304 L 410 304 Z M 410 5.976562 "
         id="path108" />
    </clipPath>
    <clipPath
       id="clip17">
      <path
         d="M 517 5.976562 L 519 5.976562 L 519 304 L 517 304 Z M 517 5.976562 "
         id="path111" />
    </clipPath>
    <clipPath
       id="clip18">
      <path
         d="M 66.53125 5.976562 L 561 5.976562 L 561 304.46875 L 66.53125 304.46875 Z M 66.53125 5.976562 "
         id="path114" />
    </clipPath>
  </defs>
  <g
     style="clip-rule:nonzero"
     id="g123"
     clip-path="url(#clip1)">
    <path
       inkscape:connector-curvature="0"
       id="path125"
       d="m 66.53125,303.46875 493.49219,0 0,-297.492188 -493.49219,0 z m 0,0"
       style="fill:#ffffff;fill-opacity:1;fill-rule:nonzero;stroke:none" />
  </g>
  <g
     style="clip-rule:nonzero"
     id="g127"
     clip-path="url(#clip2)">
    <path
       inkscape:connector-curvature="0"
       id="path129"
       d="m 66.53125,248.91406 493.49219,0"
       style="fill:none;stroke:#fafafa;stroke-width:1.06697798;stroke-linecap:butt;stroke-linejoin:round;stroke-miterlimit:10;stroke-opacity:1" />
  </g>
  <g
     style="clip-rule:nonzero"
     id="g131"
     clip-path="url(#clip3)">
    <path
       inkscape:connector-curvature="0"
       id="path133"
       d="m 66.53125,166.77734 493.49219,0"
       style="fill:none;stroke:#fafafa;stroke-width:1.06697798;stroke-linecap:butt;stroke-linejoin:round;stroke-miterlimit:10;stroke-opacity:1" />
  </g>
  <g
     style="clip-rule:nonzero"
     id="g135"
     clip-path="url(#clip4)">
    <path
       inkscape:connector-curvature="0"
       id="path137"
       d="m 66.53125,84.640625 493.49219,0"
       style="fill:none;stroke:#fafafa;stroke-width:1.06697798;stroke-linecap:butt;stroke-linejoin:round;stroke-miterlimit:10;stroke-opacity:1" />
  </g>
  <g
     style="clip-rule:nonzero"
     id="g139"
     clip-path="url(#clip5)">
    <path
       inkscape:connector-curvature="0"
       id="path141"
       d="m 142.57031,303.46875 0,-297.492188"
       style="fill:none;stroke:#fafafa;stroke-width:1.06697798;stroke-linecap:butt;stroke-linejoin:round;stroke-miterlimit:10;stroke-opacity:1" />
  </g>
  <g
     style="clip-rule:nonzero"
     id="g143"
     clip-path="url(#clip6)">
    <path
       inkscape:connector-curvature="0"
       id="path145"
       d="m 249.88281,303.46875 0,-297.492188"
       style="fill:none;stroke:#fafafa;stroke-width:1.06697798;stroke-linecap:butt;stroke-linejoin:round;stroke-miterlimit:10;stroke-opacity:1" />
  </g>
  <g
     style="clip-rule:nonzero"
     id="g147"
     clip-path="url(#clip7)">
    <path
       inkscape:connector-curvature="0"
       id="path149"
       d="m 357.19922,303.46875 0,-297.492188"
       style="fill:none;stroke:#fafafa;stroke-width:1.06697798;stroke-linecap:butt;stroke-linejoin:round;stroke-miterlimit:10;stroke-opacity:1" />
  </g>
  <g
     style="clip-rule:nonzero"
     id="g151"
     clip-path="url(#clip8)">
    <path
       inkscape:connector-curvature="0"
       id="path153"
       d="m 464.51172,303.46875 0,-297.492188"
       style="fill:none;stroke:#fafafa;stroke-width:1.06697798;stroke-linecap:butt;stroke-linejoin:round;stroke-miterlimit:10;stroke-opacity:1" />
  </g>
  <g
     style="clip-rule:nonzero"
     id="g155"
     clip-path="url(#clip9)">
    <path
       inkscape:connector-curvature="0"
       id="path157"
       d="m 66.53125,289.98047 493.49219,0"
       style="fill:none;stroke:#e3e3e3;stroke-width:0.42679101;stroke-linecap:butt;stroke-linejoin:round;stroke-miterlimit:10;stroke-opacity:1" />
  </g>
  <g
     style="clip-rule:nonzero"
     id="g159"
     clip-path="url(#clip10)">
    <path
       inkscape:connector-curvature="0"
       id="path161"
       d="m 66.53125,207.84375 493.49219,0"
       style="fill:none;stroke:#e3e3e3;stroke-width:0.42679101;stroke-linecap:butt;stroke-linejoin:round;stroke-miterlimit:10;stroke-opacity:1" />
  </g>
  <g
     style="clip-rule:nonzero"
     id="g163"
     clip-path="url(#clip11)">
    <path
       inkscape:connector-curvature="0"
       id="path165"
       d="m 66.53125,125.71094 493.49219,0"
       style="fill:none;stroke:#e3e3e3;stroke-width:0.42679101;stroke-linecap:butt;stroke-linejoin:round;stroke-miterlimit:10;stroke-opacity:1" />
  </g>
  <g
     style="clip-rule:nonzero"
     id="g167"
     clip-path="url(#clip12)">
    <path
       inkscape:connector-curvature="0"
       id="path169"
       d="m 66.53125,43.574219 493.49219,0"
       style="fill:none;stroke:#e3e3e3;stroke-width:0.42679101;stroke-linecap:butt;stroke-linejoin:round;stroke-miterlimit:10;stroke-opacity:1" />
  </g>
  <g
     style="clip-rule:nonzero"
     id="g171"
     clip-path="url(#clip13)">
    <path
       inkscape:connector-curvature="0"
       id="path173"
       d="m 88.914062,303.46875 0,-297.492188"
       style="fill:none;stroke:#e3e3e3;stroke-width:0.42679101;stroke-linecap:butt;stroke-linejoin:round;stroke-miterlimit:10;stroke-opacity:1" />
  </g>
  <g
     style="clip-rule:nonzero"
     id="g175"
     clip-path="url(#clip14)">
    <path
       inkscape:connector-curvature="0"
       id="path177"
       d="m 196.22656,303.46875 0,-297.492188"
       style="fill:none;stroke:#e3e3e3;stroke-width:0.42679101;stroke-linecap:butt;stroke-linejoin:round;stroke-miterlimit:10;stroke-opacity:1" />
  </g>
  <g
     style="clip-rule:nonzero"
     id="g179"
     clip-path="url(#clip15)">
    <path
       inkscape:connector-curvature="0"
       id="path181"
       d="m 303.53906,303.46875 0,-297.492188"
       style="fill:none;stroke:#e3e3e3;stroke-width:0.42679101;stroke-linecap:butt;stroke-linejoin:round;stroke-miterlimit:10;stroke-opacity:1" />
  </g>
  <g
     style="clip-rule:nonzero"
     id="g183"
     clip-path="url(#clip16)">
    <path
       inkscape:connector-curvature="0"
       id="path185"
       d="m 410.85547,303.46875 0,-297.492188"
       style="fill:none;stroke:#e3e3e3;stroke-width:0.42679101;stroke-linecap:butt;stroke-linejoin:round;stroke-miterlimit:10;stroke-opacity:1" />
  </g>
  <g
     style="clip-rule:nonzero"
     id="g187"
     clip-path="url(#clip17)">
    <path
       inkscape:connector-curvature="0"
       id="path189"
       d="m 518.16797,303.46875 0,-297.492188"
       style="fill:none;stroke:#e3e3e3;stroke-width:0.42679101;stroke-linecap:butt;stroke-linejoin:round;stroke-miterlimit:10;stroke-opacity:1" />
  </g>
  <path
     inkscape:connector-curvature="0"
     id="path191"
     d="m 153.37891,250.64062 c 0,2.60547 -3.91016,2.60547 -3.91016,0 0,-2.60546 3.91016,-2.60546 3.91016,0"
     style="fill:#4d4d4d;fill-opacity:1;fill-rule:nonzero;stroke:none;stroke-width:0.70866102;stroke-linecap:round;stroke-linejoin:round;stroke-miterlimit:10;stroke-opacity:1" />
  <path
     inkscape:connector-curvature="0"
     id="path193"
     d="m 90.917969,289.94531 c 0,2.60938 -3.910157,2.60938 -3.910157,0 0,-2.60547 3.910157,-2.60547 3.910157,0"
     style="fill:#4d4d4d;fill-opacity:1;fill-rule:nonzero;stroke:none;stroke-width:0.70866102;stroke-linecap:round;stroke-linejoin:round;stroke-miterlimit:10;stroke-opacity:1" />
  <path
     inkscape:connector-curvature="0"
     id="path195"
     d="m 92.679688,288.71484 c 0,2.60547 -3.910157,2.60547 -3.910157,0 0,-2.60547 3.910157,-2.60547 3.910157,0"
     style="fill:#4d4d4d;fill-opacity:1;fill-rule:nonzero;stroke:none;stroke-width:0.70866102;stroke-linecap:round;stroke-linejoin:round;stroke-miterlimit:10;stroke-opacity:1" />
  <path
     inkscape:connector-curvature="0"
     id="path197"
     d="m 105.32031,282.79297 c 0,2.60547 -3.91015,2.60547 -3.91015,0 0,-2.60547 3.91015,-2.60547 3.91015,0"
     style="fill:#4d4d4d;fill-opacity:1;fill-rule:nonzero;stroke:none;stroke-width:0.70866102;stroke-linecap:round;stroke-linejoin:round;stroke-miterlimit:10;stroke-opacity:1" />
  <path
     inkscape:connector-curvature="0"
     id="path199"
     d="m 93.085938,288.60547 c 0,2.60547 -3.910157,2.60547 -3.910157,0 0,-2.60938 3.910157,-2.60938 3.910157,0"
     style="fill:#4d4d4d;fill-opacity:1;fill-rule:nonzero;stroke:none;stroke-width:0.70866102;stroke-linecap:round;stroke-linejoin:round;stroke-miterlimit:10;stroke-opacity:1" />
  <path
     inkscape:connector-curvature="0"
     id="path201"
     d="m 91.523438,289.36719 c 0,2.60547 -3.910157,2.60547 -3.910157,0 0,-2.60938 3.910157,-2.60938 3.910157,0"
     style="fill:#4d4d4d;fill-opacity:1;fill-rule:nonzero;stroke:none;stroke-width:0.70866102;stroke-linecap:round;stroke-linejoin:round;stroke-miterlimit:10;stroke-opacity:1" />
  <path
     inkscape:connector-curvature="0"
     id="path203"
     d="m 122.82813,256.75391 c 0,2.60546 -3.91016,2.60546 -3.91016,0 0,-2.60547 3.91016,-2.60547 3.91016,0"
     style="fill:#4d4d4d;fill-opacity:1;fill-rule:nonzero;stroke:none;stroke-width:0.70866102;stroke-linecap:round;stroke-linejoin:round;stroke-miterlimit:10;stroke-opacity:1" />
  <path
     inkscape:connector-curvature="0"
     id="path205"
     d="m 92.785156,289.08594 c 0,2.60547 -3.910156,2.60547 -3.910156,0 0,-2.60547 3.910156,-2.60547 3.910156,0"
     style="fill:#4d4d4d;fill-opacity:1;fill-rule:nonzero;stroke:none;stroke-width:0.70866102;stroke-linecap:round;stroke-linejoin:round;stroke-miterlimit:10;stroke-opacity:1" />
  <path
     inkscape:connector-curvature="0"
     id="path207"
     d="m 96.933594,285.27734 c 0,2.60547 -3.910156,2.60547 -3.910156,0 0,-2.60547 3.910156,-2.60547 3.910156,0"
     style="fill:#4d4d4d;fill-opacity:1;fill-rule:nonzero;stroke:none;stroke-width:0.70866102;stroke-linecap:round;stroke-linejoin:round;stroke-miterlimit:10;stroke-opacity:1" />
  <path
     inkscape:connector-curvature="0"
     id="path209"
     d="m 139.90625,261.55859 c 0,2.60938 -3.91016,2.60938 -3.91016,0 0,-2.60547 3.91016,-2.60547 3.91016,0"
     style="fill:#4d4d4d;fill-opacity:1;fill-rule:nonzero;stroke:none;stroke-width:0.70866102;stroke-linecap:round;stroke-linejoin:round;stroke-miterlimit:10;stroke-opacity:1" />
  <path
     inkscape:connector-curvature="0"
     id="path211"
     d="m 92.097656,289.11719 c 0,2.60937 -3.90625,2.60937 -3.90625,0 0,-2.60547 3.90625,-2.60547 3.90625,0"
     style="fill:#4d4d4d;fill-opacity:1;fill-rule:nonzero;stroke:none;stroke-width:0.70866102;stroke-linecap:round;stroke-linejoin:round;stroke-miterlimit:10;stroke-opacity:1" />
  <path
     inkscape:connector-curvature="0"
     id="path213"
     d="m 100.08594,285.64062 c 0,2.60547 -3.910159,2.60547 -3.910159,0 0,-2.60546 3.910159,-2.60546 3.910159,0"
     style="fill:#4d4d4d;fill-opacity:1;fill-rule:nonzero;stroke:none;stroke-width:0.70866102;stroke-linecap:round;stroke-linejoin:round;stroke-miterlimit:10;stroke-opacity:1" />
  <path
     inkscape:connector-curvature="0"
     id="path215"
     d="m 100.46094,284.74219 c 0,2.60937 -3.910159,2.60937 -3.910159,0 0,-2.60547 3.910159,-2.60547 3.910159,0"
     style="fill:#4d4d4d;fill-opacity:1;fill-rule:nonzero;stroke:none;stroke-width:0.70866102;stroke-linecap:round;stroke-linejoin:round;stroke-miterlimit:10;stroke-opacity:1" />
  <path
     inkscape:connector-curvature="0"
     id="path217"
     d="m 91.753906,289.44141 c 0,2.60546 -3.910156,2.60546 -3.910156,0 0,-2.60938 3.910156,-2.60938 3.910156,0"
     style="fill:#4d4d4d;fill-opacity:1;fill-rule:nonzero;stroke:none;stroke-width:0.70866102;stroke-linecap:round;stroke-linejoin:round;stroke-miterlimit:10;stroke-opacity:1" />
  <path
     inkscape:connector-curvature="0"
     id="path219"
     d="m 128.48828,260.89844 c 0,2.60937 -3.91015,2.60937 -3.91015,0 0,-2.60547 3.91015,-2.60547 3.91015,0"
     style="fill:#4d4d4d;fill-opacity:1;fill-rule:nonzero;stroke:none;stroke-width:0.70866102;stroke-linecap:round;stroke-linejoin:round;stroke-miterlimit:10;stroke-opacity:1" />
  <path
     inkscape:connector-curvature="0"
     id="path221"
     d="m 97.046875,285.41406 c 0,2.60938 -3.90625,2.60938 -3.90625,0 0,-2.60547 3.90625,-2.60547 3.90625,0"
     style="fill:#4d4d4d;fill-opacity:1;fill-rule:nonzero;stroke:none;stroke-width:0.70866102;stroke-linecap:round;stroke-linejoin:round;stroke-miterlimit:10;stroke-opacity:1" />
  <path
     inkscape:connector-curvature="0"
     id="path223"
     d="m 95.90625,287.85547 c 0,2.60547 -3.910156,2.60547 -3.910156,0 0,-2.60938 3.910156,-2.60938 3.910156,0"
     style="fill:#4d4d4d;fill-opacity:1;fill-rule:nonzero;stroke:none;stroke-width:0.70866102;stroke-linecap:round;stroke-linejoin:round;stroke-miterlimit:10;stroke-opacity:1" />
  <path
     inkscape:connector-curvature="0"
     id="path225"
     d="m 92.335938,288.96875 c 0,2.60937 -3.90625,2.60937 -3.90625,0 0,-2.60547 3.90625,-2.60547 3.90625,0"
     style="fill:#4d4d4d;fill-opacity:1;fill-rule:nonzero;stroke:none;stroke-width:0.70866102;stroke-linecap:round;stroke-linejoin:round;stroke-miterlimit:10;stroke-opacity:1" />
  <path
     inkscape:connector-curvature="0"
     id="path227"
     d="m 539.54687,28.390625 c 0,2.605469 -3.91015,2.605469 -3.91015,0 0,-2.605469 3.91015,-2.605469 3.91015,0"
     style="fill:#4d4d4d;fill-opacity:1;fill-rule:nonzero;stroke:none;stroke-width:0.70866102;stroke-linecap:round;stroke-linejoin:round;stroke-miterlimit:10;stroke-opacity:1" />
  <path
     inkscape:connector-curvature="0"
     id="path229"
     d="m 97.148438,285.39844 c 0,2.60547 -3.910157,2.60547 -3.910157,0 0,-2.60547 3.910157,-2.60547 3.910157,0"
     style="fill:#4d4d4d;fill-opacity:1;fill-rule:nonzero;stroke:none;stroke-width:0.70866102;stroke-linecap:round;stroke-linejoin:round;stroke-miterlimit:10;stroke-opacity:1" />
  <path
     inkscape:connector-curvature="0"
     id="path231"
     d="m 97.914062,283.76172 c 0,2.60937 -3.90625,2.60937 -3.90625,0 0,-2.60547 3.90625,-2.60547 3.90625,0"
     style="fill:#4d4d4d;fill-opacity:1;fill-rule:nonzero;stroke:none;stroke-width:0.70866102;stroke-linecap:round;stroke-linejoin:round;stroke-miterlimit:10;stroke-opacity:1" />
  <path
     inkscape:connector-curvature="0"
     id="path233"
     d="m 92.113281,289.40625 c 0,2.60547 -3.910156,2.60547 -3.910156,0 0,-2.60938 3.910156,-2.60938 3.910156,0"
     style="fill:#4d4d4d;fill-opacity:1;fill-rule:nonzero;stroke:none;stroke-width:0.70866102;stroke-linecap:round;stroke-linejoin:round;stroke-miterlimit:10;stroke-opacity:1" />
  <path
     inkscape:connector-curvature="0"
     id="path235"
     d="m 95.925781,287.53906 c 0,2.60547 -3.910156,2.60547 -3.910156,0 0,-2.60937 3.910156,-2.60937 3.910156,0"
     style="fill:#4d4d4d;fill-opacity:1;fill-rule:nonzero;stroke:none;stroke-width:0.70866102;stroke-linecap:round;stroke-linejoin:round;stroke-miterlimit:10;stroke-opacity:1" />
  <path
     inkscape:connector-curvature="0"
     id="path237"
     d="m 102.24219,281.51953 c 0,2.60547 -3.910159,2.60547 -3.910159,0 0,-2.60547 3.910159,-2.60547 3.910159,0"
     style="fill:#4d4d4d;fill-opacity:1;fill-rule:nonzero;stroke:none;stroke-width:0.70866102;stroke-linecap:round;stroke-linejoin:round;stroke-miterlimit:10;stroke-opacity:1" />
  <path
     inkscape:connector-curvature="0"
     id="path239"
     d="m 91.742188,289.71094 c 0,2.60937 -3.910157,2.60937 -3.910157,0 0,-2.60547 3.910157,-2.60547 3.910157,0"
     style="fill:#4d4d4d;fill-opacity:1;fill-rule:nonzero;stroke:none;stroke-width:0.70866102;stroke-linecap:round;stroke-linejoin:round;stroke-miterlimit:10;stroke-opacity:1" />
  <path
     inkscape:connector-curvature="0"
     id="path241"
     d="m 91.203125,289.57422 c 0,2.60547 -3.910156,2.60547 -3.910156,0 0,-2.60938 3.910156,-2.60938 3.910156,0"
     style="fill:#4d4d4d;fill-opacity:1;fill-rule:nonzero;stroke:none;stroke-width:0.70866102;stroke-linecap:round;stroke-linejoin:round;stroke-miterlimit:10;stroke-opacity:1" />
  <path
     inkscape:connector-curvature="0"
     id="path243"
     d="m 103.59375,278.91406 c 0,2.60547 -3.910156,2.60547 -3.910156,0 0,-2.60547 3.910156,-2.60547 3.910156,0"
     style="fill:#4d4d4d;fill-opacity:1;fill-rule:nonzero;stroke:none;stroke-width:0.70866102;stroke-linecap:round;stroke-linejoin:round;stroke-miterlimit:10;stroke-opacity:1" />
  <path
     inkscape:connector-curvature="0"
     id="path245"
     d="m 94.433594,285.85937 c 0,2.60547 -3.910156,2.60547 -3.910156,0 0,-2.60546 3.910156,-2.60546 3.910156,0"
     style="fill:#4d4d4d;fill-opacity:1;fill-rule:nonzero;stroke:none;stroke-width:0.70866102;stroke-linecap:round;stroke-linejoin:round;stroke-miterlimit:10;stroke-opacity:1" />
  <path
     inkscape:connector-curvature="0"
     id="path247"
     d="m 94.824219,287.25391 c 0,2.60937 -3.910157,2.60937 -3.910157,0 0,-2.60547 3.910157,-2.60547 3.910157,0"
     style="fill:#4d4d4d;fill-opacity:1;fill-rule:nonzero;stroke:none;stroke-width:0.70866102;stroke-linecap:round;stroke-linejoin:round;stroke-miterlimit:10;stroke-opacity:1" />
  <path
     inkscape:connector-curvature="0"
     id="path249"
     d="m 182.20312,215.30469 c 0,2.60547 -3.91015,2.60547 -3.91015,0 0,-2.60547 3.91015,-2.60547 3.91015,0"
     style="fill:#4d4d4d;fill-opacity:1;fill-rule:nonzero;stroke:none;stroke-width:0.70866102;stroke-linecap:round;stroke-linejoin:round;stroke-miterlimit:10;stroke-opacity:1" />
  <path
     inkscape:connector-curvature="0"
     id="path251"
     d="m 101.89844,280.23437 c 0,2.60547 -3.910159,2.60547 -3.910159,0 0,-2.60546 3.910159,-2.60546 3.910159,0"
     style="fill:#4d4d4d;fill-opacity:1;fill-rule:nonzero;stroke:none;stroke-width:0.70866102;stroke-linecap:round;stroke-linejoin:round;stroke-miterlimit:10;stroke-opacity:1" />
  <path
     inkscape:connector-curvature="0"
     id="path253"
     d="m 92.324219,289.41016 c 0,2.60546 -3.910157,2.60546 -3.910157,0 0,-2.60547 3.910157,-2.60547 3.910157,0"
     style="fill:#4d4d4d;fill-opacity:1;fill-rule:nonzero;stroke:none;stroke-width:0.70866102;stroke-linecap:round;stroke-linejoin:round;stroke-miterlimit:10;stroke-opacity:1" />
  <path
     inkscape:connector-curvature="0"
     id="path255"
     d="m 167.77344,221.19141 c 0,2.60546 -3.91016,2.60546 -3.91016,0 0,-2.60547 3.91016,-2.60547 3.91016,0"
     style="fill:#4d4d4d;fill-opacity:1;fill-rule:nonzero;stroke:none;stroke-width:0.70866102;stroke-linecap:round;stroke-linejoin:round;stroke-miterlimit:10;stroke-opacity:1" />
  <path
     inkscape:connector-curvature="0"
     id="path257"
     d="m 156.94141,241.98047 c 0,2.60937 -3.91016,2.60937 -3.91016,0 0,-2.60547 3.91016,-2.60547 3.91016,0"
     style="fill:#4d4d4d;fill-opacity:1;fill-rule:nonzero;stroke:none;stroke-width:0.70866102;stroke-linecap:round;stroke-linejoin:round;stroke-miterlimit:10;stroke-opacity:1" />
  <path
     inkscape:connector-curvature="0"
     id="path259"
     d="m 92.332031,288.44531 c 0,2.60547 -3.910156,2.60547 -3.910156,0 0,-2.60937 3.910156,-2.60937 3.910156,0"
     style="fill:#4d4d4d;fill-opacity:1;fill-rule:nonzero;stroke:none;stroke-width:0.70866102;stroke-linecap:round;stroke-linejoin:round;stroke-miterlimit:10;stroke-opacity:1" />
  <path
     inkscape:connector-curvature="0"
     id="path261"
     d="m 176.52344,223.47266 c 0,2.60546 -3.91016,2.60546 -3.91016,0 0,-2.60547 3.91016,-2.60547 3.91016,0"
     style="fill:#4d4d4d;fill-opacity:1;fill-rule:nonzero;stroke:none;stroke-width:0.70866102;stroke-linecap:round;stroke-linejoin:round;stroke-miterlimit:10;stroke-opacity:1" />
  <path
     inkscape:connector-curvature="0"
     id="path263"
     d="m 227.89453,214.54687 c 0,2.60547 -3.91016,2.60547 -3.91016,0 0,-2.60937 3.91016,-2.60937 3.91016,0"
     style="fill:#4d4d4d;fill-opacity:1;fill-rule:nonzero;stroke:none;stroke-width:0.70866102;stroke-linecap:round;stroke-linejoin:round;stroke-miterlimit:10;stroke-opacity:1" />
  <path
     inkscape:connector-curvature="0"
     id="path265"
     d="m 140.68359,271.08594 c 0,2.60937 -3.91015,2.60937 -3.91015,0 0,-2.60547 3.91015,-2.60547 3.91015,0"
     style="fill:#4d4d4d;fill-opacity:1;fill-rule:nonzero;stroke:none;stroke-width:0.70866102;stroke-linecap:round;stroke-linejoin:round;stroke-miterlimit:10;stroke-opacity:1" />
  <path
     inkscape:connector-curvature="0"
     id="path267"
     d="m 117.52344,267.36719 c 0,2.60547 -3.91016,2.60547 -3.91016,0 0,-2.60547 3.91016,-2.60547 3.91016,0"
     style="fill:#4d4d4d;fill-opacity:1;fill-rule:nonzero;stroke:none;stroke-width:0.70866102;stroke-linecap:round;stroke-linejoin:round;stroke-miterlimit:10;stroke-opacity:1" />
  <path
     inkscape:connector-curvature="0"
     id="path269"
     d="m 104.95703,281.41797 c 0,2.60547 -3.91015,2.60547 -3.91015,0 0,-2.60938 3.91015,-2.60938 3.91015,0"
     style="fill:#4d4d4d;fill-opacity:1;fill-rule:nonzero;stroke:none;stroke-width:0.70866102;stroke-linecap:round;stroke-linejoin:round;stroke-miterlimit:10;stroke-opacity:1" />
  <path
     inkscape:connector-curvature="0"
     id="path271"
     d="m 108.09766,270.17187 c 0,2.60547 -3.91016,2.60547 -3.91016,0 0,-2.60546 3.91016,-2.60546 3.91016,0"
     style="fill:#4d4d4d;fill-opacity:1;fill-rule:nonzero;stroke:none;stroke-width:0.70866102;stroke-linecap:round;stroke-linejoin:round;stroke-miterlimit:10;stroke-opacity:1" />
  <path
     inkscape:connector-curvature="0"
     id="path273"
     d="m 106.87109,280.45312 c 0,2.60547 -3.91015,2.60547 -3.91015,0 0,-2.60546 3.91015,-2.60546 3.91015,0"
     style="fill:#4d4d4d;fill-opacity:1;fill-rule:nonzero;stroke:none;stroke-width:0.70866102;stroke-linecap:round;stroke-linejoin:round;stroke-miterlimit:10;stroke-opacity:1" />
  <path
     inkscape:connector-curvature="0"
     id="path275"
     d="m 141.76953,245.38672 c 0,2.60547 -3.91016,2.60547 -3.91016,0 0,-2.60547 3.91016,-2.60547 3.91016,0"
     style="fill:#4d4d4d;fill-opacity:1;fill-rule:nonzero;stroke:none;stroke-width:0.70866102;stroke-linecap:round;stroke-linejoin:round;stroke-miterlimit:10;stroke-opacity:1" />
  <path
     inkscape:connector-curvature="0"
     id="path277"
     d="m 103.4375,283.28906 c 0,2.60547 -3.910156,2.60547 -3.910156,0 0,-2.60937 3.910156,-2.60937 3.910156,0"
     style="fill:#4d4d4d;fill-opacity:1;fill-rule:nonzero;stroke:none;stroke-width:0.70866102;stroke-linecap:round;stroke-linejoin:round;stroke-miterlimit:10;stroke-opacity:1" />
  <path
     inkscape:connector-curvature="0"
     id="path279"
     d="m 100.30078,284.0625 c 0,2.60937 -3.910155,2.60937 -3.910155,0 0,-2.60547 3.910155,-2.60547 3.910155,0"
     style="fill:#4d4d4d;fill-opacity:1;fill-rule:nonzero;stroke:none;stroke-width:0.70866102;stroke-linecap:round;stroke-linejoin:round;stroke-miterlimit:10;stroke-opacity:1" />
  <path
     inkscape:connector-curvature="0"
     id="path281"
     d="m 91.203125,289.89062 c 0,2.60547 -3.910156,2.60547 -3.910156,0 0,-2.60937 3.910156,-2.60937 3.910156,0"
     style="fill:#4d4d4d;fill-opacity:1;fill-rule:nonzero;stroke:none;stroke-width:0.70866102;stroke-linecap:round;stroke-linejoin:round;stroke-miterlimit:10;stroke-opacity:1" />
  <path
     inkscape:connector-curvature="0"
     id="path283"
     d="m 94.257812,288.69141 c 0,2.60546 -3.910156,2.60546 -3.910156,0 0,-2.60547 3.910156,-2.60547 3.910156,0"
     style="fill:#4d4d4d;fill-opacity:1;fill-rule:nonzero;stroke:none;stroke-width:0.70866102;stroke-linecap:round;stroke-linejoin:round;stroke-miterlimit:10;stroke-opacity:1" />
  <path
     inkscape:connector-curvature="0"
     id="path285"
     d="m 105.68359,274.37891 c 0,2.60546 -3.91015,2.60546 -3.91015,0 0,-2.60938 3.91015,-2.60938 3.91015,0"
     style="fill:#4d4d4d;fill-opacity:1;fill-rule:nonzero;stroke:none;stroke-width:0.70866102;stroke-linecap:round;stroke-linejoin:round;stroke-miterlimit:10;stroke-opacity:1" />
  <path
     inkscape:connector-curvature="0"
     id="path287"
     d="m 107.35547,276.96875 c 0,2.60547 -3.90625,2.60547 -3.90625,0 0,-2.60938 3.90625,-2.60938 3.90625,0"
     style="fill:#4d4d4d;fill-opacity:1;fill-rule:nonzero;stroke:none;stroke-width:0.70866102;stroke-linecap:round;stroke-linejoin:round;stroke-miterlimit:10;stroke-opacity:1" />
  <path
     inkscape:connector-curvature="0"
     id="path289"
     d="m 114.32422,270.35156 c 0,2.60547 -3.91016,2.60547 -3.91016,0 0,-2.60547 3.91016,-2.60547 3.91016,0"
     style="fill:#4d4d4d;fill-opacity:1;fill-rule:nonzero;stroke:none;stroke-width:0.70866102;stroke-linecap:round;stroke-linejoin:round;stroke-miterlimit:10;stroke-opacity:1" />
  <path
     inkscape:connector-curvature="0"
     id="path291"
     d="m 94.394531,286.79687 c 0,2.60547 -3.910156,2.60547 -3.910156,0 0,-2.60546 3.910156,-2.60546 3.910156,0"
     style="fill:#4d4d4d;fill-opacity:1;fill-rule:nonzero;stroke:none;stroke-width:0.70866102;stroke-linecap:round;stroke-linejoin:round;stroke-miterlimit:10;stroke-opacity:1" />
  <path
     inkscape:connector-curvature="0"
     id="path293"
     d="m 93.949219,287.90625 c 0,2.60547 -3.910157,2.60547 -3.910157,0 0,-2.60547 3.910157,-2.60547 3.910157,0"
     style="fill:#4d4d4d;fill-opacity:1;fill-rule:nonzero;stroke:none;stroke-width:0.70866102;stroke-linecap:round;stroke-linejoin:round;stroke-miterlimit:10;stroke-opacity:1" />
  <path
     inkscape:connector-curvature="0"
     id="path295"
     d="m 91.71875,289.53516 c 0,2.60546 -3.910156,2.60546 -3.910156,0 0,-2.60938 3.910156,-2.60938 3.910156,0"
     style="fill:#4d4d4d;fill-opacity:1;fill-rule:nonzero;stroke:none;stroke-width:0.70866102;stroke-linecap:round;stroke-linejoin:round;stroke-miterlimit:10;stroke-opacity:1" />
  <path
     inkscape:connector-curvature="0"
     id="path297"
     d="m 112.83594,274.125 c 0,2.60547 -3.91016,2.60547 -3.91016,0 0,-2.60547 3.91016,-2.60547 3.91016,0"
     style="fill:#4d4d4d;fill-opacity:1;fill-rule:nonzero;stroke:none;stroke-width:0.70866102;stroke-linecap:round;stroke-linejoin:round;stroke-miterlimit:10;stroke-opacity:1" />
  <path
     inkscape:connector-curvature="0"
     id="path299"
     d="m 93.5625,288.53125 c 0,2.60547 -3.910156,2.60547 -3.910156,0 0,-2.60938 3.910156,-2.60938 3.910156,0"
     style="fill:#4d4d4d;fill-opacity:1;fill-rule:nonzero;stroke:none;stroke-width:0.70866102;stroke-linecap:round;stroke-linejoin:round;stroke-miterlimit:10;stroke-opacity:1" />
  <path
     inkscape:connector-curvature="0"
     id="path301"
     d="m 110.77344,269.62109 c 0,2.60547 -3.91016,2.60547 -3.91016,0 0,-2.60547 3.91016,-2.60547 3.91016,0"
     style="fill:#4d4d4d;fill-opacity:1;fill-rule:nonzero;stroke:none;stroke-width:0.70866102;stroke-linecap:round;stroke-linejoin:round;stroke-miterlimit:10;stroke-opacity:1" />
  <path
     inkscape:connector-curvature="0"
     id="path303"
     d="m 101.06641,284.37109 c 0,2.60547 -3.91016,2.60547 -3.91016,0 0,-2.60547 3.91016,-2.60547 3.91016,0"
     style="fill:#4d4d4d;fill-opacity:1;fill-rule:nonzero;stroke:none;stroke-width:0.70866102;stroke-linecap:round;stroke-linejoin:round;stroke-miterlimit:10;stroke-opacity:1" />
  <path
     inkscape:connector-curvature="0"
     id="path305"
     d="m 93.835938,287.91016 c 0,2.60546 -3.90625,2.60546 -3.90625,0 0,-2.60547 3.90625,-2.60547 3.90625,0"
     style="fill:#4d4d4d;fill-opacity:1;fill-rule:nonzero;stroke:none;stroke-width:0.70866102;stroke-linecap:round;stroke-linejoin:round;stroke-miterlimit:10;stroke-opacity:1" />
  <path
     inkscape:connector-curvature="0"
     id="path307"
     d="M 88.960938,287.66406 106,277.48047 l 5.67578,-3.39453 22.71875,-13.57813 5.67578,-3.39453 17.03906,-10.18359 5.67579,-3.39453 22.71875,-13.57813 5.67578,-3.39453 22.71875,-13.57813 5.67578,-3.39453 17.03906,-10.18359 5.67578,-3.39453 22.71875,-13.57813 5.67578,-3.39453 22.71875,-13.57812 5.67578,-3.39453 17.03907,-10.1836 5.67578,-3.39453 11.35937,-6.78906 5.67969,-3.39063 5.67969,-3.39453 5.67578,-3.39453 22.71875,-13.57812 5.67578,-3.39453 17.03906,-10.1836 5.67578,-3.39453 22.71875,-13.578125 5.67579,-3.394531 22.71875,-13.578125 5.67578,-3.394531 17.03906,-10.183594 5.67578,-3.394532 22.71875,-13.578124 5.67578,-3.394532 L 531.91406,22.894531 537.58984,19.5"
     style="fill:none;stroke:#d1681c;stroke-width:1.3336;stroke-linecap:butt;stroke-linejoin:round;stroke-miterlimit:1;stroke-opacity:1;stroke-dasharray:none" />
  <g
     style="clip-rule:nonzero"
     id="g309"
     clip-path="url(#clip18)">
    <path
       inkscape:connector-curvature="0"
       id="path311"
       d="m 66.53125,303.46875 493.49219,0 0,-297.492188 -493.49219,0 z m 0,0"
       style="fill:none;stroke:#7d7d7d;stroke-width:1.06697798;stroke-linecap:round;stroke-linejoin:round;stroke-miterlimit:10;stroke-opacity:1" />
  </g>
  <g
     id="g313"
     style="fill:#000000;fill-opacity:1">
    <use
       height="100%"
       width="100%"
       id="use315"
       y="293"
       x="55.152344"
       xlink:href="#glyph0-1"
       style="fill:#666666" />
  </g>
  <g
     id="g317"
     style="fill:#000000;fill-opacity:1"
     transform="translate(16,0)">
    <use
       height="100%"
       width="100%"
       id="use319"
       y="210.86328"
       x="28.152344"
       xlink:href="#glyph0-2"
       style="fill:#666666" />
    <use
       height="100%"
       width="100%"
       id="use321"
       y="210.86328"
       x="33.486328"
       xlink:href="#glyph0-1"
       style="fill:#666666" />
    <use
       height="100%"
       width="100%"
       id="use323"
       y="210.86328"
       x="38.820312"
       xlink:href="#glyph0-1"
       style="fill:#666666" />
  </g>
  <g
     id="g331"
     style="fill:#000000;fill-opacity:1"
     transform="translate(16,0)">
    <use
       height="100%"
       width="100%"
       id="use333"
       y="128.73047"
       x="23.152344"
       xlink:href="#glyph0-3"
       style="fill:#666666" />
    <use
       height="100%"
       width="100%"
       id="use335"
       y="128.73047"
       x="28.486328"
       xlink:href="#glyph0-1"
       style="fill:#666666" />
    <use
       height="100%"
       width="100%"
       id="use337"
       y="128.73047"
       x="33.820312"
       xlink:href="#glyph0-1"
       style="fill:#666666" />
    <use
       height="100%"
       width="100%"
       id="use339"
       y="128.73047"
       x="39.154297"
       xlink:href="#glyph0-1"
       style="fill:#666666" />
  </g>
  <use
     style="fill:#666666;fill-opacity:1"
     transform="translate(16,0)"
     xlink:href="#glyph0-3"
     x="23.152344"
     y="46.59375"
     id="use349"
     width="100%"
     height="100%" />
  <use
     style="fill:#666666;fill-opacity:1"
     transform="translate(16,0)"
     xlink:href="#glyph0-2"
     x="28.486328"
     y="46.59375"
     id="use351"
     width="100%"
     height="100%" />
  <use
     style="fill:#666666;fill-opacity:1"
     transform="translate(16,0)"
     xlink:href="#glyph0-1"
     x="33.820312"
     y="46.59375"
     id="use353"
     width="100%"
     height="100%" />
  <use
     style="fill:#666666;fill-opacity:1"
     transform="translate(16,0)"
     xlink:href="#glyph0-1"
     x="39.154297"
     y="46.59375"
     id="use355"
     width="100%"
     height="100%" />
  <flowRoot
     style="font-style:normal;font-variant:normal;font-weight:normal;font-stretch:normal;line-height:0.01%;font-family:Ubuntu;-inkscape-font-specification:'Ubuntu, Normal';text-align:start;letter-spacing:0px;word-spacing:0px;writing-mode:lr-tb;text-anchor:start;fill:#666666;fill-opacity:1;stroke:none;stroke-width:1px;stroke-linecap:butt;stroke-linejoin:miter;stroke-opacity:1;"
     id="flowRoot4775"
     xml:space="preserve"><flowRegion
       id="flowRegion4777"
       style="fill:#666666;"><rect
         y="321.6933"
         x="202.59261"
         height="82.695801"
         width="416.63535"
         id="rect4779"
         style="fill:#666666;" /></flowRegion><flowPara
       style="font-style:normal;font-variant:normal;font-weight:500;font-stretch:normal;font-size:13px;line-height:1.25;font-family:Ubuntu;-inkscape-font-specification:'Ubuntu Medium';fill:#666666;"
       id="flowPara4781">Nombre de pauvres (en milliers)</flowPara></flowRoot>  <flowRoot
     transform="matrix(0,-0.8,0.8,0,-322.49686,447.26159)"
     style="font-style:normal;font-variant:normal;font-weight:normal;font-stretch:normal;line-height:0.01%;font-family:Ubuntu;-inkscape-font-specification:'Ubuntu, Normal';text-align:start;letter-spacing:0px;word-spacing:0px;writing-mode:lr-tb;text-anchor:start;fill:#666666;fill-opacity:1;stroke:none;stroke-width:1px;stroke-linecap:butt;stroke-linejoin:miter;stroke-opacity:1;"
     id="flowRoot4775-3"
     xml:space="preserve"><flowRegion
       id="flowRegion4777-6"
       style="fill:#666666;"><rect
         y="421.0546"
         x="246.9827"
         height="103.36975"
         width="520.79419"
         id="rect4779-7"
         style="fill:#666666;" /></flowRegion><flowPara
       style="font-style:normal;font-variant:normal;font-weight:500;font-stretch:normal;font-size:16.25px;line-height:1.25;font-family:Ubuntu;-inkscape-font-specification:'Ubuntu Medium';fill:#666666;"
       id="flowPara4781-5">Nombre d'obèses (en milliers)</flowPara></flowRoot>  <path
     inkscape:connector-curvature="0"
     id="path363"
     d="m 63.542969,289.98047 2.988281,0"
     style="fill:none;stroke:#000000;stroke-width:1.06697798;stroke-linecap:butt;stroke-linejoin:round;stroke-miterlimit:10;stroke-opacity:1" />
  <path
     inkscape:connector-curvature="0"
     id="path365"
     d="m 63.542969,207.84375 2.988281,0"
     style="fill:none;stroke:#000000;stroke-width:1.06697798;stroke-linecap:butt;stroke-linejoin:round;stroke-miterlimit:10;stroke-opacity:1" />
  <path
     inkscape:connector-curvature="0"
     id="path367"
     d="m 63.542969,125.71094 2.988281,0"
     style="fill:none;stroke:#000000;stroke-width:1.06697798;stroke-linecap:butt;stroke-linejoin:round;stroke-miterlimit:10;stroke-opacity:1" />
  <path
     inkscape:connector-curvature="0"
     id="path369"
     d="m 63.542969,43.574219 2.988281,0"
     style="fill:none;stroke:#000000;stroke-width:1.06697798;stroke-linecap:butt;stroke-linejoin:round;stroke-miterlimit:10;stroke-opacity:1" />
  <path
     inkscape:connector-curvature="0"
     id="path371"
     d="m 88.914062,306.45703 0,-2.98828"
     style="fill:none;stroke:#000000;stroke-width:1.06697798;stroke-linecap:butt;stroke-linejoin:round;stroke-miterlimit:10;stroke-opacity:1" />
  <path
     inkscape:connector-curvature="0"
     id="path373"
     d="m 196.22656,306.45703 0,-2.98828"
     style="fill:none;stroke:#000000;stroke-width:1.06697798;stroke-linecap:butt;stroke-linejoin:round;stroke-miterlimit:10;stroke-opacity:1" />
  <path
     inkscape:connector-curvature="0"
     id="path375"
     d="m 303.53906,306.45703 0,-2.98828"
     style="fill:none;stroke:#000000;stroke-width:1.06697798;stroke-linecap:butt;stroke-linejoin:round;stroke-miterlimit:10;stroke-opacity:1" />
  <path
     inkscape:connector-curvature="0"
     id="path377"
     d="m 410.85547,306.45703 0,-2.98828"
     style="fill:none;stroke:#000000;stroke-width:1.06697798;stroke-linecap:butt;stroke-linejoin:round;stroke-miterlimit:10;stroke-opacity:1" />
  <path
     inkscape:connector-curvature="0"
     id="path379"
     d="m 518.16797,306.45703 0,-2.98828"
     style="fill:none;stroke:#000000;stroke-width:1.06697798;stroke-linecap:butt;stroke-linejoin:round;stroke-miterlimit:10;stroke-opacity:1" />
  <g
     id="g381"
     style="fill:#000000;fill-opacity:1">
    <use
       height="100%"
       width="100%"
       id="use383"
       y="315.86719"
       x="85.914062"
       xlink:href="#glyph0-1"
       style="fill:#666666" />
  </g>
  <g
     id="g385"
     style="fill:#000000;fill-opacity:1"
     transform="translate(8,0)">
    <use
       height="100%"
       width="100%"
       id="use387"
       y="315.86719"
       x="182.72656"
       xlink:href="#glyph0-2"
       style="fill:#666666" />
    <use
       height="100%"
       width="100%"
       id="use389"
       y="315.86719"
       x="188.06055"
       xlink:href="#glyph0-1"
       style="fill:#666666" />
  </g>
  <g
     id="g397"
     style="fill:#000000;fill-opacity:1"
     transform="translate(8,0)">
    <use
       height="100%"
       width="100%"
       id="use399"
       y="315.86719"
       x="287.03906"
       xlink:href="#glyph0-3"
       style="fill:#666666" />
    <use
       height="100%"
       width="100%"
       id="use401"
       y="315.86719"
       x="292.37305"
       xlink:href="#glyph0-1"
       style="fill:#666666" />
    <use
       height="100%"
       width="100%"
       id="use403"
       y="315.86719"
       x="297.70703"
       xlink:href="#glyph0-1"
       style="fill:#666666" />
  </g>
  <g
     id="g411"
     style="fill:#000000;fill-opacity:1"
     transform="translate(8,0)">
    <use
       height="100%"
       width="100%"
       id="use413"
       y="315.86719"
       x="394.35547"
       xlink:href="#glyph0-3"
       style="fill:#666666" />
    <use
       height="100%"
       width="100%"
       id="use415"
       y="315.86719"
       x="399.68945"
       xlink:href="#glyph0-2"
       style="fill:#666666" />
    <use
       height="100%"
       width="100%"
       id="use417"
       y="315.86719"
       x="405.02344"
       xlink:href="#glyph0-1"
       style="fill:#666666" />
  </g>
  <g
     id="g425"
     style="fill:#000000;fill-opacity:1"
     transform="translate(8,0)">
    <use
       height="100%"
       width="100%"
       id="use427"
       y="315.86719"
       x="501.66797"
       xlink:href="#glyph0-4"
       style="fill:#666666" />
    <use
       height="100%"
       width="100%"
       id="use429"
       y="315.86719"
       x="507.00195"
       xlink:href="#glyph0-1"
       style="fill:#666666" />
    <use
       height="100%"
       width="100%"
       id="use431"
       y="315.86719"
       x="512.33594"
       xlink:href="#glyph0-1"
       style="fill:#666666" />
  </g>
  <rect
     style="opacity:1;fill:none;fill-opacity:1;stroke:#666666;stroke-width:1.60000002;stroke-linecap:round;stroke-miterlimit:4;stroke-dasharray:none;stroke-dashoffset:0;stroke-opacity:1"
     id="rect4352"
     width="568"
     height="349.52856"
     x="0.30576172"
     y="-2.3285584" />
  <rect
     style="opacity:1;fill:#666666;fill-opacity:1;stroke:#666666;stroke-width:1.60000002;stroke-linecap:round;stroke-miterlimit:4;stroke-dasharray:none;stroke-dashoffset:0;stroke-opacity:1"
     id="rect4352-3"
     width="568"
     height="18.4"
     x="0.30576172"
     y="-19.200001" />
  <flowRoot
     style="font-style:normal;font-variant:normal;font-weight:normal;font-stretch:normal;line-height:0.01%;font-family:Ubuntu;-inkscape-font-specification:'Ubuntu, Normal';text-align:start;letter-spacing:0px;word-spacing:0px;writing-mode:lr-tb;text-anchor:start;fill:#ffffff;fill-opacity:1;stroke:none;stroke-width:1px;stroke-linecap:butt;stroke-linejoin:miter;stroke-opacity:1"
     id="flowRoot4775-6"
     xml:space="preserve"
     transform="translate(127.35599,-15.248937)"><flowRegion
       id="flowRegion4777-7"><rect
         y="-3.0020881"
         x="-1.0781913"
         height="82.695801"
         width="416.63535"
         id="rect4779-5"
         style="fill:#ffffff" /></flowRegion><flowPara
       style="font-style:normal;font-variant:normal;font-weight:500;font-stretch:normal;font-size:14px;line-height:1.25;font-family:Ubuntu;-inkscape-font-specification:'Ubuntu Medium';fill:#ffffff"
       id="flowPara4781-3">Pauvreté et obésité dans les comtés californiens</flowPara></flowRoot></svg>
