<?xml version="1.0" encoding="UTF-8" standalone="no"?>
<svg
   xmlns:dc="http://purl.org/dc/elements/1.1/"
   xmlns:cc="http://creativecommons.org/ns#"
   xmlns:rdf="http://www.w3.org/1999/02/22-rdf-syntax-ns#"
   xmlns:svg="http://www.w3.org/2000/svg"
   xmlns="http://www.w3.org/2000/svg"
   xmlns:sodipodi="http://sodipodi.sourceforge.net/DTD/sodipodi-0.dtd"
   xmlns:inkscape="http://www.inkscape.org/namespaces/inkscape"
   width="1052.3622"
   height="744.09448"
   viewBox="0 0 841.88975 595.27559"
   version="1.1"
   id="svg2"
   inkscape:version="0.92.3 (2405546, 2018-03-11)"
   sodipodi:docname="ResidusReg.svg"
   inkscape:export-filename="/home/hc/Documents/HADRI/ArtProj/38_NeufchatelR/IMAGE/RelLin.png"
   inkscape:export-xdpi="250"
   inkscape:export-ydpi="250">
  <sodipodi:namedview
     pagecolor="#ffffff"
     bordercolor="#666666"
     borderopacity="1"
     objecttolerance="10"
     gridtolerance="10"
     guidetolerance="10"
     inkscape:pageopacity="0"
     inkscape:pageshadow="2"
     inkscape:window-width="1366"
     inkscape:window-height="719"
     id="namedview1908"
     showgrid="true"
     showguides="true"
     inkscape:guide-bbox="true"
     inkscape:snap-bbox="true"
     inkscape:zoom="1.9067371"
     inkscape:cx="498.14288"
     inkscape:cy="589.1531"
     inkscape:window-x="0"
     inkscape:window-y="25"
     inkscape:window-maximized="1"
     inkscape:current-layer="svg2"
     inkscape:snap-global="false">
    <sodipodi:guide
       orientation="0,1"
       position="985,235"
       id="guide7208"
       inkscape:locked="false" />
    <inkscape:grid
       type="xygrid"
       id="grid7361"
       empspacing="5"
       visible="true"
       enabled="true"
       snapvisiblegridlinesonly="true"
       dotted="true" />
  </sodipodi:namedview>
  <metadata
     id="metadata1910">
    <rdf:RDF>
      <cc:Work
         rdf:about="">
        <dc:format>image/svg+xml</dc:format>
        <dc:type
           rdf:resource="http://purl.org/dc/dcmitype/StillImage" />
        <dc:title />
      </cc:Work>
    </rdf:RDF>
  </metadata>
  <defs
     id="defs4">
    <g
       id="g6">
      <symbol
         overflow="visible"
         id="glyph0-0"
         style="overflow:visible">
        <path
           style="stroke:none"
           d=""
           id="path9"
           inkscape:connector-curvature="0" />
      </symbol>
      <symbol
         overflow="visible"
         id="glyph0-1"
         style="overflow:visible">
        <path
           style="stroke:none"
           d="M 5.484375,-3.734375 C 5.484375,-6.328125 4.53125,-7.75 2.90625,-7.75 c -1.625,0 -2.59375,1.4375 -2.59375,3.953125 0,2.53125 0.984375,3.953125 2.59375,3.953125 1.578125,0 2.578125,-1.421875 2.578125,-3.890625 z M 4.265625,-3.8125 c 0,2.125 -0.34375,2.9375 -1.375,2.9375 -0.984375,0 -1.359375,-0.859375 -1.359375,-2.90625 0,-2.046875 0.375,-2.890625 1.375,-2.890625 1,0 1.359375,0.859375 1.359375,2.859375 z m 0,0"
           id="path12"
           inkscape:connector-curvature="0" />
      </symbol>
      <symbol
         overflow="visible"
         id="glyph0-2"
         style="overflow:visible">
        <path
           style="stroke:none"
           d="M 5.53125,-5.421875 C 5.53125,-6.6875 4.421875,-7.75 3,-7.75 c -1.53125,0 -2.5625,0.921875 -2.609375,2.859375 l 1.1875,0 c 0.078125,-1.390625 0.46875,-1.78125 1.390625,-1.78125 0.84375,0 1.34375,0.46875 1.34375,1.28125 0,0.578125 -0.3125,1 -0.96875,1.375 L 2.359375,-3.46875 C 0.796875,-2.578125 0.3125,-1.78125 0.21875,0 l 5.25,0 0,-1.1875 -3.921875,0 C 1.625,-1.65625 1.921875,-1.953125 2.84375,-2.5 L 3.890625,-3.0625 C 4.9375,-3.625 5.53125,-4.5 5.53125,-5.421875 z m 0,0"
           id="path15"
           inkscape:connector-curvature="0" />
      </symbol>
      <symbol
         overflow="visible"
         id="glyph0-3"
         style="overflow:visible">
        <path
           style="stroke:none"
           d="m 5.625,-1.921875 0,-0.96875 -1.109375,0 0,-4.859375 -0.890625,0 -3.46875,4.796875 0,1.15625 3.15625,0 0,1.796875 1.203125,0 0,-1.796875 1.109375,0 z m -2.171875,-0.96875 -2.09375,0 L 3.53125,-5.9375 3.3125,-6.03125 l 0,3.140625 z m 0,0"
           id="path18"
           inkscape:connector-curvature="0" />
      </symbol>
      <symbol
         overflow="visible"
         id="glyph0-4"
         style="overflow:visible">
        <path
           style="stroke:none"
           d="m 5.546875,-2.453125 c 0,-1.390625 -1.078125,-2.46875 -2.421875,-2.46875 -0.734375,0 -1.40625,0.328125 -1.8125,0.875 l 0.21875,0.09375 C 1.546875,-5.78125 2,-6.671875 3.078125,-6.671875 c 0.65625,0 0.96875,0.296875 1.140625,1.140625 l 1.1875,0 C 5.203125,-6.890625 4.28125,-7.75 3.140625,-7.75 c -1.75,0 -2.828125,1.609375 -2.828125,4.21875 0,2.328125 0.9375,3.6875 2.65625,3.6875 1.421875,0 2.578125,-1.140625 2.578125,-2.609375 z M 4.328125,-2.375 c 0,0.9375 -0.5,1.453125 -1.34375,1.453125 -0.875,0 -1.40625,-0.546875 -1.40625,-1.5 0,-0.9375 0.515625,-1.40625 1.4375,-1.40625 0.890625,0 1.3125,0.453125 1.3125,1.453125 z m 0,0"
           id="path21"
           inkscape:connector-curvature="0" />
      </symbol>
      <symbol
         overflow="visible"
         id="glyph0-5"
         style="overflow:visible">
        <path
           style="stroke:none"
           d="m 5.546875,-2.234375 c 0,-0.84375 -0.546875,-1.5625 -1.15625,-1.84375 C 4.984375,-4.4375 5.28125,-4.90625 5.28125,-5.625 c 0,-1.171875 -1.046875,-2.125 -2.375,-2.125 -1.328125,0 -2.390625,0.953125 -2.390625,2.125 0,0.703125 0.296875,1.171875 0.890625,1.546875 -0.59375,0.28125 -1.15625,1 -1.15625,1.828125 0,1.375 1.171875,2.40625 2.65625,2.40625 1.484375,0 2.640625,-1.03125 2.640625,-2.390625 z M 4.0625,-5.59375 c 0,0.6875 -0.375,1.015625 -1.15625,1.015625 -0.78125,0 -1.171875,-0.328125 -1.171875,-1.03125 0,-0.71875 0.390625,-1.0625 1.171875,-1.0625 0.796875,0 1.15625,0.34375 1.15625,1.078125 z m 0.265625,3.359375 c 0,0.890625 -0.5,1.3125 -1.4375,1.3125 -0.921875,0 -1.421875,-0.4375 -1.421875,-1.3125 0,-0.875 0.5,-1.296875 1.4375,-1.296875 0.921875,0 1.421875,0.421875 1.421875,1.296875 z m 0,0"
           id="path24"
           inkscape:connector-curvature="0" />
      </symbol>
      <symbol
         overflow="visible"
         id="glyph0-6"
         style="overflow:visible">
        <path
           style="stroke:none"
           d="m 4.96875,-1.671875 c 0,-0.828125 -0.578125,-1.375 -1.6875,-1.640625 L 2.4375,-3.515625 C 1.71875,-3.6875 1.546875,-3.78125 1.546875,-4.171875 c 0,-0.5 0.328125,-0.703125 1.046875,-0.703125 0.703125,0 0.9375,0.171875 0.96875,0.875 L 4.75,-4 c 0,-1.203125 -0.859375,-1.953125 -2.125,-1.953125 -1.296875,0 -2.265625,0.796875 -2.265625,1.828125 0,0.859375 0.578125,1.40625 1.890625,1.71875 l 0.828125,0.203125 C 3.6875,-2.0625 3.796875,-2 3.796875,-1.609375 c 0,0.515625 -0.390625,0.6875 -1.15625,0.6875 -0.796875,0 -1.109375,-0.046875 -1.25,-1.03125 l -1.171875,0 C 0.265625,-0.53125 1.125,0.15625 2.5625,0.15625 c 1.390625,0 2.40625,-0.765625 2.40625,-1.828125 z m 0,0"
           id="path27"
           inkscape:connector-curvature="0" />
      </symbol>
      <symbol
         overflow="visible"
         id="glyph0-7"
         style="overflow:visible">
        <path
           style="stroke:none"
           d="m 5.546875,-2.640625 c 0,-0.796875 -0.0625,-1.3125 -0.21875,-1.71875 C 4.96875,-5.265625 4,-5.953125 2.953125,-5.953125 c -1.53125,0 -2.671875,1.28125 -2.671875,3.09375 0,1.8125 1.109375,3.015625 2.65625,3.015625 1.265625,0 2.265625,-0.84375 2.515625,-2.09375 l -1.140625,0 c -0.28125,0.859375 -0.640625,1.015625 -1.34375,1.015625 -0.921875,0 -1.484375,-0.453125 -1.5,-1.59375 l 4.078125,0 z M 4.5625,-3.328125 c 0,0 -0.171875,-0.140625 -0.171875,-0.171875 L 1.5,-3.5 c 0.0625,-0.84375 0.5625,-1.375 1.453125,-1.375 0.859375,0 1.390625,0.59375 1.390625,1.453125 z m 0,0"
           id="path30"
           inkscape:connector-curvature="0" />
      </symbol>
      <symbol
         overflow="visible"
         id="glyph0-8"
         style="overflow:visible">
        <path
           style="stroke:none"
           d="m 5.359375,2.171875 0,-7.96875 -1.046875,0 0,0.875 0.21875,-0.09375 c -0.40625,-0.578125 -1.125,-0.9375 -1.84375,-0.9375 -1.46875,0 -2.546875,1.28125 -2.546875,3.125 0,1.796875 1.046875,2.984375 2.5,2.984375 0.765625,0 1.390625,-0.296875 1.796875,-0.90625 l -0.21875,-0.09375 0,3.140625 1.140625,0 z M 4.21875,-2.859375 c 0,1.265625 -0.484375,1.9375 -1.40625,1.9375 -0.96875,0 -1.5,-0.6875 -1.5,-1.96875 0,-1.28125 0.53125,-1.984375 1.5,-1.984375 0.9375,0 1.40625,0.71875 1.40625,2.015625 z m 0,0"
           id="path33"
           inkscape:connector-curvature="0" />
      </symbol>
      <symbol
         overflow="visible"
         id="glyph0-9"
         style="overflow:visible">
        <path
           style="stroke:none"
           d="M 3.15625,2.015625 C 2.234375,0.5 1.75,-1.171875 1.75,-2.859375 c 0,-1.6875 0.484375,-3.375 1.546875,-5.109375 l -0.875,0 c -1.078125,1.4375 -1.78125,3.453125 -1.78125,5.109375 0,1.671875 0.703125,3.6875 1.78125,5.09375 l 0.875,0 z m 0,0"
           id="path36"
           inkscape:connector-curvature="0" />
      </symbol>
      <symbol
         overflow="visible"
         id="glyph0-10"
         style="overflow:visible">
        <path
           style="stroke:none"
           d="m 3.796875,-0.125 0,-7.625 -0.84375,0 c -0.359375,1.28125 -0.4375,1.3125 -2.015625,1.5 l 0,0.921875 1.65625,0 0,5.328125 1.203125,0 z m 0,0"
           id="path39"
           inkscape:connector-curvature="0" />
      </symbol>
      <symbol
         overflow="visible"
         id="glyph0-11"
         style="overflow:visible">
        <path
           style="stroke:none"
           d="m 2.15625,0.046875 0,-1.40625 -1.375,0 0,1.359375 0.640625,0 0,0.0625 c 0,0.734375 0,0.796875 -0.640625,0.828125 l 0,0.65625 c 0.875,0 1.375,-0.59375 1.375,-1.5 z m 0,0"
           id="path42"
           inkscape:connector-curvature="0" />
      </symbol>
      <symbol
         overflow="visible"
         id="glyph0-12"
         style="overflow:visible">
        <path
           style="stroke:none"
           d=""
           id="path45"
           inkscape:connector-curvature="0" />
      </symbol>
      <symbol
         overflow="visible"
         id="glyph0-13"
         style="overflow:visible">
        <path
           style="stroke:none"
           d="m 2.828125,-2.859375 c 0,-1.65625 -0.703125,-3.671875 -1.796875,-5.109375 l -0.859375,0 c 1.0625,1.75 1.546875,3.421875 1.546875,5.109375 0,1.6875 -0.484375,3.375 -1.546875,5.09375 l 0.859375,0 C 2.125,0.828125 2.828125,-1.1875 2.828125,-2.859375 z m 0,0"
           id="path48"
           inkscape:connector-curvature="0" />
      </symbol>
      <symbol
         overflow="visible"
         id="glyph0-14"
         style="overflow:visible">
        <path
           style="stroke:none"
           d="m 5.578125,-2.40625 0,-0.859375 -2.015625,0 0,-2 -0.96875,0 0,2 -2.015625,0 0,0.984375 2.015625,0 0,2 0.96875,0 0,-2 2.015625,0 z m 0,0"
           id="path51"
           inkscape:connector-curvature="0" />
      </symbol>
      <symbol
         overflow="visible"
         id="glyph0-15"
         style="overflow:visible">
        <path
           style="stroke:none"
           d="m 3.515625,-4.890625 0,-1.015625 C 3.25,-5.953125 3.171875,-5.953125 3.046875,-5.953125 c -0.5625,0 -1.09375,0.375 -1.59375,1.203125 l 0.21875,0.09375 0,-1.140625 -1.0625,0 0,5.796875 1.140625,0 0,-3 c 0,-1.25 0.28125,-1.75 1.765625,-1.765625 z m 0,0"
           id="path54"
           inkscape:connector-curvature="0" />
      </symbol>
      <symbol
         overflow="visible"
         id="glyph0-16"
         style="overflow:visible">
        <path
           style="stroke:none"
           d="m 5.265625,-0.125 0,-4.1875 c 0,-0.921875 -0.8125,-1.640625 -1.875,-1.640625 -0.828125,0 -1.453125,0.359375 -1.9375,1.125 l 0.21875,0.09375 0,-1.0625 -1.0625,0 0,5.796875 1.140625,0 0,-3.171875 c 0,-1.140625 0.484375,-1.75 1.375,-1.75 0.703125,0 1,0.296875 1,0.96875 L 4.125,0 5.265625,0 z m 0,0"
           id="path57"
           inkscape:connector-curvature="0" />
      </symbol>
      <symbol
         overflow="visible"
         id="glyph0-17"
         style="overflow:visible">
        <path
           style="stroke:none"
           d="m 5.515625,-2.859375 c 0,-1.90625 -1.046875,-3.09375 -2.640625,-3.09375 -1.5625,0 -2.625,1.203125 -2.625,3.0625 0,1.859375 1.0625,3.046875 2.640625,3.046875 1.546875,0 2.625,-1.1875 2.625,-3.015625 z m -1.1875,0 c 0,1.296875 -0.46875,1.9375 -1.4375,1.9375 -0.984375,0 -1.46875,-0.625 -1.46875,-1.96875 0,-1.328125 0.484375,-1.984375 1.46875,-1.984375 0.984375,0 1.4375,0.640625 1.4375,2.015625 z m 0,0"
           id="path60"
           inkscape:connector-curvature="0" />
      </symbol>
      <symbol
         overflow="visible"
         id="glyph0-18"
         style="overflow:visible">
        <path
           style="stroke:none"
           d="m 8.15625,-0.125 0,-4.15625 c 0,-0.984375 -0.671875,-1.671875 -1.71875,-1.671875 -0.734375,0 -1.265625,0.265625 -1.6875,0.75 -0.25,-0.453125 -0.78125,-0.75 -1.5,-0.75 -0.734375,0 -1.3125,0.3125 -1.796875,0.984375 l 0.21875,0.09375 0,-0.921875 -1.0625,0 0,5.796875 1.140625,0 0,-3.609375 c 0,-0.796875 0.453125,-1.3125 1.171875,-1.3125 0.65625,0 0.890625,0.28125 0.890625,0.984375 l 0,3.9375 1.140625,0 0,-3.609375 c 0,-0.796875 0.46875,-1.3125 1.1875,-1.3125 0.640625,0 0.875,0.28125 0.875,0.984375 l 0,3.9375 1.140625,0 z m 0,0"
           id="path63"
           inkscape:connector-curvature="0" />
      </symbol>
      <symbol
         overflow="visible"
         id="glyph0-19"
         style="overflow:visible">
        <path
           style="stroke:none"
           d="m 5.46875,-2.296875 c 0,-0.921875 -0.5,-1.578125 -1.390625,-1.890625 l 0,0.265625 C 4.78125,-4.1875 5.25,-4.8125 5.25,-5.5625 5.25,-6.84375 4.265625,-7.75 2.84375,-7.75 c -1.515625,0 -2.453125,0.953125 -2.484375,2.6875 l 1.1875,0 c 0.03125,-1.25 0.359375,-1.609375 1.3125,-1.609375 0.8125,0 1.171875,0.359375 1.171875,1.140625 0,0.8125 -0.203125,1 -1.828125,1 l 0,1.046875 0.640625,0 c 1.015625,0 1.40625,0.359375 1.40625,1.1875 0,0.9375 -0.4375,1.375 -1.40625,1.375 -1.015625,0 -1.390625,-0.375 -1.453125,-1.609375 l -1.203125,0 c 0.125,1.8125 1.09375,2.6875 2.625,2.6875 1.546875,0 2.65625,-1.046875 2.65625,-2.453125 z m 0,0"
           id="path66"
           inkscape:connector-curvature="0" />
      </symbol>
      <symbol
         overflow="visible"
         id="glyph0-20"
         style="overflow:visible">
        <path
           style="stroke:none"
           d="m 5.78125,-0.140625 0,-0.828125 c -0.21875,0.046875 -0.265625,0.046875 -0.328125,0.046875 -0.296875,0 -0.34375,-0.03125 -0.34375,-0.296875 l 0,-3.09375 c 0,-0.984375 -0.84375,-1.640625 -2.203125,-1.640625 -1.34375,0 -2.296875,0.65625 -2.375,2.0625 l 1.15625,0 C 1.78125,-4.703125 2.046875,-4.875 2.875,-4.875 c 0.796875,0 1.09375,0.171875 1.09375,0.6875 l 0,0.234375 c 0,0.375 -0.078125,0.390625 -0.78125,0.484375 C 1.9375,-3.3125 1.75,-3.28125 1.421875,-3.140625 0.765625,-2.875 0.3125,-2.234375 0.3125,-1.5625 c 0,1 0.828125,1.71875 1.953125,1.71875 0.703125,0 1.46875,-0.328125 1.796875,-0.671875 0.03125,0.15625 0.546875,0.59375 0.984375,0.59375 0.1875,0 0.3125,-0.03125 0.734375,-0.125 z M 3.96875,-2.03125 c 0,0.78125 -0.65625,1.15625 -1.515625,1.15625 -0.6875,0 -0.96875,-0.109375 -0.96875,-0.703125 0,-0.59375 0.265625,-0.71875 1.203125,-0.84375 0.9375,-0.140625 1.125,-0.171875 1.28125,-0.25 z m 0,0"
           id="path69"
           inkscape:connector-curvature="0" />
      </symbol>
      <symbol
         overflow="visible"
         id="glyph0-21"
         style="overflow:visible">
        <path
           style="stroke:none"
           d="m 5.578125,-3.375 0,-0.84375 -5,0 0,0.96875 5,0 z m 0,1.921875 0,-0.84375 -5,0 0,0.984375 5,0 z m 0,0"
           id="path72"
           inkscape:connector-curvature="0" />
      </symbol>
      <symbol
         overflow="visible"
         id="glyph0-22"
         style="overflow:visible">
        <path
           style="stroke:none"
           d="M 5.546875,-2.609375 C 5.546875,-4.09375 4.4375,-5.203125 3,-5.203125 c -0.53125,0 -1.046875,0.1875 -1.21875,0.3125 l 0.234375,-1.515625 3.140625,0 0,-1.1875 -4.109375,0 -0.609375,4.1875 1.078125,0 C 1.96875,-3.953125 2.25,-4.109375 2.828125,-4.109375 c 1,0 1.5,0.515625 1.5,1.625 0,1.078125 -0.484375,1.5625 -1.5,1.5625 -0.8125,0 -1.1875,-0.28125 -1.4375,-1.265625 l -1.1875,0 c 0.328125,1.625 1.3125,2.34375 2.65625,2.34375 1.5,0 2.6875,-1.1875 2.6875,-2.765625 z m 0,0"
           id="path75"
           inkscape:connector-curvature="0" />
      </symbol>
      <symbol
         overflow="visible"
         id="glyph0-23"
         style="overflow:visible">
        <path
           style="stroke:none"
           d="m 5.359375,-0.125 0,-7.84375 -1.140625,0 0,3 L 4.4375,-5.0625 C 4.0625,-5.625 3.390625,-5.953125 2.65625,-5.953125 c -1.4375,0 -2.515625,1.25 -2.515625,3 0,1.875 1.046875,3.109375 2.546875,3.109375 0.75,0 1.375,-0.3125 1.84375,-1 L 4.3125,-0.9375 4.3125,0 5.359375,0 z M 4.21875,-2.875 c 0,1.28125 -0.484375,1.953125 -1.40625,1.953125 -0.96875,0 -1.5,-0.6875 -1.5,-1.96875 0,-1.296875 0.53125,-1.984375 1.484375,-1.984375 0.953125,0 1.421875,0.71875 1.421875,2 z m 0,0"
           id="path78"
           inkscape:connector-curvature="0" />
      </symbol>
      <symbol
         overflow="visible"
         id="glyph1-0"
         style="overflow:visible">
        <path
           style="stroke:none"
           d=""
           id="path81"
           inkscape:connector-curvature="0" />
      </symbol>
      <symbol
         overflow="visible"
         id="glyph1-1"
         style="overflow:visible">
        <path
           style="stroke:none"
           d="M -5.421875,-5.53125 C -6.6875,-5.53125 -7.75,-4.421875 -7.75,-3 c 0,1.53125 0.921875,2.5625 2.859375,2.609375 l 0,-1.1875 c -1.390625,-0.078125 -1.78125,-0.46875 -1.78125,-1.390625 0,-0.84375 0.46875,-1.34375 1.28125,-1.34375 0.578125,0 1,0.3125 1.375,0.96875 l 0.546875,0.984375 C -2.578125,-0.796875 -1.78125,-0.3125 0,-0.21875 l 0,-5.25 -1.1875,0 0,3.921875 C -1.65625,-1.625 -1.953125,-1.921875 -2.5,-2.84375 L -3.0625,-3.890625 C -3.625,-4.9375 -4.5,-5.53125 -5.421875,-5.53125 z m 0,0"
           id="path84"
           inkscape:connector-curvature="0" />
      </symbol>
      <symbol
         overflow="visible"
         id="glyph1-2"
         style="overflow:visible">
        <path
           style="stroke:none"
           d="m -3.734375,-5.484375 c -2.59375,0 -4.015625,0.953125 -4.015625,2.578125 0,1.625 1.4375,2.59375 3.953125,2.59375 2.53125,0 3.953125,-0.984375 3.953125,-2.59375 0,-1.578125 -1.421875,-2.578125 -3.890625,-2.578125 z m -0.078125,1.21875 c 2.125,0 2.9375,0.34375 2.9375,1.375 0,0.984375 -0.859375,1.359375 -2.90625,1.359375 -2.046875,0 -2.890625,-0.375 -2.890625,-1.375 0,-1 0.859375,-1.359375 2.859375,-1.359375 z m 0,0"
           id="path87"
           inkscape:connector-curvature="0" />
      </symbol>
      <symbol
         overflow="visible"
         id="glyph1-3"
         style="overflow:visible">
        <path
           style="stroke:none"
           d="m -1.921875,-5.625 -0.96875,0 0,1.109375 -4.859375,0 0,0.890625 4.796875,3.46875 1.15625,0 0,-3.15625 1.796875,0 0,-1.203125 -1.796875,0 0,-1.109375 z m -0.96875,2.171875 0,2.09375 -3.046875,-2.171875 -0.09375,0.21875 3.140625,0 z m 0,0"
           id="path90"
           inkscape:connector-curvature="0" />
      </symbol>
      <symbol
         overflow="visible"
         id="glyph1-4"
         style="overflow:visible">
        <path
           style="stroke:none"
           d="m -2.453125,-5.546875 c -1.390625,0 -2.46875,1.078125 -2.46875,2.421875 0,0.734375 0.328125,1.40625 0.875,1.8125 l 0.09375,-0.21875 C -5.78125,-1.546875 -6.671875,-2 -6.671875,-3.078125 c 0,-0.65625 0.296875,-0.96875 1.140625,-1.140625 l 0,-1.1875 c -1.359375,0.203125 -2.21875,1.125 -2.21875,2.265625 0,1.75 1.609375,2.828125 4.21875,2.828125 2.328125,0 3.6875,-0.9375 3.6875,-2.65625 0,-1.421875 -1.140625,-2.578125 -2.609375,-2.578125 z m 0.078125,1.21875 c 0.9375,0 1.453125,0.5 1.453125,1.34375 0,0.875 -0.546875,1.40625 -1.5,1.40625 -0.9375,0 -1.40625,-0.515625 -1.40625,-1.4375 0,-0.890625 0.453125,-1.3125 1.453125,-1.3125 z m 0,0"
           id="path93"
           inkscape:connector-curvature="0" />
      </symbol>
      <symbol
         overflow="visible"
         id="glyph1-5"
         style="overflow:visible">
        <path
           style="stroke:none"
           d="m -2.234375,-5.546875 c -0.84375,0 -1.5625,0.546875 -1.84375,1.15625 C -4.4375,-4.984375 -4.90625,-5.28125 -5.625,-5.28125 c -1.171875,0 -2.125,1.046875 -2.125,2.375 0,1.328125 0.953125,2.390625 2.125,2.390625 0.703125,0 1.171875,-0.296875 1.546875,-0.890625 0.28125,0.59375 1,1.15625 1.828125,1.15625 1.375,0 2.40625,-1.171875 2.40625,-2.65625 0,-1.484375 -1.03125,-2.640625 -2.390625,-2.640625 z M -5.59375,-4.0625 c 0.6875,0 1.015625,0.375 1.015625,1.15625 0,0.78125 -0.328125,1.171875 -1.03125,1.171875 -0.71875,0 -1.0625,-0.390625 -1.0625,-1.171875 0,-0.796875 0.34375,-1.15625 1.078125,-1.15625 z m 3.359375,-0.265625 c 0.890625,0 1.3125,0.5 1.3125,1.4375 0,0.921875 -0.4375,1.421875 -1.3125,1.421875 -0.875,0 -1.296875,-0.5 -1.296875,-1.4375 0,-0.921875 0.421875,-1.421875 1.296875,-1.421875 z m 0,0"
           id="path96"
           inkscape:connector-curvature="0" />
      </symbol>
      <symbol
         overflow="visible"
         id="glyph1-6"
         style="overflow:visible">
        <path
           style="stroke:none"
           d="m -0.125,-3.796875 -7.625,0 0,0.84375 c 1.28125,0.359375 1.3125,0.4375 1.5,2.015625 l 0.921875,0 0,-1.65625 5.328125,0 0,-1.203125 z m 0,0"
           id="path99"
           inkscape:connector-curvature="0" />
      </symbol>
      <symbol
         overflow="visible"
         id="glyph1-7"
         style="overflow:visible">
        <path
           style="stroke:none"
           d="m -1.671875,-4.96875 c -0.828125,0 -1.375,0.578125 -1.640625,1.6875 l -0.203125,0.84375 c -0.171875,0.71875 -0.265625,0.890625 -0.65625,0.890625 -0.5,0 -0.703125,-0.328125 -0.703125,-1.046875 0,-0.703125 0.171875,-0.9375 0.875,-0.96875 L -4,-4.75 c -1.203125,0 -1.953125,0.859375 -1.953125,2.125 0,1.296875 0.796875,2.265625 1.828125,2.265625 0.859375,0 1.40625,-0.578125 1.71875,-1.890625 l 0.203125,-0.828125 C -2.0625,-3.6875 -2,-3.796875 -1.609375,-3.796875 c 0.515625,0 0.6875,0.390625 0.6875,1.15625 0,0.796875 -0.046875,1.109375 -1.03125,1.25 l 0,1.171875 C -0.53125,-0.265625 0.15625,-1.125 0.15625,-2.5625 c 0,-1.390625 -0.765625,-2.40625 -1.828125,-2.40625 z m 0,0"
           id="path102"
           inkscape:connector-curvature="0" />
      </symbol>
      <symbol
         overflow="visible"
         id="glyph1-8"
         style="overflow:visible">
        <path
           style="stroke:none"
           d="m -2.640625,-5.546875 c -0.796875,0 -1.3125,0.0625 -1.71875,0.21875 -0.90625,0.359375 -1.59375,1.328125 -1.59375,2.375 0,1.53125 1.28125,2.671875 3.09375,2.671875 1.8125,0 3.015625,-1.109375 3.015625,-2.65625 0,-1.265625 -0.84375,-2.265625 -2.09375,-2.515625 l 0,1.140625 c 0.859375,0.28125 1.015625,0.640625 1.015625,1.34375 0,0.921875 -0.453125,1.484375 -1.59375,1.5 l 0,-4.078125 z m -0.6875,0.984375 c 0,0 -0.140625,0.171875 -0.171875,0.171875 L -3.5,-1.5 c -0.84375,-0.0625 -1.375,-0.5625 -1.375,-1.453125 0,-0.859375 0.59375,-1.390625 1.453125,-1.390625 z m 0,0"
           id="path105"
           inkscape:connector-curvature="0" />
      </symbol>
      <symbol
         overflow="visible"
         id="glyph1-9"
         style="overflow:visible">
        <path
           style="stroke:none"
           d="m 2.171875,-5.359375 -7.96875,0 0,1.046875 0.875,0 -0.09375,-0.21875 c -0.578125,0.40625 -0.9375,1.125 -0.9375,1.84375 0,1.46875 1.28125,2.546875 3.125,2.546875 1.796875,0 2.984375,-1.046875 2.984375,-2.5 0,-0.765625 -0.296875,-1.390625 -0.90625,-1.796875 l -0.09375,0.21875 3.140625,0 0,-1.140625 z m -5.03125,1.140625 c 1.265625,0 1.9375,0.484375 1.9375,1.40625 0,0.96875 -0.6875,1.5 -1.96875,1.5 -1.28125,0 -1.984375,-0.53125 -1.984375,-1.5 0,-0.9375 0.71875,-1.40625 2.015625,-1.40625 z m 0,0"
           id="path108"
           inkscape:connector-curvature="0" />
      </symbol>
      <symbol
         overflow="visible"
         id="glyph1-10"
         style="overflow:visible">
        <path
           style="stroke:none"
           d="M 2.015625,-3.15625 C 0.5,-2.234375 -1.171875,-1.75 -2.859375,-1.75 c -1.6875,0 -3.375,-0.484375 -5.109375,-1.546875 l 0,0.875 c 1.4375,1.078125 3.453125,1.78125 5.109375,1.78125 1.671875,0 3.6875,-0.703125 5.09375,-1.78125 l 0,-0.875 z m 0,0"
           id="path111"
           inkscape:connector-curvature="0" />
      </symbol>
      <symbol
         overflow="visible"
         id="glyph1-11"
         style="overflow:visible">
        <path
           style="stroke:none"
           d="m 0.046875,-2.15625 -1.40625,0 0,1.375 1.359375,0 0,-0.640625 0.0625,0 c 0.734375,0 0.796875,0 0.828125,0.640625 l 0.65625,0 c 0,-0.875 -0.59375,-1.375 -1.5,-1.375 z m 0,0"
           id="path114"
           inkscape:connector-curvature="0" />
      </symbol>
      <symbol
         overflow="visible"
         id="glyph1-12"
         style="overflow:visible">
        <path
           style="stroke:none"
           d=""
           id="path117"
           inkscape:connector-curvature="0" />
      </symbol>
      <symbol
         overflow="visible"
         id="glyph1-13"
         style="overflow:visible">
        <path
           style="stroke:none"
           d="m -2.859375,-2.828125 c -1.65625,0 -3.671875,0.703125 -5.109375,1.796875 l 0,0.859375 c 1.75,-1.0625 3.421875,-1.546875 5.109375,-1.546875 1.6875,0 3.375,0.484375 5.09375,1.546875 l 0,-0.859375 C 0.828125,-2.125 -1.1875,-2.828125 -2.859375,-2.828125 z m 0,0"
           id="path120"
           inkscape:connector-curvature="0" />
      </symbol>
      <symbol
         overflow="visible"
         id="glyph1-14"
         style="overflow:visible">
        <path
           style="stroke:none"
           d="m -2.40625,-5.578125 -0.859375,0 0,2.015625 -2,0 0,0.96875 2,0 0,2.015625 0.984375,0 0,-2.015625 2,0 0,-0.96875 -2,0 0,-2.015625 z m 0,0"
           id="path123"
           inkscape:connector-curvature="0" />
      </symbol>
      <symbol
         overflow="visible"
         id="glyph1-15"
         style="overflow:visible">
        <path
           style="stroke:none"
           d="m -4.890625,-3.515625 -1.015625,0 c -0.046875,0.265625 -0.046875,0.34375 -0.046875,0.46875 0,0.5625 0.375,1.09375 1.203125,1.59375 l 0.09375,-0.21875 -1.140625,0 0,1.0625 5.796875,0 0,-1.140625 -3,0 c -1.25,0 -1.75,-0.28125 -1.765625,-1.765625 z m 0,0"
           id="path126"
           inkscape:connector-curvature="0" />
      </symbol>
      <symbol
         overflow="visible"
         id="glyph1-16"
         style="overflow:visible">
        <path
           style="stroke:none"
           d="m -0.125,-5.265625 -4.1875,0 c -0.921875,0 -1.640625,0.8125 -1.640625,1.875 0,0.828125 0.359375,1.453125 1.125,1.9375 l 0.09375,-0.21875 -1.0625,0 0,1.0625 5.796875,0 0,-1.140625 -3.171875,0 c -1.140625,0 -1.75,-0.484375 -1.75,-1.375 0,-0.703125 0.296875,-1 0.96875,-1 L 0,-4.125 0,-5.265625 z m 0,0"
           id="path129"
           inkscape:connector-curvature="0" />
      </symbol>
      <symbol
         overflow="visible"
         id="glyph1-17"
         style="overflow:visible">
        <path
           style="stroke:none"
           d="m -2.859375,-5.515625 c -1.90625,0 -3.09375,1.046875 -3.09375,2.640625 0,1.5625 1.203125,2.625 3.0625,2.625 1.859375,0 3.046875,-1.0625 3.046875,-2.640625 0,-1.546875 -1.1875,-2.625 -3.015625,-2.625 z m 0,1.1875 c 1.296875,0 1.9375,0.46875 1.9375,1.4375 0,0.984375 -0.625,1.46875 -1.96875,1.46875 -1.328125,0 -1.984375,-0.484375 -1.984375,-1.46875 0,-0.984375 0.640625,-1.4375 2.015625,-1.4375 z m 0,0"
           id="path132"
           inkscape:connector-curvature="0" />
      </symbol>
      <symbol
         overflow="visible"
         id="glyph1-18"
         style="overflow:visible">
        <path
           style="stroke:none"
           d="m -0.125,-8.15625 -4.15625,0 c -0.984375,0 -1.671875,0.671875 -1.671875,1.71875 0,0.734375 0.265625,1.265625 0.75,1.6875 -0.453125,0.25 -0.75,0.78125 -0.75,1.5 0,0.734375 0.3125,1.3125 0.984375,1.796875 l 0.09375,-0.21875 -0.921875,0 0,1.0625 5.796875,0 0,-1.140625 -3.609375,0 c -0.796875,0 -1.3125,-0.453125 -1.3125,-1.171875 0,-0.65625 0.28125,-0.890625 0.984375,-0.890625 l 3.9375,0 0,-1.140625 -3.609375,0 c -0.796875,0 -1.3125,-0.46875 -1.3125,-1.1875 0,-0.640625 0.28125,-0.875 0.984375,-0.875 l 3.9375,0 0,-1.140625 z m 0,0"
           id="path135"
           inkscape:connector-curvature="0" />
      </symbol>
      <symbol
         overflow="visible"
         id="glyph1-19"
         style="overflow:visible">
        <path
           style="stroke:none"
           d="m -2.296875,-5.46875 c -0.921875,0 -1.578125,0.5 -1.890625,1.390625 l 0.265625,0 C -4.1875,-4.78125 -4.8125,-5.25 -5.5625,-5.25 c -1.28125,0 -2.1875,0.984375 -2.1875,2.40625 0,1.515625 0.953125,2.453125 2.6875,2.484375 l 0,-1.1875 c -1.25,-0.03125 -1.609375,-0.359375 -1.609375,-1.3125 0,-0.8125 0.359375,-1.171875 1.140625,-1.171875 0.8125,0 1,0.203125 1,1.828125 l 1.046875,0 0,-0.640625 c 0,-1.015625 0.359375,-1.40625 1.1875,-1.40625 0.9375,0 1.375,0.4375 1.375,1.40625 0,1.015625 -0.375,1.390625 -1.609375,1.453125 l 0,1.203125 c 1.8125,-0.125 2.6875,-1.09375 2.6875,-2.625 0,-1.546875 -1.046875,-2.65625 -2.453125,-2.65625 z m 0,0"
           id="path138"
           inkscape:connector-curvature="0" />
      </symbol>
      <symbol
         overflow="visible"
         id="glyph1-20"
         style="overflow:visible">
        <path
           style="stroke:none"
           d="m -5.796875,-5.140625 0,1.09375 4.625,1.609375 0,-0.265625 -4.625,1.515625 0,1.265625 L 0,-1.953125 0,-3.078125 -5.796875,-5.3125 z m 0,0"
           id="path141"
           inkscape:connector-curvature="0" />
      </symbol>
      <symbol
         overflow="visible"
         id="glyph1-21"
         style="overflow:visible">
        <path
           style="stroke:none"
           d="m -0.125,-2.140625 -1.234375,0 0,1.359375 1.359375,0 0,-1.359375 z m 0,0"
           id="path144"
           inkscape:connector-curvature="0" />
      </symbol>
      <symbol
         overflow="visible"
         id="glyph1-22"
         style="overflow:visible">
        <path
           style="stroke:none"
           d="m -2.609375,-5.546875 c -1.484375,0 -2.59375,1.109375 -2.59375,2.546875 0,0.53125 0.1875,1.046875 0.3125,1.21875 l -1.515625,-0.234375 0,-3.140625 -1.1875,0 0,4.109375 4.1875,0.609375 0,-1.078125 C -3.953125,-1.96875 -4.109375,-2.25 -4.109375,-2.828125 c 0,-1 0.515625,-1.5 1.625,-1.5 1.078125,0 1.5625,0.484375 1.5625,1.5 0,0.8125 -0.28125,1.1875 -1.265625,1.4375 l 0,1.1875 c 1.625,-0.328125 2.34375,-1.3125 2.34375,-2.65625 0,-1.5 -1.1875,-2.6875 -2.765625,-2.6875 z m 0,0"
           id="path147"
           inkscape:connector-curvature="0" />
      </symbol>
      <symbol
         overflow="visible"
         id="glyph1-23"
         style="overflow:visible">
        <path
           style="stroke:none"
           d="m -6.421875,-3.75 -0.78125,0.25 0.375,1.078125 -1.140625,0 0,0.875 1.140625,0 -0.375,1.015625 0.859375,0.28125 0.3125,-1.09375 0.890625,0.703125 0.53125,-0.75 -0.921875,-0.625 0.921875,-0.625 -0.53125,-0.765625 -0.890625,0.71875 -0.3125,-1.09375 z m 0,0"
           id="path150"
           inkscape:connector-curvature="0" />
      </symbol>
      <symbol
         overflow="visible"
         id="glyph1-24"
         style="overflow:visible">
        <path
           style="stroke:none"
           d="M -3.609375,-4.609375 -7.75,-2.921875 -7.75,-2 l 4.28125,1.71875 0,-0.984375 -3.296875,-1.328125 0,0.265625 3.296875,-1.34375 0,-1 z m 0,0"
           id="path153"
           inkscape:connector-curvature="0" />
      </symbol>
      <symbol
         overflow="visible"
         id="glyph1-25"
         style="overflow:visible">
        <path
           style="stroke:none"
           d="m -0.140625,-5.78125 -0.828125,0 c 0.046875,0.21875 0.046875,0.265625 0.046875,0.328125 0,0.296875 -0.03125,0.34375 -0.296875,0.34375 l -3.09375,0 c -0.984375,0 -1.640625,0.84375 -1.640625,2.203125 0,1.34375 0.65625,2.296875 2.0625,2.375 l 0,-1.15625 C -4.703125,-1.78125 -4.875,-2.046875 -4.875,-2.875 c 0,-0.796875 0.171875,-1.09375 0.6875,-1.09375 l 0.234375,0 c 0.375,0 0.390625,0.078125 0.484375,0.78125 0.15625,1.25 0.1875,1.4375 0.328125,1.765625 0.265625,0.65625 0.90625,1.109375 1.578125,1.109375 1,0 1.71875,-0.828125 1.71875,-1.953125 0,-0.703125 -0.328125,-1.46875 -0.671875,-1.796875 0.15625,-0.03125 0.59375,-0.546875 0.59375,-0.984375 0,-0.1875 -0.03125,-0.3125 -0.125,-0.734375 z m -1.890625,1.8125 c 0.78125,0 1.15625,0.65625 1.15625,1.515625 0,0.6875 -0.109375,0.96875 -0.703125,0.96875 -0.59375,0 -0.71875,-0.265625 -0.84375,-1.203125 -0.140625,-0.9375 -0.171875,-1.125 -0.25,-1.28125 z m 0,0"
           id="path156"
           inkscape:connector-curvature="0" />
      </symbol>
      <symbol
         overflow="visible"
         id="glyph1-26"
         style="overflow:visible">
        <path
           style="stroke:none"
           d="m -3.375,-5.578125 -0.84375,0 0,5 0.96875,0 0,-5 z m 1.921875,0 -0.84375,0 0,5 0.984375,0 0,-5 z m 0,0"
           id="path159"
           inkscape:connector-curvature="0" />
      </symbol>
      <symbol
         overflow="visible"
         id="glyph1-27"
         style="overflow:visible">
        <path
           style="stroke:none"
           d="m -0.125,-5.359375 -7.84375,0 0,1.140625 3,0 -0.09375,-0.21875 c -0.5625,0.375 -0.890625,1.046875 -0.890625,1.78125 0,1.4375 1.25,2.515625 3,2.515625 1.875,0 3.109375,-1.046875 3.109375,-2.546875 0,-0.75 -0.3125,-1.375 -1,-1.84375 l -0.09375,0.21875 0.9375,0 0,-1.046875 z m -2.75,1.140625 c 1.28125,0 1.953125,0.484375 1.953125,1.40625 0,0.96875 -0.6875,1.5 -1.96875,1.5 -1.296875,0 -1.984375,-0.53125 -1.984375,-1.484375 0,-0.953125 0.71875,-1.421875 2,-1.421875 z m 0,0"
           id="path162"
           inkscape:connector-curvature="0" />
      </symbol>
    </g>
    <clipPath
       id="clip1">
      <path
         d="m 187.5,21 10.5,0 0,174 -10.5,0 z m 0,0"
         id="path165"
         inkscape:connector-curvature="0" />
    </clipPath>
    <clipPath
       id="clip2">
      <path
         d="m 375,0 10,0 0,217 -10,0 z m 0,0"
         id="path168"
         inkscape:connector-curvature="0" />
    </clipPath>
    <clipPath
       id="clip3">
      <path
         d="m 562.5,34 10.5,0 0,149 -10.5,0 z m 0,0"
         id="path171"
         inkscape:connector-curvature="0" />
    </clipPath>
    <marker
       inkscape:stockid="Arrow1Mend"
       orient="auto"
       refY="0"
       refX="0"
       id="Arrow1Mend"
       style="overflow:visible">
      <path
         inkscape:connector-curvature="0"
         id="path4583"
         d="M 0,0 5,-5 -12.5,0 5,5 0,0 z"
         style="fill-rule:evenodd;stroke:#000000;stroke-width:1pt"
         transform="matrix(-0.4,0,0,-0.4,-4,0)" />
    </marker>
    <marker
       inkscape:stockid="Arrow1Mend"
       orient="auto"
       refY="0"
       refX="0"
       id="marker3135"
       style="overflow:visible">
      <path
         inkscape:connector-curvature="0"
         id="path3137"
         d="M 0,0 5,-5 -12.5,0 5,5 0,0 z"
         style="fill-rule:evenodd;stroke:#000000;stroke-width:1pt"
         transform="matrix(-0.4,0,0,-0.4,-4,0)" />
    </marker>
    <marker
       inkscape:stockid="Arrow1Mend"
       orient="auto"
       refY="0"
       refX="0"
       id="Arrow1Mend-4"
       style="overflow:visible">
      <path
         inkscape:connector-curvature="0"
         id="path4583-2"
         d="M 0,0 5,-5 -12.5,0 5,5 0,0 z"
         style="fill-rule:evenodd;stroke:#000000;stroke-width:1pt"
         transform="matrix(-0.4,0,0,-0.4,-4,0)" />
    </marker>
    <marker
       inkscape:stockid="Arrow1Mend"
       orient="auto"
       refY="0"
       refX="0"
       id="Arrow1Mend-1"
       style="overflow:visible">
      <path
         inkscape:connector-curvature="0"
         id="path4583-6"
         d="M 0,0 5,-5 -12.5,0 5,5 0,0 z"
         style="fill-rule:evenodd;stroke:#000000;stroke-width:1pt"
         transform="matrix(-0.4,0,0,-0.4,-4,0)" />
    </marker>
    <marker
       inkscape:stockid="Arrow1Mend"
       orient="auto"
       refY="0"
       refX="0"
       id="Arrow1Mend-3"
       style="overflow:visible">
      <path
         inkscape:connector-curvature="0"
         id="path4583-0"
         d="M 0,0 5,-5 -12.5,0 5,5 0,0 z"
         style="fill-rule:evenodd;stroke:#000000;stroke-width:1pt"
         transform="matrix(-0.4,0,0,-0.4,-4,0)" />
    </marker>
    <marker
       inkscape:stockid="Arrow1Mend"
       orient="auto"
       refY="0"
       refX="0"
       id="marker3180"
       style="overflow:visible">
      <path
         inkscape:connector-curvature="0"
         id="path3182"
         d="M 0,0 5,-5 -12.5,0 5,5 0,0 z"
         style="fill-rule:evenodd;stroke:#000000;stroke-width:1pt"
         transform="matrix(-0.4,0,0,-0.4,-4,0)" />
    </marker>
  </defs>
  <path
     style="fill:none;stroke:#666666;stroke-width:0.79999995;stroke-linecap:butt;stroke-linejoin:miter;stroke-miterlimit:4;stroke-opacity:1;stroke-dasharray:0.8, 0.80000000000000004;stroke-dashoffset:0"
     d="m 328.66528,180.16935 74.78699,0"
     id="path4303-9"
     inkscape:connector-curvature="0" />
  <path
     style="fill:none;stroke:#666666;stroke-width:0.79999995;stroke-linecap:butt;stroke-linejoin:miter;stroke-miterlimit:4;stroke-opacity:1;stroke-dasharray:0.80000001, 0.80000000999999998;stroke-dashoffset:0"
     d="m 328.81301,163.94991 74.78699,0"
     id="path4303-9-1"
     inkscape:connector-curvature="0" />
  <path
     style="fill:none;stroke:#666666;stroke-width:0.79999995;stroke-linecap:butt;stroke-linejoin:miter;stroke-miterlimit:4;stroke-opacity:1;stroke-dasharray:0.80000003, 0.80000002999999997;stroke-dashoffset:0"
     d="m 328.76275,122.06953 119.08695,0"
     id="path4303-9-1-6-3"
     inkscape:connector-curvature="0" />
  <path
     style="fill:none;stroke:#666666;stroke-width:0.79999995;stroke-linecap:butt;stroke-linejoin:miter;stroke-miterlimit:4;stroke-opacity:1;stroke-dasharray:0.80000002, 0.80000002000000003;stroke-dashoffset:0"
     d="m 328.81847,138.68405 119.08695,0"
     id="path4303-9-1-6"
     inkscape:connector-curvature="0" />
  <path
     style="fill:none;stroke:#666666;stroke-width:0.79999995;stroke-linecap:butt;stroke-linejoin:miter;stroke-miterlimit:4;stroke-opacity:1;stroke-dasharray:0.80000001, 0.80000000999999998;stroke-dashoffset:0"
     d="m 448.20597,210.06713 0,-87.49374"
     id="path4303-6"
     inkscape:connector-curvature="0" />
  <path
     style="fill:none;stroke:#666666;stroke-width:0.80000001;stroke-linecap:butt;stroke-linejoin:miter;stroke-miterlimit:4;stroke-opacity:1;stroke-dasharray:0.80000001, 0.80000000999999998;stroke-dashoffset:0"
     d="m 403.61435,210.24907 0,-46.17924"
     id="path4303"
     inkscape:connector-curvature="0" />
  <path
     style="fill:none;stroke:#aa4400;stroke-width:1.60000014;stroke-linecap:butt;stroke-linejoin:miter;stroke-miterlimit:4;stroke-opacity:1;stroke-dasharray:none"
     d="m 329.29781,206.25866 144.2756,-82.18307"
     id="path4548-3"
     inkscape:connector-curvature="0" />
  <path
     inkscape:connector-curvature="0"
     id="path176"
     d="m 348.74193,196.07446 c -0.5202,1.49819 -2.7675,0.71789 -2.2473,-0.7803 0.51892,-1.4945 2.76622,-0.7142 2.2473,0.7803"
     style="fill:#999999;fill-opacity:1;fill-rule:nonzero;stroke:#999999;stroke-width:0.75;stroke-linecap:round;stroke-linejoin:round;stroke-miterlimit:10;stroke-opacity:1" />
  <path
     inkscape:connector-curvature="0"
     id="path178"
     d="m 337.09986,193.79363 c -0.5202,1.4982 -2.76749,0.71789 -2.24729,-0.7803 0.51892,-1.49451 2.76621,-0.7142 2.24729,0.7803"
     style="fill:#999999;fill-opacity:1;fill-rule:nonzero;stroke:#999999;stroke-width:0.75;stroke-linecap:round;stroke-linejoin:round;stroke-miterlimit:10;stroke-opacity:1" />
  <path
     inkscape:connector-curvature="0"
     id="path180"
     d="m 345.90519,195.70561 c -0.52021,1.4982 -2.7638,0.71918 -2.2436,-0.77902 0.51892,-1.4945 2.76252,-0.71548 2.2436,0.77902"
     style="fill:#999999;fill-opacity:1;fill-rule:nonzero;stroke:#999999;stroke-width:0.75;stroke-linecap:round;stroke-linejoin:round;stroke-miterlimit:10;stroke-opacity:1" />
  <path
     inkscape:connector-curvature="0"
     id="path182"
     d="m 342.28388,191.47513 c -0.5202,1.4982 -2.7638,0.71918 -2.2436,-0.77902 0.51892,-1.4945 2.76252,-0.71548 2.2436,0.77902"
     style="fill:#999999;fill-opacity:1;fill-rule:nonzero;stroke:#999999;stroke-width:0.75;stroke-linecap:round;stroke-linejoin:round;stroke-miterlimit:10;stroke-opacity:1" />
  <path
     inkscape:connector-curvature="0"
     id="path184"
     d="m 352.75871,185.00621 c -0.5202,1.4982 -2.76749,0.71789 -2.24729,-0.7803 0.51892,-1.49451 2.76621,-0.7142 2.24729,0.7803"
     style="fill:#999999;fill-opacity:1;fill-rule:nonzero;stroke:#999999;stroke-width:0.75;stroke-linecap:round;stroke-linejoin:round;stroke-miterlimit:10;stroke-opacity:1" />
  <path
     inkscape:connector-curvature="0"
     id="path186"
     d="m 345.84493,200.24975 c -0.52021,1.4982 -2.76381,0.71918 -2.24361,-0.77902 0.51893,-1.4945 2.76253,-0.71548 2.24361,0.77902"
     style="fill:#999999;fill-opacity:1;fill-rule:nonzero;stroke:#999999;stroke-width:0.75;stroke-linecap:round;stroke-linejoin:round;stroke-miterlimit:10;stroke-opacity:1" />
  <path
     inkscape:connector-curvature="0"
     id="path188"
     d="m 341.71062,188.89845 c -0.51891,1.49451 -2.76252,0.71548 -2.2436,-0.77902 0.5202,-1.4982 2.7638,-0.71917 2.2436,0.77902"
     style="fill:#999999;fill-opacity:1;fill-rule:nonzero;stroke:#999999;stroke-width:0.75;stroke-linecap:round;stroke-linejoin:round;stroke-miterlimit:10;stroke-opacity:1" />
  <path
     inkscape:connector-curvature="0"
     id="path190"
     d="m 351.92128,195.02991 c -0.5202,1.49819 -2.76381,0.71917 -2.24361,-0.77902 0.51893,-1.49451 2.76253,-0.71549 2.24361,0.77902"
     style="fill:#999999;fill-opacity:1;fill-rule:nonzero;stroke:#999999;stroke-width:0.75;stroke-linecap:round;stroke-linejoin:round;stroke-miterlimit:10;stroke-opacity:1" />
  <path
     inkscape:connector-curvature="0"
     id="path192"
     d="m 339.49592,200.33336 c -0.51893,1.49452 -2.76253,0.71549 -2.2436,-0.77902 0.5202,-1.49819 2.7638,-0.71916 2.2436,0.77902"
     style="fill:#999999;fill-opacity:1;fill-rule:nonzero;stroke:#999999;stroke-width:0.75;stroke-linecap:round;stroke-linejoin:round;stroke-miterlimit:10;stroke-opacity:1" />
  <path
     inkscape:connector-curvature="0"
     id="path194"
     d="m 360.91181,191.67857 c -0.51892,1.4945 -2.76252,0.71548 -2.2436,-0.77903 0.5202,-1.49819 2.7638,-0.71917 2.2436,0.77903"
     style="fill:#999999;fill-opacity:1;fill-rule:nonzero;stroke:#999999;stroke-width:0.75;stroke-linecap:round;stroke-linejoin:round;stroke-miterlimit:10;stroke-opacity:1" />
  <path
     inkscape:connector-curvature="0"
     id="path198"
     d="m 356.21469,191.40392 c -0.51891,1.4945 -2.76253,0.71548 -2.2436,-0.77902 0.52021,-1.4982 2.7638,-0.71918 2.2436,0.77902"
     style="fill:#999999;fill-opacity:1;fill-rule:nonzero;stroke:#999999;stroke-width:0.75;stroke-linecap:round;stroke-linejoin:round;stroke-miterlimit:10;stroke-opacity:1" />
  <path
     inkscape:connector-curvature="0"
     id="path200"
     d="m 350.734,182.62024 c -0.5202,1.49819 -2.7638,0.71917 -2.2436,-0.77902 0.51892,-1.49451 2.76252,-0.71549 2.2436,0.77902"
     style="fill:#999999;fill-opacity:1;fill-rule:nonzero;stroke:#999999;stroke-width:0.75;stroke-linecap:round;stroke-linejoin:round;stroke-miterlimit:10;stroke-opacity:1" />
  <path
     inkscape:connector-curvature="0"
     id="path202"
     d="m 352.75111,202.09362 c -0.5202,1.49819 -2.7638,0.71917 -2.2436,-0.77902 0.51893,-1.49452 2.76253,-0.71549 2.2436,0.77902"
     style="fill:#999999;fill-opacity:1;fill-rule:nonzero;stroke:#999999;stroke-width:0.75;stroke-linecap:round;stroke-linejoin:round;stroke-miterlimit:10;stroke-opacity:1" />
  <path
     inkscape:connector-curvature="0"
     id="path204"
     d="m 360.89417,187.83514 c -0.51892,1.49451 -2.76252,0.71548 -2.2436,-0.77902 0.52021,-1.4982 2.76381,-0.71917 2.2436,0.77902"
     style="fill:#999999;fill-opacity:1;fill-rule:nonzero;stroke:#999999;stroke-width:0.75;stroke-linecap:round;stroke-linejoin:round;stroke-miterlimit:10;stroke-opacity:1" />
  <path
     inkscape:connector-curvature="0"
     id="path206"
     d="m 365.51719,186.02481 c -0.5202,1.49819 -2.7638,0.71917 -2.2436,-0.77902 0.51892,-1.49451 2.76252,-0.71549 2.2436,0.77902"
     style="fill:#999999;fill-opacity:1;fill-rule:nonzero;stroke:#999999;stroke-width:0.75;stroke-linecap:round;stroke-linejoin:round;stroke-miterlimit:10;stroke-opacity:1" />
  <path
     inkscape:connector-curvature="0"
     id="path208"
     d="m 366.89454,188.21495 c -0.5202,1.49819 -2.7638,0.71917 -2.24361,-0.77902 0.51894,-1.49451 2.76254,-0.71549 2.24361,0.77902"
     style="fill:#999999;fill-opacity:1;fill-rule:nonzero;stroke:#999999;stroke-width:0.75;stroke-linecap:round;stroke-linejoin:round;stroke-miterlimit:10;stroke-opacity:1" />
  <path
     inkscape:connector-curvature="0"
     id="path210"
     d="m 370.94637,195.96908 c -0.52021,1.4982 -2.76381,0.71918 -2.2436,-0.77902 0.51892,-1.4945 2.76252,-0.71548 2.2436,0.77902"
     style="fill:#999999;fill-opacity:1;fill-rule:nonzero;stroke:#999999;stroke-width:0.75;stroke-linecap:round;stroke-linejoin:round;stroke-miterlimit:10;stroke-opacity:1" />
  <path
     inkscape:connector-curvature="0"
     id="path216"
     d="m 373.06708,180.71531 c -0.5202,1.49819 -2.7638,0.71917 -2.2436,-0.77902 0.51892,-1.49451 2.76252,-0.71549 2.2436,0.77902"
     style="fill:#999999;fill-opacity:1;fill-rule:nonzero;stroke:#999999;stroke-width:0.75;stroke-linecap:round;stroke-linejoin:round;stroke-miterlimit:10;stroke-opacity:1" />
  <path
     inkscape:connector-curvature="0"
     id="path218"
     d="m 369.87189,184.96195 c -0.51891,1.4945 -2.76252,0.71548 -2.2436,-0.77902 0.52021,-1.4982 2.76381,-0.71918 2.2436,0.77902"
     style="fill:#999999;fill-opacity:1;fill-rule:nonzero;stroke:#999999;stroke-width:0.75;stroke-linecap:round;stroke-linejoin:round;stroke-miterlimit:10;stroke-opacity:1" />
  <path
     inkscape:connector-curvature="0"
     id="path220"
     d="m 362.31528,184.32588 c -0.51892,1.4945 -2.76253,0.71548 -2.2436,-0.77903 0.5202,-1.49819 2.7638,-0.71917 2.2436,0.77903"
     style="fill:#999999;fill-opacity:1;fill-rule:nonzero;stroke:#999999;stroke-width:0.75;stroke-linecap:round;stroke-linejoin:round;stroke-miterlimit:10;stroke-opacity:1" />
  <path
     inkscape:connector-curvature="0"
     id="path222"
     d="m 379.11263,177.46372 c -0.51892,1.49451 -2.76252,0.71549 -2.2436,-0.77902 0.5202,-1.49819 2.7638,-0.71916 2.2436,0.77902"
     style="fill:#999999;fill-opacity:1;fill-rule:nonzero;stroke:#999999;stroke-width:0.75;stroke-linecap:round;stroke-linejoin:round;stroke-miterlimit:10;stroke-opacity:1" />
  <path
     inkscape:connector-curvature="0"
     id="path224"
     d="m 368.06664,179.30159 c -0.5202,1.49819 -2.7638,0.71917 -2.2436,-0.77903 0.51892,-1.4945 2.76252,-0.71548 2.2436,0.77903"
     style="fill:#999999;fill-opacity:1;fill-rule:nonzero;stroke:#999999;stroke-width:0.75;stroke-linecap:round;stroke-linejoin:round;stroke-miterlimit:10;stroke-opacity:1" />
  <path
     inkscape:connector-curvature="0"
     id="path226"
     d="m 371.75959,178.0739 c -0.5202,1.49819 -2.76381,0.71917 -2.2436,-0.77903 0.51892,-1.4945 2.76252,-0.71548 2.2436,0.77903"
     style="fill:#999999;fill-opacity:1;fill-rule:nonzero;stroke:#999999;stroke-width:0.75;stroke-linecap:round;stroke-linejoin:round;stroke-miterlimit:10;stroke-opacity:1" />
  <path
     inkscape:connector-curvature="0"
     id="path228"
     d="m 373.39026,172.91309 c -0.51891,1.4945 -2.76252,0.71548 -2.2436,-0.77903 0.5202,-1.49818 2.7638,-0.71916 2.2436,0.77903"
     style="fill:#999999;fill-opacity:1;fill-rule:nonzero;stroke:#999999;stroke-width:0.75;stroke-linecap:round;stroke-linejoin:round;stroke-miterlimit:10;stroke-opacity:1" />
  <path
     inkscape:connector-curvature="0"
     id="path230"
     d="m 375.64948,171.14623 c -0.51892,1.4945 -2.76252,0.71548 -2.2436,-0.77902 0.5202,-1.4982 2.76381,-0.71918 2.2436,0.77902"
     style="fill:#999999;fill-opacity:1;fill-rule:nonzero;stroke:#999999;stroke-width:0.75;stroke-linecap:round;stroke-linejoin:round;stroke-miterlimit:10;stroke-opacity:1" />
  <path
     inkscape:connector-curvature="0"
     id="path232"
     d="m 380.93736,179.45334 c -0.5202,1.4982 -2.7638,0.71917 -2.2436,-0.77902 0.51892,-1.49451 2.76252,-0.71549 2.2436,0.77902"
     style="fill:#999999;fill-opacity:1;fill-rule:nonzero;stroke:#999999;stroke-width:0.75;stroke-linecap:round;stroke-linejoin:round;stroke-miterlimit:10;stroke-opacity:1" />
  <path
     inkscape:connector-curvature="0"
     id="path234"
     d="m 382.88123,176.11343 c -0.52019,1.4982 -2.7638,0.71918 -2.2436,-0.77902 0.51892,-1.4945 2.76252,-0.71548 2.2436,0.77902"
     style="fill:#999999;fill-opacity:1;fill-rule:nonzero;stroke:#999999;stroke-width:0.75;stroke-linecap:round;stroke-linejoin:round;stroke-miterlimit:10;stroke-opacity:1" />
  <path
     inkscape:connector-curvature="0"
     id="path236"
     d="m 383.87766,170.39747 c -0.5202,1.49819 -2.7638,0.71917 -2.2436,-0.77902 0.51892,-1.4945 2.76252,-0.71548 2.2436,0.77902"
     style="fill:#999999;fill-opacity:1;fill-rule:nonzero;stroke:#999999;stroke-width:0.75;stroke-linecap:round;stroke-linejoin:round;stroke-miterlimit:10;stroke-opacity:1" />
  <path
     inkscape:connector-curvature="0"
     id="path238"
     d="m 379.46796,172.73672 c -0.51893,1.4945 -2.76253,0.71548 -2.24361,-0.77902 0.52022,-1.4982 2.76381,-0.71918 2.24361,0.77902"
     style="fill:#999999;fill-opacity:1;fill-rule:nonzero;stroke:#999999;stroke-width:0.75;stroke-linecap:round;stroke-linejoin:round;stroke-miterlimit:10;stroke-opacity:1" />
  <path
     inkscape:connector-curvature="0"
     id="path242"
     d="m 390.77848,179.22353 c -0.51892,1.49451 -2.76252,0.71549 -2.2436,-0.77902 0.5202,-1.49819 2.7638,-0.71917 2.2436,0.77902"
     style="fill:#999999;fill-opacity:1;fill-rule:nonzero;stroke:#999999;stroke-width:0.75;stroke-linecap:round;stroke-linejoin:round;stroke-miterlimit:10;stroke-opacity:1" />
  <path
     inkscape:connector-curvature="0"
     id="path244"
     d="m 387.52628,171.73877 c -0.5202,1.4982 -2.7638,0.71918 -2.2436,-0.77902 0.51892,-1.4945 2.76252,-0.71548 2.2436,0.77902"
     style="fill:#999999;fill-opacity:1;fill-rule:nonzero;stroke:#999999;stroke-width:0.75;stroke-linecap:round;stroke-linejoin:round;stroke-miterlimit:10;stroke-opacity:1" />
  <path
     inkscape:connector-curvature="0"
     id="path246"
     d="m 387.6004,175.01463 c -0.51892,1.49451 -2.76252,0.71549 -2.2436,-0.77902 0.5202,-1.49819 2.7638,-0.71917 2.2436,0.77902"
     style="fill:#999999;fill-opacity:1;fill-rule:nonzero;stroke:#999999;stroke-width:0.75;stroke-linecap:round;stroke-linejoin:round;stroke-miterlimit:10;stroke-opacity:1" />
  <path
     inkscape:connector-curvature="0"
     id="path248"
     d="m 383.65589,170.84562 c -0.5202,1.49818 -2.7638,0.71916 -2.2436,-0.77903 0.51893,-1.49451 2.76253,-0.71549 2.2436,0.77903"
     style="fill:#999999;fill-opacity:1;fill-rule:nonzero;stroke:#999999;stroke-width:0.75;stroke-linecap:round;stroke-linejoin:round;stroke-miterlimit:10;stroke-opacity:1" />
  <path
     inkscape:connector-curvature="0"
     id="path250"
     d="m 396.45782,167.60318 c -0.51892,1.49451 -2.76622,0.71421 -2.2473,-0.78031 0.5202,-1.49819 2.7675,-0.71788 2.2473,0.78031"
     style="fill:#999999;fill-opacity:1;fill-rule:nonzero;stroke:#999999;stroke-width:0.75;stroke-linecap:round;stroke-linejoin:round;stroke-miterlimit:10;stroke-opacity:1" />
  <path
     inkscape:connector-curvature="0"
     id="path252"
     d="m 399.06085,161.2924 c -0.52021,1.4982 -2.7638,0.71918 -2.2436,-0.77902 0.51892,-1.4945 2.76252,-0.71548 2.2436,0.77902"
     style="fill:#999999;fill-opacity:1;fill-rule:nonzero;stroke:#999999;stroke-width:0.75;stroke-linecap:round;stroke-linejoin:round;stroke-miterlimit:10;stroke-opacity:1" />
  <path
     inkscape:connector-curvature="0"
     id="path256"
     d="m 402.43638,159.48674 c -0.5202,1.49818 -2.76749,0.71788 -2.24729,-0.78031 0.51892,-1.49451 2.76621,-0.71421 2.24729,0.78031"
     style="fill:#999999;fill-opacity:1;fill-rule:nonzero;stroke:#999999;stroke-width:0.75;stroke-linecap:round;stroke-linejoin:round;stroke-miterlimit:10;stroke-opacity:1" />
  <path
     inkscape:connector-curvature="0"
     id="path258"
     d="m 407.49211,168.6031 c -0.5202,1.49819 -2.7638,0.71916 -2.2436,-0.77902 0.51892,-1.49452 2.76252,-0.71549 2.2436,0.77902"
     style="fill:#999999;fill-opacity:1;fill-rule:nonzero;stroke:#999999;stroke-width:0.75;stroke-linecap:round;stroke-linejoin:round;stroke-miterlimit:10;stroke-opacity:1" />
  <path
     inkscape:connector-curvature="0"
     id="path260"
     d="m 401.20155,171.35553 c -0.5202,1.4982 -2.7638,0.71917 -2.2436,-0.77902 0.51892,-1.49451 2.76252,-0.71548 2.2436,0.77902"
     style="fill:#999999;fill-opacity:1;fill-rule:nonzero;stroke:#999999;stroke-width:0.75;stroke-linecap:round;stroke-linejoin:round;stroke-miterlimit:10;stroke-opacity:1" />
  <path
     inkscape:connector-curvature="0"
     id="path262"
     d="m 396.97705,172.57232 c -0.5202,1.49819 -2.76381,0.71917 -2.2436,-0.77903 0.51892,-1.4945 2.76252,-0.71548 2.2436,0.77903"
     style="fill:#999999;fill-opacity:1;fill-rule:nonzero;stroke:#999999;stroke-width:0.75;stroke-linecap:round;stroke-linejoin:round;stroke-miterlimit:10;stroke-opacity:1" />
  <path
     inkscape:connector-curvature="0"
     id="path268"
     d="m 412.05085,165.77991 c -0.51891,1.4945 -2.76252,0.71548 -2.2436,-0.77902 0.5202,-1.4982 2.7638,-0.71918 2.2436,0.77902"
     style="fill:#999999;fill-opacity:1;fill-rule:nonzero;stroke:#999999;stroke-width:0.75;stroke-linecap:round;stroke-linejoin:round;stroke-miterlimit:10;stroke-opacity:1" />
  <path
     inkscape:connector-curvature="0"
     id="path270"
     d="m 415.26093,164.03063 c -0.5202,1.4982 -2.7675,0.7179 -2.2473,-0.7803 0.51893,-1.4945 2.76622,-0.7142 2.2473,0.7803"
     style="fill:#999999;fill-opacity:1;fill-rule:nonzero;stroke:#999999;stroke-width:0.75;stroke-linecap:round;stroke-linejoin:round;stroke-miterlimit:10;stroke-opacity:1" />
  <path
     inkscape:connector-curvature="0"
     id="path272"
     d="m 406.4699,160.07679 c -0.5202,1.49819 -2.7638,0.71917 -2.2436,-0.77903 0.51892,-1.4945 2.76252,-0.71548 2.2436,0.77903"
     style="fill:#999999;fill-opacity:1;fill-rule:nonzero;stroke:#999999;stroke-width:0.75;stroke-linecap:round;stroke-linejoin:round;stroke-miterlimit:10;stroke-opacity:1" />
  <path
     inkscape:connector-curvature="0"
     id="path274"
     d="m 404.70535,180.4757 c -0.51892,1.49451 -2.76252,0.71549 -2.2436,-0.77902 0.5202,-1.49819 2.7638,-0.71917 2.2436,0.77902"
     style="fill:#333333;fill-opacity:1;fill-rule:nonzero;stroke:#333333;stroke-width:0.75;stroke-linecap:round;stroke-linejoin:round;stroke-miterlimit:10;stroke-opacity:1" />
  <path
     inkscape:connector-curvature="0"
     id="path276"
     d="m 414.93066,160.19443 c -0.52021,1.4982 -2.76381,0.71918 -2.2436,-0.77902 0.51892,-1.4945 2.76252,-0.71548 2.2436,0.77902"
     style="fill:#999999;fill-opacity:1;fill-rule:nonzero;stroke:#999999;stroke-width:0.75;stroke-linecap:round;stroke-linejoin:round;stroke-miterlimit:10;stroke-opacity:1" />
  <path
     inkscape:connector-curvature="0"
     id="path278"
     d="m 410.81513,159.54283 c -0.52021,1.4982 -2.7638,0.71917 -2.24361,-0.77902 0.51894,-1.49451 2.76254,-0.71548 2.24361,0.77902"
     style="fill:#999999;fill-opacity:1;fill-rule:nonzero;stroke:#999999;stroke-width:0.75;stroke-linecap:round;stroke-linejoin:round;stroke-miterlimit:10;stroke-opacity:1" />
  <path
     inkscape:connector-curvature="0"
     id="path280"
     d="m 420.17215,149.08831 c -0.5202,1.49819 -2.7638,0.71916 -2.2436,-0.77902 0.51892,-1.49451 2.76252,-0.71548 2.2436,0.77902"
     style="fill:#999999;fill-opacity:1;fill-rule:nonzero;stroke:#999999;stroke-width:0.75;stroke-linecap:round;stroke-linejoin:round;stroke-miterlimit:10;stroke-opacity:1" />
  <path
     inkscape:connector-curvature="0"
     id="path282"
     d="m 413.76549,156.03139 c -0.5202,1.49819 -2.76381,0.71917 -2.24361,-0.77902 0.51893,-1.49451 2.76254,-0.71549 2.24361,0.77902"
     style="fill:#999999;fill-opacity:1;fill-rule:nonzero;stroke:#999999;stroke-width:0.75;stroke-linecap:round;stroke-linejoin:round;stroke-miterlimit:10;stroke-opacity:1" />
  <path
     inkscape:connector-curvature="0"
     id="path284"
     d="m 421.47262,147.03403 c -0.5202,1.4982 -2.7638,0.71918 -2.2436,-0.77902 0.51892,-1.4945 2.76252,-0.71548 2.2436,0.77902"
     style="fill:#999999;fill-opacity:1;fill-rule:nonzero;stroke:#999999;stroke-width:0.75;stroke-linecap:round;stroke-linejoin:round;stroke-miterlimit:10;stroke-opacity:1" />
  <path
     inkscape:connector-curvature="0"
     id="path286"
     d="m 422.04279,164.35099 c -0.51892,1.49452 -2.76253,0.71549 -2.2436,-0.77902 0.5202,-1.49819 2.7638,-0.71916 2.2436,0.77902"
     style="fill:#999999;fill-opacity:1;fill-rule:nonzero;stroke:#999999;stroke-width:0.75;stroke-linecap:round;stroke-linejoin:round;stroke-miterlimit:10;stroke-opacity:1" />
  <path
     inkscape:connector-curvature="0"
     id="path288"
     d="m 426.27346,147.24667 c -0.51891,1.49451 -2.76621,0.7142 -2.24729,-0.78031 0.5202,-1.49819 2.76749,-0.71788 2.24729,0.78031"
     style="fill:#999999;fill-opacity:1;fill-rule:nonzero;stroke:#999999;stroke-width:0.75;stroke-linecap:round;stroke-linejoin:round;stroke-miterlimit:10;stroke-opacity:1" />
  <path
     inkscape:connector-curvature="0"
     id="path290"
     d="m 421.75067,156.05809 c -0.52019,1.49819 -2.7638,0.71917 -2.24361,-0.77902 0.51894,-1.4945 2.76254,-0.71548 2.24361,0.77902"
     style="fill:#999999;fill-opacity:1;fill-rule:nonzero;stroke:#999999;stroke-width:0.75;stroke-linecap:round;stroke-linejoin:round;stroke-miterlimit:10;stroke-opacity:1" />
  <path
     inkscape:connector-curvature="0"
     id="path292"
     d="m 427.67455,152.65675 c -0.5202,1.49819 -2.76749,0.71789 -2.24728,-0.7803 0.51892,-1.4945 2.76621,-0.7142 2.24728,0.7803"
     style="fill:#999999;fill-opacity:1;fill-rule:nonzero;stroke:#999999;stroke-width:0.75;stroke-linecap:round;stroke-linejoin:round;stroke-miterlimit:10;stroke-opacity:1" />
  <path
     inkscape:connector-curvature="0"
     id="path294"
     d="m 424.40136,144.35474 c -0.51891,1.49451 -2.76253,0.71548 -2.2436,-0.77902 0.5202,-1.49819 2.7638,-0.71916 2.2436,0.77902"
     style="fill:#999999;fill-opacity:1;fill-rule:nonzero;stroke:#999999;stroke-width:0.75;stroke-linecap:round;stroke-linejoin:round;stroke-miterlimit:10;stroke-opacity:1" />
  <path
     inkscape:connector-curvature="0"
     id="path296"
     d="m 432.76527,143.93793 c -0.5202,1.49819 -2.7638,0.71917 -2.2436,-0.77902 0.51892,-1.4945 2.76252,-0.71548 2.2436,0.77902"
     style="fill:#999999;fill-opacity:1;fill-rule:nonzero;stroke:#999999;stroke-width:0.75;stroke-linecap:round;stroke-linejoin:round;stroke-miterlimit:10;stroke-opacity:1" />
  <path
     inkscape:connector-curvature="0"
     id="path298"
     d="m 426.69419,164.92403 c -0.5202,1.4982 -2.7675,0.71789 -2.2473,-0.78031 0.51892,-1.4945 2.76622,-0.71419 2.2473,0.78031"
     style="fill:#999999;fill-opacity:1;fill-rule:nonzero;stroke:#999999;stroke-width:0.75;stroke-linecap:round;stroke-linejoin:round;stroke-miterlimit:10;stroke-opacity:1" />
  <path
     inkscape:connector-curvature="0"
     id="path300"
     d="m 435.28285,153.27647 c -0.5202,1.4982 -2.7638,0.71918 -2.2436,-0.77902 0.51892,-1.4945 2.76252,-0.71548 2.2436,0.77902"
     style="fill:#999999;fill-opacity:1;fill-rule:nonzero;stroke:#999999;stroke-width:0.75;stroke-linecap:round;stroke-linejoin:round;stroke-miterlimit:10;stroke-opacity:1" />
  <path
     inkscape:connector-curvature="0"
     id="path302"
     d="m 426.24469,156.27463 c -0.51892,1.4945 -2.76622,0.71419 -2.2473,-0.78031 0.5202,-1.4982 2.7675,-0.71789 2.2473,0.78031"
     style="fill:#999999;fill-opacity:1;fill-rule:nonzero;stroke:#999999;stroke-width:0.75;stroke-linecap:round;stroke-linejoin:round;stroke-miterlimit:10;stroke-opacity:1" />
  <path
     inkscape:connector-curvature="0"
     id="path304"
     d="m 439.79247,147.07673 c -0.5202,1.4982 -2.7638,0.71917 -2.2436,-0.77902 0.51892,-1.49451 2.76252,-0.71548 2.2436,0.77902"
     style="fill:#999999;fill-opacity:1;fill-rule:nonzero;stroke:#999999;stroke-width:0.75;stroke-linecap:round;stroke-linejoin:round;stroke-miterlimit:10;stroke-opacity:1" />
  <path
     inkscape:connector-curvature="0"
     id="path306"
     d="m 424.52532,150.4215 c -0.51892,1.49451 -2.76252,0.71549 -2.2436,-0.77902 0.5202,-1.49819 2.7638,-0.71917 2.2436,0.77902"
     style="fill:#999999;fill-opacity:1;fill-rule:nonzero;stroke:#999999;stroke-width:0.75;stroke-linecap:round;stroke-linejoin:round;stroke-miterlimit:10;stroke-opacity:1" />
  <path
     inkscape:connector-curvature="0"
     id="path308"
     d="m 430.56773,155.63785 c -0.5202,1.4982 -2.76381,0.71918 -2.2436,-0.77902 0.51892,-1.4945 2.76252,-0.71548 2.2436,0.77902"
     style="fill:#999999;fill-opacity:1;fill-rule:nonzero;stroke:#999999;stroke-width:0.75;stroke-linecap:round;stroke-linejoin:round;stroke-miterlimit:10;stroke-opacity:1" />
  <path
     inkscape:connector-curvature="0"
     id="path312"
     d="m 437.90015,145.96483 c -0.5202,1.49819 -2.76749,0.71789 -2.24729,-0.7803 0.51892,-1.49451 2.76622,-0.71421 2.24729,0.7803"
     style="fill:#999999;fill-opacity:1;fill-rule:nonzero;stroke:#999999;stroke-width:0.75;stroke-linecap:round;stroke-linejoin:round;stroke-miterlimit:10;stroke-opacity:1" />
  <path
     inkscape:connector-curvature="0"
     id="path316"
     d="m 449.25105,122.24261 c -0.5202,1.4982 -2.76749,0.7179 -2.24728,-0.7803 0.51892,-1.49451 2.76621,-0.71421 2.24728,0.7803"
     style="fill:#333333;fill-opacity:1;fill-rule:nonzero;stroke:#333333;stroke-width:0.75;stroke-linecap:round;stroke-linejoin:round;stroke-miterlimit:10;stroke-opacity:1" />
  <path
     inkscape:connector-curvature="0"
     id="path318"
     d="m 447.34552,132.77877 c -0.5202,1.4982 -2.7638,0.71918 -2.2436,-0.77902 0.51892,-1.4945 2.76252,-0.71548 2.2436,0.77902"
     style="fill:#999999;fill-opacity:1;fill-rule:nonzero;stroke:#999999;stroke-width:0.75;stroke-linecap:round;stroke-linejoin:round;stroke-miterlimit:10;stroke-opacity:1" />
  <path
     inkscape:connector-curvature="0"
     id="path322"
     d="m 444.42375,136.68606 c -0.51892,1.4945 -2.76253,0.71548 -2.2436,-0.77903 0.5202,-1.4982 2.7638,-0.71918 2.2436,0.77903"
     style="fill:#999999;fill-opacity:1;fill-rule:nonzero;stroke:#999999;stroke-width:0.75;stroke-linecap:round;stroke-linejoin:round;stroke-miterlimit:10;stroke-opacity:1" />
  <path
     inkscape:connector-curvature="0"
     id="path324"
     d="m 451.04244,142.74597 c -0.51892,1.49451 -2.76252,0.71548 -2.2436,-0.77902 0.5202,-1.49819 2.7638,-0.71916 2.2436,0.77902"
     style="fill:#999999;fill-opacity:1;fill-rule:nonzero;stroke:#999999;stroke-width:0.75;stroke-linecap:round;stroke-linejoin:round;stroke-miterlimit:10;stroke-opacity:1" />
  <path
     inkscape:connector-curvature="0"
     id="path328"
     d="m 451.42257,141.48447 c -0.51891,1.4945 -2.76252,0.71548 -2.2436,-0.77903 0.5202,-1.49819 2.7638,-0.71917 2.2436,0.77903"
     style="fill:#999999;fill-opacity:1;fill-rule:nonzero;stroke:#999999;stroke-width:0.75;stroke-linecap:round;stroke-linejoin:round;stroke-miterlimit:10;stroke-opacity:1" />
  <path
     inkscape:connector-curvature="0"
     id="path330"
     d="m 457.45536,134.49451 c -0.51892,1.4945 -2.76253,0.71548 -2.24361,-0.77903 0.52021,-1.49819 2.76381,-0.71917 2.24361,0.77903"
     style="fill:#999999;fill-opacity:1;fill-rule:nonzero;stroke:#999999;stroke-width:0.75;stroke-linecap:round;stroke-linejoin:round;stroke-miterlimit:10;stroke-opacity:1" />
  <path
     inkscape:connector-curvature="0"
     id="path332"
     d="m 457.7924,142.25307 c -0.5202,1.49819 -2.76747,0.71789 -2.24727,-0.78029 0.51892,-1.49451 2.7662,-0.71422 2.24727,0.78029"
     style="fill:#999999;fill-opacity:1;fill-rule:nonzero;stroke:#999999;stroke-width:0.75;stroke-linecap:round;stroke-linejoin:round;stroke-miterlimit:10;stroke-opacity:1" />
  <path
     inkscape:connector-curvature="0"
     id="path336"
     d="m 454.79791,134.8731 c -0.5202,1.49821 -2.7638,0.71918 -2.2436,-0.77902 0.51892,-1.4945 2.76252,-0.71548 2.2436,0.77902"
     style="fill:#999999;fill-opacity:1;fill-rule:nonzero;stroke:#999999;stroke-width:0.75;stroke-linecap:round;stroke-linejoin:round;stroke-miterlimit:10;stroke-opacity:1" />
  <path
     inkscape:connector-curvature="0"
     id="path338"
     d="m 463.11008,132.86874 c -0.52021,1.49819 -2.76381,0.71917 -2.24361,-0.77903 0.51892,-1.4945 2.76253,-0.71548 2.24361,0.77903"
     style="fill:#999999;fill-opacity:1;fill-rule:nonzero;stroke:#999999;stroke-width:0.75;stroke-linecap:round;stroke-linejoin:round;stroke-miterlimit:10;stroke-opacity:1" />
  <path
     inkscape:connector-curvature="0"
     id="path342"
     d="m 458.30294,127.03978 c -0.5202,1.49819 -2.7638,0.71917 -2.2436,-0.77902 0.51892,-1.49451 2.76252,-0.71549 2.2436,0.77902"
     style="fill:#999999;fill-opacity:1;fill-rule:nonzero;stroke:#999999;stroke-width:0.75;stroke-linecap:round;stroke-linejoin:round;stroke-miterlimit:10;stroke-opacity:1" />
  <path
     inkscape:connector-curvature="0"
     id="path344"
     d="m 462.18177,135.41052 c -0.5202,1.49821 -2.76749,0.71789 -2.24729,-0.7803 0.51892,-1.4945 2.76622,-0.7142 2.24729,0.7803"
     style="fill:#999999;fill-opacity:1;fill-rule:nonzero;stroke:#999999;stroke-width:0.75;stroke-linecap:round;stroke-linejoin:round;stroke-miterlimit:10;stroke-opacity:1" />
  <path
     inkscape:connector-curvature="0"
     id="path346"
     d="m 464.31422,126.54262 c -0.5202,1.49819 -2.7638,0.71917 -2.2436,-0.77902 0.51892,-1.4945 2.76252,-0.71548 2.2436,0.77902"
     style="fill:#999999;fill-opacity:1;fill-rule:nonzero;stroke:#999999;stroke-width:0.75;stroke-linecap:round;stroke-linejoin:round;stroke-miterlimit:10;stroke-opacity:1" />
  <path
     inkscape:connector-curvature="0"
     id="path354"
     d="m 457.45223,131.26009 c -0.51892,1.4945 -2.76622,0.7142 -2.2473,-0.78031 0.52021,-1.49819 2.7675,-0.71789 2.2473,0.78031"
     style="fill:#999999;fill-opacity:1;fill-rule:nonzero;stroke:#999999;stroke-width:0.75;stroke-linecap:round;stroke-linejoin:round;stroke-miterlimit:10;stroke-opacity:1" />
  <path
     style="fill:none;stroke:#000000;stroke-width:0.80000001px;stroke-linecap:butt;stroke-linejoin:miter;stroke-opacity:1;marker-end:url(#Arrow1Mend)"
     d="m 328.2,210.87559 0,-132.623703"
     id="path4550"
     inkscape:connector-curvature="0" />
  <path
     style="fill:none;stroke:#000000;stroke-width:0.80000001px;stroke-linecap:butt;stroke-linejoin:miter;stroke-opacity:1;marker-end:url(#Arrow1Mend)"
     d="m 327.97197,210.46369 162.47663,0"
     id="path4550-0"
     inkscape:connector-curvature="0" />
  <flowRoot
     xml:space="preserve"
     id="flowRoot3971-9"
     style="font-style:normal;font-variant:normal;font-weight:normal;font-stretch:normal;line-height:0.01%;font-family:Ubuntu;-inkscape-font-specification:Ubuntu;letter-spacing:0px;word-spacing:0px;fill:#666666;fill-opacity:1;stroke:none"
     transform="matrix(0.80000001,0,0,0.80000001,341.65,307.17452)"><flowRegion
       id="flowRegion3973-0"
       style="fill:#666666"><rect
         id="rect3975-8"
         width="395.43994"
         height="97.548843"
         x="-1.0489123"
         y="-108.67124"
         style="fill:#666666" /></flowRegion><flowPara
       id="flowPara3977-7"
       style="font-size:14.66666698px;line-height:1.25;fill:#666666">Nombre d'habitants (M)</flowPara></flowRoot>  <flowRoot
     xml:space="preserve"
     id="flowRoot3971-8-9"
     style="font-style:normal;font-variant:normal;font-weight:normal;font-stretch:normal;line-height:0.01%;font-family:Ubuntu;-inkscape-font-specification:Ubuntu;letter-spacing:0px;word-spacing:0px;fill:#666666;fill-opacity:1;stroke:none"
     transform="matrix(0,-0.80000001,0.80000001,0,380.74833,205.54595)"><flowRegion
       id="flowRegion3973-2-8"
       style="fill:#666666"><rect
         id="rect3975-3-8"
         width="395.43994"
         height="97.548843"
         x="-1.0489123"
         y="-108.67124"
         style="fill:#666666" /></flowRegion><flowPara
       id="flowPara3977-4-7"
       style="font-size:14.66666698px;line-height:1.25;fill:#666666">Nombre de doigts (M)</flowPara></flowRoot>  <g
     id="g5923"
     transform="matrix(0.24449891,0,0,0.24449891,257.7469,18.677123)"
     style="fill:#0000ff">
    <g
       word-spacing="normal"
       letter-spacing="normal"
       font-size-adjust="none"
       font-stretch="normal"
       font-weight="normal"
       font-variant="normal"
       font-style="normal"
       stroke-miterlimit="10.433"
       xml:space="preserve"
       transform="matrix(1.0629921,0,0,-1.0629921,-186.02362,789.27165)"
       id="g5925"
       style="font-style:normal;font-variant:normal;font-weight:normal;font-stretch:normal;letter-spacing:normal;word-spacing:normal;text-anchor:start;fill:#0000ff;stroke:#000000;stroke-width:4.08999777;stroke-linecap:butt;stroke-linejoin:miter;stroke-miterlimit:10.43299961;stroke-dasharray:none;stroke-dashoffset:0;stroke-opacity:1"><g
         id="g3951"
         transform="matrix(1,0,0,-1,155.24447,774.16667)"><g
           word-spacing="normal"
           letter-spacing="normal"
           font-size-adjust="none"
           font-stretch="normal"
           font-weight="normal"
           font-variant="normal"
           font-style="normal"
           stroke-miterlimit="10.433"
           xml:space="preserve"
           transform="matrix(1.0629921,0,0,-1.0629921,-186.02362,789.27165)"
           id="content"
           style="font-style:normal;font-variant:normal;font-weight:normal;font-stretch:normal;letter-spacing:normal;word-spacing:normal;text-anchor:start;fill:none;stroke:#000000;stroke-linecap:butt;stroke-linejoin:miter;stroke-miterlimit:10.43299961;stroke-dasharray:none;stroke-dashoffset:0;stroke-opacity:1"><path
             id="path3954"
             d="m 509.87,435 0.1,0.37 0.05,0.18 0.06,0.17 0.06,0.18 0.07,0.17 0.07,0.16 0.07,0.16 0.09,0.16 0.09,0.16 0.1,0.15 0.1,0.14 0.12,0.14 0.12,0.14 0.13,0.13 0.15,0.12 0.15,0.12 0.16,0.11 0.18,0.11 0.18,0.11 0.2,0.09 0.21,0.09 0.23,0.09 0.23,0.07 0.26,0.07 0.26,0.07 0.28,0.05 0.3,0.05 0.31,0.04 0.33,0.04 0.35,0.03 0.18,0.01 h 0.19 c 0.25,0 0.84,0.05 0.84,1 0,0.05 0,0.55 -0.64,0.55 -1.66,0 -3.39,-0.16 -5.03,-0.16 -1.71,0 -3.44,0.16 -5.1,0.16 -0.29,0 -0.89,0 -0.89,-1 0,-0.55 0.5,-0.55 0.89,-0.55 2.85,-0.04 3.39,-1.09 3.39,-2.18 0,-0.16 -0.09,-0.91 -0.14,-1.05 l -5.57,-22.17 -11.02,26 c -0.41,0.9 -0.45,0.95 -1.59,0.95 h -6.68 c -1,0 -1.45,0 -1.45,-1 0,-0.55 0.45,-0.55 1.39,-0.55 0.25,0 3.39,0 3.39,-0.45 l -6.67,-26.75 c -0.5,-2 -1.34,-3.59 -5.37,-3.73 -0.32,0 -0.86,-0.05 -0.86,-1 0,-0.35 0.25,-0.55 0.65,-0.55 1.6,0 3.33,0.16 4.99,0.16 1.68,0 3.48,-0.16 5.12,-0.16 0.25,0 0.89,0 0.89,1 0,0.5 -0.43,0.55 -0.98,0.55 -2.89,0.09 -3.3,1.18 -3.3,2.18 0,0.35 0.05,0.6 0.2,1.14 l 6.58,26.32 c 0.21,-0.3 0.21,-0.39 0.46,-0.89 l 12.4,-29.35 c 0.35,-0.86 0.49,-0.95 0.94,-0.95 0.55,0 0.55,0.16 0.8,1.05 z"
             inkscape:connector-curvature="0"
             style="fill:#666666;stroke-width:0" /><path
             id="path3956"
             d="m 532.17,421.9 v 0.01 h 0.01 v 0 0.01 0 l 0.01,0.01 v 0.01 0 0.01 l 0.01,0.01 v 0.01 l 0.01,0.02 v 0.02 l 0.01,0.02 0.01,0.02 v 0.02 l 0.01,0.02 v 0.03 l 0.01,0.02 0.01,0.05 0.01,0.02 v 0.02 l 0.01,0.03 v 0.02 l 0.01,0.02 v 0.02 0.02 l 0.01,0.02 v 0.02 0.01 l 0.01,0.01 v 0.01 0 0.01 0 0.01 0 0.01 0 0 0.01 0 c 0,0.19 -0.14,0.5 -0.54,0.5 -0.71,0 -3.6,-0.28 -4.47,-0.36 -0.28,-0.03 -0.77,-0.06 -0.77,-0.8 0,-0.48 0.49,-0.48 0.91,-0.48 1.67,0 1.67,-0.25 1.67,-0.53 0,-0.24 -0.06,-0.46 -0.14,-0.77 l -1.99,-7.94 c -0.73,1.14 -1.92,2.05 -3.59,2.05 v -0.97 c 2.44,0 3.11,-2.64 3.11,-3.03 0,-0.14 -0.08,-0.39 -0.11,-0.48 l -1.64,-6.52 c -0.23,-0.98 -1,-1.67 -1.77,-2.34 -0.31,-0.27 -1.71,-1.39 -3.21,-1.39 -1.29,0 -2.54,0.9 -2.54,3.37 0,1.86 1,5.69 1.82,7.08 1.59,2.8 3.37,3.31 4.34,3.31 v 0.97 c -4.45,0 -8.98,-4.91 -8.98,-9.92 0,-3.38 2.26,-5.78 5.26,-5.78 1.88,0 3.55,1.08 4.94,2.44 0.67,-2.1 2.69,-2.44 3.59,-2.44 1.25,0 2.13,0.76 2.75,1.84 0.77,1.36 1.22,3.35 1.22,3.49 0,0.45 -0.45,0.45 -0.55,0.45 -0.5,0 -0.53,-0.14 -0.76,-1.08 -0.42,-1.67 -1.09,-3.73 -2.55,-3.73 -0.9,0 -1.15,0.76 -1.15,1.7 0,0.67 0.07,0.98 0.17,1.44 z"
             inkscape:connector-curvature="0"
             style="fill:#666666;stroke-width:0" /><path
             id="path3958"
             d="m 551.54,408.03 -0.01,0.36 -0.02,0.34 -0.05,0.34 -0.05,0.33 -0.07,0.32 -0.09,0.31 -0.1,0.3 -0.12,0.28 -0.12,0.28 -0.15,0.27 -0.15,0.25 -0.17,0.25 -0.17,0.23 -0.19,0.22 -0.2,0.22 -0.21,0.2 -0.22,0.19 -0.23,0.17 -0.24,0.17 -0.25,0.15 -0.25,0.15 -0.27,0.13 -0.27,0.12 -0.28,0.1 -0.28,0.1 -0.29,0.08 -0.3,0.07 -0.3,0.06 -0.31,0.04 -0.31,0.04 -0.31,0.01 -0.32,0.01 c -5.17,0 -10.04,-4.84 -10.04,-9.61 0,-3.48 2.54,-6.09 6.34,-6.09 l 0.03,0.97 c -1.73,0 -3.48,1.12 -3.48,3.87 0,1.42 0.67,4.85 2.03,6.83 1.5,2.16 3.51,3.06 5.08,3.06 1.89,0 3.48,-1.29 3.48,-3.87 0,-0.83 -0.41,-4.28 -1.95,-6.72 -1.32,-2.05 -3.41,-3.17 -5.16,-3.17 v 0 l -0.03,-0.97 c 4.98,0 10,4.59 10,9.61 z"
             inkscape:connector-curvature="0"
             style="fill:#666666;stroke-width:0" /><path
             id="path3960"
             d="m 564.02,420.54 -0.01,0.05 v 0.06 L 564,420.7 v 0.06 l -0.02,0.05 -0.01,0.06 -0.02,0.05 -0.02,0.06 -0.02,0.06 -0.02,0.05 -0.03,0.06 -0.03,0.05 -0.03,0.06 -0.04,0.05 -0.04,0.05 -0.04,0.05 -0.04,0.05 -0.05,0.05 -0.05,0.04 -0.05,0.05 -0.06,0.04 -0.06,0.03 -0.06,0.04 -0.07,0.03 -0.06,0.03 -0.08,0.03 -0.07,0.02 -0.08,0.02 -0.08,0.01 -0.08,0.01 -0.09,0.01 h -0.09 c -0.94,0 -1.95,-0.91 -1.95,-1.92 0,-0.59 0.45,-1.33 1.4,-1.33 1,0 1.96,0.99 1.96,1.92 z"
             inkscape:connector-curvature="0"
             style="fill:#666666;stroke-width:0" /><path
             id="path3962"
             d="m 556.91,402.84 -0.06,-0.17 -0.05,-0.17 -0.03,-0.08 -0.02,-0.09 -0.03,-0.08 -0.02,-0.09 -0.02,-0.09 -0.02,-0.09 -0.02,-0.1 -0.02,-0.09 -0.01,-0.1 v -0.05 l -0.01,-0.05 v -0.06 -0.05 l -0.01,-0.05 v -0.06 c 0,-1.64 1.39,-2.95 3.3,-2.95 3.49,0 5.03,4.79 5.03,5.33 0,0.45 -0.45,0.45 -0.56,0.45 -0.48,0 -0.53,-0.2 -0.67,-0.59 -0.8,-2.79 -2.33,-4.22 -3.69,-4.22 -0.7,0 -0.88,0.45 -0.88,1.22 0,0.79 0.26,1.46 0.57,2.23 0.34,0.94 0.73,1.87 1.11,2.78 0.31,0.84 1.58,4.02 1.72,4.44 0.09,0.34 0.2,0.76 0.2,1.11 0,1.64 -1.39,2.95 -3.31,2.95 -3.46,0 -5.05,-4.73 -5.05,-5.33 0,-0.45 0.48,-0.45 0.59,-0.45 0.49,0 0.52,0.17 0.63,0.56 0.9,3 2.44,4.25 3.72,4.25 0.56,0 0.87,-0.28 0.87,-1.22 0,-0.79 -0.2,-1.32 -1.08,-3.48 z"
             inkscape:connector-curvature="0"
             style="fill:#666666;stroke-width:0" /><path
             id="path3964"
             d="m 585.29,411.62 0.01,0.05 0.01,0.04 0.02,0.05 0.01,0.04 0.01,0.04 v 0.04 l 0.01,0.03 0.01,0.04 0.01,0.03 v 0.03 l 0.01,0.03 0.01,0.03 v 0.02 0.03 l 0.01,0.02 v 0.02 l 0.01,0.02 v 0.02 0.02 0.02 0.01 l 0.01,0.02 v 0.01 0.01 0.01 0.01 0.01 0.01 0.01 0 0.01 0.01 c 0,0.76 -0.63,1.1 -1.19,1.1 -0.79,0 -1.45,-0.65 -1.59,-1.32 -0.6,0.95 -1.78,1.98 -3.6,1.98 v -0.97 c 2.44,0 3.11,-2.61 3.11,-2.97 0,-0.06 0,-0.12 -0.11,-0.51 l -1.56,-6.27 c -0.14,-0.53 -0.14,-0.59 -0.73,-1.29 -1.22,-1.47 -2.89,-2.38 -4.22,-2.38 -1.78,0 -2.61,1.5 -2.61,3.31 0,1.53 0.94,5.44 1.84,6.97 1.47,2.44 3.1,3.14 4.28,3.14 v 0.97 c -4.35,0 -8.92,-4.66 -8.92,-9.64 0,-3.59 2.44,-5.72 5.3,-5.72 1.61,0 3.14,0.8 4.36,1.88 l -0.77,-3.13 c -0.39,-1.47 -0.62,-2.4 -1.95,-3.59 -1.53,-1.28 -3.03,-1.28 -3.91,-1.28 -1.59,0 -2.04,0.09 -2.67,0.23 0.86,0.42 1.11,1.25 1.11,1.75 0,0.83 -0.65,1.28 -1.36,1.28 -0.97,0 -1.98,-0.79 -1.98,-2.12 0,-2.1 3,-2.13 4.95,-2.13 5.47,0 7.8,2.78 8.28,4.78 z"
             inkscape:connector-curvature="0"
             style="fill:#666666;stroke-width:0" /><path
             id="path3966"
             d="m 595.97,412.53 h 3.55 c 0.66,0 1.11,0 1.11,0.76 0,0.49 -0.45,0.49 -1.03,0.49 h -3.32 l 1.29,5.15 c 0.03,0.18 0.11,0.35 0.11,0.49 0,0.64 -0.49,1.12 -1.19,1.12 -0.88,0 -1.39,-0.59 -1.64,-1.5 -0.24,-0.87 0.22,0.8 -1.33,-5.26 h -3.55 c -0.65,0 -1.11,0 -1.11,-0.77 0,-0.48 0.41,-0.48 1.05,-0.48 h 3.3 l -2.05,-8.22 c -0.22,-0.88 -0.53,-2.13 -0.53,-2.58 0,-2.06 1.75,-3.31 3.73,-3.31 3.88,0 6.07,4.87 6.07,5.33 0,0.45 -0.46,0.45 -0.57,0.45 -0.4,0 -0.45,-0.08 -0.71,-0.66 -0.99,-2.2 -2.77,-4.15 -4.68,-4.15 -0.73,0 -1.22,0.45 -1.22,1.7 0,0.36 0.15,1.09 0.21,1.44 z"
             inkscape:connector-curvature="0"
             style="fill:#666666;stroke-width:0" /><path
             id="path3968"
             d="m 617.41,411.86 -0.08,-0.03 -0.09,-0.02 -0.08,-0.03 -0.07,-0.02 -0.08,-0.04 -0.07,-0.03 -0.07,-0.04 -0.07,-0.04 -0.07,-0.04 -0.06,-0.04 -0.06,-0.05 -0.06,-0.05 -0.06,-0.05 -0.05,-0.05 -0.06,-0.05 -0.04,-0.06 -0.05,-0.05 -0.04,-0.06 -0.05,-0.06 -0.03,-0.06 -0.04,-0.06 -0.03,-0.06 -0.03,-0.06 -0.03,-0.06 -0.02,-0.07 -0.02,-0.06 -0.02,-0.07 -0.01,-0.06 -0.01,-0.07 -0.01,-0.06 -0.01,-0.07 v -0.06 c 0,-0.81 0.71,-1.12 1.16,-1.12 0.34,0 1.67,0.21 1.67,1.98 0,2.27 -2.5,3.03 -4.62,3.03 -5.44,0 -6.43,-4 -6.43,-5.08 0,-1.29 0.74,-2.12 1.22,-2.54 0.91,-0.71 1.53,-0.83 3.94,-1.25 0.73,-0.14 2.97,-0.57 2.97,-2.3 0,-0.59 -0.39,-1.92 -1.85,-2.8 -1.35,-0.76 -3.07,-0.76 -3.48,-0.76 -1.41,0 -3.39,0.31 -4.19,1.47 1.16,0.14 1.92,1 1.92,1.98 0,0.87 -0.62,1.28 -1.35,1.28 -1.02,0 -2.04,-0.8 -2.04,-2.33 0,-2.09 2.24,-3.37 5.61,-3.37 6.43,0 7.61,4.39 7.61,5.75 0,3.2 -3.53,3.83 -4.81,4.08 -0.31,0.06 -1.19,0.2 -1.39,0.26 -1.3,0.25 -1.92,0.99 -1.92,1.75 0,0.8 0.62,1.74 1.39,2.24 0.93,0.59 2.15,0.65 2.75,0.65 0.73,0 2.55,-0.11 3.31,-1.29 z"
             inkscape:connector-curvature="0"
             style="fill:#666666;stroke-width:0" /><path
             id="path3970"
             d="m 671.79,422.5 h 0.14 0.15 0.14 l 0.07,0.01 h 0.08 l 0.07,0.01 0.07,0.01 0.07,0.01 0.07,0.01 0.07,0.01 0.06,0.02 0.07,0.02 0.06,0.02 0.06,0.02 0.06,0.03 0.06,0.03 0.05,0.04 0.05,0.03 0.05,0.05 0.04,0.04 0.04,0.05 0.02,0.03 0.02,0.03 0.01,0.02 0.02,0.03 0.01,0.03 0.01,0.04 0.02,0.03 0.01,0.04 0.01,0.03 0.01,0.04 v 0.04 l 0.01,0.04 v 0.04 l 0.01,0.04 v 0.04 0.05 c 0,1 -0.95,1 -1.64,1 H 642 c -0.71,0 -1.65,0 -1.65,-1 0,-0.98 0.94,-0.98 1.69,-0.98 z"
             inkscape:connector-curvature="0"
             style="fill:#666666;stroke-width:0" /><path
             id="path3972"
             d="m 671.84,412.82 h 0.07 0.06 l 0.14,0.01 h 0.14 0.07 l 0.07,0.01 0.07,0.01 h 0.06 l 0.07,0.01 0.07,0.02 0.07,0.01 0.06,0.02 0.07,0.02 0.06,0.02 0.06,0.02 0.05,0.03 0.06,0.03 0.05,0.04 0.05,0.04 0.05,0.04 0.04,0.05 0.02,0.02 0.02,0.03 0.02,0.02 0.02,0.03 0.01,0.03 0.02,0.03 0.01,0.03 0.01,0.03 0.02,0.04 0.01,0.03 0.01,0.04 0.01,0.04 v 0.04 l 0.01,0.04 v 0.04 l 0.01,0.04 v 0.05 0.04 c 0,1 -0.95,1 -1.69,1 h -29.75 c -0.75,0 -1.69,0 -1.69,-1 0,-1 0.94,-1 1.65,-1 z"
             inkscape:connector-curvature="0"
             style="fill:#666666;stroke-width:0" /><path
             id="path3974"
             d="m 704.76,438.09 v 0.05 0.06 0.05 0.05 0.05 0.05 0.04 0.05 l -0.01,0.04 v 0.04 0.04 0.04 0.04 0.03 l -0.01,0.04 v 0.03 l -0.01,0.07 -0.01,0.06 -0.01,0.05 -0.01,0.05 -0.02,0.05 -0.02,0.04 -0.02,0.04 -0.02,0.03 -0.03,0.03 -0.04,0.03 -0.03,0.03 -0.04,0.02 -0.04,0.02 -0.03,0.01 -0.02,0.01 h -0.03 l -0.03,0.01 -0.02,0.01 h -0.03 l -0.03,0.01 h -0.04 l -0.03,0.01 h -0.03 -0.04 l -0.04,0.01 h -0.04 -0.04 -0.04 -0.04 -0.05 l -0.04,0.01 h -0.05 -0.05 -0.05 -0.05 c -3.1,-3.19 -7.47,-3.19 -9.07,-3.19 v -1.55 c 1,0 3.94,0 6.52,1.3 v -25.81 c 0,-1.8 -0.14,-2.39 -4.62,-2.39 h -1.6 v -1.55 c 1.75,0.16 6.08,0.16 8.06,0.16 2,0 6.33,0 8.08,-0.16 v 1.55 h -1.59 c -4.49,0 -4.64,0.54 -4.64,2.39 z"
             inkscape:connector-curvature="0"
             style="fill:#666666;stroke-width:0" /><path
             id="path3976"
             d="m 738,422.14 -0.01,0.74 -0.01,0.75 -0.02,0.75 -0.03,0.74 -0.05,0.75 -0.06,0.74 -0.07,0.74 -0.1,0.73 -0.11,0.73 -0.14,0.73 -0.16,0.72 -0.19,0.72 -0.22,0.72 -0.25,0.7 -0.27,0.7 -0.15,0.35 -0.16,0.34 c -2.28,4.8 -6.38,5.6 -8.47,5.6 -2.99,0 -6.63,-1.3 -8.68,-5.94 -1.59,-3.44 -1.84,-7.33 -1.84,-11.31 0,-3.74 0.21,-8.22 2.25,-12 2.14,-4.03 5.78,-5.03 8.22,-5.03 v 1.09 c -1.94,0 -4.89,1.25 -5.78,6.03 -0.55,2.98 -0.55,7.56 -0.55,10.52 0,3.18 0,6.46 0.41,9.15 0.94,5.94 4.67,6.38 5.92,6.38 1.64,0 4.94,-0.89 5.87,-5.83 0.5,-2.78 0.5,-6.58 0.5,-9.7 0,-3.75 0,-7.13 -0.54,-10.32 -0.75,-4.73 -3.59,-6.23 -5.83,-6.23 v 0 -1.09 c 2.69,0 6.47,1.04 8.67,5.78 1.6,3.43 1.85,7.31 1.85,11.25 z"
             inkscape:connector-curvature="0"
             style="fill:#666666;stroke-width:0" /><path
             id="path3978"
             d="m 770.33,420.04 -9.95,9.92 c -0.61,0.6 -0.71,0.71 -1.11,0.71 -0.49,0 -0.99,-0.46 -0.99,-1 0,-0.36 0.1,-0.46 0.64,-1 l 9.97,-10.02 -9.97,-10.01 c -0.54,-0.55 -0.64,-0.64 -0.64,-1 0,-0.55 0.5,-0.99 0.99,-0.99 0.4,0 0.5,0.1 1.11,0.69 l 9.9,9.92 10.31,-10.31 c 0.11,-0.05 0.46,-0.3 0.75,-0.3 0.6,0 1,0.44 1,0.99 0,0.11 0,0.31 -0.15,0.56 -0.05,0.09 -7.97,7.92 -10.46,10.45 l 9.11,9.13 c 0.25,0.29 1,0.93 1.25,1.23 0.05,0.11 0.25,0.3 0.25,0.66 0,0.54 -0.4,1 -1,1 -0.39,0 -0.59,-0.21 -1.14,-0.75 z"
             inkscape:connector-curvature="0"
             style="fill:#666666;stroke-width:0" /><path
             id="path3980"
             d="m 838.42,435 0.1,0.37 0.05,0.18 0.06,0.17 0.06,0.18 0.07,0.17 0.07,0.16 0.08,0.16 0.08,0.16 0.09,0.16 0.1,0.15 0.1,0.14 0.12,0.14 0.12,0.14 0.13,0.13 0.15,0.12 0.15,0.12 0.16,0.11 0.18,0.11 0.18,0.11 0.2,0.09 0.21,0.09 0.23,0.09 0.23,0.07 0.26,0.07 0.26,0.07 0.28,0.05 0.3,0.05 0.32,0.04 0.33,0.04 0.34,0.03 0.18,0.01 h 0.19 c 0.25,0 0.84,0.05 0.84,1 0,0.05 0,0.55 -0.64,0.55 -1.66,0 -3.39,-0.16 -5.03,-0.16 -1.7,0 -3.44,0.16 -5.09,0.16 -0.3,0 -0.9,0 -0.9,-1 0,-0.55 0.5,-0.55 0.9,-0.55 2.84,-0.04 3.39,-1.09 3.39,-2.18 0,-0.16 -0.1,-0.91 -0.15,-1.05 l -5.57,-22.17 -11.02,26 c -0.41,0.9 -0.45,0.95 -1.59,0.95 h -6.67 c -1,0 -1.46,0 -1.46,-1 0,-0.55 0.46,-0.55 1.39,-0.55 0.25,0 3.39,0 3.39,-0.45 l -6.67,-26.75 c -0.5,-2 -1.34,-3.59 -5.37,-3.73 -0.32,0 -0.86,-0.05 -0.86,-1 0,-0.35 0.25,-0.55 0.65,-0.55 1.6,0 3.33,0.16 4.99,0.16 1.69,0 3.48,-0.16 5.12,-0.16 0.25,0 0.89,0 0.89,1 0,0.5 -0.43,0.55 -0.98,0.55 -2.89,0.09 -3.3,1.18 -3.3,2.18 0,0.35 0.05,0.6 0.21,1.14 l 6.57,26.32 c 0.21,-0.3 0.21,-0.39 0.46,-0.89 l 12.4,-29.35 c 0.35,-0.86 0.49,-0.95 0.94,-0.95 0.55,0 0.55,0.16 0.8,1.05 z"
             inkscape:connector-curvature="0"
             style="fill:#666666;stroke-width:0" /><path
             id="path3982"
             d="m 851.75,421.9 v 0.01 0 0 0.01 0 l 0.01,0.01 v 0.01 0 0.01 l 0.01,0.01 v 0.01 l 0.01,0.02 v 0.02 l 0.01,0.02 v 0.02 l 0.01,0.02 v 0.02 l 0.01,0.03 0.01,0.02 0.01,0.05 0.01,0.04 0.01,0.03 v 0.02 l 0.01,0.02 v 0.02 l 0.01,0.02 v 0.02 0.02 l 0.01,0.01 v 0.01 0.01 0 0.01 0 0.01 h 0.01 v 0.01 0 0 0.01 0 c 0,0.19 -0.14,0.5 -0.57,0.5 -0.68,0 -3.57,-0.28 -4.45,-0.36 -0.28,-0.03 -0.77,-0.06 -0.77,-0.8 0,-0.48 0.49,-0.48 0.91,-0.48 1.67,0 1.67,-0.25 1.67,-0.53 0,-0.24 -0.08,-0.46 -0.14,-0.77 l -4.92,-19.72 c -0.17,-0.62 -0.17,-0.68 -0.17,-0.76 0,-0.52 0.42,-1.11 1.19,-1.11 0.39,0 1.04,0.17 1.43,0.9 0.1,0.21 0.41,1.46 0.58,2.19 l 0.82,3.11 c 0.09,0.52 0.45,1.84 0.54,2.36 0.36,1.33 0.36,1.36 1.05,2.48 1.12,1.71 2.86,3.69 5.58,3.69 1.95,0 2.06,-1.61 2.06,-2.44 0,-2.09 -1.5,-5.95 -2.06,-7.42 -0.38,-0.98 -0.52,-1.29 -0.52,-1.89 0,-1.84 1.53,-2.98 3.3,-2.98 3.5,0 5.03,4.79 5.03,5.33 0,0.45 -0.45,0.45 -0.56,0.45 -0.49,0 -0.54,-0.2 -0.66,-0.59 -0.81,-2.79 -2.34,-4.22 -3.7,-4.22 -0.74,0 -0.88,0.48 -0.88,1.22 0,0.79 0.19,1.25 0.82,2.82 0.4,1.08 1.84,4.77 1.84,6.72 0,0.56 0,2.03 -1.3,3.03 -0.59,0.46 -1.59,0.94 -3.23,0.94 -2.55,0 -4.39,-1.39 -5.68,-2.89 z"
             inkscape:connector-curvature="0"
             style="fill:#666666;stroke-width:0" /><path
             id="path3984"
             d="m 878.82,412.07 -0.07,0.11 -0.07,0.11 -0.08,0.1 -0.08,0.1 -0.08,0.1 -0.08,0.1 -0.09,0.09 -0.09,0.1 -0.09,0.09 -0.09,0.08 -0.1,0.09 -0.1,0.08 -0.1,0.08 -0.11,0.08 -0.1,0.07 -0.12,0.08 -0.11,0.06 -0.11,0.07 -0.12,0.06 -0.13,0.05 -0.12,0.06 -0.13,0.05 -0.13,0.04 -0.13,0.04 -0.14,0.04 -0.13,0.03 -0.14,0.03 -0.15,0.02 -0.15,0.02 -0.15,0.01 -0.15,0.01 h -0.15 v -0.97 c 2.43,0 3.11,-2.64 3.11,-3.03 0,-0.14 -0.08,-0.39 -0.11,-0.48 l -1.64,-6.52 c -0.24,-0.98 -1,-1.67 -1.77,-2.34 -0.31,-0.27 -1.72,-1.39 -3.22,-1.39 -1.28,0 -2.53,0.9 -2.53,3.37 0,1.86 1,5.69 1.81,7.08 1.6,2.8 3.38,3.31 4.35,3.31 v 0.97 c -4.46,0 -8.99,-4.91 -8.99,-9.92 0,-3.38 2.27,-5.78 5.27,-5.78 1.87,0 3.54,1.08 4.94,2.44 0.67,-2.1 2.68,-2.44 3.59,-2.44 1.25,0 2.12,0.76 2.75,1.84 0.76,1.36 1.22,3.35 1.22,3.49 0,0.45 -0.46,0.45 -0.55,0.45 -0.5,0 -0.53,-0.14 -0.76,-1.08 -0.43,-1.67 -1.1,-3.73 -2.55,-3.73 -0.91,0 -1.16,0.76 -1.16,1.7 0,0.59 0.28,1.86 0.53,2.77 0.24,0.93 0.6,2.35 0.77,3.12 l 0.69,2.66 c 0.22,0.9 0.62,2.54 0.62,2.72 0,0.76 -0.62,1.1 -1.17,1.1 -0.59,0 -1.41,-0.42 -1.61,-1.39 z"
             inkscape:connector-curvature="0"
             style="fill:#666666;stroke-width:0" /><path
             id="path3986"
             d="m 894.92,421.9 v 0.01 0 0 0.01 h 0.01 v 0.01 0.01 0 l 0.01,0.01 v 0.01 0.01 l 0.01,0.02 v 0.02 l 0.01,0.02 v 0.02 l 0.01,0.02 0.01,0.02 v 0.03 l 0.01,0.02 0.01,0.05 0.01,0.04 0.01,0.03 v 0.02 l 0.01,0.02 v 0.02 l 0.01,0.02 v 0.02 l 0.01,0.02 v 0.01 0.01 0.01 0 0.01 h 0.01 v 0.01 0 0.01 0 0 0.01 0 c 0,0.19 -0.14,0.5 -0.56,0.5 -0.71,0 -3.6,-0.28 -4.46,-0.36 -0.28,-0.03 -0.78,-0.06 -0.78,-0.8 0,-0.48 0.5,-0.48 0.91,-0.48 1.67,0 1.67,-0.25 1.67,-0.53 0,-0.24 -0.34,-1.63 -0.55,-2.44 l -0.79,-3.2 c -0.33,-1.19 -2.24,-8.82 -2.32,-9.27 -0.17,-0.84 -0.17,-1.3 -0.17,-1.7 0,-3.53 2.24,-5.75 5.13,-5.75 l 0.03,0.97 c -1.7,0 -2.67,1.5 -2.67,3.56 0,1.28 0.31,2.47 1.28,6.41 0.2,0.65 0.2,0.73 0.87,1.5 1.33,1.53 2.89,2.29 4.14,2.29 1.36,0 2.55,-1.01 2.55,-3.37 0,-1.44 -0.77,-4.99 -1.81,-7.02 -0.85,-1.7 -2.58,-3.37 -4.36,-3.37 v 0 l -0.03,-0.97 c 4.36,0 8.98,4.73 8.98,9.89 0,4.08 -2.81,5.81 -5.22,5.81 -1.81,0 -3.34,-1 -4.39,-1.91 z"
             inkscape:connector-curvature="0"
             style="fill:#666666;stroke-width:0" /></g></g></g>  </g>
  <flowRoot
     xml:space="preserve"
     id="flowRoot3971-9-0"
     style="font-style:normal;font-variant:normal;font-weight:normal;font-stretch:normal;line-height:0.01%;font-family:Ubuntu;-inkscape-font-specification:Ubuntu;letter-spacing:0px;word-spacing:0px;fill:#666666;fill-opacity:1;stroke:none;"
     transform="matrix(0.80000001,0,0,0.80000001,402.2388,296.46691)"><flowRegion
       id="flowRegion3973-0-2"
       style="fill:#666666;"><rect
         id="rect3975-8-6"
         width="395.43994"
         height="97.548843"
         x="-1.0489123"
         y="-108.67124"
         style="fill:#666666;" /></flowRegion><flowPara
       id="flowPara3977-7-9"
       style="font-size:12px;line-height:1.25;fill:#666666;">4</flowPara></flowRoot>  <flowRoot
     xml:space="preserve"
     id="flowRoot3971-9-0-4"
     style="font-style:normal;font-variant:normal;font-weight:normal;font-stretch:normal;line-height:0.01%;font-family:Ubuntu;-inkscape-font-specification:Ubuntu;letter-spacing:0px;word-spacing:0px;fill:#666666;fill-opacity:1;stroke:none;"
     transform="matrix(0.80000001,0,0,0.80000001,446.45,296.46691)"><flowRegion
       id="flowRegion3973-0-2-5"
       style="fill:#666666;"><rect
         id="rect3975-8-6-0"
         width="395.43994"
         height="97.548843"
         x="-1.0489123"
         y="-108.67124"
         style="fill:#666666;" /></flowRegion><flowPara
       id="flowPara3977-7-9-8"
       style="font-size:12px;line-height:1.25;fill:#666666;">6</flowPara></flowRoot>  <flowRoot
     xml:space="preserve"
     id="flowRoot3971-9-0-43"
     style="font-style:normal;font-variant:normal;font-weight:normal;font-stretch:normal;line-height:0.01%;font-family:Ubuntu;-inkscape-font-specification:Ubuntu;letter-spacing:0px;word-spacing:0px;fill:#666666;fill-opacity:1;stroke:none;"
     transform="matrix(0.80000001,0,0,0.80000001,316.6388,243.66691)"><flowRegion
       id="flowRegion3973-0-2-51"
       style="fill:#666666;"><rect
         id="rect3975-8-6-8"
         width="395.43994"
         height="97.548843"
         x="-1.0489123"
         y="-108.67124"
         style="fill:#666666;" /></flowRegion><flowPara
       id="flowPara3977-7-9-3"
       style="font-size:12px;line-height:1.25;fill:#666666;">40</flowPara></flowRoot>  <flowRoot
     xml:space="preserve"
     id="flowRoot3971-9-0-43-1"
     style="font-style:normal;font-variant:normal;font-weight:normal;font-stretch:normal;line-height:0.01%;font-family:Ubuntu;-inkscape-font-specification:Ubuntu;letter-spacing:0px;word-spacing:0px;fill:#666666;fill-opacity:1;stroke:none;"
     transform="matrix(0.80000001,0,0,0.80000001,316.6388,218.86691)"><flowRegion
       id="flowRegion3973-0-2-51-4"
       style="fill:#666666;"><rect
         id="rect3975-8-6-8-1"
         width="395.43994"
         height="97.548843"
         x="-1.0489123"
         y="-108.67124"
         style="fill:#666666;" /></flowRegion><flowPara
       id="flowPara3977-7-9-3-5"
       style="font-size:12px;line-height:1.25;fill:#666666;">60</flowPara></flowRoot>  <flowRoot
     xml:space="preserve"
     id="flowRoot3971-9-0-43-8"
     style="font-style:normal;font-variant:normal;font-weight:normal;font-stretch:normal;line-height:0.01%;font-family:Ubuntu;-inkscape-font-specification:Ubuntu;letter-spacing:0px;word-spacing:0px;fill:#666666;fill-opacity:1;stroke:none;"
     transform="matrix(0.80000001,0,0,0.80000001,316.6388,259.66691)"><flowRegion
       id="flowRegion3973-0-2-51-8"
       style="fill:#666666;"><rect
         id="rect3975-8-6-8-3"
         width="395.43994"
         height="97.548843"
         x="-1.0489123"
         y="-108.67124"
         style="fill:#666666;" /></flowRegion><flowPara
       id="flowPara3977-7-9-3-0"
       style="font-size:12px;line-height:1.25;fill:#666666;">30</flowPara></flowRoot>  <flowRoot
     xml:space="preserve"
     id="flowRoot3971-9-0-43-1-3"
     style="font-style:normal;font-variant:normal;font-weight:normal;font-stretch:normal;line-height:0.01%;font-family:Ubuntu;-inkscape-font-specification:Ubuntu;letter-spacing:0px;word-spacing:0px;fill:#666666;fill-opacity:1;stroke:none;"
     transform="matrix(0.80000001,0,0,0.80000001,316.6388,202.86691)"><flowRegion
       id="flowRegion3973-0-2-51-4-7"
       style="fill:#666666;"><rect
         id="rect3975-8-6-8-1-5"
         width="395.43994"
         height="97.548843"
         x="-1.0489123"
         y="-108.67124"
         style="fill:#666666;" /></flowRegion><flowPara
       id="flowPara3977-7-9-3-5-0"
       style="font-size:12px;line-height:1.25;fill:#666666;">70</flowPara></flowRoot></svg>
