<?xml version="1.0" encoding="UTF-8" standalone="no"?>
<!-- Created with Inkscape (http://www.inkscape.org/) -->

<svg
   xmlns:dc="http://purl.org/dc/elements/1.1/"
   xmlns:cc="http://creativecommons.org/ns#"
   xmlns:rdf="http://www.w3.org/1999/02/22-rdf-syntax-ns#"
   xmlns:svg="http://www.w3.org/2000/svg"
   xmlns="http://www.w3.org/2000/svg"
   xmlns:sodipodi="http://sodipodi.sourceforge.net/DTD/sodipodi-0.dtd"
   xmlns:inkscape="http://www.inkscape.org/namespaces/inkscape"
   width="744.09448819"
   height="1052.3622047"
   id="svg2"
   version="1.1"
   inkscape:version="0.92.3 (2405546, 2018-03-11)"
   sodipodi:docname="Determination.svg">
  <defs
     id="defs4">
    <marker
       inkscape:stockid="Arrow2Mend"
       orient="auto"
       refY="0.0"
       refX="0.0"
       id="Arrow2Mend"
       style="overflow:visible;">
      <path
         id="path4037"
         style="fill-rule:evenodd;stroke-width:0.62500000;stroke-linejoin:round;"
         d="M 8.7185878,4.0337352 L -2.2072895,0.016013256 L 8.7185884,-4.0017078 C 6.9730900,-1.6296469 6.9831476,1.6157441 8.7185878,4.0337352 z "
         transform="scale(0.6) rotate(180) translate(0,0)" />
    </marker>
    <marker
       inkscape:stockid="Arrow2Mend"
       orient="auto"
       refY="0"
       refX="0"
       id="Arrow2Mend-2"
       style="overflow:visible">
      <path
         inkscape:connector-curvature="0"
         id="path4037-4"
         style="fill-rule:evenodd;stroke-width:0.625;stroke-linejoin:round"
         d="M 8.7185878,4.0337352 -2.2072895,0.01601326 8.7185884,-4.0017078 c -1.7454984,2.3720609 -1.7354408,5.6174519 -6e-7,8.035443 z"
         transform="scale(-0.6,-0.6)" />
    </marker>
    <marker
       inkscape:stockid="Arrow2Mend"
       orient="auto"
       refY="0"
       refX="0"
       id="Arrow2Mend-6"
       style="overflow:visible">
      <path
         inkscape:connector-curvature="0"
         id="path4037-7"
         style="fill-rule:evenodd;stroke-width:0.625;stroke-linejoin:round"
         d="M 8.7185878,4.0337352 -2.2072895,0.01601326 8.7185884,-4.0017078 c -1.7454984,2.3720609 -1.7354408,5.6174519 -6e-7,8.035443 z"
         transform="scale(-0.6,-0.6)" />
    </marker>
    <marker
       inkscape:stockid="Arrow2Mend"
       orient="auto"
       refY="0"
       refX="0"
       id="Arrow2Mend-8"
       style="overflow:visible">
      <path
         inkscape:connector-curvature="0"
         id="path4037-49"
         style="fill-rule:evenodd;stroke-width:0.625;stroke-linejoin:round"
         d="M 8.7185878,4.0337352 -2.2072895,0.01601326 8.7185884,-4.0017078 c -1.7454984,2.3720609 -1.7354408,5.6174519 -6e-7,8.035443 z"
         transform="scale(-0.6,-0.6)" />
    </marker>
    <clipPath
       clipPathUnits="userSpaceOnUse"
       id="clipPath3186">
      <path
         transform="matrix(1.4094791,0,0,2.1420459,152.04729,452.04924)"
         sodipodi:type="arc"
         style="color:#000000;fill:none;stroke:#800000;stroke-width:1.72654355;stroke-miterlimit:4;stroke-dasharray:none;marker:none;visibility:visible;display:inline;overflow:visible;enable-background:accumulate"
         id="path3188"
         sodipodi:cx="192.93913"
         sodipodi:cy="182.62083"
         sodipodi:rx="111.11678"
         sodipodi:ry="58.588848"
         d="m 304.05592,182.62083 a 111.11678,58.588848 0 1 1 -222.23357,0 111.11678,58.588848 0 1 1 222.23357,0 z" />
    </clipPath>
    <clipPath
       clipPathUnits="userSpaceOnUse"
       id="clipPath3363">
      <path
         transform="matrix(1.4094791,0,0,2.1420459,493.47885,453.05939)"
         sodipodi:type="arc"
         style="color:#000000;fill:none;stroke:#800000;stroke-width:1.72654355;stroke-miterlimit:4;stroke-dasharray:none;marker:none;visibility:visible;display:inline;overflow:visible;enable-background:accumulate"
         id="path3365"
         sodipodi:cx="192.93913"
         sodipodi:cy="182.62083"
         sodipodi:rx="111.11678"
         sodipodi:ry="58.588848"
         d="m 304.05592,182.62083 a 111.11678,58.588848 0 1 1 -222.23357,0 111.11678,58.588848 0 1 1 222.23357,0 z" />
    </clipPath>
  </defs>
  <sodipodi:namedview
     id="base"
     pagecolor="#ffffff"
     bordercolor="#666666"
     borderopacity="1.0"
     inkscape:pageopacity="0.0"
     inkscape:pageshadow="2"
     inkscape:zoom="0.7"
     inkscape:cx="420.06565"
     inkscape:cy="266.43112"
     inkscape:document-units="px"
     inkscape:current-layer="layer1"
     showgrid="true"
     inkscape:snap-bbox="false"
     inkscape:window-width="1366"
     inkscape:window-height="719"
     inkscape:window-x="0"
     inkscape:window-y="25"
     inkscape:window-maximized="1"
     inkscape:snap-global="false">
    <inkscape:grid
       type="xygrid"
       id="grid3773"
       empspacing="5"
       visible="true"
       enabled="true"
       snapvisiblegridlinesonly="true"
       dotted="true" />
  </sodipodi:namedview>
  <metadata
     id="metadata7">
    <rdf:RDF>
      <cc:Work
         rdf:about="">
        <dc:format>image/svg+xml</dc:format>
        <dc:type
           rdf:resource="http://purl.org/dc/dcmitype/StillImage" />
        <dc:title />
      </cc:Work>
    </rdf:RDF>
  </metadata>
  <g
     inkscape:label="Layer 1"
     inkscape:groupmode="layer"
     id="layer1">
    <path
       style="opacity:1;color:#000000;fill:#aade87;fill-opacity:1;fill-rule:evenodd;stroke:#2d5016;stroke-width:1.50299999999999967;marker:none;visibility:visible;display:inline;overflow:visible;enable-background:accumulate;stroke-miterlimit:4;stroke-dasharray:none"
       d="M 398.15625 719.03125 C 396.89971 719.03125 395.68696 719.16392 394.4375 719.1875 C 394.2248 719.3654 394.02427 719.56966 393.8125 719.75 C 389.49914 719.82141 385.22423 720.03124 381 720.375 C 375.735 720.80346 370.53519 721.44536 365.4375 722.28125 C 362.51636 722.76024 359.70317 723.45515 356.84375 724.0625 C 343.75025 747.22407 336.09375 775.14541 336.09375 805.21875 C 336.09375 821.6241 338.36786 837.38883 342.5625 852.09375 C 342.5437 853.34443 342.53125 854.58581 342.53125 855.84375 C 342.53125 900.23976 354.3588 940.13091 373.1875 968.28125 C 376.16783 968.66494 379.1222 969.12809 382.15625 969.375 C 387.42125 969.80346 392.75018 970.03125 398.15625 970.03125 C 403.56232 970.03125 408.9225 969.80346 414.1875 969.375 C 419.4525 968.94654 424.65231 968.30464 429.75 967.46875 C 434.84769 966.63286 439.84586 965.62854 444.75 964.40625 C 449.65414 963.18396 454.44066 961.74391 459.125 960.15625 C 463.80934 958.56859 468.37419 956.80701 472.8125 954.875 C 477.25081 952.94299 481.58397 950.84908 485.75 948.59375 C 489.91603 946.33842 493.91373 943.93262 497.78125 941.375 C 501.64877 938.81738 505.36349 936.12013 508.90625 933.28125 C 512.44901 930.44237 515.83949 927.47411 519.03125 924.375 C 522.22301 921.27589 525.21673 918.02582 528.03125 914.6875 C 528.41338 914.23425 528.71885 913.73869 529.09375 913.28125 C 529.17211 912.97049 529.23533 912.65546 529.3125 912.34375 C 531.2053 909.95435 533.02635 907.5277 534.71875 905.03125 C 537.12978 901.47475 539.33119 897.81615 541.3125 894.0625 C 543.29381 890.30885 545.03716 886.46103 546.5625 882.53125 C 548.08784 878.60147 549.39436 874.58487 550.4375 870.5 C 551.48064 866.41513 552.27781 862.28144 552.8125 858.0625 C 553.34719 853.84356 553.625 849.55073 553.625 845.21875 C 553.625 840.88677 553.34719 836.59394 552.8125 832.375 C 552.27781 828.15606 551.48064 824.02237 550.4375 819.9375 C 549.39436 815.85263 548.08784 811.83603 546.5625 807.90625 C 545.03716 803.97647 543.29381 800.12865 541.3125 796.375 C 539.33119 792.62135 537.12978 788.96275 534.71875 785.40625 C 532.30772 781.84975 529.68952 778.40082 526.875 775.0625 C 524.06048 771.72418 521.03551 768.47411 517.84375 765.375 C 517.70197 765.23734 517.54869 765.1059 517.40625 764.96875 C 516.96917 764.01665 516.54386 763.06059 516.09375 762.125 C 513.7539 759.97719 511.42104 757.7964 508.90625 755.78125 C 505.36349 752.94237 501.64877 750.24512 497.78125 747.6875 C 493.91373 745.12988 489.91603 742.72408 485.75 740.46875 C 481.58397 738.21342 477.25081 736.11951 472.8125 734.1875 C 468.37419 732.25549 463.80934 730.49391 459.125 728.90625 C 454.44066 727.31859 449.65414 725.90979 444.75 724.6875 C 439.84586 723.46521 434.84769 722.42964 429.75 721.59375 C 424.65231 720.75786 419.4525 720.11596 414.1875 719.6875 C 408.9225 719.25904 403.56232 719.03125 398.15625 719.03125 z "
       id="path3036" />
    <path
       style="opacity:1;color:#000000;fill:#c8ab37;fill-opacity:1;fill-rule:evenodd;stroke:#504416;stroke-width:1.50299999999999989;marker:none;visibility:visible;display:inline;overflow:visible;enable-background:accumulate;stroke-miterlimit:4;stroke-dasharray:none"
       d="m 711.96875,859.46875 c 0.88301,83.99951 43.87427,151.65625 96.78125,151.65625 38.53106,0 71.79691,-35.86355 87.375,-87.8125 -20.03297,17.5576 -44.73913,27.9375 -71.46875,27.9375 -51.19252,0 -94.96047,-38.03798 -112.6875,-91.78125 z"
       id="path2985-8-9-2"
       clip-path="url(#clipPath3363)"
       inkscape:connector-curvature="0"
       transform="translate(2,0)" />
    <path
       transform="matrix(1.0899954,0,0,2.4748737,-123.58708,353.73886)"
       sodipodi:type="arc"
       style="opacity:0.4;color:#000000;fill:#008080;fill-opacity:1;fill-rule:evenodd;stroke:none;stroke-width:1.50300002;marker:none;visibility:visible;display:inline;overflow:visible;enable-background:accumulate"
       id="path2985-4-4"
       sodipodi:cx="192.93913"
       sodipodi:cy="182.62083"
       sodipodi:rx="111.11678"
       sodipodi:ry="58.588848"
       d="m 304.05592,182.62083 a 111.11678,58.588848 0 1 1 -222.23357,0 111.11678,58.588848 0 1 1 222.23357,0 z" />
    <flowRoot
       xml:space="preserve"
       id="flowRoot3775-6-7"
       style="font-style:normal;font-variant:normal;font-weight:normal;font-stretch:normal;line-height:0.01%;font-family:Ubuntu;-inkscape-font-specification:Ubuntu;text-align:start;letter-spacing:0px;word-spacing:0px;writing-mode:lr-tb;text-anchor:start;fill:#008080;fill-opacity:1;stroke:none"
       transform="translate(65.492648,378.42762)"><flowRegion
         id="flowRegion3777-4-3"><rect
           id="rect3779-5-7"
           width="207.08127"
           height="85.862968"
           x="89.90358"
           y="285.6564"
           style="fill:#008080" /></flowRegion><flowPara
         id="flowPara3781-2-8"
         style="font-size:20px;line-height:1.25;fill:#008080">VAR(x<flowSpan
   style="font-size:65.00091553%;baseline-shift:sub;fill:#008080"
   id="flowSpan3783-1-0">1</flowSpan>)</flowPara></flowRoot>    <flowRoot
       xml:space="preserve"
       id="flowRoot3775-69-7"
       style="font-style:normal;font-variant:normal;font-weight:normal;font-stretch:normal;line-height:0.01%;font-family:Ubuntu;-inkscape-font-specification:Ubuntu;text-align:start;letter-spacing:0px;word-spacing:0px;writing-mode:lr-tb;text-anchor:start;fill:#800000;fill-opacity:1;stroke:none"
       transform="translate(-199.90164,664.56976)"><flowRegion
         id="flowRegion3777-0-6"><rect
           id="rect3779-4-7"
           width="207.08127"
           height="85.862968"
           x="89.90358"
           y="285.6564"
           style="fill:#800000" /></flowRegion><flowPara
         id="flowPara3781-9-8"
         style="font-size:20px;line-height:1.25;fill:#800000">VAR(y)</flowPara></flowRoot>    <path
       sodipodi:type="arc"
       style="opacity:0.4;color:#000000;fill:#ffcc00;fill-opacity:1;fill-rule:evenodd;stroke:none;stroke-width:1.50300002;marker:none;visibility:visible;display:inline;overflow:visible;enable-background:accumulate"
       id="path2985-8-9"
       sodipodi:cx="192.93913"
       sodipodi:cy="182.62083"
       sodipodi:rx="111.11678"
       sodipodi:ry="58.588848"
       d="m 304.05592,182.62083 a 111.11678,58.588848 0 1 1 -222.23357,0 111.11678,58.588848 0 1 1 222.23357,0 z"
       transform="matrix(0.87112813,0,0,2.6335553,-97.269562,375.3592)" />
    <flowRoot
       xml:space="preserve"
       id="flowRoot3775-69-0"
       style="font-style:normal;font-variant:normal;font-weight:normal;font-stretch:normal;line-height:0.01%;font-family:Ubuntu;-inkscape-font-specification:Ubuntu;text-align:start;letter-spacing:0px;word-spacing:0px;writing-mode:lr-tb;text-anchor:start;fill:#806600;fill-opacity:1;stroke:none"
       transform="translate(52.513038,679.25744)"><flowRegion
         id="flowRegion3777-0-7"><rect
           id="rect3779-4-3"
           width="207.08127"
           height="85.862968"
           x="89.90358"
           y="285.6564"
           style="fill:#806600" /></flowRegion><flowPara
         id="flowPara3781-9-6"
         style="font-size:20px;line-height:1.25;fill:#806600">VAR(x<flowSpan
   style="font-size:65.00091553%;baseline-shift:sub;fill:#806600"
   id="flowSpan3783-6-8">2</flowSpan>)</flowPara></flowRoot>    <path
       transform="matrix(1.4094791,0,0,2.1420459,493.65968,454.36131)"
       sodipodi:type="arc"
       style="color:#000000;fill:none;stroke:#800000;stroke-width:1.72654355;stroke-miterlimit:4;stroke-dasharray:none;marker:none;visibility:visible;display:inline;overflow:visible;enable-background:accumulate"
       id="path2985-4-4-5-9-29"
       sodipodi:cx="192.93913"
       sodipodi:cy="182.62083"
       sodipodi:rx="111.11678"
       sodipodi:ry="58.588848"
       d="m 304.05592,182.62083 a 111.11678,58.588848 0 1 1 -222.23357,0 111.11678,58.588848 0 1 1 222.23357,0 z" />
    <flowRoot
       xml:space="preserve"
       id="flowRoot3367"
       style="font-style:normal;font-variant:normal;font-weight:normal;font-stretch:normal;line-height:0.01%;font-family:Ubuntu;-inkscape-font-specification:Ubuntu;text-align:start;letter-spacing:0px;word-spacing:0px;writing-mode:lr-tb;text-anchor:start;fill:#000000;fill-opacity:1;stroke:none"
       transform="translate(271.96237,5.29808)"><flowRegion
         id="flowRegion3369"><rect
           id="rect3371"
           width="215.16249"
           height="56.568569"
           x="41.416256"
           y="678.60571" /></flowRegion><flowPara
         id="flowPara3373"
         style="font-weight:500;font-size:20px;line-height:1.25;-inkscape-font-specification:'Ubuntu Medium'">R<flowSpan
   style="font-weight:500;font-size:65.00091553%;-inkscape-font-specification:'Ubuntu Medium';baseline-shift:super"
   id="flowSpan3375">2</flowSpan> multiple (y,x<flowSpan
   style="font-size:65.00091553%;baseline-shift:sub"
   id="flowSpan3409">1</flowSpan>,x<flowSpan
   style="font-size:65.00091553%;baseline-shift:sub"
   id="flowSpan3407">2</flowSpan>)</flowPara></flowRoot>    <flowRoot
       xml:space="preserve"
       id="flowRoot3367-5"
       style="font-style:normal;font-variant:normal;font-weight:normal;font-stretch:normal;line-height:0.01%;font-family:Ubuntu;-inkscape-font-specification:Ubuntu;text-align:start;letter-spacing:0px;word-spacing:0px;writing-mode:lr-tb;text-anchor:start;fill:#000000;fill-opacity:1;stroke:none"
       transform="translate(637.74608,5.033847)"><flowRegion
         id="flowRegion3369-9"><rect
           id="rect3371-3"
           width="282.84271"
           height="68.690399"
           x="41.416256"
           y="678.60571" /></flowRegion><flowPara
         id="flowPara3373-0"
         style="font-weight:500;font-size:20px;line-height:1.25;-inkscape-font-specification:'Ubuntu Medium'">R<flowSpan
   style="font-weight:500;font-size:65.00091553%;-inkscape-font-specification:'Ubuntu Medium';baseline-shift:super"
   id="flowSpan3375-1">2</flowSpan> partiel ajout de x<flowSpan
   style="font-size:65.00091553%;baseline-shift:sub"
   id="flowSpan3411">2</flowSpan></flowPara></flowRoot>    <path
       transform="matrix(1.4094791,0,0,2.1420459,-244.46156,452.52016)"
       sodipodi:type="arc"
       style="color:#000000;fill:none;stroke:#800000;stroke-width:1.72654355;stroke-miterlimit:4;stroke-dasharray:none;marker:none;visibility:visible;display:inline;overflow:visible;enable-background:accumulate"
       id="path2985-4-4-5"
       sodipodi:cx="192.93913"
       sodipodi:cy="182.62083"
       sodipodi:rx="111.11678"
       sodipodi:ry="58.588848"
       d="m 304.05592,182.62083 a 111.11678,58.588848 0 1 1 -222.23357,0 111.11678,58.588848 0 1 1 222.23357,0 z" />
    <path
       transform="matrix(1.4094791,0,0,2.1420459,124.4849,453.32283)"
       sodipodi:type="arc"
       style="color:#000000;fill:none;stroke:#800000;stroke-width:1.72654355;stroke-miterlimit:4;stroke-dasharray:none;marker:none;visibility:visible;display:inline;overflow:visible;enable-background:accumulate"
       id="path2985-4-4-5-9-29-1"
       sodipodi:cx="192.93913"
       sodipodi:cy="182.62083"
       sodipodi:rx="111.11678"
       sodipodi:ry="58.588848"
       d="m 304.05592,182.62083 a 111.11678,58.588848 0 1 1 -222.23357,0 111.11678,58.588848 0 1 1 222.23357,0 z" />
  </g>
</svg>
