<?xml version="1.0" encoding="UTF-8" standalone="no"?>
<!-- Created with Inkscape (http://www.inkscape.org/) -->

<svg
   xmlns:dc="http://purl.org/dc/elements/1.1/"
   xmlns:cc="http://creativecommons.org/ns#"
   xmlns:rdf="http://www.w3.org/1999/02/22-rdf-syntax-ns#"
   xmlns:svg="http://www.w3.org/2000/svg"
   xmlns="http://www.w3.org/2000/svg"
   xmlns:xlink="http://www.w3.org/1999/xlink"
   xmlns:sodipodi="http://sodipodi.sourceforge.net/DTD/sodipodi-0.dtd"
   xmlns:inkscape="http://www.inkscape.org/namespaces/inkscape"
   width="744.09448819"
   height="1052.3622047"
   id="svg2"
   version="1.1"
   inkscape:version="0.92.3 (2405546, 2018-03-11)"
   sodipodi:docname="Logos.svg">
  <defs
     id="defs4" />
  <sodipodi:namedview
     id="base"
     pagecolor="#ffffff"
     bordercolor="#666666"
     borderopacity="1.0"
     inkscape:pageopacity="0.0"
     inkscape:pageshadow="2"
     inkscape:zoom="0.98994949"
     inkscape:cx="256.59963"
     inkscape:cy="545.19558"
     inkscape:document-units="px"
     inkscape:current-layer="layer1"
     showgrid="false"
     inkscape:window-width="1366"
     inkscape:window-height="719"
     inkscape:window-x="0"
     inkscape:window-y="25"
     inkscape:window-maximized="1"
     showguides="true"
     inkscape:guide-bbox="true">
    <sodipodi:guide
       orientation="0,1"
       position="434.28571,628.57143"
       id="guide3153"
       inkscape:locked="false" />
  </sodipodi:namedview>
  <metadata
     id="metadata7">
    <rdf:RDF>
      <cc:Work
         rdf:about="">
        <dc:format>image/svg+xml</dc:format>
        <dc:type
           rdf:resource="http://purl.org/dc/dcmitype/StillImage" />
        <dc:title />
      </cc:Work>
    </rdf:RDF>
  </metadata>
  <g
     inkscape:label="Layer 1"
     inkscape:groupmode="layer"
     id="layer1">
    <image
       y="423.79074"
       x="658.88837"
       id="image3085"
       xlink:href="data:image/png;base64,iVBORw0KGgoAAAANSUhEUgAAAP4AAAETCAYAAAAWO7u5AAAABHNCSVQICAgIfAhkiAAAIABJREFU eJzsfXd8HMX5/vPOXlGzZEvutnRV7jYGZHozEHoKoceh9xJC7wG+BAih9wCh99ASCC00GxLAgA22 cddJdydZrnJRv7I77++P3b3bO52qT5bgp8ef9d3uzs7OnvaZt8w77xAzYxD//2I2zbZtGrEpZ+nG pc1dlS33eA5gxlwAEgADzAAZ3/WNAUn6cQYgWROzqmqrKvv2KQbRU9j6uwGD6B+UlpbmOoVtFVwY C/AzAM7u6hpmFgABgNCPULsylHZc2qSSjfYOIrsYJP7PCLNptq3WVzsmEAjUdlW2tra2ze/2FAJQ mKmsO/UzMxElSP0vJnwjAAIzMUCAME8SMxMAylHjm3r1MIPoUwwS/2cCv9vzMlw4ilRUA5jZzcvC AGYQwdW94jbStXwATB9Uhaqf6EVTBzEAIPq7AYPIEgj5AIYwMGPy+PEl3buEa4yv3ZL4QuHE+0Jk 9gCD+CliUOIPcJS7XFNANFsqysdVVVWrOyrHwFwCfgWAYjbb/gDe6qpuCVFDYADI9fv9IwOBwMZO L9DVd+NaOWCJP8nt9mhEv2FmAaI6qVFdnOMLamtr2/q7bQMFg8QfwPC73YeDxPsAQKq8GsCdHZVV gHkmEwmYjW4QH8w1ph+OY+wC0CnxLc49ENGAI77P5TuKiG8GaFe9PyOAASEYTtg2+lyee+25zkdX rlzZ1M9N7XcMEn8Ag+z2LzmuagAUEGajE+JXhkKL/S73FgaKAZrdrfoFwjBHc4VWBuC7zsozkHTt MZ7wuz1/Q3IYjy3DePoxws1VweD93WnL9sLnds8hwrMAme80A6gHUALdpB1JhDvUSOT3fr//oC61 m585Bm38AYzKyspGYizU93if2TS7w46amZmBz43dqX6/f2SXN+CEjQ+Bbjn4rON3dgA5AHIB5BGQ D1ABgCEACgEUGef7HH6X9xQCPW+QXiPCLVKQJxAKjiwNu52CsDOBXjIeYRpUbZ7H4xm6I9o2UDEo 8Qc6BOaCsRtABWvcoQoA8zssy5gHwtEAQHF5AIDXOquaVHsN21T9UqIuiS9YCCY2bsVvCKLvdfVf CGYWQkDow3jGPuHrrur0u1y7gsSnIKwmptWSeTUJrCLm1c7WgsquAovGjRuXl2u33wOQACAZfGog GHrJPD+X56oAFgH4fbnb/RWDHgEwWUicC+CvXbXv54pB4u9AEJHCzFoPL5sL4Grj+2xYiD+bZtvq 3KFdGTgQwGwQ9jbPMXg2uiB+oC6w1udyqQDZILsh8Rlkynxi8e/KUPXzPXyWdiAoHgYXgTGLwbOI oMcEghDJa/kMwEGdXZ9rc5wFYLjRwHurQknSp6MyFHrU73afDlAFEf5ARHf34u/xs8Ag8fsYE10u rxTi18z4tc/l3sfv9kgC/4eI/rQ6GFzU1fV5bW3/a8nJjQOwM/OB5W73fxjiQIBnw4V9wRiS8ULd J9ApmFn63Z41ANygrof0WGFh+gSSA/rbh8pw9RulpaUlOTbbBJY0AYQJIJ5AjAlgLOns2oqKCjuA K4zWqaTaH+jqfgzxDYErAIybOHFiHoAuHX297LAHNAaJ3wcgIvKXeY5i4stA4oCEA02HwqCjmLG/ 3+0+LBAKfdVZXYvXr2/xuz3fAdgLoIMZWIi0Cg2sYNBcAnYCeG8AE91u95hQKLSus/qZUUMEN3XH xmcm08yXJLM2yaO2tnYLdE2mYzMmA7Zt2jQDJEoBAERvVa6pXNPVNQJyBYM2ARjR1NTULTL73O63 yt3eOCDvqQyFujRffgoYdO5lEePGjcvzeTzn+1zulUz8DoADjFMM4GsG7mPd3gR0J9hzHo+nGw4w mtv+GAcA/jsIJ2mEMYFQcEpVqPpCEL9gllDQtdQH6Q4+BoqnjZxW0FlRtr4vA2A4j4WYkPium0Rd ojIUeqQqHBotCHusXbs22lX5CW73ZDB+yeBjGHTP9rR3IGFQ4mcJ5W7vWbl2xx1gWKPmNhHhb0JV n1hVW1sH6OrptvotHwB8EEB+wXwEuhhzZ9bmEonrjd1/kmq7uCPpxkLMJU3npDGe/3JndRNE2NQg orlNLgDLOiorWJDp3APTQX6PpxBSH74jAgO6FiABBhETwNCUBYGawNLO2tBrSJQnxhmk6PY9mFkC +KZ7t8BlMNQcBt/d4zYOUAwSP0uQxC2UJP1GAl+nEr0UDAYj1nILFiyI+12um0DiIAAgXSvolPgx Kb9yKiIGwAGguDOVtqqqarXf7VkLYGy3xvMZySAeojJ0QnxYhvMIfCYYZyLh5U+epuQBQMirAPQN 8YnKzBvZZCyY7eq9Xu8oATrZ2K2qDof/le179BcGVf0soSzkfh3gNQDAQL5K9GY66U1IRQkk92hc V3XX1ta2MSfs3z26Mg8oaRr4/H5/aaeVi+RYfldDeiy4x+8LEas9vab7lXOiQ2G73Zft6oWUFwFw AgCB7zM0hQ4xbdo0BxH9JKYhDxI/S5jLc1VmehgACMhXmDqc365I/NL8ToQF3alfiIQN61SY9+q8 tEzau3HZqdQXzGHoYnODYO70pa0KhV6PampeWzyWnx9pK8hpzR9CdlsRK2KoRhgWZ1lsV+PDlbhj BNltI2FTRrXGYo935/l6A8H8hfldY94lm3WPGzcuD6DzAYCALa3x+DNdXRNtabne73Iv9LvdXfx9 +h80mIEne3C5XMNsJGoJyAejtrTG7TUCSAAARCT8LtfpDHoIesRbE2ti1+5kqCn3ePZnxjx9j28N hEJ/6rBsWZmPhaFVMJ4NhIOnd1SWiITf77dXVlZ26egaaCAixedybwBQAnC9TcqdVtbUrM1U1ufx XEPMUxj4V0zTPuhqwk65232BEewDgG4LhKpv6Ky81+t1CckroUcrMgHPwm67urKyckDmIxiU+FlE OBzeCtBzAABCaa07dAygq4B+l/cUn8v9A4OehE56JsLJ3U5LZbPNB2CYDqJTKV5ZU1MF0KcMepQE Xu2sLDPLnyLpAYCZNWI6Hfo0guEaKf/0lfqmp5cr93j2J8b/AXSyAP09T+bld1YvEQkGLjV2o1Lg oa7aEgwGawl8BYBt0CcsnM5xdZXP4zmPiAYczwYlfpbhK/WVkyJXQZ8atgDAvwC6EMAYS7HlAF8U CIW6NQRlwu/2fAo9Si/eFo8Nraura81ey3+68LvdfwbIlMiSQP9kYD4TNxOwJxhzAOhmDOG8QDDY qfnhd7uPBugtAGDQU1Wh6rO62xav1ztKSHkXkk5BALyApXJBVU1Vp5OgdiQGid8H8Hk87xAn7XgL asC4p7TG/ajVBOgu/G7vnwC+BQCIMLsyGJy3vW39OcAwoc5jnfxjOijGAD9cFQ5f0pWTzu/2fAlg LwBMLKdVhsPLe9om3TTjNwAywokhwfh7VKrXGQFL/YpB4ltARORzu0/QgA+DweC23tbjd7tnA/SZ 5dBXxHR/oCb41vaEfno8nkkC2FMCc4PBYKi39fxcUVpamutU7BcB+DXA5QBG6iMtYjER392djrLc 49mDOTG56P1AKHhkb9piTD76Fu3Maa5n4OrqcPgZ7kfyDRLfwESXy6uReBrA/mDUMuTpVeHwp72t r9ztWcTATgA0jeAfJOqOx7Rp0xxLly6N9eSacrf3DQYfo+/xQYFQ6LPOr2gPPWTbPZ8JuwEAgS9k ov3BON5S7GsBPnN1KLSip/VnAwPO6dBfkEQnAtgfAEAoJRIf+z2eB0pLS3N7Ux8T7jO+KoLpD1lq 5iB6gJ6SfqLL5WXw0cbuD70hPQD4yjxnm6QH8GFlKPRoIBg8QTIdAsBMn7arKkS/hT0PEt8Ap04Q iQMgMC7OUWzf+8p8FT2tLyc//xUA66FXdNakSZMyz6IbxICBRnQpDE70Njx38vjxJUT8F2M3Ck1J dPrV4eqPcwrypwN8A8C3VFdXr9r+VvcOg8Q3YMvJ+Q7GVFMi3ATgQwBgYBIJ7Wufy3NTZxlw0qFL G3rU2C2Mt0XPyHqjB5E1lJaWFjNIj3dg1JaFPZ3mMugIcZvtDj39GQDwXYHaQMB6funSpbFAKHRb IBS6bTubvF0YJL4BPQEjLwcAyeSrCoeOIPDlAGIA2Yhwc6079JXX653Y3TrJrjwGY+ydCBcPxPHc Qeiw2+3jiVANACB+oDejLhM8nt0BOtPYDUU17fZstjGbGHwRUzEfAAi8LzNzZSh0L0uxN4AqAABj lpD8g9/l/YN1SZmOoEdt8YvGrtfndv+qz1o+iO1CdXX1kkAwOIMEHUp2+997ej0RCcl4FMYcJSJc MpDTeQ8S3wJK2vkTvF7vKACoqqlaYMtx7sxJAueC+EGfy/VR+fjy8V3WyXw/gG0A32XTtG/7qOmD yBIqq6s/qqysbOzpdX6X63wA5nyB9yuDwbe3px0ej2eSHkjUNxgkvgUsbYk52iTlPub3WCyWJyDS vPt0MNvUH31u95zO6qwMh5fpiTJCV3UURz6Inzb8fv9IBt1q7EZJahdvT32Tx48vURjvAvSmz+O5 xnrO7XaPKXd5/lLu9qzQTYveYZD4FlTVVi2HkYNNMO0DAOUu78mK5OWJsV3CO0YoLgAMJdCLfo/n tc6Wrepoeu4gfiaIa3cCGAoARPirPleid6ioqLDHbfY3AfgAEDH+4nd5nh03blye3+X5mw0UZMI1 DEySjHl+j+fE3txnkPgW6KGc9C0AMOEQv9vzHhM/b3hpN4FwUiAY/PXQ4cP3AvgumFkgGMfFbfal 5V7vIf3Y/EH0A3wu3z4gnAIADARV4C9dXdMZttZv+RvMeBIzoSnh1Byb4wMCfUpAC4C1YLwN8K1E tKU7/qZ0DGbgaY9voKd0nmJsAPCKEndcvKpuVT2gZ9EBcFW51/sJS34ewCgAK4WmBTLWOIifJYxp wY/AcOgJpj9Whap7rd353e7LKTkqsIk1cRAp8q8ADifCfgweJwXNrq6u7jT7cHcwKPHTQJwSyLOW JP06EAr+ziS9FZXV1R/BpswgppOrwqEDV4XD1TuwqYPoZ/j9/nyAF0NfPuzdynD1v3tbV7nL+0uA zCXSYmB5dFVt1Y9V4dAvQXjQOO4Tkj/3uVydrjXQHfysYvX9Zf5pTNo9xnrvwwH8VyNc2pM4eb/f PxKqtgEAGLivKhS8rI+aO9BQCMDf0tIyeePGjbtITRsB5gKNOVdqmqJqmi0ei9k0TbOpqmaTUrOp qmoDQHa7PWZ3OKIOhyPmcDiidkVpgRCb7Yqyyel0bhhWUrLW4XBsBlANwMz487OB3+Xa20a0dmUo 1Ku8f16vd4aQ8ktjCTKAcHogGHzWWsZIDPIgAAVgFSwuDISrn+htm382xDd+mHvQfr22NgL/oTIU eqq7dfncnmoCPAAvCIRCs7Lb0n5FMYDyDRs2zGhubNw1rqq+5ubmouaWlsKNGzbkrVq5qmD1qlVD a2tqqLGxEW1tbYjH4z2+ic1mQ2FhIQqLCvXPwkIMG1bcNmny5G3l5f6WwqKibUMKC7fk5OT8OGbM mP85HI6l0DuFfk/ZvaOhz9/nbwFzQRMO5EciMxevX9+SXrbc6z2EJb8GfV1CMOje6nDwyq6mGWfC T574s2m2rdYVfNqS+EACeBvgEQCZQ3KNUU31dHcetN/teRnASQCrOa0Fw7pav20Aw7t+/frDt23d enh9fX1pOBQuWbVqZVGgMlAQDoexccMG9NffXwiB8aWlmDBhgjpj5k71EydObCkqKmooLCzc6nTk LHJ5XK8DWADgZ7WCjRUejydHYcwFsEfaqR8UTf2lmZLdinKXa4ok8a4umAAQjg4Egz3O/vuTJr7H 48lRgH+AYUTE8SdSiMtN54fP5bmaCHfo57rOm2bC7/JcDMIDAMAsD96e6bk7EARgel1d3VHNjY0H 1m/ePGbx4sXF8z6bO+rHJUuoN5K7P0BEcLvd2P/A2Vv33Xvf+pGjR60dUjjkw/Hjx78JoHtpyn4i KHd7XmLgd8buDwyuItCxxv5asPxVIBxe2O668vIRHNf+CeJlgWDw3N7c+ydL/EmTJg1RI9G3Ya4W w3i8qiZ0gVXtISLyudzLAEwG4b+BYHC/7tQ9wePZXSacfHRjIFT956w/QHaQv2HDhhO2bN5ySn19 /djvvv1m2BeffzF8xfLl0LSfh6AUQmDK1Kk4+JBfbNx5553rS0pKgiXDh785YsSIdwEMyESW3YHf 7b0BYPO9Wqdo6qzVa9as9bk8fwbYXDylFeDfB0Khf6ZfX15e7iwqKpLGCFOP8ZMk/uTx40viNtuH AFUAADP+UhUOXpepbLnL840+N5ruCYSqr+hO/dOmTXNEmlsaAWwjwqmVweB/stj87YVzy5Ytv96w fv3ZwWDQ+8Zrr5V++b8v7T8XoncFp9OJilmz5CGHHrpuxozpa4uHD//HuHHjngTQ0N9t6y7KXd7j mPgf0LW0NpZiv6qaqgWW8ycz8d+h5/RnZlxbFQ5mdUnvnxzxJ5aWjtMU28cAJutH6KpAqPquTGW9 Zd59hdBzrxPTcZXh6je6ex+/23tlVIs/NRDyowGwNTU1HbZ2zZoL1tTVTXjrzTfHzf30s5xYrEd5 Jn52ICJUzKqQc+acXOsv91WNHjv24aFDh/4bQN8t4rGd8JX5KkjIL2BmWmY6oTJc/Xp6Ob/LtTdI /BPACAAg4Jmi4SXn9lbCp+MnR3yfy3MTEW42dhtYEbtVVVWtTi9X7nJNYRJfAClr2TGArwn8Ums8 /uxAz1Lb2to6q7a29vqNGzZOeedf/xz34Yf/yWtrHdBN7jc4nU4cethhbb899tg1I0eN/N7j8dxp t9u/7+92pcPv8TwAhhnL3ygF/aK6ujrj5K1JbrdHBb0LI5CMmH61PbECVvzkiE9E5Hd5XmCwOTmm hlTb3tb15PREh/ShJcNpJmxgwh0SeGygxdJv3Ljx6I0bN1732Sef+J575tlhDQ0/GS12QGD48OE4 /sQTtsw+6KC6kSNHvjpu3Lj7AAyIKbJERH63+yZm3GQcaiOm0yrD1RkTf5SXlxdyTH0NxD8GQqEr s9aOnxrxAXMIL/wvgI8EAAJWirhj31V1q+rLPZ4DmPEO9GWoAcY/mPg1sBIj4gMAPhPGhAoD68D0 F3IoT/TzwhL2NWvWnLd58+ZzX3vlVfdbb76Z/1PxxA9k7L7H7vGLLr44NH5c6dulrtJbMUB8AT6P 5yRiPA1j5R3DiXxrprLGenzcm/H6jvCTJD5gpFK22f4Dxr76EV7AwP2kr1STA7AKorMCweBz1us8 Hs9QIXEVEf4IIM84/C+y207sJ+IX1YRqrlu/ft1vnnj8cfe8uXMd/dCGnz2mTpsm/3jpJUGP1zvX 4/HcAGBDf7fJSOX9NoCRAMDgF4XdftaOeA9/ssQHAJ/PVwRNziNgZtqpKBFO6CwZgrHiyQ0Eyh8f dp/Tm1RL24nxVVVVtwWrqvd95OGHXT8uWTI4b2IHwO1x49JLLwtNmTrlG4/Pdw2AUH+2R19zT74L 0DT9CP9PiTuPzjQ3pLvweDxuAfyGmOwgriwNud9Nf79/0sQHjNh6TfsfGOXGIZZMh1aHqz/u14Z1 jPxQdeiuRT8sPPL+++4vW7Omw6XuB9GHGDV6NC6+5I+1FRUVP/j8/gsAtIuS21EwYlJeBXCEcaha gI/qTc59v9t7K8BXArBqjuuYcHlVMPiKeeAnT3wgsVLplwD0teYZz1XVhE7vz5VKMmFdXd05tWvq Lv/zzTf7V6xYMSjhBwBGjhyJm275v+DUKVNeG19WdiOAfhkjJSLF53bfA8YfjUMNBJ5dGQr90N06 rBGnGcBMuK4qGLwD+JkQHwAmuN2TJei/MIbviHF/ZTh4aReX7RC0NbbtFqoLPfr3xx6f9M7bb3e6 Uusg+ge7VlTEr7vh+srxpaXXl5SU9Dj2PVvweTznEfNDDFooCQf0ZMQpObkMzOCjhN3+KavqaWDc Bz1uAAyeUxUKvfyzIT4A+Mp8s0honyWmN/Z/uO2owOrA4/Pmzd3z/nvvHRmJDKhRw0GkQQiBk089 deuJJ56wuHzixDMB9Et+Bb/bfaBGtDwYDK7v7jXjxo3Ly7U7jBl9/EkgFPqFea7c5ZrKJN6HPgNw kxJ3TPlZER/QfzSA3oce7ggCX1gZCj3axWXZhr0mFPq/ykBgzi033VxWV9dv5uMgeoGhQ4fi2uuv X7Pzrru86/V6Lwcw4KKm/GX+aXCgIRAI1CaOuT1rAIxjYFFVKLiztbzP4zndGD4EwH8ecMQvLS3N zVeU0TEhRuQ15y3vzZRYY33z16Gvic5MmGN1bPQlmpubpwarq1/+61/umDL/669/dqnNnE4n8vLz kJ+Xj7z8POTl5UMIgebmJjQ1NqG5uRktLS2Q8qc/tX7KlCny//58S2B8WdklI0aM+KC/22PC5/MV kaYtAFGbzencW18MBvC7PK+CcAIAgGWFdWZfRUWFfdumzVUglAL4asAQ3+12j7EB1wJ0DgxpzUAL Md6w5Tr/YD5cd2H0cE8B2CIFHdFRWGQ2EQqFrl24YOGFN//pT+Pa2gZEoFi3IYTA2HHj4Ha7MWny pJYpU6ZGho8YHs3Ly4/a7Da22+2w2WwQJKRQhKYoimaz2VttNkeTECISjUbsqhp3aJrqZMnOWDwm YrEYxWNxGY9Fua2tLb86GMxfsnhx8epVq3JCwRB+CnMNFEXBZVdcsfGQww59x+PxXAB9XcV+Rbnb 8zQD5nJffwyEgw8CwASvdz8p+XMAAOH1QDBoXZ0XfpfnWRBOBdA0IIhvZBb5FwwHhBUEPFMZCvZq 3Tm/x3OuYP5iByxFPCJQWfnag/ffP+v9994f8M47p9OJnWbO5EMPP6xxypQpnF9QQAX5BXZnTo5t SGEhOxxOzRgRyd7LwVgLolqhUMOW+k3Olubm4obGxpymbY15a+pq8xb9sKj466++yh+oZtGuFRXx W267dZnb7T7e6XT2a14Av9uzAXrQzyqy23ayBvz43J4fjLgWZk3sVFVb9SNgSPzNm5fpw960sN+J 73O5DiIS/waQC7BKoOeZ8C0DwwDsFYnFTqyrq2s1xjrfYRZ/qgpX/a9fG23BunXrflNbU3PPZZdc 4l2/rtu+mB2K3Nxc7LLrrnzYEYdHJkycaBs+fIQoGT5czcnJUZn7N/8dA00ALSCWoXXr6kZt2bLF Gw6FRn74wQejv/7yK0dz88BJflRQUIA77rpzzZSpU+8qKyt7sOsrsg9/qd8PRasE9NRbVaHqy1PO u7yngPg5ACDQm5Wh6mPTj4PwQL8SX59Xbw9Cj6vfIAUd0lHqYL/b8wqAEwFWmemG6prQnf08Tu8M BoNPvv/vfx/2wP0PDB9oNu30GdP5pDlzWg2iK8OKizWHw6ligCe6ZMZmAubH45Gta9eu9dTX149d tnTp8H+//c7opT/+2OP88X2BY48/rumsc875yu/3n4AdHPuv2/dyCwBBjDsqw8FrreeNXBJhAKMB aLApnkAgUFtRUWHfVr/lA4B9rIiZ/Up8n8tzOxGuBRCFVCoCNYGlmcr5PZ5zwXgs7fD7djV+yoo1 azb3fUtT0dzcPG3NmjWvXn/NNRMXL1o8YBx4/vJynHr6aequu1bQ8BEjtSGFhXH0gugNcUkbI5I2 RSRtimpUH5W0MSqpPqJRRGMSpHtNSRArBAgQFAIEAQ4BjM61yTE5gsfmKjwuT5EjcxRWeklZAuqY 8NnGteto46YNe8797LPSf7zyavHmzTv8z56CMpcLd997T2VpWdmZI0aM+O+OvLff7f5RD/HlpYFQ aHr785bsPpaMvT6fr0iR0rM6GFzUb8QvLS0tdiq2EIAhDHq0KlR9YaZyXq93JyF5PvRZTHUA8mHO rmPUEvEJlaHQ1zuo2aitrf3VsqVLH776iitLW1raJULd4Rg/fjzmnHJyfJ999lVGjBypDR1WHOuu JrQ5JunHrXHx47aYsqxBFcsa4mJdmypiWVZeFAKGOwWPzrXJ0TkKTyi0yV2KHdrOw+yy2CF68ALy cgJ9XlVVOaFuzZopb7z2etmnn37i1NT+yT6k2BTccuuta/fYc88bXS5Xt7M4by/8bvf1MNbqI/BZ 6RmkPR7PaIWxDgCI8H+VweDN6XX0G/F9bvfvCPQSAJDU/JnWG5s2clpBJK9lIYAJAGJS0L7MvFFh ft1MuwUgDvC1gVDonr5uc3V19aVzP/3s6jtuv31Uf2pKNpsNx51wgnr8iSfQqFGjZXFJSZy589TU UQl8vSmqLNwSU5Y2xMWyhriyvk3rd9W5LN8mZw61y52NjmD6UIdm7zqYWTLo85bmhnBdzZqZP/yw 0Pfow4+M2bSpf1LwnXfBBZuPOe7YZzweT9bmy3cGXW2v/96Y2NMElocHwuEvzfN+v78UqlYDAAx6 qipUfVZ6Hf1GfL/LezaInwCAnNb8IZnG68s9nmuZcTuAlGGLcpf390z8grUsg39fFQq91Fftra6u fviFZ5/93QvPvzCsr+7RFQoKCnDuBefLQw49lMeOGx+z2eydirqNUUkfr4vYPl0fUb6qjymtqux3 oncFhwD2HO7UDh2Tqx42Nkcd7uxSI2gRAv8KVlV7Fi36Ycp999w7fsP6He9kPeLII1r+eOmlH/v8 /uOxA4b8vF7vbkLyV9CtrlaAboJNPM/MQ0mTT8Bcf49wXiAYfDz9+v6T+C7PH4lwPwCQ3VaUaU1y IhJ+t/tGBiYHgsETzOPlLu/xTPwPBloE8DYTCqpCoaOzmajAAkcgEHjjr7fdfvDcuXPbDTfuCIwe MxqXXHa5nDVrFo8dPz4KUIfPuWRbXHy8LmL7bH3EtrQh3hM9esBBELDLMId26Nhc9fDRTq2swNbh cxMQY8I7teHQyB+XLJl271137/CIyZ1m7qTeceedC8onTDgMO8Dp53P5jgLJV0k3fzNhmS3HuWem GJj+I741hJDp3M6WAyIistqtRhbS5wEsD4SCU/uwmUNXr1z5wRWXXz4ku+bvAAAgAElEQVRr+bLl Sh/eJyMmTZqEy664Qk6cPFmOGj0m2pHtvjUm6bWaNttLwRZ7qEX92c76m1xol0eNy1F/58mPl3Ts G9AE4b3a2pohy5ctm373nXe5a8LhHdbG8aWleORvj670+f1H5OTk9GpJrZ5ATzMnHkbaohwEfheq /XxrSrqU8/1FfH1cPrLWmFCzujTsntrdZBh+t+drAHsA9GkgVH1wX7QvEom4V69c/f6F5583ed26 dX1xiw4xduxY/Pm2W+XkqdO0YcUlMXTgmV+wOaa8GGyxv7e2zRYdWKOJfQqHAI4cm6ue6s2P71Ls 6MjcYQJ9sraudsjHH300/b577hm1oyZJFRUV4dHHH6v1eL0njRw58suur9h+eL3eicQ8G0BUAZav Dga/6ax8vw7n+d3uJwA6W28JXqsKhX7HzJ3arX6P5zAwPtAv6ZsJOA0NDRXLli59/cLzznc3NfUo Uni7kJefh6uvvZYPmH2gNmrU6ChnIHyzKumt2jbbS8FW+4rG+M9WuncX04vs8hRfQezX43PVnMy/ BjP4o+pA5YT777nX98nHH+dlLJVl2O12PPb3J+qmz5hxbHFx8fyur9ix6Ffie73eicZQnZn88hWy 207vKOeYHs9PcwFMBDgwdPjwKdnKM25iy5YtU5ctW/beOWec6dpRyS6FEPj9KafIk089FePHl0ZA 7W34FlXSk4EW+xNVLfam+MB30u1oDHUI/p07P35+eX68yN7eDGDGlsaGLfNXLFu26w3XXe/bEfa/ w+HA408+uWbGTjOOLioqWtD1FTsO/R+yW+abRUJ+An2ZZgAIM/i66nD4FatNO8Hjmakx3jITDRDh 6M5y6vUG0WjUu+j77z8+8/QzvDtKLdxrr73k9TfeiHGlpXGnM6ddTxOXwPPBFvvDq5scm6N9S3i7 AMoL7NJTYJPFTsElDuJih+ASp+DhTkWWOAUPNWxrKSVJANL4C2kMAITGuKT1UUkb2jSxPiJpfUSj 9a2aWB/RaG1EUnMfd1pFDsEXlA+JneHLjzszagD8w9q6NdF/v/3O9IceeGBUX69A5HQ68fenn67d aepOv8ofmr+oT2/WA/Q78QGg3O3ek4GPkgk0AABrAawmUB0T75bMqccqA6f1wdDd2IULFsw949TT JuyIwJwhQ4bgnvvv02buvKscUljYTsPRGHgt3Gp/YFWTY20fjLc7BTCh0KFNLrLJKYU2OaXIrnkL bFIIPXhfSkBaAvllF0H9ZgMFEcj4FEI/rhiRfQoRalpU8WODKpZsjStLtsXFioaY0hf+iTG5Cl82 uTB6XGmuKtr/epoaj324fOmPu/zx4ovL+3qORU5ODp5+9pmaqdOnH5Wfn/9jn96smxgQxAf0oANS tZsZOBX62GQmtDH4uKpQ6L0s33744kWLPz/ztNOmbNu2LctVt8e+++/PN950E5e63G2ZPPX/rmuz 3b28yRHMsofeX2CTB4zKUfcf6dCmFNk0CEDVGBozNMOhkPhuEF0ax03JnultSZIeBun1TyKd8ASd 9Cb5bQpBAWAjAoNQ2aiKH7bGlE/XR23fbo4qahZfyQlDbPLqKYWxX4zJaec4ZsamtXU1W+++867y D99/f0j27toeuXl5eOrZZ8JTpkw5oqCgYHlf3qs7GDDEN+HxeCYJpivAXE4CY8AYDmA+E16Pqerb fbCWXeGypUu/OPO003eqr+91RuNuweFw4Na/3C73O+AArahoWDspv65N0tWLtjnnbYhkJf7fLoCK Yoe230inuu8IhzYqV5EaM+JSJ7vKuiTXGMYmDdIDjGQHYApk66siAVh7JTLYL2AlPIEIBuGF8alr AzajE7ALMj71jqA1zvT5ppjyyfqo7YtNUaUtS0FH+45wanfvMjQyJldJf+Flw7Yt330+b96kG6+/ YVw02ncp7fPy8/DMc88Hp02fdpjT6Wy37NuOxIAj/g5G3ooVK+aec8aZu/X1kN2UqVP57vvuZY/H l9F590KwxX7H8iZHNhx3Uwtt8nhXXnz2aIeaoxDHpU52lQHV+NRYQpW6hE+SP/nJ0IkukZT+ADLG BZsdgCnldfKnSnqzM7ARJY7ZhICNAJvQOwK7INiIYFcINr02fLUpanunLmL7z7o2m7adr2qBXfD1 Uwtjc9x57XwpmiYXB1avGH7VFVeWr161qs9GSwoKCvDsC88HZu68817ox2W+/38mvmP1qlWfnH/u ufuEQ+E+czgJIXDFVVdqv/ntMbK4pCSa/nPXNKviykUNzq/ro9sVIOQUwGFjc+PHluXGJxYqMi4Z MYPwcQmoBtFVZoP8OslVQ/prADTJCXVf/8ws8a3WPhmKfmaJr8/cEwQoQlfvFSLYRLITsBlktwnA RgJ2kewAHELvBBxEaIiCXq5ptb8SbrFv2U4n574jnNpdOw+NjM1Llf7MqF+/bs3au//61+nvv9d3 qv+IESPw7AvPL5g4adLe6K903v+/Ej9UXf3eRRdeeOjKFSv7LCJvWPEwPPHkU3LSlKlRm82W4j5m AE9XtdjvXNHk2B51doSIs7fuB3nb74+I5Clgk+wxCcSlRMwguZoi8U0NgCHTJL2Woubr3007H9BN g0xIOvWSKr4wjpu2vfkpDNLbBSXUfrugVMKLZCfgNPYdgiBA+HBdxPZCsNW+ZFus13+7Arvg66YU xn7vaSf95ZbNm358+YWXJjzy8EMjelt/V5g+Y4Z6z333vuP1+Y7pq3t0hj4l/myabQu6giOEECOh ojCqRRcOhKWpa2pqbnz0wYcuf+ONNwq7Lt07+MvL+dHHHuMyt7st3SFeH5V0wXdbc+Zvh5TPjTTw VRVjo5/ceL79urvuizgLh7JOeAmrtI9Jg/RgxLQk+XUbP1XqMwMadHLLNJUfAKTxGOmvDBlz8s3v poovDHteMY6nS3slIfGRILxNmMS3fopEB+AQBKdCcAqBxVvjyj0rmxzfbe59B7DfCKf28KxhkaFp IcDNzU3Bzz75ePh1V18zpq+G/I4+5rdNF/7hD/e63e6b++QGnaBPiO/xeIYqzNcB9Afo8+hNtAH4 DzG9FZHxN2pra3d4Rspt27bt//FHH71y7VVXj+mrexx40IHypltu4VGjx7al/76Lt8bFOd9uyV3X yyG6IaRy6bKP+dGLTmr9et5c2+oVy8Ux5/4hFpMSMU2X8FbSxy2qvd4J6Oq+ZmoCCUnPCc99u4ZR hmMZwIn/0o5B1wQUk+wm8VPU/CTx7ZRKflMDcCoCTkMLyFEEHAohVwj8d2PUdveKJsfqpt6NgpTm 2eSTuxdHJhelTgLS1FjtggULCi4897w+y71w/Z/+tOGIo448e9SoUVlZ9767yDrxjSmzD0LPmdcZ VgjC71YHgzsyqGHU9wsXfvm7E070qWrfrJF53gUXqKeefjoPHVbczj38j5o22w2Ltub0Zty6wC74 QNsmtfGtv9ENd/w1IhU77r/peudRp50dHzp2vIxqOtmjLBHTOEXqJ0mfqu4DSUKThdmUgebdJn67 Y8mj1leNYbXxkZD0pgmQIL5CsJNIk/YKnArgMDqAHKPM++sitvtWNDl7E/eQaxN8985F0V+Oy019 MRjrV61cRuedc46vL8b7hRB48pmna3bfY49f7EhPf1aJb0ThfQnADgBE+FhKfCkEGpl5GEDHAphs uSQG8HU7IokGAFsgEPjfKXN+v/vGDdlfIVlRFPz1rrvU2QcdpOXlF6TYjRoDNy5pcL4QbLH3tF4C 8JvS3Php4zh+60XnOG946LGIyCngqNRw+3ln5F700JNtUU0iapHyUYu6r1o6ADbqs0rwhHPOekNk JnpnbMpM+tQvnNjl5L7hPyAk7Xx7mrrvtKj6TkX/npvWAeQqAjmKAIHwYrDV8eCqRkekFx3s+ROG xK6ePCSWEvTD2BoMBlrOOu30SWvXru15pV0gPz8fL//j1RVTp03bEzsoh1/WiG8sWf2DEVK7Xko6 vrqmul0uMq/XO0NIfhBmogAAIJyWvo59thEOh5+67uqr53wz/xtntuvOy8/D3596Wttp5syYkpYc Y1NU0rnfbMlZsKXndugou+QbZxZHZgy1affferNzxl77qVP32leLaozNWxvopb/c5DzxlrsjMWa0 I78mU8hOCUJbiJ6mwrf7nsJ0alfGBGf4ZhI6w5kUwutf2/sOEqRX0ux7IeBUkufMDiBHAXIU/VyO EFjfJsW1ixucC3vxu+8/Urf7rTH/RGirrgo0nHnqaf6+GPo95thjY1dde82rJSUlp2a98gzI2ngl aXyVQXqNCCdlIj0AVFdXL6kKhw4E6EqAdbWKcc/EcROHZ6st6airqzv1jdde/3VfkD43Lw8vvPyy tsuuFdF00geaVHHkvE15PSU9MePQIa3qq/uPbJlcqGjzv/1WaWhsJv/u+2iNcYmGuIYVPy4SoyZP 0xpVDQ0xDQ1xDU1x/XtTXENcsu50Mxxs+rCa6XAzNpied0s56wbrZnjsrddb94HU8ul1mfdud8/U 9pFRZ1wymlWpP5vxfI1xiUZVQ2NcQ1Ncosk8FleNT31rVjUMzyX5wl7FbTdMK4zm2nqWj+TzjVHl 6M/rczdahg2Zkevx+oc/+ewzoVGjR/ekuk4xdOhQ3PfgA7UX/eHiR0pKSs7OWsVdIGsS3+/xLAFj OvVgAQyfy3MjEf5P3+MnA6FQ1h88FotN/uLzz/9z3tnnlGa77tzcXLz4yityyrRpkfSsOCsbVfG7 L+tz63s45jykdTOfO7I1dtQeM+MRjdEcieLP55+Re9bt90dsQwo5KhkRTeKTZ/7mGLfzHtrwydO1 qKar92yIdz30JdXLDpjHzTLJZmWy863He4P0t4q5/XE2xD7DKv1hOcYpDkOnIpBj2P05im73O4Vu 4+cY0j/HUPlzFF39z1UENrZJcf2SRuc3m3s2iuLKt8l/7F3Slj7eX7l65ZazTj+jbHtNxuOOP67x zHPOWer3+08FENiuynqIrEh8n89XBoae5pfp/e5eV1bjvp0Bw7lHs7PRljQoVVVVr152ySV9QvoX Xn5Jmzy1PemXbouLE/7Xc9L7NyyRV+dURw/bfWa8WWU0xjW8+OiDjj1/c3xc5g/hRlWi0ZBydatW iDzPRK0hpiGi6bc3h9XMoJn2EpaMyDpqJ7kTcfboQPr3ajMCepDhXkZbKYM2kNQikm0lAqKaTEr+ mEUDsPwu+qeGpjijSZVoUjUU55J8Zs9hbZdNSrPdu0C4RRXH/G9zbqg5dbSgfMKkoieeejI4cuTI nvx5E/B4PPzK669VXXzppVf6/f69sYNJD2RL1dc0M+MtpKTF3b1sLs9VwTDWImfXbJqd1Rz14WDw /+7+618ntrZkN3QgJycHz77wgjZl2owopYXfLtoaFyd+tTl3a6z7pLcTcPC2xeqvUBuvOOhQVX95 VQTDNWJNdZXwH3CI2mSouOamSkZcKAlSUJoqnyRbkuyZ1fwMhDVUe8XcqAebcU1C9c9YfwZ1P60T SO0sKPF8qR1AcmtStZROoElVEyZBY0xDs6rhDF9e7PHdituGZJiv3xHqWlVx3P/qc1c3ppBfmTxl WsHfn3k6NHTo0A6vTYfD4cDV116z8Ymnn3pr1qxZs8aMGdNhurm+RlaIL4CQ+Z1s0teji4l/NK9c W1Zdlo32GHAtX7Hi1M/nfZ5Vu97pdOK5F1+MT99pZjvSf1MfU3731ebcxh6QvsQp+PKhG6POhR/i wBNOjjerGpoN6fXp6y/bZx13ctyUZk3GixzRJGDaw8gkMS0ETpfo6dIcZsCNOYEmuYGSpoJpPnT8 z+JETKvH2im072wydwKJDsty3vq8REBEM0ieJu2bVZn4vfR9RnNcolmV2K3Err25T0mbr5PEnenY EJF0/Jf1ucsakhmPpJS55RMnOx59/LF1NlvX8mrvvfeJvvXO28tOmjPneI/HcyyArd29f18gK8TP i0RWwbDESFq89d0AsRhnfI20Spk1d+mqVatevOmGP43PVn2A3mM/9+ILsRk7zYynk/7LTVHllPlb cnqSaGJKkV27f6pom/fYnbaTr74h2mw6qVSJba2tqF29UgybvJPWYrzULaqExpwgY3vimNK9E7Ib JE0nuUlsKymVTKp7h1vH15kdg7VDsMbydyjpkaFjs3QARPpL12JR9ZsSqr6GJlUne3NcRZOqHzMd f6/tXdyWaapuR9gSlXTil5tTJD8BhdNnzIzddfc9HU62KS4uxiOP/a32tr/c9uCkSZN2Ligo+Ly7 9+xLZIX4i9evbwGwHACYcJnX653R7YuJDze+zctWJN+acPjM5555ZqctW7I7g/e+Bx6Izpi5s5o+ u25loyrO/nZrTk9i7g8fm6M+VFHU9uxtNzlOuPjyqObI5SZVf3Gb4xrmv/+O3bv/IWpjXPdoq5KT 5NYkhM2Wao+n2+1Ilfymyt4Z0VNMALT34Hd3o7R60jsGsyNI0QiQZhogvb5MGkJSq1ElJzQiU/Vv TpgCSY9/U1yiOS4hCfzArkMj55YP6fYkmYaYpNPmb8mx+m5sdnvJPgfs13rRxX9ISeRARJhz8skN r77x+peHHnbYAePLyq7CAFhi20TWhvOYxSXGV4eQ/KrP55vQ1TV+t/tAAIfqFegJNLOAobV1dde9 9uo/sjq76oKLLortuc/eIBIppK+PSjq9h5L+uLLc+NVT8iNvvfCMfcIuFVqJd4JsUmVCHW1SJZZ9 9pFt7L6/iLdp0iCg5SWPtJA9Jy9JonSyWSS/SXbT29/V8FqS7OnDeV048jKWRbvOKHNHgIQ2oKS3 E8lOqMMOwHIsosmEqm8O7ZmdQLOqb01xiRbj+8UT8mKXTuo++de0quL0+Vty2ixvQUFBYclJc+Y0 Hnr4Ya0AMHHSRPn6m29UX3DRhZd5vd59AFR3t/4dhaw506rCVZ/43e4XADoZwGTS5CK/y3t1VU3w kUwLXXg8nkkK6BXof79qtonnstKOysqnbrjuOm826jKx9z77qCefeirl5uanvCARCZwxf0tOXWv3 Y8TnePJiZ/lyY+G16+mHb+YrZ//1wUizKtGqSbSoEq2qRHDxQmWIt1yy3WlIZ0qxtbVIG+y5uWza 1OZxMkkEg+xIht1YywHWgB7jfHKn3TBet3o0oxDDWp5SoveY9C+JoTtziI/IcowTbQcD0jjH0CcR McE0KvUbMSdvyASQHq3YLDUjz4CAxnoGIX0CkjHdGAok60OgZ/ryYjkK8V+WNXbLH7R4a0z5w3db c57YbVjEbGtxyYjia6+7ft3BB/+icJeKXee5XK5zAPR9OqdeIqtedLuqXhq32cugR+XlgvhBn8t9 jd/jeQPM/2JW4iCtkICjFeA0gGwAYmB5fFVVcLtDFTdv3nzQhx98sF84FN7eqhIYX1rKt99xB9Jj 7xnAZQu25iza2v3gnNO8ebFTPLmx5jjj2fvudB51waWxZk1Dq8poVXUp1KYxfnz3LfuMk8+JmdIw QVqjE9BaW8mRn88Jld0oJwALeZNkNw9byU4Gcayktpa1nmhPfOuRVAc5p+0kQ9/M75Qcqyed0CZ/ 2XgWc0YgE+vPxIAE6eWZjevMMpTSKTDr5STY8IkkJyHpsw3NmYgMZhvM1CJz3LnxHIVw85IGZ3dc /h+ta7P9ealw3jS9KPFejB47duSvj/7NtUKIR7pRRb8iq8RfsWbNZiI60OfyXAfwzdBNt7FgXAzQ xbppnPIaxQl0YWU4vDALt3fU1dY99NCDD2UtAjA3Lw9PPPn32MjRY9o5ge5a3uR4d21bt3+/c/z5 sRNdObEWlfH1F3OVwlFjZf7YMtkSNyS9IfHbWlso3tpMRaPHy0zSXBCgxSNwOHOTajKsEj5Nulvr SCN7R9Lfes56PjNST6bEgyXIngwdNgU0mwLbKMSUqgno5Kb2HUCiY7B2AASZJv0FE5j00GWNjXpY p7lUjDyCUCEh9CxDAI4enxPPUYiv+X5LDlPXStxTVS12V75NnubNjxvtJlXiSlXgn3l6stgBi6yn GGJmGQhV30qEfQC8gg4mHTD4DZLa5MpQ9ZPZuG84HL7qjr/c7s/WrDsiwt8ee6zV4/NrSBNkb9S0 2R5e3eTobl0XTSyInujKiTWpGra0tuKDl5937HvyWbEWTRpBJrp9r0rGpmWLxaipM7WEzZ6wt5NO OUdOPtRoW4qDLJP3O9X+pTQ/QAZbvgPPvalNdLUR0q7rzj2ApA+DzPF6pD0HJTqtFC3HohElhwkt 3n+jE1Qlo1HVYPWjtKRs+hBgqyaxu71Rm7HyP90a6ivNs8mJQ+wpZYlQYlO1p9FxwtgBgaxKfCsq g8H5AOZXVFTYG7ZsmS013lkQ14PFRiIZWB0Krcji7Zx1a9b8/ttvvunx7LeOcNU11zTtXFFhByil J1nVqIprF23N6ei6dJzoyo3/drwz3qTqw3HvvvCMY9Zvjo9HhR0thpOpVdNtTSJg09LvFdfes9Vk 3rokYc0XPm9IIUebGild1beaBel2vVX6mzZ9qqS3yG5LOaSf6wTpSr813JbJWoYs9n2yHCMp6cmi BaRqAEkfgDRVfYv0l4adD9bJr2sDuinQHNdghqib5kE6Vq5cKfazb1N39ebT09Udz6Y80ZUfv3H6 kFhBhnkABNo7psrrHTZxSzd+tn5BnxHfhLHSzUfG1icIh8NXPnj/A1lz6E2bPl0efcxvnQ6HM8WZ pzLwxwXdn0+/90inerY/L9qi6vbmloZmWv3DQuX4E06PmZKmRdUrM9X2LVWrlF1PvSCWnrQy0QkA cBYVcrSpgUR3CN8V2dNIntIJpLG9M/Jz+nmmhA8uec5C8sRxShCbkEp0ZOwAkqq+ICPtt/lQxrGE nW+o/sJi9zer0nAWJpVdawewYP58Zfe999b2nVygrWuT9MG6VHNuVI7gO3ceFpk9ytlpWh4CrlBV 9UubzfZpZ+X6Cz+Htdeca+vq5iz47rusSHubzYY777k7PnRYSbshnruWNzmWd3O9Ol+BTV43JT/a qjJaVBUtqsSnb75in3HEb+LmsFKzKg31VSdlvKWR7Dm5rChKCukTY/GGqmtT7JCqmiR2QjPIrOon jifqS1XBU9Rri5qeCNlF+4CfdJVdSSufKQaAQO3akzqUmBZtmHi+1GHLpJZDiXsnhjHb/W7J38iM dUhR8zUt8b05rmHJwgXKhJm7aq2axB07F0V2GZZclPPX43PVTw4a2doV6Q2QZPEEgKLuvC87Gj95 4tfW1l5x/7339SxMuBNcde01LWUuj0yftfhNfUx5PNA9u77YKfj2nYe0McCtmhFC2tqGld98pZTu OVs1XzTry0gEbFz2gzJq2kzNfHmtL7Op3pqEM6VbJtvWatu3t+ut9raFuDCCaBKkpqQdbRIPlmuB 5CQa85+lvDVWILVuS/vSOyvzuTN0AOkBO9ZjgLVTS/WHmPUnf1N9PxP5f1y4UCmbPFW2sUCLKhGT Eo9UDI3sMsyhPTarOPJQReoc/a5AhJFxVd7Y3fI7Ej1S9dPXqR8AcNbW1Px+4YIFWZH2kyZPkkce dZRNUZSUCKsmVdKl329zym48uVMAd8wsbCu0ETfFk9Lkv/96zT7xF0fFW7QMpIf+oq5bvFCZ8Isj 4+2G6dL2Tc3Wen1S0lHCRrceS6jwlFTJk8N/yfOWQx2q9tbj7VR8y3FT1+dEe42DDEijftMrT2SZ ipuYXpz06qfY+obHXhrVCbLY/qwnhDCVedPuF4adr3v/9X3TzNJ/H4n5H/7bdsDRx8dbVA0EBQpJ FNgF/2Ofkjan0tGv0SXOisfxot2OH3pbQV+gRxLf73Jd6/d4lvjd3tv6qkE9QTalvZ466+7W4pIR 7YYFblzS6FjTzSCdq6YOiZTlCWna7y2ahuZYHMs+/8xWtu8v1HTSWz3QDTXVYrh3ojTVW8VyLiWM FQCYKcX+t6jD7aV7UvW2SvWEumw5n6JmIyn9UyLtMkr21Ei8DhN3wHpdsj2Jckiey/Rs1mOp0j/p +TfDf1M7TouT1LJv+lqaIjGsC1aJkvKJslWVaNM0tKoSbYa3P96dXj8zBAm+D9nXrgu6LtIxOmyM x+Npl2aEQUfp8+75gO25aZbgrA2H53y/cGFWpP3Fl1zS6PP7FaQ5pz9cG7G9WdParXvMHuVU9xth V1s1PQKvTZNoVRnLvvzCNnaXPbQ2QzaK9JfYeIEBghAiYc/Dci61LMHudLKMRy1kQQoJrMdMez2F 7BmI3ukUWusmLFum8110Bpk6AQVp/gek3T/jcyYJbCU4rJ1XJ+S32vzLv5xnK91lD60lLmFqZebW pulbb7nPzLvG49rpvbu6HbyrVq78srGxsQZA7xICoBPiC8ZV5W73mea+kRprdwAgwrvp5cs9nkNL S0uLe9uQnsKQ9v5s1OX3++Uxxx6L9NRZEQnc/GNDt8I4hzsFXzIxP9qqmVKCYXYASz5+z1Z2wOFx 5qTNbn0ZBQFqa7MejYf29nyCEJZOIL+4hJs3bRLtHXqpowHpsftkJQ46ILnoYgN6XjblPpTaCQAp WkDyeZO/QfqYPmX6XShZBkituzPyA8Cqzz6wufc7RE38/QxJ32r53qb1fllfJroZwPYEl9lDodC9 b//zn1/MOfGkvY4/5tih4XD4mt5W1iHxCThSgh7wlfrKAUDa4oeb5aUqUohfWlpazIz3nIpto8/t PiO9rtLS0uIsdwpUW1t70vfff58VaX/zrX9uKBkxsl3AxROV3VuimgBcPXVIRBFgUzVsM6RFfX09 xeNxOEtGsFXKW0lPAJo3bqDCkWPYSvr0staXfYTbJ7eEq0RHnm+rhE9Ru5EkYWI/jaypTrzebwTK 2BEkHHgWQibNi2QnZD5L0nHYnuzW57c69bpDfrMDjjU3Uqy5iWyjxsoE4bWkmt+q6SHVbVIi2ssF /AgYqmm4tTfXbt68+eAfFy9edM2VV110+aWXjdu2bRsClZW0frkOSTsAACAASURBVP36w9DLQKGM xJ9UVjYWwAQC8knRXq6oqLCz4KOM0zVVtVUpa3w7FOVwowGKQHsnhlNRzncqto0+l+fzbGTZaWlp OfStN950bW89ALDb7rup/vIJuUhT8eujkv5W2b102L8pzYlPL1K0iKYlXhJTWiz99ANb2f6HqOl2 farNSmjesFYMGTVGAkglhHHeaisTCCUur6wPVYl0FTgT4VM83iapOiV6JvW9G1vaNYmpth11BJa2 tusALCZAqvpvIXvCVLCSm1Ket93vCEuna9QTmvehzXXAIaoqGW0myQ3yRzRGqzGHos04rvXSvy1Z zonHsVsPLikJBAJvv/Tii68ed8yxU9KHrF98/nl3fX39Cb1pS0bir6ypWQumcwBoAFVs3bz5WLA+ fZZB7dR8ApmdQl1lKJTBe0lHwlhBaS7P3e6Y2nAofMkH7723Xc4NE1dec01zUdHQdm26c3mTo6Ub 8+vH5ynyLH9+NGIQPaIlX5o2TaLmm//ayvY8QE0nuqmGmx1By6b1VDByNIt2kskqyZIv+iiPT24O h0Q7GzdNwpv3S6jyKSp4KtFTyEeW+ii9Y+hgIwsRLaq3+azWe1J6WzrtAFJ9HO07tfaOO+tICIB2 5De1BDXSSrVfz7OVH/TLOBGSfz+Vk5I/cUz/jGzHsr0k+OrulKupqfnjf7/473dnnXb6rx687/6S TKHoH334n9yNGzde3Jt2dKjqB8LVfydJvwXQCmYBIxCBIFOIb0jww6CffC+9nvLy8hHoxDfQCwxd vXrVxGysY37A7Nkxt8fbzoZf0aCK12u6lvYE4OopeVFmTqqEpqRQJdaHg6JgzDip2OztSJ9UNfWX tHnjeho6epxMV0fTX2ZzP69oGEeatlGKlLeo+ukSPkmyDJI9RWonSdxR7H7XW1pnYa3HvKe1HR10 AFZVP0X6m7+jtcOz/F7pZlR7tT/Z0a341yv2iUf8Nq7YlEQdpsYWMdR9U9pHNOgdwHao/Mx8SDyO mR2db25unrpy5crv7r7zzttPP+UUz5o1azqsS9M0fDHvcw+AqT1tR4fEB4DKmup3pKBdCGJn41Cr RjTXWmaNO7QPgKEAQLK9NsAxLeEb0IjadQw9RU1NzfkvPvf8dufmIyL88dJLmwsKhrSLwvrz0gZn d/6us0c51fIhdq1V1RDR9LTXutRntGgS6xZ9q4ydubtG6S+c5eU1DbSmjRtE4ajR3LUEs6i8QjCk nn8vQWB0Tni9s0mT6JmIjh6q+V1eZ9zfqhEkymbuANKHMBPS39JJpdv96Z1BO/LD+H0BRLZtoXVL FirefQ9Wrb8tgMTfsi1Bfn2IL6IxIur2efkBeUWGgznV1dWPvfvvf398wjHHVrz/7nt53anpmaee GhkIBG7uaQs6JT4AVFdXrwIM+57wSTAYjFjPMyfU/EirGm0fl2z6Bhi11dXVS3rawHTU19cfu2jR oi7b3RWOPOqoNrfX206qf7ohqvxvU9f51+0COMOXG4sYksGUEBHDRoxLxsYlC5UxMyoSkXiZ1H0Y x2MtTZQzpJCTL2AqyTO93MPGjuOtdbVJB5+lXhLGZpHuVsKnS+IECa0dQsIBl/aPLFvaP+tYf7vO IK0TsJojHXUAmaV/+07Quk+W/ZTy+o9thBQTFr/6lGPm8afGiESKs49In9EX0VgnvJSIGOsZ6Ko/ IyJlIq15j0H4ZTSKiebuhg0bfr1o0aJFl19y6dk3XHvdmJ4s0Ll582aEqoO7AOjRys9dEshf6vcD RiMzSPREpwB8lr4EdkVFhR2MQ4zd7Zb2AKZ9Pm/edkt7RVFw7vnnNebk5FL6uYdWdi8s9+jxufFh DiFNspsvRdToAIgl4m2tlFNUxOZLZ1XB20kl0+mW+Ey/JrlvqvYj3D65KVwlyCSTVcoDKYS3SsmU YTOkqudJcqdK7EwptNNTb6f6BgBrZ5DihEPHHUDit4LecaVL/3TVv6POIFVjSj6/Sf7GuhrRsHaN GL/LHlrit0373dtMkic6d0by762Tv5eBPcJmk5cDGF1ZWfmfZ596+pnjf3vMxB+XLOmVQHvuuWdd 69euPaUn13TpYWehHZlgB/Ftfrd7XxC9pwH/UVRlOBS9U+AM9vu2+vp9ACrSz/N22/eVqyqv/cfL r2x3oo1jjjuuqcztaWfbL9oaF993I6NOoV3wSe6cWMR4Mdqs0t6QAptXLVVKyidrVilsfRFF2mfK C99OTU0lPYz6Rnv8MvjDd4rY/+AUoiTqsdwvRdsADE3DIIKxb751ZP1M/pc4ngnWGXjg5GUmLfTw Wr0N5go5lCHhRiI0F8YsPGGE5kr9YYQxBdeckqswQyMkwnClGe5rTM8VRvIOwXo9wrj2u+cfd1TM OTtGRHoGDegdjDSyGIMJBJ3o+lLdEnYiRAUhKiSiAogKglMw7KKzXyYztjU0nLz4h++PuOG668dt 74o8387/RtmybduJo/8fee8dZzdxvQ8/M5Ju296rvbvuDRsXwNgUY0w3zUDAdEw1JRBq6DWQUEIn Np2EahIgVAOhY9NsXHDvXq/b9n6bNPP+oTaS7t275jr5mt97/JFXVxqNRtI8p82ZM+XlT/T2mpTA J4QcJox0FQHkLHCcJYGrXNK2WI9MqUeic9CpxuTMcEzTPu9to5KQsn3btnGNjY1pVgNMP316xOfz B93Hn1/f2Stpf3a/UEyhhLfH9VVsIsYwUMRYn54SYMfin6TyUeM0p9ppAxpwqrGAUyqlAr3p2f/x 7TcUAhjDck7Qi9c6AW/B3W6L67xJRNhJBXwxF56VTUdgBGbMPuNE+M0TMwBuJsUioODgFOBMBzGE KbnJwK+f18FPjHYRY55+/ZoVlGtxlA3bSzN9OTrYje8kHIsbKr6+ii+Hz2IEFAplUCQCHyO9Bz/n tLZ2U+Ch+x8gn3z8cUXqC1KTpmnYsG59n2HDhuWil3n+UqoWgczQNMbJ4SB4DMB6+wyRCVBj/dLY J/2r+z00oLp68rhx4/Rlsi0zgHyebursxsbGk9+Y83raav7QoUNRVl7hkfYNUUY+6EUqrYqgxI4p 98UjhqMnaqxMq2/cAl/DyqVS6fDRmntoyQacU7oDThvTrXa6QU8AhLJzeKSjjZigd0fEuUHvXj7L zmgLWx0Xzid12iXbzPs6rjPVfGI9sySWg+DFdz2zfV+v6m+123gvkutakfG5TacfXnzKv985l8YA 53exzROvyh8RtDrT0RdjHDGD4feCSFNjfeCtf74ZPGHqsfSTjz/edTWhB3pzzpzyHTt2nN7b8ik7 +rJly2IAPjW2K2tqaoZInB8DkKkAPwB6wkwAGEzABwPk6tbGpvaB1dVfA2QQsHvU/ObGxks++/Q/ vc58k4xmXHRhU25eXoBzZ8DOSxu6lHgvvt/vqgJxlQFRjVv2vGnzmYtdqOEuQiUZkk9xgM4hhZFM 7bc7qgnCRKA3O39eeQVr3lpHiyr6MLHDOkwIgbmIx+ECHMzjrvMiJeqt7hl6uvQ31HlR+guJNIih Xptqu55kU0iaaUh/ZmbTMVR/RnVVwFTLQUyTwZb81Mi6I5ocxNAClrz/llK+12itoKqG6ZoBt+5v qvzWvlk3ByIah48yfaFORhBlOgPwUWMRT5Zc5Y9GI/LG9et9f7zuOrp69eokPSs9+v777+S21tbT S0tLn+pN+V12JmzcuHHVuk2bHlq3aeMhXJIKCSenguDvAMTVRLK5HdQDIknpOvbk+oaGinTz6QUC AYwaOUpzgz7OgFc2pR63z1YoP7TUH48yDVHD6xtl+kq1ESP/PQFB66Z1NL//IM0tcUUHlC6hBS3A I6Ht/WSgJxToP2qctnHRAsmWgG7Qmw42O2GFNbPOvEaoN2HsviDBE2oDiTQDV10EzjJiUJGlAcB0 BNrvyf08FMQYrXA7Se33lExyN2/aQNfP+0Leb/qMWCLGKx5zf4eoxhDTdJPOZPpRjVtSP5bAyUcI Idu3bQ0+/sgj/mnHH/9fAz0AaKqG9es3VMIYWk9FaQ2LrV+/vm3t5g1z1m3ceM76zZtKCcH+APkT t1bABQAsXbdu3ZZ07gNgvy8+/7wozTow9dhju8srKjzjo+/UheWmXqxse2xlIM65Lu0jGkPUCOQQ I7kIATrqNtPcPtXMLe0h7Ls7JyB2Oufwm5NpiGovQb/RY7WNS36WRNVe9NTbfoPEgHeDMCHQYZoR xAto4gwI8jAGuBiBUL/YJvMZIYA9YfASega/4zex28TicXz2+H3+KVfdHKHmYqPG/eH6TokYBwBE GEeM6cN7MWaaebD6gujhb2tt8X/1xeehk084QXrumWd223L0PdE/33i9orGx8bTelN1tOfeMRTO+ N7ZbBlYOrOSSdjQB0l6qdtOGTWd88fkXuzROmYhOPvV37ZKseEJ9X+ohqaJJMgGmliuWtI8K0j4q SHsCoG1bLak5YIrt2EMqqaKTE+BmRydehkBtuzevqIS3N+wkIuitzkrgtH1d93R2erEdxNBA7HYl I+IoICyMAVj58gjMhBuAnTc/cX58wgGNwOGV180B+zeD/vym2i+q5maSTeZS87/820P+UceeFM8p KdPzfHDb2We+d/Mam0nDzNsJQnSAByhBlHJEqa76RyUNfiYhqnH4KQflmrSldrP/3rvvod98/XWq brVbad78+XJzU9OZhYWFs1KV/e9l2a1bWwdgtywD3NnVsW/t5s1p1VFTU4OKikqPrbC5U6VLW1MP 4R1U7FezFIm3x1Vd7eOmyueU9gRAe10tzevTl4vgAgSJIu4nkC4mgOEqb4Je9NwTAuSXlLG2ndtI fmk592btcTEPTzsSMwLrr8AAIB43yC3HTO++6eDnRmlxuA4JGIA53AcCSNaQnXFzy4ufGPyUCUN2 RK+Hghur7hCsnfe5HIuEybBDjtJTbXq890YGH+gMiBj3J8aQHjHqIeCIMA4fY4gyw9bXOGISoHJO 2hrr/e988rH0l/vuI/H4/36ZPE3VUFdXVzZo8GAfgB6XBUs7Au5/QNmbNm1OW80/74Lz64uKS/Lc xz/cnjpKDwBO7huMxZht10VNVZ8xD3jVSJgowQzulPYJgA4blIAToCCi6myr9wSCymvU1X/vsdq6 nxdIiVJ1ubPUuNVtUX0363aq6sY/Ym9E2MTjzrJu/4Fxf7gCdtzmB7zqe09TasX3IjI0EN3T39G4 k8x/7UXf4VfcEPUyQec+rPuJzNCpAUQ1W803//piYaV+9bLQ+WedId9z113/J6A36euvvi4EsE+q cns88Ds7Ow//5KO5nmxAu0qjR4/WEuUL/KgXQ3jDcxStJpOymJGCyfzgcWbnZjc7CNc0UFlxSGnx vKNjCcdkn49rsVgCae3s3NbMNqETDxg9lq1fvFASr/Uk5Ehg24tJLmzb3A10eIGWbBMZhoMRwON7 SJQ1iLja2xP4reeEkymKdTAwvPeX2wNHXHptNJCRkWCtQec+IJhXgMEInH4YABbz91HQsnBT8NXH HvSdecopZNPGTam60n+d5n3zTfaWzVtOTFXuv55XP13avm3b9Hnzvu31qjWJqLJPH+Tm5Xnq2B7W yJJeROodUupTY6ZDh+t/44ad7+gcANq3bqFZZRWWY8/bebxqPQGQkZvPu1ubSKCkjLvter2DJ9Aa DNAUVvRhTdvqqMfrb4HaZd8nVPXteHWTxNEp8XgyErmqFUEHPe2lruozqyAh+np49ppaeru5pa7b v0GE/PliZJ1lo+uqPTOezSzzzUvP+qpGjtEqR4zUdP+CM5jHvU+gJ/EkCQJ5xPMq5xhKI/7WJUvl GbfcTNrb23vxdv43tHHjRrR3tu+fqtweL/FbW1sHt7Wlt57m5MmHdhUWFXu8+R9si8ipfK0EwIRC WTUlfUzTHXoxpncAUeKBELTWbaJ5faqY07ZPLmVMIIZy83l3SzNx2/W2NEsMerOO3OIS3lq/gyQD vUPKQ5DMgmpOhONWcI9Ytjeb0XYxdt+uN5EGIKj/sLWkxJIejud2ZhkmdsgyIVg970t5x5pV9MCz LhSG7rwOTgj7CaW+sE8A1ASINAXNodk3XaPc8Psr9ijQm9RQX1+MFJl59nTg912+bHlBupVMnjK5 CyCe6be9UfOHZCtajiJxU8rHLWnP7A5n9BACINrWTEJ5hdzurMmlPWB3wsz8fN7d0kQ9zEFUYWGD SKyHEmD4+Inqsm+/lt2gp2I7HEzAC/ikYE90LAHgE10nMoFEDCDhkJ0L7N7kJE7GSeF8X7W/LJa+ /9drysm33xeRKHWeFxlFkv1EzCBDpuSQQCTQ+slbgRknnUB/XrAgVdf5P6P58+blAxjdU5k9Gvjb t28/4eO5c0vSqUOSJJSVlntA3xBlZGFzajV/YpGixZlt25tbnHGH3Wd2nHh3GL6MDO4+7gG0q9Nl 5ObxztYWYp/3qviJnIRmJx15wCRt+fxvJDfo3aDS67DVehHwDhsdgj1uOeCSb2JYrvN6mxG5GYDZ DqtdhFhtcJsnScHv2q9fv45+/LeHfafd+UDE7w8YUt35LtzfJRHQIXyDvQJMGdG8IXjrjLPkp/76 ENHU3iyk839H33z9Tf6WLVuO76lMUolHCJH6VfYbtqFuwzLTKTagunoC5xKFjHrGWP3GjRt7NSHg 11JbW9ukFcuXk9Qlk9NeI0eisKjQA/C528Jyb2ZUTiiSVZUbkp7r6r3K7GWf3R0wHukivkDIlspI Le0JgIy8fL515TIzX4QlvdzXuSWTOU6fkZXFCSWIdHSQjOxs7ga9BWwDbIBbc4C3fVbb7TYlI/FV mmvXEdgLZJgTdMRxdkoAzik4YfrwHBcm4cA9RAfLfgeBHpYLp73ftmM7efMvdwbOuOsv4YzsHC7a 9eZamuYzcW6+T+O8sG8ymDyfRIfHWwIvP/YEmfv+e2n1w/8lrVu7Fp0dnQf1VMYD/AFV/c4G4TP7 V1WPAhjhnNuz2Ah5hIDtA03vcAOqa2IArwdIPYB6cOwE4fUArWcU7+lJPH49RcPhXUpKkIiOPOrI xoys7Ay3R/+nptTSvjpDYiUBmbXFVcSZDnhT8ltghxMQajhMfMGQ6RayjieWMLYdmZFXwMMthsQX 7PyEaioRzgkMYcSEA7Wl876WJhw1VXWA3tICqHU/iSSqU7Brid16u83J+745C0+Mz+eWQ8zJAMyV gTVuMhYKyhkYEcBvBPOAEBAhJh9mGbONxrHullby8m3XBU6+9tZIXmk5Z0wAO9GZkTm2b47PJ2YG gCJR7EXD/q2LfpIvuvN20t2Vdgza/5Q452hubuox574F/IqKilBI8T0BgvPsGuAMteWeBP4+gFQC qARg9xBwEMY3AkgL+B0dHb2KO+6JRu29d4Rz7pncs7gl9eKXBxb7VJXr69ar0KW9qOZbMBBAHQ93 wxfSVX2HJIVZnjh/G6DML63gLdvrrDeY0KFnXefMKmPeZ9ykKeqrD93rP+DoqapzyMsGfbIIQpMl OKW/LfmFR01I3HgJ9oQcOzKPwNYCzIk1gC48OEyPvQv8EKfY6hNyzCAeAmGfcES7wuSlm68OHH3R FbGKQYMZA0Aohz6IoJc3FAMH0C1JD5uRVyhMLu/a6fvzLTfTFcuWpeoieyzV1dVlACgA0JTovNX5 Qz7fOxwC6AGAOCbeALuycgeX0ssuAOTs2LkzK50KgsEgiou8LoLWGCObu1IviTUqT9ZUpi+PbU7E MNV8AE7JbXTmeDhCfBnBhKoziBN0xiGAEPiDQR6PRIhjqM2+jWMEwD7mHAHIKSjgka5OosZiTknu Bj1xe/mJ95joCEyxEfdvoQ7qar87dsDZLuoq7x3WFPdBABbX8NKt1wQmTjs1PnDcfpqH0QrvXPzf XSZLpmRf2hlc+9Y//OdOO/E3DXoA+GXJ0hwAQ5OdpwAwoKbmVM5xmH2YLyPgl3GNnmseGVE8IhOA pfYzTg4H+DTOcRWc4YGvg7MD+tb2/T7Ntg9dsnhxWhK/pl8/ZGRleWLzF7XEUy55Som+1LVp06sc MJmABXa4pCEB1EgX5GCGFTqrn/BKWZhgE477M7N4pKOdJJP2Zj1uqS3WMWzf/dVl380TvPsJQG/W a4LQBXhHQA9MDSP1po+nux2EiSbneIcj7WeinnNeH4TxDjnHy/fcEhiy3wR1zJQjVadHnlgjIhDv A/Nim7ENklVf8eZfglefNV167m9PEcZ+/Yo5ewqtXLkye+fOnWOTnZdHFI/IRAgPmQcIyL+647Gz 3fnzooH2EmFoML5h84ZPzR8DqvtlAfxu42ffdZs3z0u34Vu3bh2/auWqjHTqGDRoUCw3L9fPORxu 2J974c2vCklMoYR3q7ZDz/zr1n1t6UHAVJVIkiyc9jr1HFJIqKu0/wC2c/1a2n/MWGv5Hmdntzs2 EkhAAmCfQ6Zo7z43S9nnkMmqCSKxnmROv0Rj3I5Zha7nNcmcjAOYDjw7Bt8sywW73XTucWPOvG7T w3b6ASCcAoQZc+iNdFjmMxv7jDG8eu/t/qLKSjbp1LPiXJw/D+EZjOfg1vx/u44CP6WVXY2B2X95 gH75mTdP7G+Z1q9bh67OzvEoKXk00XkayeiaAsBMAdSgEn6BG/R6SSqq+fXiqT6bq/4sTMWdMLBf v8ORJnV2du6/bu3atOoYOWpUB8wMTgIt6gXwh+YqmsYZTI++xjm0BEE7xI0EByCdpwBnhzSPmOVK +w1kO9avpkJVXmkv1iHUb+4XV/ZhzTt3UC4MN4rj84k9/d5YebeUthNtOofxJBBvsk2hDpHhWItu CPd1S3fAO+ToHM0AYtEIZl1/ZaDP4KHs2Isud8ytF80uCFJfZLI+Ssgw0h1o+eqj4HnTTvh/DvQA 0NnZia7u7qSpvSgBxps/CPgjSYfoCEkKfH11HP6A+Ztzftmvb7JOkXC4sqOjI606avr38yTdAICl bakde4OzJKYy3fOsmsN44sAAce5aG6XOsS2HBDUv03ccIAZB2YBBbMf6tdThyBMktvU3ibQ39wfv PUZbtfAnR+y+CAyHHW6CitjANAEvWUyBgFBzg3P5LQrrHKUGM0jAAExfgHlfh6YhvCNqPm+C90YA dLW2ksevuiQ4/ujj1Mm/OyNuA5p4rxM/g3HPcklValpqg3fMvEC+97ZbSSTiyBb//xT15BynnOur 3ACAxug3yQpyJgCfO4EPABKl1pIfnCOtoBtg93j0c3JyPNJ+Q4dKW2Opk24MyZE0zVDtGTcZgCBV 4JLmBkJlf5DHI90kkWQ3/7glkHm8oKyStWzfSu3r7P9NwFq/PcCwwbTflCPUHz/7WPaAnjhB75DG RHSkGV5+A+h2Tj8jEEfYNzfzPDG4hshQrHsLbfGkGHecM5/NKfUbtm6hj159aeD4Cy+PjZtyuArx vsLrdI6A6FuGTOlQrS34zQuzfOecfBJdn6Y2+VugxoaGLAAJF+aQAQwxf4QioQTr3ulEoM3jkK4g hBdyTja4z7M43QZJN6WpsdxWGpRRX9+QVuINSimys7M9kn1tR2pvfkgmvE9IZu0xVVfxDQbgWSzR JV0oACUY5PFwNwKhDKSSQnBJOyIREErBGQMk6pH6el1OCQ+hjHm8z4BBbHvtZqrGo/D5/E6gi2WJ qWYLHnyzXdTdZucYv0nmK+HG/9zY59RgHkwPwDEn2TgDciDkxTNsb2JV5ji/efVK+sK9dwTOu+Xu SMWAgYwJNrvZCNHGh7FPCUEfdPsbli2TL77pRtLa0pLkq/+/R8uXLcs67vjjB8GZEQuADvwWAKUA 0J3ZnQGgM1ElazdvXgFgRbKbZMQ7t3dJutOfpw/8AStXrEhrKK+ishKhUMhjy2/txbLXAzJlZkp5 DcZfbifT9Ehx4acvGES8u5uQQnDiLQET7G4pZVJBeR/WuGUzLa2uYW7TIDEjsCWcXkZnGPtMmqz+ +Nmn8oFWMA8c0lNkHg7QU+IxQdzmhrlvBusAJlaN9NgCA2CUgOoeOw/4iZ4pwwa4AVajGXr6bFAs +2Ge9M9Zj/uuvP/RcE5JCbcy5RjlidUgY0zeOJ4rQcpp2+l/+E930+/nz/d8iT2RCCE4eNIkXlxc 3D3njTfScm7XbanLBhJr3xSANd4uc172a2/SEQpVmvsESG86HZDX2NjQq7XDktGAgQPUvPwCT+78 7ZHUan5xgHKNM8uhp3Ejz7vLxHeDEACUYIjHI2G7EJygS0SiFC8fOJhtXb2CiqVFdTbRNW7PPQAc eMyx6rdzP5BF8IpAt5xrEIbtHKB3Jr5MGLsv2O+Wum+WMesGrFRhnhl3rva4HZkAMH/ue/J7Lz7r u/aRWZH80lKbmbq0HfH9+CghVfGOwOoP/hk484TjfhOgLyoqws233so/+Hiu9vBjj8WOnnrMjnTr bG5uUpqbmysTnZP1MFv9h6bP6PGoBb0hqvEjzHoYSFpu0nA4XNjW2tartemTUVVVVRchVHHn3tje nVrVLw5QphkSn8OW/BZ5Bb11SAmGEA93uvgB8ZZNwggGjN1X+/Ll55VxR0y1FnK0L/barsIpS9pT AmRm5fBgRhYad2wlJWWVpvbrUfVN0IDadTunuzqZTMJGc2JF6ZmhuyCw4ukBQ/U3wmjdaa9FlV6U +u+9+Ixv3Ypl9PrHZoUln4JEkt7UNMy9IsSV+JaNvmtvuJ6km67tv02UUkyaPBnnzZjB+lZVsZKS 0pgRjQyf35/2TKDm5hZ0tLVV5efne87JIGS99fo47h5RPOLNZfXLEqr7PRKBNRuIEv5pT0VTUUtL S1m685xzc3M1zrmHeWyPpFb1C/yUc0G9Z8ZmSkIPCYd8wRCPdXdbGHEAlHgvssoYQTtFfapY09Yt HuaUUMMQpKSHEQCYfNwJ8S/+/Y5y2iXmkFfi0QBRvU+04qxbq3CTPSHHDM01NCQB/BS62i8xPajC kcceRqJNoqv/ne2t5Kk7bvWX19Swq/781wiIBKan7TCDoTSqqwAAIABJREFUb+13YjCBDInQnPaG wMtPzyZv//PNlN/4/5KKS0pw0SUX84kTD2ClZWVqIBiKA87BoMxQiCe5vNfU0tyMmKomHNKTpbjy sKbELoWej7siHOr+CyHk8kRpqpLRwOrqmwAy2fipMUq/TKfB0XC0pCNN4Ofl5TNi+54s2h5OreoX +fXlICw7FUnUfMcRnXyZWTzW3WUfI8mucf8Q7t+3mtVv3kDLqvsxT5yAqy43I4BwfNR+47W3npvt MyPSHdIeTnXfBKAH9Akkv5vMgB0CWMkuIQTnWDPp4JwF554RxwGsWvyz9PyDf/ZNv+zK2Ij9Jmim 1uWOsddvozOswlinf/2in+Qrb72FpDsE/N8iSikOOfRQnDdjBuvTt69DuicifzCoUUqRThRhW1sb OOcJbXx59dbVjf2rau4gBI8AAAG/tH9V9bDBVVXnr9682eO9F4kQQvv3rbkAhNxjHeT4x/r169Oy 8VWmFqUr8XNycmAIEqFpwM5Ib1R9iWlc5xr2X69H3/yjS0rjviVlvG7JgiQBQjqK3M4zNw3aZ39t 9Y/fSWXV/RjgDXBxOxb0epyhuQBAKMXwsftov/zwvTR6/wl2NKBgY0Pw3jvnynttcg+jMUhcIcde 1FJHqDl7zgKrqfIbdQlzdvDmM7N8Kxf/TG989KlIdn4B52Y0n+HkA2EOsZhFNElq2Oa/57Zb6eKf f078yv+PqaS0FBddfDGfcMBEVlpargaCQY90T0SKonTm5eWhqSnhHJtekaZpiMViCX1lFAD61lY/ CafHfpJK6NKB1TXP96+untGvX7/BAEAIIUOGDMkaWDmwcmB19WX9q6pWg/DZME02jh81ipm/uqUm cV6YLvAzMjM9OktDlJHeLJNV4Jc4N1ZX5Ybs7436QwDkVlSxtrotwli8uJP4IocEBzBw3Hht3c8/ JmQe7rLJ6jeZypQTp8U/e/dtxXMv/Ys5pT1MBuN0Bjrj7MWgHME5aDI01/h8opEEuDSJ1uZGcsel FwUpIbj1idmRvIJCnuCRrOfyU0oKupuD89/4R2D68cftcaCnlGLKEUfgxddeYy+9+U/1xNPPDFfX 9A+boBepMcrIrHVdys1L2hzrOfr9/o7i4t7PiUtGkUgk4bJzMqBH3g0YMOBIqOqrADkAAAiQwYHz CMh5hHEMqK6J9K+q9qmRKNWv8nya7RLXTly7sTbtUCiNscxoNJpWHYqseCC+vTu1fR+UCc+UCW+J 6aA31XxuBoAnI+NcKC+fh9uaHZhMeVNXPRnZ2TwWDhOmqqCKYp/w3M9r3xNX0eKyCt7V0YHujnaS lZ3NHRqGOFZvaTBiGK0zsEbMGmy3gxg58XXRLSbTMG12gDtVdAp9IQwAi76fL7342CO+C6//Y2zw yNEag22fiY4+cz9bjSgNG1Yr11x3Ld2xPW3H926l0rJSnHvRJXzUPuOZnF+owh+KSwrR53cIbFzl wCfbIvKcLd3yVzsjssaBvfN8DmdednZuR1FxMVauXJlWm2LRqGdkCxDm469bt24LIWRS/6qqOwBy E+D5xj0tWPkFo+SqVZtqt6XVSoPi8XhaWXUBQFG8eTSjLKkgsShHpty0580KdDufu0CcqKrk1TsA 2gtO0HfYXtrGZUukgaPHab26jjh3xbZOOvoY9csP3pOPnX5G3JT6icwNUQpb9RjHJOIsY5Ku3usn NFfCDNsWB8xsuObcd6ZpeP7Rh31bajfTe2Y/Ewll5hgr3NjvWfyAQQpKG3cEZj/6CPnogw92iZf+ N0mSJEw+7DAcf+bZzF9QwppDubFaEJYHCTmcWwuKAMCy1jh9o7ZbebcuLLe4oke7VefvQMAXLywq jKBn3KWkeExNiCVHBh7OuQbg1v5V/T8mlJ0FjoMBDE5WKef4BKB3r9+8/tt0Gudp7G4AvuxTPMDv TaotMyyWG54XffzeeWEqIPqzcni4o5VkZOcmvWOqnjtk3wna6p++kwaOHmdJgt6o+O4bEAATDjtc vfOyS4LHTT8j7imQpO6EEYLE9vqbZK6Qw7jOHMwgJ85tkLuBvK22lj5w683+A6Ycps74w7URfdTE ZfcaF1BCEOpu9S+e/4187513knD3npENp6ysDGdfdAkfMnZfttWfpX4fJvEsRpEb05Drky2vnflc l//UEnh3a/Lkrt2uwTuNIZjYlbprxL3+bQBJcu4ZQP4WAGpqakplRg5ilPcjjDSBsEZKaRNX1a3r amvXp92yBBSPRtMHvux9NI+DLgFJxNkBTeveTBclUrLPklvRh7XU1dKMYblaT5qBdSaBu7F6xCjt 05ee9iW7iUe974EUxY+Bw4ZrS376QRq973jNEfnnrlWQ+mLwjgh6B5ANkU6MITwP0AWRr8ai+PvT s32Lf/pRuuzGm6M1gwaznphxQIvL4W21vutv/CNduSJp0Oj/jCRJwqGHH44TzzybkbxitppkxD6L aoyFueEL0knsMyY1pliUtVtznecsqLHUI1CpiJDE7qmU6aU3bty4A8CcdBuwK8Q4T+l5T0XESFXp rDf1dabETycVQ055JWvdtoVUDhuZsmwy00FSZASzcnhr/U5SUFySUnMgsNueiI4/46z4U/fd4x+9 73iHBgF4VXznDWwm5R7qM/PoMUOt52Z5oceb9X731VfSi3970nf0tJPUv77w9zCHHdxjFTR+KpQQ NNcH3nn9Nfrc00//T1aa7YnKy8txziUz+ZDR+7AdgWz15yiJx1UOxm0xbbYwUR/TtaGe7xH2husE NS31CNSvpT1yJR1ZkjyLW+4qxeNxz7P1Bsy7+qYTfc/c8r68dsG8Xq3J11NdYw87Sl0w933liLPP 73EBxN5QfnEJD4VCvHbDelrdv3/SV5FKxJhefzPnHSduHd2uhxBg+9Zt5JH77vXn5OXx+2c/E8nM zuYMAE/SAiXardQuX+q75frrSWNjY6+fb3eTJEs4dMphOO53p3FfWV9tg5wZmxfVGItwJ8NKQm5m 1RNTBoCIykzXiHEB9fNe+KRSESEkYWP/axwlHSKSlHa4oqrGPS+tdxJ/1951oiqL+g9kDevWpP1u h084SF3xw64zkGR04lnnxt/6+ws9hkKnfEVcV2UZF8JzE1AsFsfzTz3lu/vGPwbOvWRm7Lo77opm 5+SkrJ5SCa+//PL/GegrKytx89338FmvvsH6jhqrrSkb2rWIhSKtMW2XlEDi6kcSTQxAkzicDj5C oGos9ShUKqI0cZa5PRL4yu6R+J6XpvaCg5oqWTovRgkEuRaPE6al5l88yT4ASIqEkqoatmXN6qTN Ea/pkbFxoP+Qoayxvp60Njd53oMZpei9jtvnuf2XiVNwXfj/Yd630sxzzgrmFxbxx198KTxw2PBe gybm88fPv+SS/2nSO0mWcNSxU/kzr7/B7nruZZWPPjh8+513cWnfyZHe+IVESibZU6n6ABBxPDWJ aqr2/y9VX1KU/wrweyPxJZdqJA51uamnof2igYO1+nWraPmQ4cxbSr/Sut5cTSJBbfscPlX98aN3 larBQzyBDeYVHD23RaRjT50ef+eVl5UZV1wVE4GrPx+3Au+tc+a9LO89ccyZ18votv7OHTvIg/fd 68/KyeEPz5odyTDVeu5iHIkaxu375Jf30WpqaujGjRt78US/nir79MF5l1zCh44Zx5oDueo6lcZV jeHdP98UGH/2xTFfKIOLfaan7kMc+84+Qwkg90KTVIQisWhUjUQi/zVVf48E/u6w8bs6u2AmWTQp IPesbgFAp8qsT2SyW7f63xugVY4co9X98rOkA99LvQVqv1GjtfdmPeJjjIFK1AFI0lMlwjk98lBn NPscNEmb8/yzvmgsgkAg4LnEfjbuyIWvJ70EKPEOEG3fvp08N3u2r662llz6h6tjg4cNZ3rgE7fm 5ydqYDJGwLJyY1dcc4189eWXpz+e5SJZlnHE0Ufzk844k0v5xWyHLyv2S4wxFtdt9/mvPOsrGzZC 6zNqnOYexgV6YFxwxkTYfUf/q/VC6GTItlre1tKSsWPH9t4/WLI2/ZaATyUp7gbtrlJ7e5s+mCx8 p0J/yqzaaIlzIuaHs7i24YW28WRLR5vss+XDR7PlH76j4JSz4uJZ7izWKxowZh9t5Y/fSSPGT9SS Cg5XnckYBCEEk4+Zqs5961/K8aefEbckNoi11JQpnWE46PWJNzb4YbyXjRs30udnzVJaW1rJORdc EN973DjNHLcWh7fAne1JzAbMdgBxxvnA4SNYVlaWtLsm3fTp2xczZs7kQ0aPZe2hHLVWleMaZ2BC DPe6+V/K7du3ksOvvT2WSjt0nybEFhAm6MURl8YUs0IV6jQHItFo1vZt6QNfliRPmDCwhwKfcx4O BAIIh8O/uo62tnbnlG0AJQEptcSPM6JxgWPDZgDihBJvo+E46Q9l8Fg4TMC5NYGlV1g3ASdUue+R U9W5LzztGzF+opaosFjWqbo7S5qAPPyEafEbzj83eOypp8eJRKxruKHum5LebDsM8OsprAnWrFxJ n581y6dqKmZcfEls6IgRjMMOVmEG6B3ZeETJz4zgKHgZhEk0rzh6/sUXBx958MFfLfVlWcaRU4/h J59+JvcVlGg7/VnxtXHGmKpPsxYZUuPmjXTB268rJ/3p0QSdjif4afs4AGGWoyAwxLkNO1OM4wdl p1CKxaKB3cH0gqFQwoinPRL4hPPOQDA94Dc2NChmTnaT8n2Um7O9eqK2uEZkQvRFMYg9S21XJDUH UFjTn9VvWEdL+g9iPankXAC6KfmIiX4ClPStZm0N9STa3U2CGSEuArVnbd8Gsdh+2efH3vuN1+Z/ 8R/5wCmHqQ5JbNZrlDXVfHBgyaKfpZeeeVoJBoO44NJLY/0HDWI2Q0kEeqddbwPFVvOtd+CohyPM wCYddjh//OGHidYLJ6lIVdVVmHHJTD509FjWFcpVd3IprnHukO4iRbo6yceP3Os/5sZ7IlTxJY51 66HPcA49yxBxzXGAneuwIcWs0KDLK9jV2bVbsOkPBH47wAfQGQwE0YJfnxhx9erVwXg8HpVk2fra +gqolDel4L6tMU6K/IRLxEw5RQw1LvHX5zD8c3BK3IqRY7QtSxdKJf0HMaukx3nG0ZvQzJEHTVYX fP6JdMCxJ6gJXfJET3fBjHuLKr6ozpvHjz/jzPh9110TOGDyYSqozSRgSHZ9pVr9+u/nfSv949ln fSWlpezKG/4Y61tVzQA4wmxF6W2HO3PYzj3jnCDtresgaAPCcTm/KH7k0Uf7Pngv9Uq1iqLgqGOn 8pNPP5P784u05kB2fLPKGBO1C6NNjvtwhvf/fKv/gPMuiWUVlXDHaIXQllRk2vf2xCZbYLTFGIml GKeoCEqOEt3d3WlloAKA3NxcEEI8GbGBPXU4T/E3Z2R6Vr7aJdq4cSNpb2/1jIEX+lKr+61xTiRx yim8wzE9eqj1EqgcOUbbIszNN8v3ZqxKrJ8B2O/o49Tv3n9HMU+6Ja3YDq+EdUtgjuy8At63/wD2 47dfSyL4zHKRcBgfvfeufMmZZwS/+PQT+eY/3Ru55d77ohV9qxiDMWsRdnYiJsxktKczu0BvtM7K zCs8h1fqA1tb2tWjj53a43uqrqnG3fc/wF/74CPt1OtujbaU9e/eqmRFu7VkIULO9/rRX+/zDxh/ gNZ35FivWiEwNpF5WJUIJBF9tEMy/EPWIiaEoD6aehi5X5bsBH5X+sAvKCyE3+/fnOjcHinxS8tL F1dWVvK1a9b8avtu544dCIfDNM91vNBP+eoUplNrjBFCJEiEOFZ/ESWn06fHE473BTKzOedAuKON hLJzvF9flMgM4FSQymIhThDMzORVQ4ez5d/Pl0aMn6CJ581rHM2wTAFdkhNit90E2hmXzIzd/Yff B8ZNPDBMJAKNcSz+8Xvpk3ffkWs3bKAHHDJZu/vhRyIFhUUcMJa3Mu4j9nxuHbOZhyjpLQnvsO3d 19nlAWDJ/HnSP5/5m+/2P/1JHTZ8uLJi+XLrfoqiYOrxx/OTpp/OAwVFWnswN75D1Zim2dcnNjGE BgP49KmH/HkVfdioY6bFLe0lGbKFY4nqpALYdaFB9P5DgZ29SPfWL9Mxm5SuXrMqbeAXFhYiLy8v YTKdPRL4wWBw9aCBg1q++Pxzb5bAXaCO9g4CV8axwkBqz35DhFPHklDucVgnMq1DABy2NwcwYOIk dc03n8l7HzMtLgJdBGyPDEEA8+TTzoy9dv89/uHjJ2hcuJdtvzvVfeJqj8UMOACiS/2R4/bV/vnS c0prcwtZ9P138rC999ZOPP2M+NARI6303swx485LoiR3Sm0b9LqKb5cR90XJr6oqXn3iUV9TQwO9 4fHZETkjE5f94Q/yZRdcQGpqanDBpZfxoXvvzdTswngrJ2oH06f4JlTLRRAzJ2C/eP4pny+Uwcef enZc9AO5mYXDMkjQc0xthhId6KamaEl+AKvb4ymjLwdm2hJfVeN00cKf01pXAgBKSkrCWVlZWxKd 2yOBD2DDwCGDugCkB/yOdo/6Vh6UU2raa9uilPYJgBIGiRLrI7o7vdhBHBLaHkDHgAmHaB/9+Rb/ qGOmxR1lxYtczMLULESYMQC5xaU8lJ2DunVraN8Bg5g5WuBw9LmYBgSpb9rvnBC0NjeSr95/X14w f560fUst/cOdd0dnXHl1t6JIOtjBQbjgqTY4R3LguyQ5BHNEAL3DDBDLcaB+ex158s7bAgccOTU+ /ffXxBgH4oyj76Ah2qtvvU2DBSVaOCMn1qxqnDHu0B6Y0BjP/V0NnffGS0o8HCaHXnp11DkdmDv+ JPvW7uIW0AFI1FxnkFoa49LW1JNt+guqfmtLC1atWvWrtV2TysrLuiCkzxdpj7TxAYTz8wt2PdOv izZt2sTc+SGH5qQG/oJNO+WP33hZgabqy0UJ3NzZAbizJ3DnLgfgy8jgkqKgu6XZ5gbc5XBK0NPc IDKLTDn9nNgnr7zkEzuzc8hMn0LicLwZ+53tbeTLD9+Tb7/0osB911wd8AUC+NOsZyKnXXBRrKWx kVCJOpxvzKiZcdgbEmzCeW79Syzpnba//febjz+UH7v1psCM62+KTjruRFVMhtIRzI3G+wzobglk RsOqHkQrXpvoPSR8n+D44Z05SnPdFnr4pVc7IiHdpoHjSu7+6RzKk4T+IZkqPrEXEl3c0vMirTIB agSJ39XVFd+5I/3sQhUVFREkAf6eKvGRkZmRXtI9AIt/XiSfcup0BtjzJ4fneFNyuSmWVQge9eGB S2cExx15nNp3wiRVCmRymRJoGk+o5utAsT37RBC/Aw+crK766lN57AmnOqW+cbEl7QU73y25TU99 5YBBrKutFc3GdF1u2AGJpH5nZwdZvXCBtHzBD9KaX5ZQWZYxar/9tQtvvDlW0aeKmc7LqdNPj99w 3jnBw0+YFvf7/aAMYNAnNjOjkQSifQ/zl+cdWPt6Pi47mQls0Ivj/Q07dpCn77/XX963L7vlqafD suy3pLfJyOLcnsznBSd33NfdHg79Yg5g0cfvyXUrfpGO++OdEfdog5vcztVEZcxy1JDyMiWGkDCl PkFjhJNUNv7QbIWJzuP2tra0J6kBQHllZReAhLOd9ljgZ2ZmtqabXnjt2jVSZ0c7zcjMsl5k/0yZ BWXKw2ryIT0OYMARJ7L9jzwq8u1nn0kfPf4Xf2d7BwqHjWRFYw9Q86pqGAdx2djcMsZtFVvf+o0/ WHv/7usDY0841WnnG2o3cd1b7LTmWbMDEgCH/O6M+GdvvKKccsXVMRPonHCEu8Nk7aKFdNXCH6W1 SxdLVJIweO/R2t4TDlRPv/xKLRAMWsk0uNFexgFZ8eOIaSer//r7i77TLrhYr5NwIxuuzgAczMpq kfeXG/C2dHaBXlPx7muvKD9++YV87rU3RKsGDmZ2xiPzOpbQD2AOyZlM0QKmoCG5Rzu++9drypaV y6QT/3hXxHxuseFODSIhKxDu7zwjEQJZALxM7RWDf2lNbd9PLA6IIepkx84daav5AJCTnZ10PHyP Bb4sy2vKysqO2Lp166+uY9XKVWhtbZEzMrOssEVKgCFZMluUQv3a2MloTUmGtv+Rx6hDJh+pNoej WPnjd9Kq9+co7bUbaX6/QazvvhPV8lH7aFSRE0ghYtnyvmCQ+zOyeHv9TpJTXGLyBaOk0LEFJuBQ Z4kRn2cE4wzdb39t7otP+zavWi61NjSSjb8souuWLpYopRg4cm9t2H4TtJMuvjwWCOp5Fk0fhR5+ y/U890RPhW2C4NATpsWvP/fM4NTfTSeZ2fpohMgAzAhB/SUKL8rBl7kXhIZUFRnBhlUr6bMP/tm/ z8GT1TtmPRvmhFplzZh2t6Mw0TFLWnPznYvgtenjZ57wxSNhctJNd0d0hu20/x1gT3Rf4bT9pPb9 LUkPnQGYpqFMSa+WZJ9Y5BOTo9CfFyxM26MfCASQkZGZ1F7YY4FfVFS0oG9VFd+6deuv5n6xWAzN TU2korKv4/jQHCUl8Nd3avSwUj8oYZApgV9RULXPBC137/00cI6mNSuluh++kpbOedGnBEMI5uaz 7JIynl1cxrJKSnl2STnPKS5hRFbAAQw6+FB1xWcfKftPPzdmOtuYESOQSN0nIIhHomiqq6VNW7fQ 5m11pKmuljZuq6ORri6EOzvI3++72z9q4oHq4HHjtWMvmBkLBAKOlNeiiWDeQ/yrZ87hxlp4FCee dW78jeefUc678uoYEU0Ifc8eKkyghIlgN3+77floNIKXn3zMt3VzLf39XX+OFJSWcubSBOx7MkHy O30Edv1wmQXOdjBNw1sP3O3Pq+jDp1xwmeXIE9V8COWdjMD5QImZjc7AZaLH2suSzmQVQnWpD4Kl LT1LfB8F9i20l8vq7u6mPy9c4O/pmt7QwEEDEcoIfZfs/B4L/Ozs7JUDBw1s+27+/Nx06lm2bBlG 7j2GiCsDDe+Fg29NuyrJVJ8qKRvcW6E6R49zoHDwcK14yHDNXB++u7mBdO3YSju219GtSxbQldu3 0c6GHUSLx4js8/OswhJet3Sh1LxlE+GcEa4ycKaBayo4Y2BMA9c0wpimL5PNORSfDwVlFaygog8r rKjkQ/YZHy+q6MuDmSEOpuGRy84PHn7WefFgMMSJ5eHX0a5rCrrXQZ9VB+GvDmJq2Cnm7/2nHK6+ 99orweamRmLnthdWy02kARskgtatFjPOMe/TufK/X/6HMvX0M+JnX3VdTAe72+ZPreInAqDTqWdM 9IlG8epdfwwMnThJ3fuI41RmlXfODXBLd/OgedwTuCM8L+dw9AsZxJD+OjNgDCkl/ug8vxYUSrQ0 NUnLhZiFX0vDhg3vqqysnJfs/B4LfADrBg8Z0gF9aa9fTXM//IieMO0kOWisTwYAe+X6UjpP1nWo tCOuEZkSLhsfUib6R44z03NtgI0QZBQW86zCYq1srzGaPrRDrBgANRwm4eYGsmxukZJVUMwGTjxY k6nEqURBKQGVZF01lCRIlCKYkcklmerBQ7DDP83wYQZAohImnXJG/JOXX1SOu/DSGGCbBaZU16f5 M4B4wa9LfH3IzvwNcJx68SWxl596wnfZLXdE9aE8Xdo6XXlur4RzT5S+P339hfTWi8/7ho/bR7vt yVmRQEYWd3r5XaDniYN8eIJjbmlv7ne1t5NXbr8uMPF3Z8QG7negxgTmIbbVPsY97XaO3zu1DPGU bNj3MjU2QnTpTwm+a4rKPfmSAGBCkbMv7mzYGdNULW1cjhk7tgXAsmTn99ThPABoqSgv//XrBxm0 eNEitDQ1OV7kkByF+VI8OQewoEWVTLCbfxUq2LoeNVA8bncmJRjiuZVVbL/Tz4+t++5rOae0gmWV lPKswhKeVVDMs/LyeUZuPg9m5/BAVjYHdc67dzqrbIk0evJh6vqli6XWpibidJ65velOcIkgcwzX Adhrn/Fa/fZtZOuWzdQ9VGcP4XFh8w7pMQCLfpgv3XzhecHlP/8s/fHhxyOnXXJFLJCRxcVnsep0 gJk5ntUu65X8bmnPwdGwZTN96aarAlPOvzQ2aL8DNSeQvXMHHFLf/qTWCe9x5339AuAtBmD8/XRH z+YkABxQ5FgVly5ZtNitXPwqKikt6UAPy9XvycBHfkHBFp8vvUzbsVgMzc3NDq4boMB+BamXIf6x UZVlSi3QywIDcHqNBYkAr3podhJfKJMX1vRntUsWSolsUrNTAzCGoJJ1cBssR824JPbe00/6REA4 9l1gEsFvbwaIjd/TL70i9upTT/jsGHzuATfniZgCxy8Lf5Jum3lh8MevvpSv/ssDkTN/f3UslJXD 7bh+J9idTIh5gJ4s7t95nb798tXn8j8fuNt/yo13RvuMGKk5mITnPQvfhgtfUCjjGMYTv4GxyYRA ok6JrxAKhRIQRvD5zkiPkjtDpnxMvi3xI5Gw9MnHHydc625XKScnp7Wn83s08PPy8z8YOWpk2hxw 6ZIlgOtZDykNpMzys7A5LumOGwPwAkcHvGDUDwrjyo59vcyYadPjC996TbGu5/ZYuUPVTLRZnV2v lQHoP2q01tXZQbZt3ECtDuuWkgnAr3F3nXq9DBz9ho5gqqph/aqV1B5isyfjcNdfxjlWL1tK777i ssBXH30oX3HnPZEZ194Yzc4tMNR6l2qfAPRMcOZ5pva62mkixdJyGMOHsx/z/fLNF/KMB54M51VU MkeIrlmvtc8d38TLfI36he/p/c6wNEAfJfAR/a9C9eMLW+JSW6xnNX//Qp8mjt+3NDVJvyxdmvZQ XqE+OafHNS/2aOCXlZXNPeSQQxJOK9wVmvvRRzTc3eVQu6aUpJb4HXFGVrXHJdOBY35kv0vd1zsG d3QM5ulI+pnskgpGJBlNWzZTJO14RmcTpL6olpv3M6+ZetFlsXdnP+lj3C0dE4GfWR1b4y413SzH Oc65+rroiw8/4Nc0zRWZ54za27hmFb33misDc99KbKsUAAAgAElEQVSco1z4x5uiF910WzS3sNiS 8DzBPTQugp65mJLYXpMZOc+J0reztZU8d/0VgayCQn7qzXdHJL/PCthxSnue5F2bn9FrTkEo4/ze 9jBeIhVfIgT/2dGztAeA4yuDDuHT2NgQVdW0s85h4kEHRir79Hm9pzJ7NPABbB42YkRzupUsWbwY TU2Njg9RnSmz6ozU3v2fmjXJR6nO1amt8ovqPgAPcK3DCaTW2JOmxxf861VFZBgeqS90VI+zy9rX GUFxnyqWXVDAV/+8UPLOgzdVeRPUbunqZQAcQF5xCR974MHqh2+8qtjqvm0O1G5YTx+44ZrAO39/ UTnr91fFZt5+V7SgtJzbmoFdfyLA68eZZTYkA734rOZ15jurXbGcPnv9FYFDzrwgPuGk6VZUpONd me/JVU8yyW9+OgahrPlthDKWpKcEimQKBWr1kc9SqPmZCuVHlDuAT5csXsKTXrALdNhhh+0MhUKf 91RmTwc+CgoKtklyeqnlY7EY1q9dZyZFsWhSL6T+/PqY7KMutc7YLODCZgBi50OSjlY2dKTWvLWW drU1k4TqptgRmfMeIqMQVeYjZ8yMffTibJ/IOBzRcx772in9EzGAI089I/7DF5/LjfX1xDy2fNEC 6ZFbbgi8Pvsp3ykXXhK7/K77oiV9qpnD+ccTAx5me7jBRhz3Swx6y1kpMA3OgW/fflN5f/aj/nPu /WukeuTems4guS3tBSYqMmW3tBfL2l/QyQTgKgvAArhbzfdRgl9a4lJDpGc1/4iygBoQ0BeLRqRP Pp6b0dM1vaXKioqdAHpMX7XHAz+UkfHZ8OHD067npRdfJOHubgcXntILO39jl0rXdTJqcXdif3Bx gU2rUwj7iYJLzP19TzsnNu/Fp32AS+o7bMrkKr/b3s/Iy+WDxuyj/fSfj2QxGYZTknMHoBzS38UA OABOJZx51bXRWXff5p8z+ynfbeefHfzh88+kE867IHbVvQ9GymsGMLejzwIuvIAX7yeaFtbzJwG9 rREBbQ315Nkbrgw079xOLnjgyXBmfiF3M2Bngo9dkPaAcF/x29nXmaQYJp9CnWagIhG8vjmcMvLu JLea39BAFy9anLZ933/AAIQyM5OO35u0xwO/urr63QMPOihtdf+H779HQ/1OB/D3L/RrITn1/PwP tkYUhVLbxpeoodZRhyOIezoMrP/cHa7v6P20jqYG0rRlMxXV0p7GsM0gFFEK6r/1nUmnnR375q05 Srizkzgkpwh2mI46Qdqa/7htAkTCYXz53jvy60895ttRV0c1TcMtT78QPvMP18fKawYw9ww9jdub WzozzoR7OKW8ZT4IbWVwgl4z3uNPn3wgv3DrtYFDzzo/fvTFV8SoLBvvRdSOnO+NJXmXiaS9Myow sVOPcxjf3/b3+Aw1X6EEzWFOPt6efFVcACgJUD7BOYxHVq5cEY/HEybE3SWafOjktn79+r2Sqtwe D3wAK8aMG/frk+8ZxBjDL7/8Yka0AtDDLA8pTq3uz63tUJoam6ifUv2jEwK/RBAQ1H24OpIN1uSd 7oAZl8a+fv5vnqE4S+pzG+yOTm3VIfoBOGSfD0eeNzP2r8cf8pmedBHs1nUWqJwagcY4Viz4QZp1 x03+B6++IhgNR8hl99wfveflN8LLfvxeioYjlsrv3iC0yz4ugF1oi/6sXiekBXiBsWkAOptbyfO3 XBfYsmqFNPORZ8J9hu+lOZgkuNOhx3vQnlwS3Hp/3PkXrrIQ9hUB6ArV+4LfUPPfqA0rqllBEjqu MhQXc2t2dXYqLzz3fDBVP+wNTTjggEYAi1KV+y0AnxcWFu6kNP2mPv/ss6S9rc2hhp1eHUrJZjVJ wa3Pvxn4fM6rCmIx+E1njmTY+glADdidDZ7Opu/n9+3HgjnZfMsviyUTvMk6LQPsue2wJZnDNuYc A8fuoxFKsfyH+ZJ7WCxZbrz6LbX0X7Oe8N17yXnBX36YL00954L49U88HT7k5N/FA5mZ3BcI8qln z4i//sQjvsTAZ/bm0h5E298t0RMyJaud+vmlX34mP3vTlYGDTp4eP+6Ka6PUpzjVcgP07hGAnlR8 t7S35XxiaQ9h31Tx/ZKu+fklmwEABP/ckjpX3rQ+TjW/vn4HWbhgQdpqvizLKCworINtGSWl3wLw kZ+f/+b4/fdP+TCpaMXy5WhoqHeoYQcU+7U+odTefWXydIRCATxx9czg5y/O9mmd7cRnaAA9S/2e bf0JZ18c++7lZ3wOCWRJswRefo+zTwCOsX/cpVfH5r74jK+7q4u4g3NMoNVtXE//8+bryl+vujTw 1rN/8w0cPVa7/m/Ph6fNvDJWXFXN3E66vQ86RG1paiTrVvxCbUnuArhLsjscd0kA72ZE5rO0N7eS V+65xb9m4Y/SJX+dFa4eNVpYrEN4P66hu0Qqvnto1S3t3eXsb+Vl1iboRTXfTykCEsUHWyNKa4qx ++HZCnPlhKDfz/8u/TE8AKPHjEZmVuZ7vSkr3XHHHbvjnv9VysrKWqX4lDPnfvRRTrp1DRgwACNH jdJgfGMCfZXS+Y09h1c2xzg5++DRsWNOPD7e1tFJPpz9uH/7qmVSKDef+/MKuMb1mHoQc0EF5z41 bkZMW8OI51eCQXQ07KBdzY2ksLq/3muIMDHG2HH85uZvuy7jLAgBZEVBblER/2rOK8qwAw7WGGOo XbmCLvjPR/Inr7zk++bf/1Iat9bRkqpqdsx5F8X3PexItaiiklsNhgAAczouAQaNGqO9cN+dgQlH H6fClY3Iqe1w4XoXyACXLe1klqqm4cs5ryofv/S0b9JpZ8f3P+GUOJVlr9cfHIy5GJ95f5OZoCcV 38mcwV3lkVjaZ8iSvikUGRJFhkyRoVCEFIrblrQHWlIA/+YROdGhAvCbmxp9t91ys7+tNWl0ba/p vPPPrz940qQ/oIdQXZNIOstU/S9pxYoV30477viJ6QY49K2qwmtz5sTzCwqt1EsNUUb2m7sjI5Vt dniZX716SEakLa6hPa5h1fLldMFnc+Vtq1dIGZU1rO/+B6mlw8doVKLGpBodiHZufuciC9RgBDwe w9s3/z548r2PhxWfz7iGWMkaYeVqd11PjVzugHCeQI1FsWr+1/K3T/3VH88vZMGMLFQMGqwNHDVG GzBqNAtlZXMCgZlAYFaw+YiYX9Tc/fSNVxRNVXHkGed4TCTx9Ymg0X8nYwY2AFf99IM094XZvjFT jlT3P/6kuDm5SCxjgR6G9sO9JpIG13GjDtEZ6o4StJ2N9rX2KIW+nylT5PgkZCsSsmXJ2s9RKJa0 aNLMn1p6tNMrQzL75rDibjFab9WKZcqJxx2f9jRcAHh9zhsrx+2777DelN2TZ+c5qKCg4IWDDj54 388/+yytJAW1mzdj08YNUn5BoTXhrMhP+aGlQTWVN/Y/O6LyGTVBmqsQFtUIaoYOYwUDBsc64ho2 rF5FN877XF425yWfEgjygv6DWfHgYVrhgKEslJvHzc4lzpDTpRNAFR9GnzA9/s0LT/kmXXxVjHJY CTM0AkjcucAFN/4yBkTaW0lnUyPZunaltPOLuVLm1k1SXxbFvoiTcyQVdzSp9OiHn+4OZIQ4DCZk TsM1k2maWYSIgVZL6zCQKs7Mm3zK9PiDl10YHDv5cLWgtMzDKkVwww12Y8cN+IZtdfTdJx/1ZeXn 8/PveyQSyMribsksOvKYpd57Qe8eIkymzov7DlPAVd7c91GCgEShO3gJApJh61MCn0zx2KrWlOC9 oH9GXAQ9Z0x6vxeLhfSGKvv0QW5u7sLelv/NSHwAGZ9+/MmymRdfXJ1uRWPGjsXsZ5+NZWZlx8xj X9VHpbPmN6X0rB5a6levG5oRaY9rMCV/e5yh0/hNCKBGwqR13SratGYFbVy3Soq2txIlEOChgiKe VVjMMwtLWFZxMc8uLOG+YJBLkgxJlvDF4w/4hx9xdLx80HDW3dZCupsbSFdTI+1qbiRdzc0kunMb 4Y07qT8WJlmMIcRUZFMgnwBDtW6MQpy47ZUdXMKjJYO0Ex57LmwNaBDnmoDWss5ILOVtS0Lfq12z ir779JO+yx98PGIVFtR365BwymYANiBjkSg+fukZX92aVfTYS6+MldYMYCLYmAu8jgAd93nuHAZ0 gtopvU1GYQ6DakmuF/ezFAnZCkWOYkh8a6P4YmdcvmVJm3PpYRfl+yn/7ojSLnHu/fZtdcFpxx0v tbb2OJ+mV3TDTTc2XnjRRQcBWNmb8r8ZiQ+gq2/fPusDgUB1JBJJXboH+nnhQtRtqZWHDBthAf8g w8m3pbvnVMhfGFK/wEdYgFHEGTc2igDjiGgMciDIi0eM0Ur3GqMRgjgFAWcqIk0NpLuxnnY11ZPG 9Wto7U/zqRaNgTMVmqZB7e4g7P4bgwNDkh4oBOjJHcAggyOLAPkScXpkU7glS4mGY3eslRbOeUUZ c8oZcVPSM0BnANxOqmWeM05Ztr0FfAPclQMHs8oBg9i3770tT5h6gsP24tZ/TrBDAHB3VxeZ9/Yc efn8b+QDTz4tftSFl8UsNd6U1rAZhtuR512fTwSteNxry4vXQKy7h/IBiSIoGRJfopakD0gEIBSP r+5IKe3PrsmIB509i/7w3ffx1lbvak+7SoQQTJw4sQ69BD3w2wI+ikpKnp48ZcoBH77/fto20VNP PEnu/+tDSiCgD+cRADMHZsZvWtKzysYA/H1D2HfT8IyICfgY48ZGEGcEGueeRSwIlZFRXMYzS8r1 rD1Csg7TD0AIwZoXn/DlffO2bxCx5qAZf3+9RjiBqlj7+mzfjrH7aSX9BjACW9W3GAD0ji8yAf32 iRfROPqCS2NPXXNZsO+wvVh5TX8H+zEVfLed397SQr54/R9K7Ypl0v7HTYtf9vgzYRDqDLJxq+gm KBOAXlTvmQBo0U63zARhqM+j4oumhIt5EAIEDNAHKUXAUPkDBgN4dWO3b2eK8NygTPl5/TIcPpH6 Hdt9f33wwd2Cv/0nTtBy8/JSBu2I9JsYzjMpPz//nWknTavbHXV9+sknZNvWrQ5/wfTqULxvLybu fLUzKtd2M+qnksX9gxJFUKIISHZQj9gZbRWWC53OVkHNzjb43MtjszPLWUfq5dZ2ic72qWTZ9RcH Y9G4Kz7edoCZ4boa7N/i1FtxWi4hBGfceEfk9Qfu8UfCYVcZWME3GgcattbR1x/4k/+Ve271Dxg9 Vpv56OzwqEOPUMUkm3o7vKBn0H0Z7vH+VKB3Sne33W5rID0t6c05jG9qbuZ3lhCQCLo0kBc2pB63 P7VvUM3z2RGihBCyYMFPWkNDw275tmedffbW8vLyp3flmt8U8AHEysvLV2emuaCmSf948SWixuMW 15UIcNXgrFhP1wB6h3lhfdgXkGB3CtmWBHZQT3I109IG4GUEe939ePh+LbBbvS8EwJVymHz6+7OD FtAheLNNJmAgwsEITBAbmzlUll1UzKeccV7sjYfu9ZsgF0N2t61ZQ/9+542Bfz/5iG/fo46LX/DA 45FB+07QxAg9d9iuvhnHGBzj9OJ4fyrQJ7TxYdj1sO36RCq+qSn4LIZOHJI+IOkM4Zm13b6uFKm1 MmTKL3f1qZ07tvsf+MtfdosnPysrC32rqlYB2KV1KH5rwEdFZeVjJ047McWyl72jN9+cQ7Zv2+pI 8TOtT1Dtn5la6s9riMo/NalyQKIIyRQBqkuEkKz/NtNZ6x1JUCcFRmAH9jg7oD8rl8vnXhV9jmTv TuwjiwBntm6Rvn7kXr8OBgEQEANw7Mw71j8DqCJTYBwYuv+BWignj//44XuyWXbtooXSMzdcGfhi zsvKYedcGDvnngcilcNGMA67fvH+NuiFbD+ClGcOUOs7plbSG9B77HqPdE+s4ocMoAetzQb/uk6N /qsXUXqXD8qMF/tFaQ+ydPFitmN7+ivlAMCJ007sqKysfHBXr/tNBPCI5PP51hcXFZ3++muvF6db F2cc2TnZGDtuH0ap/nEIAQr8lH+4LXUihaVtcemEyoBKiTGjjcMeQ+ZAjHE70EYMwDEdZq7gHAjB PYXVA9iPG9bTYEsDrWGx3ab3FxKO9k3r6ebyapbfp8ZaDE/vmXawjtlTubC5f5vbwNH7aP9+6mF/ tDtMPnj6CX9XWys56uLLY2OPnKqGcvK4XdYFNtdxANbYvKgZOZilg4GK5lTi36KNbzEeCIwYzrF8 85qQTJGhSMiQKTJlSdinkKmEK35qDTanCNapypDZY+PyIuIQXmPDzsAfrrxKaW9Pe6EoAMDNt926 qaqq6ppdve43J/EBIK+g4MnDjjg8Pde+QbP+9jeyZctmh9o1tSKoDs9OvdRWQ4SRZ9eHfUGJWtIh ZKj8IVn/7bU3vSp/Msk18Yqboq/4C9k6KbBbJf8xikY6Hr4z0N7U4Jx0Y0pcl63uCcMVtq72DvL9 h/9WYuEwPn/1Rd9pN90VOe7310WzCou5JdnBwYX6LA3DPAcd8ImkvDinwOmMS/07Eei9DMWr7ptS PmT5bXRpr39TgqfWdPo3dqVeCPPWEdkxxVmKrFi2nNVtSbiA7S5T/wEDkJef/x/YfLnX9JsEfllZ 2XMXXnhh7e6oS1M13H/fn2lnR7ul8hMA1wzLjvZwmUXvbAkrazo0SVT5Q4JqKBv2vqMjumzOZOAH JZh458ORh9Ug2tPw6ieiy3xx8v3vzwlpTHN6ux1g5wI4bYbQ2dZGvn/vbeW5G34feOWem/0cwMWP zA4fe8U10bnPPeVLzTScNnxSwFtSnDscjmZKL1uCJ/6dCPSJpLuleXA9nZYI8pBMEZKI4dCj+KVV lV7blFrFP7DIrx1eFnDNua/33/une9LLHivQOeeeu72mpuaBX3PtbxL4AOL5hYX/HDN2bNoTdwDg i88/x+rVq2QIY2ZTSv3awb2YsssBPLCiy+8zorlCEkXQsPNDsh7PLdr7idTSnsAfyM7hg/54X/gB ZPPd8rAGKQS4jLeTT6+bGUyULtuSygbYOtvayffvva08f8OVgdfvvc3POHDKjXdHz/3zo5F9pp4Y l/wBDDtwsir7A1j4yYeyLdVF291gIAbY7Xu47Hhu2/Je1T1RchGvTd8T6L1mgH6OECDDYOAhyd6C ss7EVQ5y+y/tKdUvmQC375XjEBxM06RPPp7LNm/avFu+X3Z2NkaPHfMLgF9V4W/OxjcpNzf3p5LS kun/fuedvN1R348//EiOPvooGsrItLj0+AK/9trmsBJnPY+ttcUZadxWRw+qKlSdEz2I9TfGuBEa K9r49m/AOyHH3MksKOQNgRDfuGa1NIZFdpvozyJAVkcr+XDjFloz/mB9/WliM6hweztZ9OmHyn+e n+VbMe8rubiqhk068/z4uKOPV8sHDWGy3++x1fuP3Vf74MmH/BXD92KhnFxuqvEWoN3qNkyQi/vi JBvBD+BhAjaT6smmd4OeuUBvqvsZMkVIkZBp2PeZMkVI1v9mKhLuX94Z+DnFklgAcE6/jPjJfUMO aV+7eVPw8pkzZU3bLQvh4g/XXL3zkMmTT5ck6VeNCf5mgQ8gpjE26tuvvxm9O0Ie29vb0a9/PzJ0 2HCNED1KPUvR1bwv66MpHX3r1SBd/PITck6sg5f26csIlcCJ0xstOvt2FfxFAwaz79aulgKtzaQ/ i+428FcSRuq3b6OLohx99tqbdbe1kcWffKh89sJs38r538jF1f3YwWeeHx979LFq2cDBTPb7XGB3 boRI6Dtyb/bO/Xf7/7/2rju+jSJtPzNb1Nxb4iJLsiWnJ6SH9ITQ+31XgAChHPU4SuDuuEAoR7g7 2sHBcbQEOI56BwckoSWBdBLSQ6oj25LtOLETx71J2t35/lhJlmXZlh3ZToKe30/eNjM7u95n3nfe eeedEbMvkAjlAjSdVrIj4L0AYRIebQne5hjt+/ChSY92eRWmkl79BRj0vISPESjWVHj4Vwoau1TT M3Qce2VCYosmwKJXV1ujWbhgAXEUFUVEw46Li8N9DzywccCAAc/3tIzTyVc/FDI+/+yzH+6/976s SBSm0+ux9IvlcpbR5A9UyAD8bF2lbntV16uixAmEXX1sjWfPt19xsSmpyllzLpLSR46RG2WGBklG vUdBs6y09dqDz3OPtJ995/12fMeEMax96Le6+6sK6KAIkr9SARY0UFaRks6SM7KVIdNmSIMnz5S1 MTH+jyOcmwV+SQc2rOb3rF7B//yhRS3E66gDhCC7V9QHSm71bAeEDygjVD/dN07fMenb+03ovNNr YwWV8DE8RazAIYbnECtQOBoVeuvmKr2ri74WJcAHk1Oazw5c/ZYQsn7tas0tN90cMS/ZPz60oOK6 efNmi6K4v6dlnM4SHwDqOY475+svv8xrbu40qGhYkDweuF0uMnHS2RAEwefNijGJovJhcaMgd9FG uhSQpgFW8tQtv2jOysllu9av5r/99xKxZPd2ztVQT7SGGIgxccwTYpgvWPIHDvUx+NISZM88X/ps 1UphklRPehqrqZkBayWKL6BhX8RnsO9Hz5CG33Kf61hhPj3rwkulYTPPk3ixVbIDHUv4Nup6wH5K tllprK0hu75ZLlgnTJXbpmtL9jZj9CEJ37Xk9xEZaDsSEKzeBzcYWi/pYwKkvEGgiOF5GASCRpmQ O7dW6+s8XbtS3mKNcc+1tFXxK44e0d1y0018JL5PAIiPj8e9999/UtIeOP0lPgAMfXPxkm//vGjR wEgV+O4HH7Bx4yc0BQgnvHCwXvzbwfqwLLKXZek89w7Su+olGQ0eBUfLK8ieHVu4gh3buRNHyygf G8/iLXlyXGYWi8swKXEZmQrP8f6ZcoGaAAHxzslvnTOveNzIv/OXhkWklnSlO1YrDDtlihIishpD PFrSMhRu8EjZfPmvPLqYWAa0Wng9Hjf+8/B83ZSrb3BbRo8PXLO9FaE+fxZyFwCw9t+LRRBg+tyb 3QBanZa8f1obBNb2OIjwCDjvHwIMUu3BvH4UAec6MwAKlCA2YHzewHOI5SliBHVfoBS3/1CtP1DX 9dDdkDhBWT4ztSlw+M7tcvF/f/45/s3FSyIm7Rc8/FD5tddfP1sUxbAn5ITCmUB82O32/95w3fU/ ryiPjDdUSkoKPvrkYzkj0+hvpiUGXLj6uD6/rvNlj314cFisa85A0dPgkdEoKaiXFDRKMhokBZVV J0iZ/RCtLC2m9UdKaGP5UaJIHkIpZaIhBoIhhmkMMUzU6aExxDDRYGCyy0XcTQ1wNzQQT2M9aao+ QUbv+4G/SE9RolBWQzg0EA71HI8WQYTbEMdYaoaiGzVONs44X9J51XbiVypIsHIBAsDd2ED+s/B+ 7Tm33ePKHDRUCQrxEwZYG/YrAL556WlNWm6ectZFV3gCSYwAAvvOBRK+fUPQ3gEoWLVvsxBJAMmD ffgDSR/Yp4/19fUFDo/urteuDGNFHA0Fls9MaxoU18bjkxw8sE/3s8sup5HiWHx8PN7/6MOvBw0e fOHJlnVGEB9A6tdffbX5rjvuzIlUgRdcdCF7/IlFnrj4BL+fdUG9RC9bV6lr8HTusQWoEXxfGpfQ nBtD5Vbit5K/0ftrCejzEzB4mhuJ3NQIT1Mj8TTWE6m5EZ7mZqLR6ZmoN0BriGVCTAzTGgxw1VST lc89rpl99wJXiiVX8UXj8ZE70HjoOw+07U0ENwIA0FxXTT559PfaOXfc58oYNLTbo4iBXxTzMvXz vy7UDp15nmQ9e5oUTHZfupCEB9qp9YHngI4coEKTXglQ7/0/TjXitar8FP8qahFfK2gIS8N7ZES8 69e5QbPvKsp11/zyl1xZWVl3X1+HWPDww+XXXn/dLFEUD55sWad7H9+HJoHn0/bu3Xv20aNHT3p+ MwAU2AvIsGHDaK7N5rfyJ2kos8bwbHlZ55F6APVjXHPMzU9NE+VkTWDsftIa6grqB+pRmJ+gnCBC MMRAG5/IYtLSWVxGNks05ShxGUYWkzaQaROSmKiPAS+KEGPjmWncZHn1C4u0CUYzi0lNY757BG5Y m/3Wa4H9cgD+qcSCRgfr2dPkr1/4i1Ybl8ASM7NZGyJ24weow5jWSdOl1YtfEuPS0llM6gBVMw8k KIIkP9BOyvvea7u+PNr2532aQHA5HZHeb733nlt22CW8mN8Q1iSaqakaedGo+DaW1rraGs0Tjz+G nTt2RMxPJj4+HvfdP3/DgAED/h6J8s4U4iMhMXG91Zr7i4//+9+T9uH3Ye2aNeT8C8/nkpKS/K25 NZZXXAqw9UTXVn63wsjaY25+1gCNnCC2Jb8PPsu9W2nlbFsjn/9ku0g4BICg18N89jR53cvPaDSx cSwhM5u1mqHakxxQCQ60NgIsKA0DwGu0GDJ9jrT2rZc1rqYmMiBvsNIl0VnbMgJ/hFLkTJomr3zx r5o02xBF5x3jD5TuCCjDR/i26n7ruXaERwgrv68R8J7Tca0SPaYD0n9W6hKePtB1YA0AMOp55d0p yS36gKE7SfJwXyxfxr/x6msRjXWx6MlFR8ZPnHg1z/MnIlHeGUN8AAoIqWhuaj5/7549nYZBCheS JGHXzl3knDlzqF5v8FtrJ6do5O1Vbq6kSe6yRW+RGVl33M3PGaCR44RW8lOfAh6gikvMa8gKYfEP luIqUdUDQaNFzrTZ0g9vv6LxuFpIau4gxX+jQJIHagC+bRvCtzYEjACU5zFo+hxp1xf/E8oPHeSM o8bKgST1p+3o10ZlZ6C8APP4SfKK5xZpjWeNlwW9oVPp3o7wCJTy7QnekREPgNcJR/3pvYY8dYy+ lfSflLqE58IkfaxA2YdTk1uy9FzrqyYgB/fv1/7m9ju4SHahx4wd65l3043vJScn/ztSZZ5JxEds bOyB9IyMi5d+9ll2JJYjAoDjx44hMTGRDB8xgnG8arwhBJg9UCsvL2vh68Lo7zdJjGw87uEuyNBK Br6tUc0f744QcCB+n/RASe9HcCfde44BoL5CCJAAACAASURBVByP3OnnSHuW/Vc44SjgMkaMaTv6 2EbqkwCp37oNbAgCv+bcSdPl0j07uP3ffsXnTJgqB4bWDszbRm1H+wYAAHiNDhnDz1JWvvCk1jxx qsx5hw0RlK5jwreV8iE9AQNIzxGieuEJ3rDYHOcfq9f7rfkU/y1pEZ4/GJ56zxPgzYlJLaOTxDb2 j6NHyvTz5s6ljY2N4RQTFniexz9fezXflpf3f/CuJhYJnFHEB4D4+PjN8fFxP1u7Zk1spMrcvGkT GTd+PJdlzPb393UcwcRkUf6kpKnLJZMAoF5iZHOlhz8vQyP55usDrX19Xwgutd9P2vT7/Qn92/YN ACNqAZZJM+TSrRu5wg3f8VljJ8mEcO0kfUgpH5AmFKGzRo6Rm2uq6ab3Fou5Z8+QCMd1mLZdY4K2 JNXExLJkS56y6vlF2syR42RRHxNS8gOthAc6IHwnqr1IiXdMvpXgBsE3XNd6/kNnixhunx4AFo1K cF0StOhlTXWV5sEHfkfz8/Mj5lgFAPfcd+/xqdOn36zVagsiWe4ZR3yO4yoNBsPo9evXjYzEIgU+ fPPVV2T27Nlcalqq/x+epuWYNVZQvjrSzIej2NV4FLK6ws1PTdXIySJlBNQfW19ddIO0eumR9qp/ W0nv/9OuAcgcPUFurqqkm5f8Q5Nx1jhZ1KurL4dU99tJftKWrAEaQJp1sCIaDOzbl57SZgwbpWji 4kMb/VjwOdbuui4xiaUPHaV8+8KT2iSLVdElJrcqx6x1gg+DmqFTwvvPt6r2viE6vXcufYzQKulV 5xx1yO6NgmbxtTBccX24OdfguTsook5zU6Pwnw8/5D768MOIGJZ9yDaZ2P333/91ekbGU5EsFzgD iQ8AScnJ3+Xl5f3is/99mhSpMmVZxopvviHnnn8en5CQ6O9H2GJ5JdvAKyvKW8Iif4PEyIpyFz8q UVSy9JT5F8QIcNqhRHXT5aAGw5T85AfCaQAYgBTbECU5x6as+dsTWn1yKovPMDLfNXXbthEIJnvg +cBrCRlGlj5kpPLtC09qQDmkeENiB6fvqBFAwHlNbCwzTZoir3/lbxrREMPiMtTRg3AJj6DzCvOO z3sJHyMEGfN4CoPAQ+1uEfLw7nrt54e7XtLahzkDtdJzYxJdgSHIXS0t/KoVK8THH300oqQHgJdf faVwxKhRlwKISOyJQJyRxAfQwnFcsV6vO3frli36SBXa3NyMTd9vIrPPOYeLiYn1S/4h8YKSquXY d2E4ewCqtX/l0RYhO0ZQBsfxirqslir1Ob/k962+o+63k/4BG4b25xkAXWIyy506W97xwVtipcNO 00eMlQONhm3JSNpZ9jtS3bVx8WzQrAuk/G+/FA6u/kbIGj1BprzQaZ42xruAd0EFLXKmnSPt+vhd sfHEMZpiG9K2IWkj1VmI861SXucdj/f13dWZdb7oOb5+PkG1h9HfbqvV7Qpjpp0Pk1M08uuTklvE AHOu5PFwGzes09x39z0Rn97+i1/9svbc8857KC4ubnOkywbOXOIjNjY2Py0tbfiOHTuGHz92PGL/ mKqqKhQVFpKp06ZQnU7vN7aMTBCUOIGytWHM5ANUqbamwsULXlsB9Ul6eKW9l/AcaT2Gr+8PhNUA MKKu0mOZOluqLi6iOz54U8waPUHmtDp/ehKUvz1p24bj8l+nFMaxZ8ucKLI1L/5Fk5RjVfRJqSxQ tVeCyvMVGuijDwCgBNkTp8slW7/nS7d+z6WfNV5undLc3mU3WPKLXilv4L2kFzg/6X2NgK9ff6Be 4X67rVZ3tLnrERkfpqVq5LcmJzcHxsVnTKHbt27R3n7LrVRRIhkpAUhITMQTixZttuTk3BfRggNw xhIfAJKSkr4cPnz4z5Z+9nnaya65F4ji4mIiKwodedZZ0Gg0/v/6mCRR4QjQ1QKcgdhe5eHKmxU6 JVUjaygBIRScVwvnAiS+b8tRVf33m+xDSPrA877j1EHDlLhMo7LuhSe1hOeQZLYqrAPrfLAbQOC1 4F98hpGZxk+Rv3/jRU19ZQUZOGSEEqhSBJI/cL/dfHwAA4ePkZtqq8iPH78rZo4/W4J3Si8QmvAC VQOfGHyqPd92X20EeP/+F0dcwsO7arVNcvixy2cN0EqLJyW3aINI/+Ounbobr59HI/ld+fDUs88W nz158mXoZuTc7uCMJj4AOSYmZoPRaLx85YqVEbPyA8CunTtJRno6l5ObC1FsHdaZmKKR3WE6+Phg r5fodxVuflSSoGToOEagSvhAac8RtSHgKfzHvvDXANpJeh8CtQB9Uiqzzjxfcm5ew+/97EMhddBw RYyJ9RvVGGmV8B2q7CF+vFYH64xzpYr8fdz295doEs02RZuQFGD4YyEMfqFsAAyJJquiiY9nW15/ XjNg5DiZ1+rblcETAl3A3Pm2c+jV/VaJT+BhIIv2NmrfcTSJ3ZHN56ZrpTcmJrVR7wkh5OD+fbrr 515LXa6worN1C7+6+qraiy+95Jn4+PivI154AM504kMUxWNanc5wrKJiYmFBwUktuBmMtWvWkAED B3CWnByIYqvkn5qqkbUcZd9XusIy+AFAnUchX5S1CDwlGJ8kynyA9PeRn6etjQDvP1bJENwABEr+ QPISjiJ95Dg50WxVNr/6rKappoqkDhqudDY2H3zM4G0kgsg8YPAIJW3QcGX7e4vFwzu3cCm2oQqn 1bUjOtqUqxYSmEafls6ScocoG59/XOtxNZNE6xCFgfgJrw+cQutbstpLelXq836X3K0nJP6e7bW6 fbXh9+cB4MIMnfTqhKQWPqARJQSk0H5IN/eqqyM6Vu/DkKFD5AULF35tNpvvjXjhQTjjiQ8AiYmJ 62x5eeev/GaFKdL/sHVr1pLEhATOZrNBDFD7xyeLSl6soKwqb+bDGecH1I9+e5WH21EtcZNSRCVR pKyNtPdtOeKX/oENAOAdAUCg1G/to/vuAQDa+ESWO/MC6YTjELf97Vc0cUazok9Wff3bkJ6EIH0n PzE2jpmnzJYEvR6bXn1O01RVSVNsw2RQznv/9jPs2kt/Bk1cPLPMvFA6nr+X2/ve65pUo4kNSE9n hoBps3ouqAEIaBAYCHl2f6PmpUMNmuZuqPYAcEWWTnopKCw2Y4wW2u26eddeSyMR8SkYcXFxeG3x 4j02m+1CAJHvPwThTJmdFw7SNm7YsPmG66639MYz3zt/Prt67tw2s/kAYEeVm7v5hyrtCVfXHn6B MAiUzR9kcF+YqfW4ZAUtMoO6VeBSGFwyQ7Os+NftcykKXDKDpDC0KAxuRYHXByjAWcjrJej946tQ 84njZOd7r4uexgYy6uqb3UkWq9I2R/fAfH8ZQ8GqL3n7ymXC4Mt+4TFPOcffBvpamDaSH63kpwQQ KYVACZT6arLlX6+KFMD5t/7WnZCYxHyLV+o4AjFg+TIdR7Gz2sM9vqdOW97cvXdOCXDf4Fj3PUHj 9JIkcXt/3KW9+cYbSVNjUw/eSOcghGDxW28Wz5g5cyYAZ8RvEAI/CYnvRSOl9HBCQsI5mzdtitgQ nw+bN20igsDTwUOGEK1W57f2p+s4dlG6Vl57zMVVd7EAQyA8CiPrjrn5TcfdfF6cqBj1HOMJASUU HFWlv0BV9ZfnVMkvUOI/59sCrdFyAQQ57KjagKAzwDhpupyYM0jZ+993ROfG1Xx8do6iiYtvpwF0 70eQmJOnZE+bLZdsWsvv+c/bImMEcZlmBRxtJ+kB9Zl0XKs/vZ6nSIgxYMTUmXJq2gD29cvPapTm RjJs+DDFIPCqg47Xcl/jBn12f4Pm7/kNmgape1I+RqDs5XGJrrnmttNrW5qbhQ3r12luuflm4nZ1 ubpajzD//vmVU6dPvys2NrZXhu5C4adEfMTFxR1ISU1Nrq2pHZWfnx+x+OY+bNu6lciyTIcNH0a1 ulbyx4uUXWnUSTurPdzhMCb2BOK4SyHLylqEkkaFjkoUlWSNT/0PaAC86r7oIz2n7gu0dct7RwgQ YBD09dV9+5rYeGY8e6YUl2VWfvxgiVi27XsuPjuHiTFxjIWj8reR4K0/ygsYMGKMnDlxmlxp38ft /vermpoSJ9UPyGD62HgmeqW1r1+u9285f7hrA08xcMAANv3CS6Sqw8X0fy//XSM31ZNci5lRjY68 UdCkeXRPnTa/vutoOcEwGXjlg8nJLRNSxDa+8A31deLnn34q/OGBByhrnfYUUUybMaPl17fe+i+j 0XhSobS6i5+Squ9HUUHRfxb88cErtm3dGlFjnw9XXXMN++09d8tJyaltPK4kBjy5t1bzZmGj0JO3 LlJgrtngvj5H5xEpmEtmXrVf8ar7DB6v6u9hCtyyeiwx9ZykqI5AssLgYQwyAySFqct6o61DIAhQ U3SI7v/fe6LU0gzL7Asl48TpEuHCs5H5VYWA49YhSqBy304u/6vPBNnVguEXXCblTZ4uaTjq11ZE jkAgtE0DpqEEGk5V/+FuwbpVK/kPHY2iwzqNevieTciclqqR/zkhsSVeoG3+JTXVVZrFr7/GL3lj cUR97wORkZGBJf96e53NZpuJNm+r9/GTJD4Azm63f3fHrbdOczqcvfKPHTd+PHvq2WdYZqaxmQX9 U9cfc3Hzd1Rru1pXvSMkayi7KlvvucKo9Rh4MF+f36MAbkWBR2nt+3sUBgkMbplB8hJdYirZJQXq 1tsIKAHbwBVpmmuqSdG3y4Wj2zdxqUNHyjlzLpNiBmaEHBnzux0HeB9yAVvVSOkdmaAErtoqsvvL z4Tinds4Q1w8yx05Wh48drxssuUpAkehodTb1wc0Xk2GgeKbIy3C6wUNXa5N3xEIgF9bY9wLhsW5 ubYlkBOVx7RPPPY4/ebrr3uN9KIo4r0P3j80euzYSQCqe+s+HeGnSnwAiNm/f//38669dkR1Ve+8 99TUVLy+ZIliyxvk4ni+jRpZ7VbI73fWar452nU0n46gocDFmTrPNWadJ0vPKYFkVxsAn6RXSe/2 kd67lZhKfB/h5SDiM7RGsoH3etnurdzBr5cKnuYmZE+YLGdPmCbFpA5gvoCggEpu3/wDH+FV3wT4 hyT9IxQ+OwUBPPV1pGDXNq5w5zbuiKOQ6mNi2YgxY+UhI0cqKUlJzKOPx8oakf/siFuo6Ya9JBiZ el55ZnS8a2pq25WSGGO02FGk/c0dd5CiwsJeIz3Hc3hjyZLD484af7k+Xr+jt+7TGX7KxAeA9G1b t66fd+11ub3hjAGo86mfef5vbNr0GW6DIaZdkIAPnE3C43vrxKYu1lnvDATA2SmiPNdicI9L5mXJ S36V+IDEFL+a75P4HkUlt8QYZDDIiq8RgNczkPn965UAlcXX1W2uryWOLd9zRT9s5BurK0nGkOFy 7oSpcvbwkTKlHIiX2KoLstfpiAKcdwaizzhJCYHgbRBUWwSFSNVjd2Md2bdjO7eh6Bi3XZ/DlSSY KesyrnDn7+kqs8GzcHisO4Zvq9o31NeLG9avFf7wwO+I2907RjwAoJTiH6/888iEiROvSUhIWNtr N+oCP3Xio7GmcdT3WzYuv/O227N6813ccNNNyq9vvVVJTkltN9PK2SDRu7fXaHZVh+/t1xHMBl45 L10jnTtQI5liOMXXALSq+YCkKH71XvY2Br59Bt+S34H+9sy/1l0oMKagZO+P3KEfNnCl+/dwGp2e pefYlEzbIMWYN0hJzTQqPKUB3oeBTkgUvJf4vsZAoARVbkbWVbj4z0qbhf1hhLfuChk6jj09OqFl evv1EElF+VHts08/RZcvXdZrUh5Qh+2eff5vRydOmnTLwIEDv+jNe3VZl5868QGgpKTk0rWrV7/x +KOPDejN+4weM0Z5+rlnkWU0tSBgjgqgStKPipuEZw/Wicd72G8NhtnAK3MGaqQ5AzVSbiyvyKzV 2Ndq2PO5/ipB5A+MUMvaSfxA+OIGqv17AndjEzlceIiWFeTTw/Z8euLoEQoAqenpSnxiEotPSFB/ iYlITExgiQmJjCPA4SaZbKql/JYmDeeQNDRSX+ZVJoNn4YhYd2yQlPd4PFyBPV9z52230fKjkQnN 3hmeePLJiqnTp91jNBo/6vWbdYEo8b0ocTrv+fKLLx9+9plnUnrzPsnJyXjuheeVYcNHSDGxce10 ykZJIS8fahQWFzaILV0t3dMNGPW8MiddK41JFOSh8ZwSJ1CmBBj2fP175tsiMGw1oEBBZ5+KatCj AcuA+az48AYZYThRfoTUVVeR+uoaUl9TRapq6ojDxdFCLokrTcolNbqkiErckQmivGBYnHtyatth OkKAqhMnNF9/+SX/5BNPkEgtZNkZHnxowfHzz7vgQaPJ+Gav3ywMRIkfgOLi4rvWrl698E+PPR6x SL0d4ZJLL1Huu/8BZGRltQCknYX8aLNM/rKvTvP54fCi+3QXRj2vjErglRGJgjw8XpQHxXEKoYCs qJLeJ/nb9u/9Pnl++JhKAyL/tpJenfvPUdVRyFkn0721Hm5frUR/rHZzBQ0SjWDb5ofFwCsPDI11 X5qpa+f66nK18M6iIvHhBX8ke/fs7VXV3oe77rn7xBVXXrnIbDa/0Bf3CwdR4gehpKTkuh82bXp6 wYN/HNjb7yYuLg5/efppedz48UpcfEJI6+Kuag/9055azbYwFu08GWgokBPDK2laXhmgpSxNS1mq hrKBOk5J1aj7Wo4GKP2tICBokRVywqWQ426FHG9RyPEWmR5zKeS4Sz3Or5foyRgww0GalrJ7BsW6 rzEbPFy7OzF6pOyw5p2336bvvP2vPvvub7jpxpqr5879W25u7hN9csMwESV+CBw5cuTybVu3vvK7 +fen94UaOGPmDOWhhY/AmG1qAWkv/QFgc6Wbe72gQfiuooXvJSey0xaxAmW3WQ2eW2yxbl17MyCp rqoUf9i0mX904UJSV9drU9zb4ZZbb63+xVW/eiMnJ+cPfXbTMBElfgc4cuTInD0//vjWPXf9Nqs3 gi0EQ6fX47HHH/dMnjqVpKaluUKKVqgjAIsLG4WPS5v53pagpzqsMbxyfY7B8/NsnRQ8PAcALc1N QrHTISx48I90/759fVYvSikee+JPFdOmT3/GaDQ+12c37gaixO8EFRUVk/bv2/fRXXfcmd1b4/zB yMrKwsLHHvOMGDkCiUkpbnQwilbrUcj7zmb+7aIG8Wiz/JNpADgCzBmok+bl6D3BDjg+tLQ0C0eP lAnvvPU2+ejDD/v0G9doNPjHyy+XDh0x/K4BAwYs7bMbdxNR4neBhuqG4Tv37Fx25+23m5ubIj8l syNYLBY88vhj7sFDhpKExKQOGwCZASuOtvBflDXz3x1zceEs6Hk6IklD2VUmg2eeRe9J13Eh30VT Y6NwpOywsPj118mypUtJpGPhdYXEpES89sYbhYMGD/65wWDY1ac37yaixA8DdXV11sLCwi/uveu3 eZFc/TQcDBo8iD20cKE7b9BgmpCY5Ors/+VRgDUVLfyXR1u4VeUtfO1JuLWeCkjXcWzOQK10XrpW mpKqkfkQT0MIUFdXJx4uKeH/8dKL5LtV3/bLM5vMJvbyq6/uHawuYd23H0kPECV++Eiw2+2f/fXP f56wdvUaXV/ffNSoUcofFvzRbTJbuKTkFA+CHICCITNg43EX98WRFv678ma+p5NZ+hrD4gRlTrpW Oj9dKw1PEDp8RkIIqa4+ITqLHPzzzz2HLT/80G/PN2bsWPdfn3n6h5ycnIsB1PdXPbqDKPG7B+J0 Ov/29Rdfzn3u2WdT++PdGbOzcctttzVNnDhRGJCermg02rAWCSxrksn2Kje3o8rN7a7x0H01bq6l bzXhdhApMChWUIYliPLIBEE5Z6BG6kiN94K4Wpr548eP8bt27CSvv/YatR861Gf1DYVLLrus/p77 7v3GYrFcjT4ImRUpRInfAxw9evSKQ4cOvTD/7ntMtbWRW6arO+B4DnPmnCtdf8M8V5bRKA4YmO5h rHMtIBASA/bVeOiOaje3q8rNFTfKpKxZppUumfSGU42OpywvlleGxwvK8ARBGZUgyIPjBSWU+h4M xhTuWHm5WFxcTN5cvJhsWL++T7ztOoMoinj0T4+XTTr77DdNJtMj/VqZHiBK/J7DdPDgwc9//8AD w/fv3derzjVdYcDAgbjhxhsbp02fTlJSU4WExCQPY6xH8lxmQEWzTEqbZHqkRSZHmmR6pFkm1S6F +FbyVRA4bRdgTI3jkyRSlqbjlTQNZalaygZoOHWroyzYT74rEICrqjrBV5SXc598/DE+/eSTXols 2xPY8vLkp5995mCu1XqDXq/f1t/16QmixD85aIqKit57a/GSOR+8/358f1cGAHKtVlxw4QWNU6ZO VdIGDBRTUlOh1Wil4GAgpxoIIbSmukqora2hR8qOYNWKFWzVqlV8RXnvT57pDm68+aaqa6699luL xXIDgL4b5okwosSPAEpLS+fv2rnz3kceethYX3/q2HYEQcD4CROUSy+/vG7I0CFISUnVJCenEK93 YH/28AkhhNTW1vA11VVcRXk5Nqxbr6xcsUJwOBz9WK2OkZiUiOeef77Ilpf3SHp6+nv9XZ+TRZT4 kYPl4P79/37llVdGfbFseUx/VyYUkpOTMWHiRM/oMWMabXl5LD4+nsTGxfM6nVZMSExUeI4PXI7+ pEEIIQCjdXV1XHNTE21oaCD1dXVSRUW5sufHPdyGdevE/Px8nOrf4LTp05seevihXda8vF/iNBiq CwdR4kcYZWVld9gPHbr/4QULcvtijvfJghCCzKwsWK1WNnLUqIYhQ4dIBkMMREEEL/JE5EXCCzwV RZFSjnKUUI7jeSiKQhhjUBQZbpdbkWRJ9rjdiscjMY/Hw9xuN4qKCrldO3eJ9vx83ul0oqUl4qs9 9yp0Oh3+8OCDR2bOmvlOVnb2Q+hfLSmiiBK/d5Bst9vf+vS/H09ZvHhxUl97kPUWOJ6DQW+A3qCH 2+VGQ0MDejNMVX/i8iuvrL/5ll8fNJvNt+n1+p39XZ9II0r8XkRlZeXFJcXFzzz68MJBBw4ciPga 6lFEHkOHD5MXPvJIQWZW1tMZGRmnRNCM3kCU+L0PXWFh4Ysb1q6/+Jmnn0o/3dTdnwqSkpLw0CML S84aPXqpyWT6A05ji304iBK/j9DU1DS6pLjkn8uXLs17+623kqINwKkBjudw6223V152xeU7bTbb LQCK+7tOfYEo8fsYDQ0NMw+XHv7r8qVLbdEGoH8x+5zZzffMn283m833GwyGVf1dn75ElPj9hIaG hlmHSw//JdoA9C04nsNll1/ecO311zvT0tIWp6en/wNA//r/9gOixO9nNDQ0zC4rLfvL0s8/s/3r 7bcTow1A70Cn12PevHlVF1x8UWFGRsZTSUlJ/0MY3oyzps14GIRMWb1uzYV9UM0+Q5T4pwhqa2vn lJeX/3n50mW577/7blJ/Tf4505CSkoLb77jj6MSzJ+03WywP63S6bi1FPXni5CtFkX/P7Zbmfv/D 95/2Vj37GlHin2Jobm6eWFpa+vtiZ/HID95717Rh/QbhTPED6EtYLBb85u7fFg8ZOnTLoEGDHgRQ 1NOyLpxz3reyIuXZHQ6bw+E4I1SyKPFPXWiPHj16XeXx4zdt37rN9M4776SXFP8kDM49RlJSEi6/ 8sra8y84/2hScvK3OTk5jwI4cbLlDjIaM41W215C8P7K7777TQSq2u+IEv/0gKmoqOj3x44dm/X5 p59mLV+6LLa5ubm/63RKIDY2FhddcnHDpZdeeiQlLW13VlbWi1qtdiMiPBvxnBmzngBh9xwpLR13 oLCwf6N/RABR4p9eII2NjeeVlJTMP1J6OG/FyhVpa1ev0VdWVvZ3vfoUOp0Oc849t+nKn/2sLD0z 40B2RvY/NAbNt+hFX/pZZBYvzKYHQEj1ilWrJvTWffoKUeKfvtC7mlyzyo4enltbVzfsUH5+ytdf fjVw65Yt9EwbGSCEwGqzYcrUKTVTp08/MXDgwILMzMxXY2NjvwAQVuixSGDCmDEz9HrDl0xhd6/9 fsOSvrpvbyBK/DMHA48dO3ZZdXX1/1WfOGH+YcuWlFUrViYdPHDglJ/2GgyO4zB4yBDMmDmjcvyE iVUpqSkVsQbDxqzs7M8BbEcfkj0Y58+Z86ksKZOLy0ptdru975bliTCixD8JEEJoT0Nc9QGGFTsc V9U3Ns6uralJqqioiN29a3dC/sEDBvshO06V4UJCCFLT0mA2m9mUaVOPjRgx8kRqakpZbFzcd1lZ WcsB7MMpFD1oSFZWcqbVlk8o+Xrld99d29/16SmixD8J2MyWNxlDEmP0ycKSwq39XZ8uEAtgyOHD hyc1NTWd3dzUlF1fX59QWVkZt+fHH+P279sf53Q4UFtbG/GpthzHISMzEyZTNrPa8uoGDx5cn5aa 1hQTa6g1GAx1vCgWJiYmbklKSvoWgDOiN+8FzJg27X4K8njVicrpu/fv39Hf9ekJosTvIXJzc7OJ rBQAEMDwdkGx48b+rlMPoQcwuKysbEJjQ8NYBqQqsmzwuN1ii9utkTyS6PF4REnyiG63W6ipqeGq T1TxClOIQR8j62P0ikFvYBqNRiaUyBzPSxylEs/zEqVUFkTRE2Mw1HA8fzA5OXl7YmLiPgCFAE5f NZkQcu7sc3YzxrhVq78bzk5DEvH9XYHTFUSWHwCIAECRKZ7q7/qcBJoA7MjMzAxHclEAcQASAHDe vL5fv/W7Iwmj0agrLS3tdKyUMcaG2YbNSx2YvH7GlGkPAHimj6oXMUSDQ/QANpstFSA3AwAB+dTh cBzs7zr1ERQANVDV8UIARwHU4gwhfa455x8ajiux2WyartLus+/bKQj8J5SSB9Xv4fRClPg9APPI 90BVkcGY/JfO0lrNOYusJsvdmZmZ+j6pXBQ9BgW7GiApcMuXhpO+9MiRuwghHkt29mk3tBclfjcx ePDgWID9BgAYw4qC4uLtHaUdZDRmtOsSjAAADblJREFUAux3IPi7XhD/0Xe1jKK7sBqtVgYkAYBC 2fXh5Dl48GB9i9v1YEtzy5yxo0bN7t0aRhZR4ncTUrPrDqh9XFCKP3ealhPmAxDVI/ZSb9ctip6D cZLPG6+WMFwQrvq+cdOmt7Va7Y8JCYlvzCKzThubWZT43YDFYtGC4D7v4fd2h2NtR2lNJlMigXKr 9/Bru9PZLlKrzWz5p9Vi+ZfNlPMLm80W1xt1jiI8EEImMMDBQN4DIDC3dHW4eYvsxdfKspyGqcoT vVjFiCJK/G6AAlcCGAgAjNFO+/YC4e4CSAwAUErapR03bpzAgGvAcD0j7D+QpI97pdI/ERBCqNWU c0uuybLWarFssVosHw02my1hF8AwAWDbOcLe8RYYlroPAAWlBQUcz73FmHKn1Wo1dr/2fY8o8bsB ytg1AMAAR1FJ0RcdpVMNecrd3sPvDxUVrQtOU1NZOQ2Af709xnxdgii6C0IIl2sybwRhrxPCcgBo wfBLCeRArtl8cVf5x40bJwAYDUK2H3I4fgBwCGBjbSbTsHDrUFJW9jvKcbWW7Ox/n8Sj9BmixA8T RqMxiYGcDwAE7L3OnDZ0vOZmgKQAHWsGhJFgy7HQUXk2m02Ta855zmqxXBEdHWgPq8lyI4BJYHgt ISUlp8DhGMnALgHACMiSQZmDUjrLX1tZOQKAlinEa6hVpT6jNGypb7fbXQ0N9b9pbmqeMGn8+P/r 8cP0EaLEDxManp8ALzkppSs7SjeLzOJB2AMAAII9HWkGjLBLvLve+O2sQ4nPPPKTBGw+GD7VCWKl zZTzyx49xGkCq9VqtJlyLrWacx62mXM+tprN9lxj7ogOMzB2CwAPJ4kPb9u2zQMAhU7nFwB7FsAA RXD/vbP7KYRMAACN7N4BAAql7wJgYJhLCAmbI1u2b1+m0+s26nW6F41Goy7cfP2B08YK2e9gjABE 3QW0HSUrzS6+CUC2moX9NZRmYLFYBnMgVrUs9iUB+TlAQhLfajbPBsj8gFM6xuj+duksll+BsbEE 9JCsIJ+KNL+goOBYt56xH2G1WOaBYR4BRgFIYuqr9s7OIaCUDQGwJ1ReRpEIhpb8svw2gQkMLS1/ bdTq7mDAL2w22712u/14qPxEwUQQOA8cPnwCAIqKioqtZstaADNzzObfWy2WIUQhq+zFRV2q8SV2 +w3p2eZ9VkvO3wDcEfYL6GNEiR8meK12g9TiagGgZYryO0LIymBSm0ymRIGQJwECAuwuLC7+KFRZ HCOXej9pF2F0GQj7OUKo+haLJYED/gVfi6PCWVBSsDc4LWHkUgbMZWCgFIAkw2q21BKGfIWQPYSw VZxbXBVMjt6AzWbTMEmaBcYmQ33GHwtKHMs79WlnbBhAZjHABWAnGH4kFLsZY7sFSdrtI2XovIhH iG95d3l5o9Vk+RgEt3mt9C+GzE8wgYD4/THUhlnVxAjDXwCAESQD6JL4+aWlZTOnTv27LEvzc3Jy XigqKsrvKk9/IKrqh4mDBw/We1VHAGROrsn8nc1kGuq7brPZ4kRC3vH27V1M4a5ljIWM186YV81n WMOI4iNiO4nPMbwCkCyobrLestiykGUSlufdrQbgW6Y3nhFMIGA3g+EDWXAfyzXnPNed5+4uBplM OYpH2gyGrwCyECCLGGFLc83mH0wmU2KHGRk5DACEkesLnI4xBcWOG+wOx/MFTud3nZJeRSUAncVi GRh8gVB8qO6w60JlVB2yMJgBTpvZfKfNZPmBYzgA4CJ/GYxcp43R/6yrZ/en3yg8wfNCuSXb9F64 efoaUeJ3A4XFxY8AzNfqz2SE7ss1W3ZazTnLmUc6wEC8/Xb2UCipDHjH9wmmAAAhbBkYc6lZ2hI/ 12y+BsBV3vLegDopBgqjIYkPBi/x2ZICpyOd12riCNhYEFztzd8MgBCw+bkmy6M9fAWdghBCZELf I8BZAPs3ARvDGD0XwGdgGC9Q+nbHmVmpulWyun1fkJ0AwMukXUisAqdzHYBjABlnNBqTgq+73e4h ACjA7mcgLzOCCYRhCwG7CwRLfbfYu3dv2HOVV7PV0onK4zc1NDQknap+/FHidwOMMVbgdF5PGLmM AQ4A8H7kFwPIAABGsKywuPj5jsrgCbkQPhJz3DKAV4lPWlV9W5Yti4C87C3/LQC+WFp1+lh9O6ch q9WaBu/QIAHNB1QNxe507ihwOD4scDpvdclSFmNYBwCEYEF3jFbhwmY2jwIwCUBFgdN5vd3p3FlY XLhKJrgDgBsMF3olbDswhTus7pAejIMrOwCAUbQjPmNMAcFmABApHR18neO43VC1pBKA/FmhZLC9 2DHR7nS+zBh7DQBAQ2sLnWH3vn3rt2zfltuRXaG/ESV+D2AvLlpW6HTkEKYM80qG/wDsCYWSwYUO x2WdReUhUIfxCLC7sLCwBAwu77EIqFITgvQmVLfgQk2T4W7mzQOCb0JJHubxq/mQFYTsU5aWllbB p/YCotlszu7Z03cMRkiauke2BZ53OBzlUGfzCS0tLTGh8iqc4pX4xGg1mcbmWixLrWZLndVsqbSa Lf+zmc3tSOvPy7gt3r3zQ1eMbVGL5sYEX7Lb7S7I3ITCYqe5wFn0UGCfPLvYsgJABWM4R5130T2c yvP0o8Q/CdiLi/fbnc6XCxyOXxU4nY90Zcjx+nJfAADM11dnqjRn3uG8XJPlN4zhXIBJhOBal+hK ULUKgCgktJpPZD/xqUg7rgNjFb5dARgQ3lOGD0klWAugzMjNzfU7Jw3JykoGMBjAUafTeTRUXqfT eQyAh4FNYYSuJQwXAawCqnZ0JQPZZDWbZ4XKW1RS9D0YSgEyzpadnRsiiRprgLGhIa6hoLSgIBRJ V7PVEiN4nIDcpvV4ajp/+tMLUeL3IQ6bnVPhneCjUG9fXVQlPkCEnJycQQB7GgAYI4vsDsdmRZB8 4/0yL7u/DFUuZcTmS0Mk6dpcU+4lubm5eV6PNADA8LThMYSQe9VbwW53OiMeKszhcNQA+BQgMURR Xh+SlZU8PG14jJsT3ocaXu/1jvJ6taQjAAYSYC3jaE6B02mTCdKZalnXAOTTUF0FxphCANWQxnHt fBwY4+q9u90OP1zocLxidxYt3l1e3tjdvKcyosN5fQiFkUuJOoxX7nA4tgIAY8zlHasTKWP/BqAD sLmoxLkIAAgjl6hDf2xTR9ZtRnyGPXAM5DlCFEAGaiorJavJchQEDdDDAub1P1DIs70VJNTQ0nxL o07HgeGXHp6f7REajxKGEQR4y+5wPNZZXgJsZARrm93uO8qcZU0A4F2yaoHVbBkF4CKPy/VzqHaP tnkJe4eBPMgYuzMzM/PvZWVlTb5rjDFCCABCqiL6sKcxohK/D0Hg89Zj/jFt5rPqAwQM4wHWQBT5 WsaYrLrnsnPULB2o+epFH/GPgsAO/9Af4UFgBDAEqtPRPkZwTWGJY3GEH82P3eXljYVO59UM2AWQ FDCMAAAFpNpisXTo+AQAdqdjboHDMS+QtD4wsCUAQBkJ6Xt/yOk8wECWACRLy4sPB14jFFcAAGFo N0Pyp4oo8fsQCiWXAeT3YOxt/zlFcQWmIaD32UtKCgFAz2vOgddLkJLQ4/eqdV71AgTY4gKHI08b Y9BTsKEE7NcAfF5+TYyjFxU6HB/0ZkjwWWQWbzVZ3vHaJXYQRq4jwEECNp9j2G01mcb2pFyi8IcA gDEW0jgIALom/b0AigjBH60myytWi+UKq9n8NAH7LYAdBSWOT3r0UGcgosTvQxQVFeUXOIueKSgu 3ug7RyltBqD2QRk+tzuL/NKYEcU3kafwkNN5IFSZFovFCG/jQBi1A8DevXvdh5zOA3anc4lLlsZB Jb+eyHKvh4gqzXa+xMDmAvjQJUtT7cVF72YVm0cAbBGAPEboyz0pl4F1qi0AwN5jexsUSi5iDOtA cDsYPgXI7wB8y2R61alsZe9rRInfz3A4HC3aGEMKoeR8ThJ/7TtPCCGAqtYy+B1J2kP29+9BKGu3 mGNpaWkzA3vSm+Kc3NzciA/jtQHBFQBklyz9xhetdjVbLRmLLY8DKCLAxI6kvtViucFqthy2mnMW BV+jnHIuABCKbzq7fVFRUX5hsWMGwGYTggvAlHEFTseFhaWF9pN/uDMHUeKfAti7d6/bXlS0ItCP 3mq1pjCgFAAjHbjpAgBHFJ9FH82SFPLj5j2aFd5dQiR2QaTqHQxv4IuBANlVWlraxpC2mq2WQLAM ABgho0IWwHHfAkgD2N02i2WS77TVbJ6sMDwEsAYPYx+GzBuEAqdztd3h+KazmIg/ZUSJf4rCbrcf L3Q6JskEGcZiy/qO0jFCfBL/RDDZfMgvy69Ux7kBEGVc5GurQhaEEwCTAMUUyjOQATnqDlcSKn9B QUEpAbsXQAxj2Gg152ywmi3fA2QjAURC6f915AcQRfcQJf4pDofDUb6arZa6SFYLoHNVlvos2qTX iK8uIknWASTFajY/onZXVFgtll8RhksAFFKRdtiQ2Z3OfzKwSwGsAJiFAQMZyMuEKWfZi4pWdJQv iu4huoTWGYLhacNj9h7b29DRdZvF8hhjeBSAhwh8rN1ud3WU9mSQk5NjogrbAiCNAAcZwR4w5AIY A6CGEFzRWZDSKPoGUYl/hqAz0gOABLzNGO5lIK8rihJxd10fioqKinlFHg2CFxkBB4Y5BNCD4TWZ YHSU9KcG/h9jZfMHduO/kwAAAABJRU5ErkJggg== "
       height="69.939034"
       width="64.598236" />
    <image
       y="423.79074"
       x="7.1221962"
       id="image3150"
       xlink:href="data:image/png;base64,iVBORw0KGgoAAAANSUhEUgAAArUAAADfCAIAAABnMrwDAAAAA3NCSVQICAjb4U/gAAAgAElEQVR4 nO3dX2gcV54v8PJmuEbZka30jCFWm+tOkNvrAdltOkhP1yo/zB2Lm17LehiQPMEt8LRf4isJZczA DHQ3TGDwjpC0yosbg2QykmDhyvJ2FnnHDy55nyTSuGPBOlZ6nDa42wFPOoq0RAg2+D784kqlus6p U3+6ulr6fvCDLHVXV9efc351zu+cs+fFixcSAAAAgMbf1XsHAAAAwHcQHwAAAIAe4gMAAADQQ3wA AJIkSdsbTx7fSTy+k9jeeFLvfQGA+vtRvXcAAHzh4fwvKDLY3nxyrPff6707AFBnaD8AAEmSJLXZ YOPpvfruCQD4AeIDAJAkSdp36BT98Hrk3fruCQD4wR7MfwAAZKN0T5KkfcFT9d4RAKg/xAcAAACg h/xEAJCe3PvNN397oP53X/BUsPN3ddwfAKg7tB8AgLT8z03a/+7ddzgS/7ReOwMAfoD8RIDd7qvH Wd1vtjeefPP8geGLAWCXQHwAsNt99Vd9fCBJ0vOHH3q/JwDgH4gPAHa1b7e/NgwFEB8A7HKIDwB2 tS/yHxj+nhU3AMAugfgAYPf6dvvrZ/lJ1l9Ly+97uTMA4CuIDwB2ry/yH3y7/TXrr9sbT9CEALBr IT4A2KX4jQektPw+J4AAgB0M8QHALvXXO782rfu3N548Xf6DN/sDAL6C+ABgN/rqcbZ62gNDX+Q/ oHUZAGBXQXwAsOtsbzz5651fi7/+8Z0EehkAdhvEBwC7y7fbX6/92y8t1fdW4wkA2AEQHwDsLv+9 vb698cTquzZK92y8CwAaF+IDgN1l777DP+v9yyt794u/5ZW9+3/W+5e9+w7Xbq8AwG8QHwDsOq8e OP73B05U/37vvsOGQcDfHzjx6oHjtd8vAPARxAcAu5oaEOw7dCoS/zQS/3TfoVO6PwHALoT4AGD3 evXA8Uj80zd/npEkaV/wu7CAfnjz55lI/FM0GwDsWogPAHavH+1tkRjtBPRLegEA7EKIDwAAAEAP 8QEAAADoIT4AAAAAPcQHAAAAoIf4AAAAAPQQHwDsRv+9vV6jFwPAzoD4AGDXeXwn8c3zB7pfbm88 2SjdM1xn4ZvnDx7fSXi1dwDgC3tevHhR730AAO88vpN4/vBD+vmVvfv5CzlqX3Dg2Ds0kxIA7AZo PwDYRZ7c+40aHEiSZLrKs/YFzx9++OTeb2q1ZwDgM4gPAHaRb/6m71bw8u0A0EAQHwAAAIAe4gMA AADQQ3wAAAAAeogPAAAAQA/xAQAAAOghPgAAAAA9xAcAAACgh/kTAXa+7Y0nX+Q/+OpxtnruZKv2 7jt84Ng7Pz32q737DruybwDgT4gPAHay7Y0npeX3tXMmuuXAsXeCnb9DlACwUyE+ANiZahcZaB04 9s7hU//0yt79Nf0UAPAe4gOAHeiL/AdPl/9guryCK17Zu/9Q5+9fj7zrwWcBgGcQHwDsKN9uf732 b7/ceHrP48/dd+hU+P/8CxoSAHYMxAcAO8dG6d7aR7/0ptmg2it79/+s9y+vHjhel08HAHchPgDY IZ4//PDxnUS990J68+eZA8feqfdeAIBTmP8AYCfwSXAgSdLjO4laJ0UCgAcQHwA0PP8EBwQhAsAO gPgAoLH5LTggCBEAGh3yDwAa2DfPH6zOddZ7L4whXRGgoaH9AKBRfbv99X/O/+967wUTjbSs12AK AHAI8QFAo/J/7bu98eSvd35d770AADsQHwA0pC/yH3g/CZINXz3OfvU4W++9AADLEB8ANJ5vt79+ uvyHeu+FqL/e+bXP2zkAoBriA4DG8+Teb9ytcffuO3yo8/eR+KeR+KeHOn/v7jTJjRXNAADB+AWA BrO98SQ//Q9ubW3foVM/Pfar6hkPnz/88G8P/+xiF0Yk/ikWgwZoIIgPABqMK1MLvLJ3f+DNfwx2 /o5fZ3/z/MEX+Q8qj//VeXPFgWPvvPnzjMONAIBnEB8ANBLnjQd79x0Odv4u8OY/ajsRvt3+uvL4 X0vL77+yd//rkXer//r84Ydf5D/Y3nhi+3Nf2bv/ZPwRFngEaBSIDwAaSWn5fdt9+QeOvfPTn/1q X/CU9pfbG09Ky+/rWghe2bv/wLF3Xo+8q2td2Cjd++L+B7bHIxw+9U+vR961914A8BjiA4BGkp/+ B6sP8Xv3HT5w7J2fHvuVrrIXyTDYd+jU65F3X3szpv3l9saTvz3887P8pNVOh1cPHG/vW7b0FgCo F8QHAA3D6mzKhrmHVLs/f/iheJxBEcbrkXd1vQM2chiRpQjQKBAfADQMwc4FVu7hRune3/7zz05y Gw17KCzlMKKLAaBRID4AaBgP53/Bf1jn5x46yS7UevXAcds5jPsOnTrW+++u7AYA1BTiA4CGsfzP Taw/ieceusV2DmPn/91yfWcAwHWIDwAaw0bp3sP/9wvdL53kHrrFag5je98yFn0G8D/EBwCN4fnD Dx/fSaj/dSv30C3iOYzht/9FF0wAgA8hPgBoDJScWLvcQ7eY5jAe6vx9sPN39do9ABCE+ACgMZSW 3/8f+/5nrXMP3cLJYaTEhTruGwCIQHwA0JBqmnvoFlYOIwD4H+IDgAbjZe6hWwxzGAHAzxAfADSG OuYeuoWVwwgAPoT4AMDv/JN76BbDHEYA8BXEBwA+5dvcQ7cY5jACgE8gPgDwnYbIPXQLchgB/Anx AYCPNGLuoVuQwwjgK4gPAOpvB+QeuoU1YzQAeAzxAUA90cSCOyn30C3U6YCVGgDqBfEBAAAA6P1d vXcAAAAAfAfxAQAAAOghPgAAAAA9xAcAAACgh/gAAAAA9BAfAAAAgB7iAwAAANBDfAAAAAB6iA8A AABAD/EBAAAA6CE+AAAAAD3EBwAAAKCH+AAAAAD0EB8AAACAHuIDAKih9c2tdOb2a/JvF5TVeu8L AFiw58WLF/XeBwDYmaazK+nMYrFckSRJjrbdzVyu9x4BgKgf1XsHAGAHUnKF4T/N59dK9F852pa8 1F3fXQIASxAfAID70tcW82ulluameKxjsE8OtQbqvUcAYA36FwDAfUquUCxXeuT2luameu8LANiB +AAAAAD00L+w861vblE3sBxtM32xkitIkhQJB/mPfcVyZXh0vit6ZKi/S2QfiuVK8VmlpbkpEg46 31vBnTR8V+hggNXWnV8rrW9umW7H9FvwtyNyEKqtb24tKKtPnlWUjz8LtQZCrT85EQ72yO2C7xU8 pCI4B5DOsshGRC5FU5x9tnpt6DY7MatMpc7b2ILpEbD0xS3duUTJFZZyhWL5y2K5Ir915PDBgBxt Q+cO2IP2g50vnbmdurYoSdLdzGV+QaPkCqcTk5IkjY308it+9ZU3Ry+K1FLnRq4vKKstzU1fKX90 uLf5tdLJvquSJMVjHVOp86YfTRaU1XMj1yVJSl3qTibOGL7mNfm3IvGBJEkvchOcv55OTPKr21Br IB7rZO1GNfWY6LQ0Nw31y4N9XfyaTOQC2BMdFNyZHrn95uhFwz+ZfnEV/wCKUK9Alh65fWyk10bV +EYsXSxXONcJh+kREDxlRPzOlSQpv1Y6N3KdhoroyNG2sfd6bUSlLNPZlRvZZXe3CT6E+Q/AwNf/ JVRNSpI0kJpRc9Q5qN4VrH35IuEgFfrT2RXxDU7MKvTDhbc7WK8R3Jrzp7FiuZK6tniy76rIJw6k ZtTgINQakKNtalWxvrmVurY4PDrvcH8kSRJ/Vm6UfIIFZfVk/9Xp7Iqld1HahCRJ47OKK5erDp2y 04lJdzeeXyudTkzSnrc0N9FFop4pJVegkNoV09mVgdSMkivcwoQWOx36F8CR9c2tgeTM3cxlL6uN ZKJ7IDUjSdLE3JLIQ15+rURPdfFYh2nt7uIwfcPt3MguU6VFD3z8z5rOrtCLI+Hg2Hu92shgYm6J 6rCz8nHnu1rdrkMtCvYeo503D4iLxzouxDq1v1nKFaazy8VyZX1zayA1EzkaFH/MTb8MxahDJx5j RpN8hqf1lvKAglqqzu/PXbG38WrnRq5TwKE7X0qukL62qOQKrnToSJI0kJqxGnJB40J8AE7l10oD qRlWm3MtxGMdNOvO+KwiUnt933jww4qk1gwLZTnaNtgv0xOkkissKKucDpob2WVJklqam26OXtRG Ni3NTcnEmcG+rvxaya2iv0GFWn+iOwJytC2ZOKPWZOdGrn+eTYpsSo0jSTqzaDs+YJ36C7FOOvX5 tdL47JJg+g7fgrJKLQfVwZwcbZMzl/NrpdBBF1IQEBzsNuhfAEeo0lpQVtOZ215+bjzWKUnS+uaW aYFVLFfoNdqW+fqKhINjI730M0UALFRdsVLMqCW5Fnu4A0ylztPBKZYrIl1gkiaOpLCgWK64Pid0 JBxUI2n+qRf3yctvN9hnHG04ydZUDY/O032EbMfdA/EBODI28l2OUuraopcT7KsZXumMQeKe1o2P vgsgPG484IvHOmj/RRL6GqXL328G+2X6QaSnXI0je+T2ZOK7qR7ViMFFcrSNbhnBqMVXeuT2+7Ou dYuAzyE+AEdampum0t+NBBPMVXTrc6lZvliucKrY9c2t8VlF+m7IgM224hqhSoKfp6Y2z9QiV27H s9S4osaRg/2yerUouYL4yE9xNQr4ahqgJxPddzOXb45eRLS6eyA+AKci4SCNM6RcRc9qMvUhL200 9o+oNav6Yv+ggfL80pZquPXNreHReYQIVglOxiBp4shIOEjHXL1g3OoF0H2ci1s7+zJ/ZXh0vnYB OjqzdiHEB+CCHrk9dalbepmr6M2HhloD1ISgjkmrRr0PamODf6j7zC9zk4luCiCmsyviswsAUbsV Dptl56ljZdUuCRpKSn9iXV325NdKVIu7NXlA5OVMWeubWyf7rqYztxFKgiswfgHckUycyT96uqCs Uq6ijUFxNgz2y9Smms4sVs+VpOZ1D/XL4o2ixWcVTq7lhbfNR0iaf0S5QpM1SZoKyVCoNXBz9CKN XqNBcZFwcLBf9ltfiQ7nAHZ5lSWaXytRk4AkSabR4cScIlV1Qg32yxSQTcwpaj6pQ9TGpm7flW1K kjSVOr8+cp32NnVtcXxWwbJY4BziA3DNVOp8MTGZXyulri2Kz/7rBA1JUHKF6ezK2EivLghQk8tY ed2GaPIizguchD6ULaF2FsRjHaaVpRxtuz97hWakkV620AyPzg/1y94EYTZwDmDqUrcH8YGSK6hT Agz1m0xWqLYQxH+Ywdojt4daA5S3qDbk2EYTKtC4XEmS5Gibi0FeS3PT3czldOY2TYmxvrk1Prs0 PrsUj3UkE92IEsAexAfgGspVpOHdA6mZUOayB9OvXoh1vnzI+8FcSdo5kSyV7Pz1Ebqs1G38SYvF 54cOtQbuZi4ruYI6txJNwzedXb45etGHc9xyIoATbu/tdHZZ+fgz7W+Kzypqj0AkHDRNPaE4sqW5 qTqOpJm4aBitpbkK+KdeO8rRRTQlxsTcEk0PJb2cX8veJFcAiA/ATZSrSI9u50au35+9UutsZ9Zc SWrjgdXMxEg46Nb8iSyh1kAy0W318ZEaS5KJ7nRmkaKEYrlysu/qVOq837oban0AtYrlCis/oEdu N11mSckVKBvAcCnqHrl9uLlpfXNrYk5xZS4jWn+hdrU1TZyVTJyZzq6obRWpa4vF8pfii5UAEOQn gsvUXEVtL3tNDfbJ0g/nStLOiVSvxlWKM7T/6LBIkhQ6aH+wZag1MJU6/3k2qTYbDI/Ou5tA1+gi 4WA81iE4GI8fR1J1LmmuKEG6U6/WzVR/i2/Htnis4/NsUr3kprMrHs9gBjsA2g/AwP4fO3roV3MV qa/drdwuFmpCWN/cUifEVceyJy/VbVhj9XgwOdpGDb80qt5JNzz1OJxOTNJa0jc+Wtm1DchOGs/V GRJbmptY427UsQATs4p4VKc/uVHpRnaZBq1MZ1c8a+9JJs4cPhigryY4GTmACu0HO5/aZZ5/ZDI2 eunl8LnIUaedxFOp8/SAOz67VOs521uam9QJcZVcoXosu3+IzNkgiLI96GddBzwIUiffpLUwDP+p MwroVmewSg1VTWf8dFc81qHOxNWIMzZCHaH9YOdTG6JN+1CnX04F4zzlTZurODw6X+sshME+eXx2 SZKk9LXFC7FO3Vh2/1CzJWjMhcPnSB9mJjYQtUOK1sbkvLJYrny3XuisYjviVMfaFMsVzwYAk57T xykywLwIYAnaD3Y+7VTEVIkaSmduvxzlZS3hn0U7r2KtO8i1E+LS85kPJ1Qm3zchCDxHTmdXKH/e 8K/q4yCmvLVhYu67e2GwX6bKm/VPHYaqzqhhj9qEQKMQnX8FQrnAnMmVF+4+oB9cWcURdg/EB7uC WjANj84bhgjjs0s0Zr2lucnFqYjVXEUPqK0FVIJT0qIPxWPfzbBkmvJGj63T2ZWT/VerW7a1M+2c lY/XaG93KqsLc6hXl5PeAXUF0fXNLTU6cW4gNbOgrJ4buW44c+J0dkWdrhETIYAl6F/YFehRntpI h0fnJ+aUeKyT8hKWcgV1tLQkSWMjve4WImquoovbNETZBlSPqhkJNvDnT5Qk6bCD0QeERtVLkjQ8 Om84rE5F8/MUy5XTiUk52nYh1klnJ/+oNDGn0FmjdH0n++M6/gHc/+MmV8YKOqEuzBEXW9VTO1dS 9Uxc4pKXupXEpCRJqWuLrszFKWkWXKYpMXrkdooX1ze3bikP1BiU34cCUA3xwW5BVQjN3Gc4RWBL c9PYSG8tahp1XkXXt6yjTojrpIvEdP5E6eXBtE3NQqDnSFZXdKg1QDMnUnRluJagB7M12GB6AOse H6gLc4jPralGdZxTZkrNQpAYk4LbMDbSeyJ8SL21aeZE7Qvo1vZbri74H/oXdpF4rOP+7JWh/i7d U0uoNZC61P15Nile7YUOBlqam+if6YvVNaBFXkzz64VaAzb6SukhT7LbuSA4IbRpOUv7wH80FHwG bWluujl68W7mcnXEQ21C9+fMZ6CiQ9rS3GTpkNL+m65spCW/dUR8yw6pV6CTCRktLcyhdgytb37D eg0N/DFZc+uS6FTNdPBF7gWa7WBspFeXskoNafdnr7gb94daAw6PPDSEPS9evKj3PkAdqIOdIuGg N9lt1Bhe6x7Q9c2t4rPKTk3sL5YrtGYxngWBg9onQgcDSDgAJxAfAAAAgB76FwAAAEAP8QEAAADo IT4AAAAAPcQHAAAAoIf4AAAAAPQQH8BO4MESDwAAuwrmT4SGt765dToxKUnS3cxlrFQEAOAKtB9A Y6PgIL9Wyq+Vhkfn6707AAA7BOIDaGBqcED/nc6u8FdEBAAAQZg/ERqVLjggLc1NXyl/rNcuAQDs GGg/gIZkGBzQ7+uyPwAAOwziA2g8rOCAVjusyy4BAOwwGL8ADYYVHMjRtqnUeSxYBwDgCsQH0EhY wUHqUncycaYuuwQAsCMhPoCGYRgcyNG2sfd6I+FgvfYKAGBHQnwAjSG/Vjo3cl07SWJLc1My0T3U 31XHvQIA2KkQH0BjuJFd1gYH8VjH2EgvZksEAKgRzH8AjUHtXIjHOpKJbuQhAgDUFOIDaBjrm1vr m1t1jAzyayWaXyF0MIAARZyXx219c0vNUJGjbTX9LCA45juVQf9CsVy58ZGdSWpPhIPU3uviJaLk CreUB8rHBbr+hvq7xkZ6bW9tOrvy5Blzlb/DBwPxWIe9LacztwVfSWn2/D1xkfqlxPdQ58LbHfwy 3faWtSMObG/E0qdYtaCsLuU+yz8qKblC9V9bmpsi4aD81pGzcrvVBEn+9+2Kttm7iZRcYcloV939 FFPFcoUOnZIrVM9Y5eS4VcuvlZSPC0u5z/JrJcM1POVoW6g10BU90iO3W+2Qsl0YHn4ZCUVelori LJ1EHSqEax2HqeeXdcwj4WDkaNDGMTf97oN9XfZ6FS0VuVTo8c++7avXxk3q5JIQ2T7rrwbtB0qu QKvhOaEWAU7KoGK58kYsrf1NqDXweTZpe69OJyYNC3rVVOq8vRBhT3RQ8JUvchMie+IWOdp2N3NZ srKHOnczl/ln0PaW6VA43IilTxGUXytNzCoLyqr4bIyh1sBgnxyPdQgWXvzv29LcdDdz2Ubpk87c Tl1bFHxxLQaFKrkCHTrB14daA/FYp41Cf31za0FZnZhVqge7csRjHRdineIlkruF4YlwsEduN329 pZPIIUfb3ArCVNPZlRvZZUtlV4/cfiHWKfLFJYHv3iO325sDzVKRS4Ue/+yHWgP3Z6/YCFZs3KRu XRKs7bP+Wqv8xPXNLSVXoPPR0twUj3UM9slWQ9rqUobiVsFLzYaB1EzkaBCD5XatYrkykJqxEboV y5Xh0fl0ZnGoX3Ze6a5vbg0kZxpruer1za10ZnF8dsnSu4rlSuraovLxZxTFChqfXUpnFm3MpU0r eHk8JlZXGPbI7d4k0NCHpq4tytG25KVuh21F09mVdGbRsLWAb0FZXVBWI+Hg2Hu9zturFpTV4dF5 J63IbimWK6cTk/fnrtR7R2rIID6gaNdSVM63vrk1Prs0Prs01N+VTHSLF3kTc0r1L28pD2oXH0iS dDox+Xk2abVcVq97TtWibWn0fpkAOdqmdgOLE2kdpUDbxv4434i7OEF6qDUgR9tCrT85fDBArZT5 R0+rG8/XN7dS1xans8tTqfMOi0Iaz2mp1pQk6fDBAH2utku4Gr3m8EHXqijOpJZn5eORo0FJkorl ylLuM8MFNuW3jgh+UH6tNJCcYX01emKWJIlO0/rmN2rXpJaSK5zsuyrSWVmLwpBiFM4AHOqbsFET syi5gpKY7JHbp1LnbUSc/KBZ8Jjn10qnHeyD1vjs0onwIasNvXQRSppsmGqh1kDoYECSJME9zK+V BlIzU6nzlvZEvUmLzyqcs6y9SV2/JATx8hPpON7ILrPWzG1pbtJWpcVyJb9WoiKAcwJujl4Uidzz a6WTfVdNP9QqfvlCIuGgk0e36ezK8Oi89ghEwsGboxe1Twy65uVQayCZ6KaOUu3vOQ1c1c3+xXJF yRWqY3xtA3uxXCk+q+QflTiPX9QGSyWjyVf94acXn1VuKQ84T5BD/V1n5eOczlHTjajdJYbvVXKF 6sbP+3NXTL/I+ubWuZHrhiUg/9mL81A1NtLLn5uh+jqpFo91WC19VOubWxNzS7qIJ3Wp23YPLueD qoODUGvAMEgqlivnRq7rXizY0zGdXRlIzVT/vqW5aahfZn2vYrmSziwaFmLid7pIYajtEqL47Jby gFMY0nIhrEuLtlAsVzh9KNr+UGqloE9kfQsbJduCsjqQmjH8CqlL3azkJM4xN60C1je3hkfnTRdq F7mvWaprAda5GJ9dGh6d52/N9E7nMDxQnA0quQL/kuB0B6uXh/ZsckpUSWT8wvrm1mvybw3/xCq8 DAsmlWDf6kBqhnWJ2M4SUHfP9PpzUi5LP6zXDQMabXzAuWktxQekurA27IDn9MZ9pfzRSf3xRixt WF9ayh1hbYR/NRPdLW2aP8EJGUWuNM7lZHoViUSrDq927X0kcvRsGB6d18Vz/K7Z6ktUJD6o/hQi R9tujl40vWKVXOHcyHXDZElLqR6sxBHOsU1nbo/PKqwowfT8sqIiiXFtG0ZgIvsp/tGRcHAqfd70 oLEub5FjzvnW6kacPCiub26d7L+qFjKcs0AtH/w43rSQ4Ts3cl3tTBepeqxeElq6y4N/PZiv38g5 AaHWn7DekkycYdV5VDqYNpVwUpxuKQ/47+VraW4SuSedZNRrz1B1E70ubnW3m7l6g4YlBadF1+HO hBit1qzfO3+xzlB/l/bk5h/xal/qRDQswu7PXRGpmDmXk2kZR6Ehv6AcSJkEEHwXYp3qz+LN+OKU XKG62uZ3I9pYZnMgNWMYHMRjHYK3D5WD1a9k9YywsJq+1ObrapzCUJKk4dF5/qdbzVQItQY4F5Xh +TLECQ4EIyrWK0WOuWk1SRux3VFLiSDqfzl91iKNLpyATIT2Ju2Kmt+kTpJXqP1G/S+/V7eG6zvL 0TZW9x49cnHey2mUkyRpQVl13hMzlTrPz2NIXVsUT8OuxgnitF+tFpMAUnOr4cftEslEt/rzk2df sl5G3QqGx2dsxFr+GidE4BfHIgGiSDwtoqsGoxlvZJd1v6F8ZP67Qq0WxhJTh3317yPhoKVGPlZB T9mggrcJK3JtaX6V/9GskIg+XeSjxfEjsHTGPBNeyRUMgwMKPsSLLNbl7UqIkF8rmTb+c/ftVc3P vG9kGiJYuoSM9uT7LXuQuKq7+zhlSw3jA0mS4rEOVjW5oKxyLg7TFgInNbfKNFPG4aMbi3Yka41y LS+8/f3pr9HAWT8LtQbU2p3TfsA6vz1yu40m/bGRXsN7e3h0nh+kmz5Pc+KYuquuuQXjqkFNCMtB KWDVv7fRCCFJUiQc1MaOpp/iIjnaxmnBdqVA0+JEYDQ0lPNeaoI2/JON7ELWmRKpU+OxDn4J6bCh VxzrylFRQrEHe+KKs/Jx9ecie1qI2sYHErcUqH7yIDSIkb9Zw6ENVpmm4NW6XLYxd4qgUOv3OYAu pqk3kLH3elOXuu9mLrNqERp2Vf176i+w8YmcN7IyvFSmnZceVGA2OBlyor349/+YmanAKnOH+i2P l375xi7Do72grFodnGkVpzB02GdqSFsH6HzCfexhXa6c5z0+VmyUXyuZNmZEjh7iv8BhQ684ThcS UXIFJ+0ZXuqR21OXusdGeu/PXeGc05rHB5zoj/VgJ3KyaayE/d0SRv3T7m4zmTjzIjdxN3N5Km0/ BdLUzdGL9+euvMhNOMlua1xytC2ZOCNH21hJMKzqdqhfth20yYzZwIrlysSc07pnQVn15lFJnGHL pHjQQGN2euR2VikxMbdk+BEtzU2DffbX7UxeMn4QtDengrhIOMiKaWpRw3EefpSPP2P9aTq7wjqD /AdoPtZ7x2eXnJfkNWrotWF8dsl05IVPJBNnhvq7+E/INY8PJPazESmKpyIAABUHSURBVOsqVNsG WpqbOAOUWc0PrqvRo5scbavpDC2RMCZ6YpqYW2LVBE4qHon9jJi6ZmdumeqN+Kr0YU1YK1jbDfV3 UQMPa4zc+Kxi+EbxeSoNsW49Gnhle7MiWOkLtYhL7LWvsB7oe+R2h2lxrAeV4T85feb2VQecf4IV 57yIDyzRTujN73zysqBkZUhBI1rf3GJVPDam6K/eAqsYdaVTzDTd3Q8mZhXnG7nxETNJebBPdrhx bca4Fmcgois4Q0jqPj+YJEnT2RVWFMs6YuJY/R1KzmA+Jatq0dBrm1sJxXXnu/hAW7JciHWGWgOs EME0y8YSaufkvMDetLvgQ5zRMZwuW3GsC4k/Kkc11M+bv8hXj0qsvAHxQXQcrBiO00ovjlOq7IYn AWYIO6uw3uI8k5oTfAsGlOaziXiVo8Mfd+arm9QJ38UHapWvpqBzimx3uximUiYzfjgc5AoeUCe6 5+BcNq4MJ2GNYBaMaFuaX+UPpvLPoxInY0tkCjwOTiwlv+XCKE3tCBedmnZcFsvM0bZO5vwwxLkR DC/R/FqJVb65NcyKM5xN5O3xWIfpnKTehHeRo0H+5NwOx17WCE0yK9624UV8wBo+UR3DagsFtQmR 09doaYU9Uy3NTVNp3ugdh4NcwQOnE5OnE5N7ooOswpGT2erWcBJOPrBgmnokbF76+GE4g+nMTrYL a86BEplARgQrzmCtWewKzpZdH/jOOoa6qYE0r2dW0qaDCAQ5DJ0lSRob6fVJQ2881pFiJLoSz8Ze irvx0crpxOQbsbTgA0bN44P1zS3WLVFdjGovaMHJrdzN++VMY0J8Ui6DbZwLxnT8kqCW5iZWWS9e cok8KtV6PJ4pVk2jGkjNmI7tNMQ5UM7XACQnwsw6r3bj5TjTHrv7QZyOEtYInYW7nJjMnd3j3GJL OeaQCh3/NPQmE2f4o8P8llBsVc3jA86dpus40IaQuiQvTmqMK5lQWnK0jd/LRQuMuvuh4AqRQuGT taesP7HmC7eBk6YuXnKZPiqZzrzkAdNpjqazKyf7r1raT84Key3NTW5NGcJ5XudcJE5w2jtdSXzR Yi39FQkHWUtdcK5Mt0ZCccIg5WPRK8RXDb2mE636KqGY071lqObxAav+rk481MZZurulemFDVS0a A+OxDn5U2ECDXHcVkRKBM52ii9MPc9LU+etB6PjnUYnFNLFXepkwYbpYpfb1rD+5OGSXU1dZOkfi WJkNIjNSW8Lq2aF5gg3fYjrFpzt7xmbpMvZPQy/NDtkouYpW68raxgecuS+qp8tQbx7DRktOGXTj I/eratNyeScNct0xRHr3637WWHMGGBIpfeqeE2N6s5Dx2aWT/VdFmu45s/t5UFFJtblIlFyB9d2d TMmlRX0Kb8TShsEBa4Uq9b2szbrb98HZmqXayz8NvbQmBecFPkkophXALb3lRzXaFYk7d2b1/Pba 1FnDYTCDfTKrt3U6uyyyeLxVdzOXtQuAVjudmHSywKhvsVaw9QPOJX5LeeCwP97FcvAEb3n7byxt itZb45QvNPF7LRZuFkTtvSKL6dHE/j1yO38af84hcitRjrQ0N3kTWnEm5+c0+Jsa/tO8ehiLzyqs wqqluSmZ6Oans/BnXPZG8VnFUpJmPNaxlPuM05Q7Prt0InzIgwlkaakwTosFtWfYm7jdElbTV7Fc sTEwp1bxwfjsEit2M1x1TbvrhtkGNB7JMK6nMRuuJ/jQoxun1KMlyNxdnRn4aC12J293cWc4OJeE jbZrelTilD408Tt/yENNUcP1QFKoUW1BWVVi6ZujF1n3bI2a96tFwkFWuOlikbKgrLKSNDkN/iIE r+fQwcCTZ1/m10r2emf8XL5Npc7nHzGHZUqSNJCaiRz1YibZeKzjk7WnnEeU6ezKifAhfpTmnLtN Ji73LxTLlfHZpTdiadZe9sjthhWqGgOGWgOs25KTpVijIcumC8j6c5ArsPikF9AG/+fEUFUnWKdS bO230V/uotb+04lJVvez6arBbsmvlcZnl072XT2dmLSR0Opum43r7mYu81sdRFq2XDE20su//v2Q UGyJO+0HpxOTnNYtwmnj0qb1cvIM4rEOVmW8oKxOWdlhcbTOVeoac5Gx6exKqPUntejgqBeHLdXD f/JRvu5OMpU6T01lrBd49qjE0tLcdDdzOZ25zblftFLXFovlLz1odPXAdHZZu+gRZwgGSV3qdl5o VM/Ywa9+lFxBSUzGYx386f8ai68aemlPOAUgdQU2yso47sQHprmvQ/3yYB9z1ljt0z9nZnXKWzTM 8aFQvUb9TMnEmWL5S87DWera4olw0K0pxurOYbNqTW9CyrEy/FOxXDl9yWTac9enqPOYaelzOjF5 f/aK6zPtWJJMnDkrtwv2NdBt5cMQweplXCybPCCp4rGOZKLblXM09p7BA2uxXFlQVifmFNb+TGdX 8o9KO6ljlBp6WRke0suGXg8uM9NcHEoort3B57ThiQfuKnf6FwyvdVqwayp1/ivlj8nEGU7erLbK H0jN0BR4hv84JU4tFlBXmQ5yxXCGugu1BkyX7fGs4uQ8OzqZhUlk5LcfBlNFwsH7c1dSl7pFCsHq iZ44o0Pd5cGIf1WP3D420vuV8sep1PmaXoeh1sBQf9fn2SQnCZTyeASvE6sZtXVBDb2cF3g2m6F/ xl7qcGphFnfaD8ZGetX018MHA5RLKLgruudy290zC8pqsWwt/VUcNZy+EUtzosJzI9fvz17ZMSF5 I3JrAkTnuCP0XnWyZf88KplKJs5ceLtDZL7b4dF5h8sH2+NiICVH21qam1gjGOmseVw4xGMdkaNB VhxA48vUnFbO5B+epYs6bN7zT0OvHG0bG+nlpKbR2EvvE4o5CbmG3Gk/6JHbk4kz9C8e66BbRfC9 LqYW1m5WVOlliNAQq+bsWiLlC29WHE9agDhDHwXRkyjnBf6Z+J2GhouUg9qx0JxDZHUCOHtsdLHJ bx25OXrx/twVw4YHS8/rLuI/y47PLql9EJ7FLpy7zHmA6J+G3qH+Lh8mFFt9gqrz+o3aaQ8i4WDq UrfpP874kJouvCY1zqo5u5ZI+cJ5jYvFd/4Rc4JeVxquTUsfX038PtTfdX/OpGltOrui1lWcQ+Ti ZKmcBynbFVUkHGR1AHGmQKgpOdrGuVQm5hT6gXfMrczoZYq5LKcbo0lNn+K87IDz4SR7Vhsvazg/ kghtjZ681C3Y8kNdCdW/p2ijpqmhIoNcu6JHPJiRAwxRKRM5GmS1JXRFj7AqzvyjkltD3jkz1bjV im468nt4dN4/HS6RcPD+7BX+bNBKrhBv7ZAkKdQaCLUGDI+hi3UVJ9RwskRkJBxMJroN25brNU3F Wfk465pfUFbV/ZGjbYYxkzcxmYuro93NXOa01lBD7/25K658HJ/gJHse7Ak5fDBArfuC633Uuf1A vWpNF4LT4s21XOMmBMlPC4xCtbuZy9SgzaqGORGAW6vycBZhcrfv0z+PSiJoIkjODmuPP+s0FcsV t74R53Q7DBOH+rtYWxifXfK+cOBcddqqi1NnuLXP3NVPXEtK9U9Dr8j86F52PMVjHXczl2+OXhR8 gq1nfKCd9sDSAzcnTb2mKQgqkVVz3G2UA7dQ8qzhn9wqBDnbcXeZPpGcGF91eFGIwPqrtvLwoK5i LRgYCQedt/Ek2bn09ha8dojzjdQQgRNGLLl0zFmLOFt6PhQhsjw6Zz1rF4lMspe2OOzQM/WMD0zn VGbhFPE09tfpnpkRiQpdX1US3MJaklh8CDsfa6it64WgJPCo5J/2AyJH20SezjnDGVwZyVwsV1ht PKYrVovgfM1iucJamKZ2RFJ3OXPXulWVsmK7WnTImjb0etb3bzr20rdj4+sWH2inPYiELU/6xokn ajoRgor/JAR+Fo91sGI7V4JLzjJ9zjdeLR7r4Jc+NaLkCunM7XTmttUHesEKOM64x105R6xFX12M 4ThNCJyFbb2njcNY5Wp+reQ8dNY2GOuYzlxij+DKoh6gkX313gvL6hYfaG9yS40HhHOsp7Mr3jwz mS4wCr5Vvbw4UdO5bWNdfi3NTYN9tVqaJZk44/30nUu5QuraYura4sSsYumNrIdUXYMBa8ZVmizV 0idWm2YkKrm11LJk1lIykPS034cVw+m+bDzWwapQWRGVONZ1Eo911G7eGn5Dr5dMx176UN3iA+21 YqNo44f53mQhSAKr5kDdGT73DPV3GRZJxXLFYd3DajpOJoQmE7Stjo9KVtsPWMfhRPiQ7mWsrhOH 7fPasZRaodaAuwupcJ58aM0kFz+Lg/PoXx3BjL1nfMzHZxUnz11KrmB4ndC6PLY3a8o/Db2m2UL1 wjmt9YkPtJ1/tudN8345R0NTqfOuLy0NLjo3cn1PdPA1+be6KYNYbT/pzKLtcjCduW1YFsvRtlqv 61rHRyVXHuglo+cEmmyt+pW0Tqy9T1nf3GJNbOd6cyD/yTidWfQmS4nzvFSdB8q6Vtc3t5yEZcN/ Mj7mbi1FweGfhl4KEeq9Fz+g5Aqvyb/dEx082WcwDrM+8YG2Fdd2RneP3M4qDZVcwcv0wJujF+u7 Ig6wqJFodZUvR9sMu+2L5Yq9NbvzayXD5U9ampu8KZ5oskIPPqiapZrDsOtdjrYZ3kSsoCedWbTX hc8aPpC61F2LQJ/zcLy+ueXB6JL1zS1WrxmrFTaZ6DZsi7I9OHN41HhNV9NRBm7xT0Ov6XAGj6nP 0vm1UvWNVp/4QI1nW5qbnJw2P3QxSD7r5QItbafp4aoUblbS0HR2xWrBTRPoVv+enhg8Cx+9LH20 M/YXyxXxGZ1vGd2brGw+VqusvdkdBlIzhiVDPNYh2LNg9RP5TQiU42lpg1YNj86zHpZYyRaclnD+ DFeGqtffIqZDb6o5eepzt6HXSVeLZ1GRKe0ogVBrwOX4wN5c6NrOP4dJVZwuBpFEM+08Nkqu4OSU 16hcrl2iJWcCYIc4S1h5vBHdA71hMT2VOs8JEQQ/bkFZNZzkhAJHkbQAbaWlfGw8RlxQvUofwRmd i+XK+Kyi+yVnQiFJkiLhoGF1VSxX3oilBasriicM95CWmRXZiMQeisY5a/yNmx43zkVoen0OpGZY G4+Eg5yQiBOWnU5Mij99DaRmDENt1jmtpq1lHE594bChVxudsCZyEGQ69tI2SyGUtogzHAFrHh9w LgUbZ4sWl7P6LhbO7SGSaDY8Oq/dgu6/VpmummMDZ6ymw2Gc/GlubW+WM6xcfIgUfyMi9QE9zp7s u6r9JasGmkqdN6xQp7MrJ/uv8q+iYrlybuS64YMslbAijyzrm1vaCVKUXMFh5trYSG9dcmIGUjP8 m4jWINC9QOQ5kqqT6sJ9fXPrZN/VgdQM59Ki9Ig3YmlWy4Hz4ID/J9MpHzi1uMStijiJVvSVOcGB aVdUJBz8PJusjm4p0jo3cp1/O3N2oEduFwwO8msl7RZY/RSCnDT06tIvnM+D6SSh2Hm9oOQKJ/uu au8Iw/mt97x48UL3q/XNrYm5pfyjp5xiWquluSkSDkaOBruiRwxjomK5UnxWKZYrS7nPqi8XOdom v3WEVoWWJIm/MDQ98a9vbn2yVso/emoaxtLWIkeDg30ybV9tzVu4+6D621GHXKj1J/RfG8nM1be6 HG0T7xXOr5VuKavKx5/RETN9fag1EDoYkN86clZu519t09mVT9ae0oz9ImEQTdMdOXqINcxMNT67 9Mna02K5InjDUE/zifAhba0svhG63jgvYE1v/CI3wXnXgrLKajCgq6IrekStn+gKNLyEiBxt45dE xXKF+j7WN78xHBIZag30yO20nsrhgwGr3XD0nKfbPcF4RRA9vlf/njoNz8rHtZ+l5Ao3ssvVt3+P 3C6+8DF12LPueipJtL0e+UelT9aesobd0/gI/oGlBli6cURuSSpw5LeO6NYRLpYrJ/uv8u87Odp2 IdZJ+5PO3C6Wv6QS2PRd8lvfz0y8vvlN/lGJfxOZXpxaVC+yAtZIONhz+vgJTaFN5TwnAyx1qZtf riq5Ak3XyCrhe+T2yNHvhrpceNvy2MgFZbV6oSzDwkGtuT5Ze2p4k9Ke0NcPvazCxBleFYY3qaV6 gV+H0taqv4vheTGID5Rcwd46xayKMJ25bZi3ZYhfhNneN3Wze6KD4u/i1ygsJ/uuastlS/GBpWOl ZXrXWfriWqaViu0taw+v7Y0ICrUGTNdBocx2h6n4odZAMtFtWp1bupItXUKq6jWF3Y0PJMdnzfSi NbSgrHL61AXFYx1jI72mdaTtAkeqKj0EN0XvqtHtQIMJbXQ/KblC+tqiwydmGkdgWom6WF+wjM8u 6ZqxDYt6S3ti72KuvioMv5HtekHc2Ehv9YVR5/WZdiR/DnLd5UTml6WBBp9nk0P9Jk0mhigH5fNs 0j+Z0rUe+W074IjHOj7PJu1NNtAjt3+eTdprnqW2DXq7xzeppad211EnDl3bNt5OEerdzGV7vea0 LJCXibp8psuje8Y/Yy8N+xcM1nduaW6yd8+zFuikNSUFN8K/f2zvm7pZD/plqeNZHe9rad1SS8dK 90b+C2x/cdMSzZVDWuvzIn4WQq2BsZHesZHeBWV1KfeZ8nGB08tGnR1n5ePyW22WqitLV7LtpW+p 9FF7qV2vnORom5y5TIue3FIemD5fRsLBC7FO21OeaNGINfpoatDmtMNTB+hZ+bjV6s12gWOoR26P zF6ZmFM4yxgStz6Uum5ZY0ctby3aJkfbqBPwlvKAn1FEqzlQp7OlC8/F+oJjKnV+fXOL33djaU9M S2CWeKyDOrDov4bfyHa9IM7wcw36FwBAx7DHzkaP445HByr/qPT1f31/uCi7yLRb1CHDvBPTbBVw yDAoxJRxOwPiAwAAANBD/gEAAADoIT4AAAAAPcQHAAAAoIf4AAAAAPQQHwAAAIAe4gMAAADQQ3wA AAAAeogPAAAAQA/xAQAAAOghPgAAAAA9xAcAAACgh/gAAAAA9BAfAAAAgB7iAwAAANBDfAAAAAB6 iA8AAABAD/EBAAAA6CE+AAAAAD3EBwAAAKD3o3rvANTcRune5tP/qPdeAMCO0nzof+0Lnqr3XkAN IT7Y+Taf/sfT5T/Uey8AYEc5JP0e8cHOhv4FAAAA0Nvz4sWLeu8DAAAA+AvaDwAAAEAP8QEAAADo IT4AAAAAPcQHAAAAoPf/AVWWw+VNG897AAAAAElFTkSuQmCC "
       height="64.428574"
       width="200.21973" />
  </g>
</svg>
