<?xml version="1.0" encoding="UTF-8" standalone="no"?>
<!-- Created with Inkscape (http://www.inkscape.org/) -->

<svg
   xmlns:dc="http://purl.org/dc/elements/1.1/"
   xmlns:cc="http://creativecommons.org/ns#"
   xmlns:rdf="http://www.w3.org/1999/02/22-rdf-syntax-ns#"
   xmlns:svg="http://www.w3.org/2000/svg"
   xmlns="http://www.w3.org/2000/svg"
   xmlns:sodipodi="http://sodipodi.sourceforge.net/DTD/sodipodi-0.dtd"
   xmlns:inkscape="http://www.inkscape.org/namespaces/inkscape"
   width="744.09448819"
   height="1052.3622047"
   id="svg2"
   version="1.1"
   inkscape:version="0.92.3 (2405546, 2018-03-11)"
   sodipodi:docname="Redondance3.svg">
  <defs
     id="defs4">
    <marker
       inkscape:stockid="Arrow2Mend"
       orient="auto"
       refY="0.0"
       refX="0.0"
       id="Arrow2Mend"
       style="overflow:visible;">
      <path
         id="path4037"
         style="fill-rule:evenodd;stroke-width:0.62500000;stroke-linejoin:round;"
         d="M 8.7185878,4.0337352 L -2.2072895,0.016013256 L 8.7185884,-4.0017078 C 6.9730900,-1.6296469 6.9831476,1.6157441 8.7185878,4.0337352 z "
         transform="scale(0.6) rotate(180) translate(0,0)" />
    </marker>
    <marker
       inkscape:stockid="Arrow2Mend"
       orient="auto"
       refY="0"
       refX="0"
       id="Arrow2Mend-2"
       style="overflow:visible">
      <path
         inkscape:connector-curvature="0"
         id="path4037-4"
         style="fill-rule:evenodd;stroke-width:0.625;stroke-linejoin:round"
         d="M 8.7185878,4.0337352 -2.2072895,0.01601326 8.7185884,-4.0017078 c -1.7454984,2.3720609 -1.7354408,5.6174519 -6e-7,8.035443 z"
         transform="scale(-0.6,-0.6)" />
    </marker>
    <marker
       inkscape:stockid="Arrow2Mend"
       orient="auto"
       refY="0"
       refX="0"
       id="Arrow2Mend-6"
       style="overflow:visible">
      <path
         inkscape:connector-curvature="0"
         id="path4037-7"
         style="fill-rule:evenodd;stroke-width:0.625;stroke-linejoin:round"
         d="M 8.7185878,4.0337352 -2.2072895,0.01601326 8.7185884,-4.0017078 c -1.7454984,2.3720609 -1.7354408,5.6174519 -6e-7,8.035443 z"
         transform="scale(-0.6,-0.6)" />
    </marker>
    <marker
       inkscape:stockid="Arrow2Mend"
       orient="auto"
       refY="0"
       refX="0"
       id="Arrow2Mend-8"
       style="overflow:visible">
      <path
         inkscape:connector-curvature="0"
         id="path4037-49"
         style="fill-rule:evenodd;stroke-width:0.625;stroke-linejoin:round"
         d="M 8.7185878,4.0337352 -2.2072895,0.01601326 8.7185884,-4.0017078 c -1.7454984,2.3720609 -1.7354408,5.6174519 -6e-7,8.035443 z"
         transform="scale(-0.6,-0.6)" />
    </marker>
  </defs>
  <sodipodi:namedview
     id="base"
     pagecolor="#ffffff"
     bordercolor="#666666"
     borderopacity="1.0"
     inkscape:pageopacity="0.0"
     inkscape:pageshadow="2"
     inkscape:zoom="0.7"
     inkscape:cx="819.06094"
     inkscape:cy="648.83123"
     inkscape:document-units="px"
     inkscape:current-layer="layer1"
     showgrid="true"
     inkscape:snap-bbox="false"
     inkscape:window-width="1366"
     inkscape:window-height="719"
     inkscape:window-x="0"
     inkscape:window-y="25"
     inkscape:window-maximized="1"
     inkscape:snap-global="false">
    <inkscape:grid
       type="xygrid"
       id="grid3773"
       empspacing="5"
       visible="true"
       enabled="true"
       snapvisiblegridlinesonly="true"
       dotted="true" />
  </sodipodi:namedview>
  <metadata
     id="metadata7">
    <rdf:RDF>
      <cc:Work
         rdf:about="">
        <dc:format>image/svg+xml</dc:format>
        <dc:type
           rdf:resource="http://purl.org/dc/dcmitype/StillImage" />
        <dc:title />
      </cc:Work>
    </rdf:RDF>
  </metadata>
  <g
     inkscape:label="Layer 1"
     inkscape:groupmode="layer"
     id="layer1">
    <path
       transform="matrix(1.0899954,0,0,2.4748737,214.00692,-53.591171)"
       sodipodi:type="arc"
       style="opacity:0.4;color:#000000;fill:#008080;fill-opacity:1;fill-rule:evenodd;stroke:none;stroke-width:1.50300002;marker:none;visibility:visible;display:inline;overflow:visible;enable-background:accumulate"
       id="path2985-4-4"
       sodipodi:cx="192.93913"
       sodipodi:cy="182.62083"
       sodipodi:rx="111.11678"
       sodipodi:ry="58.588848"
       d="m 304.05592,182.62083 a 111.11678,58.588848 0 1 1 -222.23357,0 111.11678,58.588848 0 1 1 222.23357,0 z" />
    <flowRoot
       xml:space="preserve"
       id="flowRoot3775-6-7"
       style="font-style:normal;font-variant:normal;font-weight:normal;font-stretch:normal;line-height:0.01%;font-family:Ubuntu;-inkscape-font-specification:Ubuntu;text-align:start;letter-spacing:0px;word-spacing:0px;writing-mode:lr-tb;text-anchor:start;fill:#008080;fill-opacity:1;stroke:none"
       transform="translate(403.08665,-28.902417)"><flowRegion
         id="flowRegion3777-4-3"><rect
           id="rect3779-5-7"
           width="207.08127"
           height="85.862968"
           x="89.90358"
           y="285.6564"
           style="fill:#008080" /></flowRegion><flowPara
         id="flowPara3781-2-8"
         style="font-size:20px;line-height:1.25;fill:#008080">VAR(x<flowSpan
   style="font-size:65.00091553%;baseline-shift:sub;fill:#008080"
   id="flowSpan3783-1-0">1</flowSpan>)</flowPara></flowRoot>    <path
       transform="matrix(1.4094791,0,0,2.1420459,93.132439,45.190124)"
       sodipodi:type="arc"
       style="color:#000000;fill:none;stroke:#800000;stroke-width:1.72654355;stroke-miterlimit:4;stroke-dasharray:none;marker:none;visibility:visible;display:inline;overflow:visible;enable-background:accumulate"
       id="path2985-4-4-5"
       sodipodi:cx="192.93913"
       sodipodi:cy="182.62083"
       sodipodi:rx="111.11678"
       sodipodi:ry="58.588848"
       d="m 304.05592,182.62083 a 111.11678,58.588848 0 1 1 -222.23357,0 111.11678,58.588848 0 1 1 222.23357,0 z" />
    <flowRoot
       xml:space="preserve"
       id="flowRoot3775-69-7"
       style="font-style:normal;font-variant:normal;font-weight:normal;font-stretch:normal;line-height:0.01%;font-family:Ubuntu;-inkscape-font-specification:Ubuntu;text-align:start;letter-spacing:0px;word-spacing:0px;writing-mode:lr-tb;text-anchor:start;fill:#800000;fill-opacity:1;stroke:none"
       transform="translate(137.69236,257.23972)"><flowRegion
         id="flowRegion3777-0-6"><rect
           id="rect3779-4-7"
           width="207.08127"
           height="85.862968"
           x="89.90358"
           y="285.6564"
           style="fill:#800000" /></flowRegion><flowPara
         id="flowPara3781-9-8"
         style="font-size:20px;line-height:1.25;fill:#800000">VAR(y)</flowPara></flowRoot>    <path
       sodipodi:type="arc"
       style="opacity:0.4;color:#000000;fill:#ffcc00;fill-opacity:1;fill-rule:evenodd;stroke:none;stroke-width:1.50300002;marker:none;visibility:visible;display:inline;overflow:visible;enable-background:accumulate"
       id="path2985-8-9"
       sodipodi:cx="192.93913"
       sodipodi:cy="182.62083"
       sodipodi:rx="111.11678"
       sodipodi:ry="58.588848"
       d="m 304.05592,182.62083 a 111.11678,58.588848 0 1 1 -222.23357,0 111.11678,58.588848 0 1 1 222.23357,0 z"
       transform="matrix(0.87112813,0,0,2.6335553,600.32444,-31.970836)" />
    <flowRoot
       xml:space="preserve"
       id="flowRoot3775-69-0"
       style="font-style:normal;font-variant:normal;font-weight:normal;font-stretch:normal;line-height:0.01%;font-family:Ubuntu;-inkscape-font-specification:Ubuntu;text-align:start;letter-spacing:0px;word-spacing:0px;writing-mode:lr-tb;text-anchor:start;fill:#806600;fill-opacity:1;stroke:none"
       transform="translate(581.02587,-8.895011)"><flowRegion
         id="flowRegion3777-0-7"><rect
           id="rect3779-4-3"
           width="207.08127"
           height="85.862968"
           x="89.90358"
           y="285.6564"
           style="fill:#806600" /></flowRegion><flowPara
         id="flowPara3781-9-6"
         style="font-size:20px;line-height:1.25;fill:#806600">VAR(x<flowSpan
   style="font-size:65.00091553%;baseline-shift:sub;fill:#806600"
   id="flowSpan3783-6-8">2</flowSpan>)</flowPara></flowRoot>    <path
       transform="matrix(1.4094791,0,0,2.1420459,455.31327,46.492037)"
       sodipodi:type="arc"
       style="color:#000000;fill:none;stroke:#800000;stroke-width:1.72654355;stroke-miterlimit:4;stroke-dasharray:none;marker:none;visibility:visible;display:inline;overflow:visible;enable-background:accumulate"
       id="path2985-4-4-5-9"
       sodipodi:cx="192.93913"
       sodipodi:cy="182.62083"
       sodipodi:rx="111.11678"
       sodipodi:ry="58.588848"
       d="m 304.05592,182.62083 a 111.11678,58.588848 0 1 1 -222.23357,0 111.11678,58.588848 0 1 1 222.23357,0 z" />
    <flowRoot
       xml:space="preserve"
       id="flowRoot3775-69-7-1"
       style="font-style:normal;font-variant:normal;font-weight:normal;font-stretch:normal;line-height:0.01%;font-family:Ubuntu;-inkscape-font-specification:Ubuntu;text-align:start;letter-spacing:0px;word-spacing:0px;writing-mode:lr-tb;text-anchor:start;fill:#800000;fill-opacity:1;stroke:none"
       transform="translate(501.93411,258.54162)"><flowRegion
         id="flowRegion3777-0-6-1"><rect
           id="rect3779-4-7-5"
           width="207.08127"
           height="85.862968"
           x="89.90358"
           y="285.6564"
           style="fill:#800000" /></flowRegion><flowPara
         id="flowPara3781-9-8-1"
         style="font-size:20px;line-height:1.25;fill:#800000">VAR(y)</flowPara></flowRoot>    <path
       sodipodi:type="arc"
       style="opacity:0.4;color:#000000;fill:#ff7f2a;fill-opacity:1;fill-rule:evenodd;stroke:none;stroke-width:1.50300002;marker:none;visibility:visible;display:inline;overflow:visible;enable-background:accumulate"
       id="path2985-8-9-0"
       sodipodi:cx="192.93913"
       sodipodi:cy="182.62083"
       sodipodi:rx="111.11678"
       sodipodi:ry="58.588848"
       d="m 304.05592,182.62083 a 111.11678,58.588848 0 1 1 -222.23357,0 111.11678,58.588848 0 1 1 222.23357,0 z"
       transform="matrix(0.24543125,-0.51661939,1.3444886,1.4874997,697.92673,299.09785)" />
    <flowRoot
       xml:space="preserve"
       id="flowRoot3775-69-0-1"
       style="font-style:normal;font-variant:normal;font-weight:normal;font-stretch:normal;line-height:0.01%;font-family:Ubuntu;-inkscape-font-specification:Ubuntu;text-align:start;letter-spacing:0px;word-spacing:0px;writing-mode:lr-tb;text-anchor:start;fill:#aa4400;fill-opacity:1;stroke:none"
       transform="translate(798.3876,53.569456)"><flowRegion
         id="flowRegion3777-0-7-4"><rect
           id="rect3779-4-3-7"
           width="207.08127"
           height="85.862968"
           x="89.90358"
           y="285.6564"
           style="fill:#aa4400" /></flowRegion><flowPara
         id="flowPara3781-9-6-7"
         style="font-size:20px;line-height:1.25;fill:#aa4400">VAR(x<flowSpan
   style="font-size:65.00091553%;baseline-shift:sub;fill:#aa4400"
   id="flowSpan3783-6-8-1">3</flowSpan>)</flowPara></flowRoot>    <path
       transform="matrix(1.4094791,0,0,2.1420459,811.0659,46.367648)"
       sodipodi:type="arc"
       style="color:#000000;fill:none;stroke:#800000;stroke-width:1.72654355;stroke-miterlimit:4;stroke-dasharray:none;marker:none;visibility:visible;display:inline;overflow:visible;enable-background:accumulate"
       id="path2985-4-4-5-9-1"
       sodipodi:cx="192.93913"
       sodipodi:cy="182.62083"
       sodipodi:rx="111.11678"
       sodipodi:ry="58.588848"
       d="m 304.05592,182.62083 a 111.11678,58.588848 0 1 1 -222.23357,0 111.11678,58.588848 0 1 1 222.23357,0 z" />
    <flowRoot
       xml:space="preserve"
       id="flowRoot3775-69-7-1-2"
       style="font-style:normal;font-variant:normal;font-weight:normal;font-stretch:normal;line-height:0.01%;font-family:Ubuntu;-inkscape-font-specification:Ubuntu;text-align:start;letter-spacing:0px;word-spacing:0px;writing-mode:lr-tb;text-anchor:start;fill:#800000;fill-opacity:1;stroke:none"
       transform="translate(1074.6766,257.4274)"><flowRegion
         id="flowRegion3777-0-6-1-9"><rect
           id="rect3779-4-7-5-5"
           width="207.08127"
           height="85.862968"
           x="89.90358"
           y="285.6564"
           style="fill:#800000" /></flowRegion><flowPara
         id="flowPara3781-9-8-1-8"
         style="font-size:20px;line-height:1.25;fill:#800000">VAR(y)</flowPara></flowRoot>    <flowRoot
       xml:space="preserve"
       id="flowRoot3775-69-7-9"
       style="font-style:normal;font-variant:normal;font-weight:normal;font-stretch:normal;line-height:0.01%;font-family:Ubuntu;-inkscape-font-specification:Ubuntu;text-align:start;letter-spacing:0px;word-spacing:0px;writing-mode:lr-tb;text-anchor:start;fill:#4d4d4d;fill-opacity:1;stroke:none;"
       transform="translate(289.71194,119.01179)"><flowRegion
         id="flowRegion3777-0-6-6"
         style="fill:#4d4d4d;"><rect
           id="rect3779-4-7-7"
           width="207.08127"
           height="85.862968"
           x="89.90358"
           y="285.6564"
           style="fill:#4d4d4d;" /></flowRegion><flowPara
         id="flowPara3781-9-8-8"
         style="font-size:20px;line-height:1.25;fill:#4d4d4d;">R<flowSpan
   style="font-size:65.00091553%;baseline-shift:super;fill:#4d4d4d;"
   id="flowSpan3185">2</flowSpan> = 60 %</flowPara></flowRoot>    <flowRoot
       xml:space="preserve"
       id="flowRoot3775-69-7-9-8"
       style="font-style:normal;font-variant:normal;font-weight:normal;font-stretch:normal;line-height:0.01%;font-family:Ubuntu;-inkscape-font-specification:Ubuntu;text-align:start;letter-spacing:0px;word-spacing:0px;writing-mode:lr-tb;text-anchor:start;fill:#4d4d4d;fill-opacity:1;stroke:none;"
       transform="translate(634.15534,149.80462)"><flowRegion
         id="flowRegion3777-0-6-6-9"
         style="fill:#4d4d4d;"><rect
           id="rect3779-4-7-7-7"
           width="207.08127"
           height="85.862968"
           x="89.90358"
           y="285.6564"
           style="fill:#4d4d4d;" /></flowRegion><flowPara
         id="flowPara3781-9-8-8-3"
         style="font-size:20px;line-height:1.25;fill:#4d4d4d;">R<flowSpan
   style="font-size:65.00091553%;baseline-shift:super;fill:#4d4d4d;"
   id="flowSpan3185-5">2</flowSpan> = 55 %</flowPara></flowRoot>    <flowRoot
       xml:space="preserve"
       id="flowRoot3775-69-7-9-8-8"
       style="font-style:normal;font-variant:normal;font-weight:normal;font-stretch:normal;line-height:0.01%;font-family:Ubuntu;-inkscape-font-specification:Ubuntu;text-align:start;letter-spacing:0px;word-spacing:0px;writing-mode:lr-tb;text-anchor:start;fill:#4d4d4d;fill-opacity:1;stroke:none;"
       transform="translate(863.39905,177.07874)"><flowRegion
         id="flowRegion3777-0-6-6-9-4"
         style="fill:#4d4d4d;"><rect
           id="rect3779-4-7-7-7-8"
           width="207.08127"
           height="85.862968"
           x="89.90358"
           y="285.6564"
           style="fill:#4d4d4d;" /></flowRegion><flowPara
         id="flowPara3781-9-8-8-3-5"
         style="font-size:20px;line-height:1.25;fill:#4d4d4d;">R<flowSpan
   style="font-size:65.00091553%;baseline-shift:super;fill:#4d4d4d;"
   id="flowSpan3185-5-8">2</flowSpan> = 30 %</flowPara></flowRoot>  </g>
</svg>
