<?xml version="1.0" encoding="UTF-8" standalone="no"?>
<!-- Created with Inkscape (http://www.inkscape.org/) -->

<svg
   xmlns:dc="http://purl.org/dc/elements/1.1/"
   xmlns:cc="http://creativecommons.org/ns#"
   xmlns:rdf="http://www.w3.org/1999/02/22-rdf-syntax-ns#"
   xmlns:svg="http://www.w3.org/2000/svg"
   xmlns="http://www.w3.org/2000/svg"
   xmlns:xlink="http://www.w3.org/1999/xlink"
   xmlns:sodipodi="http://sodipodi.sourceforge.net/DTD/sodipodi-0.dtd"
   xmlns:inkscape="http://www.inkscape.org/namespaces/inkscape"
   width="744.09448819"
   height="1052.3622047"
   id="svg4233"
   version="1.1"
   inkscape:version="0.92.3 (2405546, 2018-03-11)"
   sodipodi:docname="ExSingle5.svg">
  <defs
     id="defs4235">
    <clipPath
       id="clip23">
      <path
         inkscape:connector-curvature="0"
         d="m 42.488281,27.398438 332.113279,0 0,332.113282 -332.113279,0 z m 0,0"
         id="path141" />
    </clipPath>
    <clipPath
       id="clip22">
      <path
         inkscape:connector-curvature="0"
         d="m 83,348 8,0 0,11.51172 -8,0 z m 0,0"
         id="path138" />
    </clipPath>
    <clipPath
       id="clip21">
      <path
         inkscape:connector-curvature="0"
         d="m 45,351 9,0 0,8.51172 -9,0 z m 0,0"
         id="path135" />
    </clipPath>
    <clipPath
       id="clip20">
      <path
         inkscape:connector-curvature="0"
         d="m 358,27.398438 1,0 L 359,359 l -1,0 z m 0,0"
         id="path132" />
    </clipPath>
    <clipPath
       id="clip19">
      <path
         inkscape:connector-curvature="0"
         d="m 283,27.398438 1,0 L 284,359 l -1,0 z m 0,0"
         id="path129" />
    </clipPath>
    <clipPath
       id="clip18">
      <path
         inkscape:connector-curvature="0"
         d="m 207,27.398438 2,0 L 209,359 l -2,0 z m 0,0"
         id="path126" />
    </clipPath>
    <clipPath
       id="clip17">
      <path
         inkscape:connector-curvature="0"
         d="m 132,27.398438 1,0 L 133,359 l -1,0 z m 0,0"
         id="path123" />
    </clipPath>
    <clipPath
       id="clip16">
      <path
         inkscape:connector-curvature="0"
         d="m 57,27.398438 1,0 L 58,359 l -1,0 z m 0,0"
         id="path120" />
    </clipPath>
    <clipPath
       id="clip15">
      <path
         inkscape:connector-curvature="0"
         d="M 42.488281,42 374,42 l 0,1 -331.511719,0 z m 0,0"
         id="path117" />
    </clipPath>
    <clipPath
       id="clip14">
      <path
         inkscape:connector-curvature="0"
         d="M 42.488281,117 374,117 l 0,1 -331.511719,0 z m 0,0"
         id="path114" />
    </clipPath>
    <clipPath
       id="clip13">
      <path
         inkscape:connector-curvature="0"
         d="M 42.488281,192 374,192 l 0,2 -331.511719,0 z m 0,0"
         id="path111" />
    </clipPath>
    <clipPath
       id="clip12">
      <path
         inkscape:connector-curvature="0"
         d="M 42.488281,268 374,268 l 0,1 -331.511719,0 z m 0,0"
         id="path108" />
    </clipPath>
    <clipPath
       id="clip11">
      <path
         inkscape:connector-curvature="0"
         d="M 42.488281,343 374,343 l 0,1 -331.511719,0 z m 0,0"
         id="path105" />
    </clipPath>
    <clipPath
       id="clip10">
      <path
         inkscape:connector-curvature="0"
         d="m 320,27.398438 2,0 0,332.113282 -2,0 z m 0,0"
         id="path102" />
    </clipPath>
    <clipPath
       id="clip9">
      <path
         inkscape:connector-curvature="0"
         d="m 245,27.398438 2,0 0,332.113282 -2,0 z m 0,0"
         id="path99" />
    </clipPath>
    <clipPath
       id="clip8">
      <path
         inkscape:connector-curvature="0"
         d="m 169,27.398438 2,0 0,332.113282 -2,0 z m 0,0"
         id="path96" />
    </clipPath>
    <clipPath
       id="clip7">
      <path
         inkscape:connector-curvature="0"
         d="m 94,27.398438 2,0 0,332.113282 -2,0 z m 0,0"
         id="path93" />
    </clipPath>
    <clipPath
       id="clip6">
      <path
         inkscape:connector-curvature="0"
         d="m 42.488281,79 332.113279,0 0,2 -332.113279,0 z m 0,0"
         id="path90" />
    </clipPath>
    <clipPath
       id="clip5">
      <path
         inkscape:connector-curvature="0"
         d="m 42.488281,154 332.113279,0 0,2 -332.113279,0 z m 0,0"
         id="path87" />
    </clipPath>
    <clipPath
       id="clip4">
      <path
         inkscape:connector-curvature="0"
         d="m 42.488281,230 332.113279,0 0,2 -332.113279,0 z m 0,0"
         id="path84" />
    </clipPath>
    <clipPath
       id="clip3">
      <path
         inkscape:connector-curvature="0"
         d="m 42.488281,305 332.113279,0 0,2 -332.113279,0 z m 0,0"
         id="path81" />
    </clipPath>
    <clipPath
       id="clip2">
      <path
         inkscape:connector-curvature="0"
         d="M 42.488281,27.398438 374,27.398438 374,359 42.488281,359 z m 0,0"
         id="path78" />
    </clipPath>
  </defs>
  <sodipodi:namedview
     id="base"
     pagecolor="#ffffff"
     bordercolor="#666666"
     borderopacity="1.0"
     inkscape:pageopacity="0.0"
     inkscape:pageshadow="2"
     inkscape:zoom="0.7"
     inkscape:cx="484.44041"
     inkscape:cy="599.22985"
     inkscape:document-units="px"
     inkscape:current-layer="layer1"
     showgrid="false"
     showguides="true"
     inkscape:guide-bbox="true"
     inkscape:window-width="1366"
     inkscape:window-height="719"
     inkscape:window-x="0"
     inkscape:window-y="25"
     inkscape:window-maximized="1">
    <sodipodi:guide
       orientation="0,1"
       position="333.57143,402.14286"
       id="guide4792"
       inkscape:locked="false" />
    <sodipodi:guide
       orientation="1,0"
       position="72.142857,772.14286"
       id="guide4869"
       inkscape:locked="false" />
    <sodipodi:guide
       orientation="1,0"
       position="594.97985,504.5712"
       id="guide5875"
       inkscape:locked="false" />
    <sodipodi:guide
       orientation="0,1"
       position="1073.0345,660.13469"
       id="guide6039"
       inkscape:locked="false" />
  </sodipodi:namedview>
  <metadata
     id="metadata4238">
    <rdf:RDF>
      <cc:Work
         rdf:about="">
        <dc:format>image/svg+xml</dc:format>
        <dc:type
           rdf:resource="http://purl.org/dc/dcmitype/StillImage" />
        <dc:title />
      </cc:Work>
    </rdf:RDF>
  </metadata>
  <g
     inkscape:label="Layer 1"
     inkscape:groupmode="layer"
     id="layer1">
    <g
       transform="matrix(1.25,0,0,1.25,28.316826,179.60603)"
       id="g152"
       clip-rule="nonzero"
       clip-path="url(#clip2)">
      <path
         inkscape:connector-curvature="0"
         id="path154"
         d="m 42.488281,358.51172 331.113279,0 0,-331.113282 -331.113279,0 z m 0,0"
         style="fill:#ffffff;fill-opacity:1;fill-rule:nonzero;stroke:none" />
    </g>
    <g
       transform="matrix(1.25,0,0,1.25,28.316826,179.60603)"
       id="g156"
       clip-rule="nonzero"
       clip-path="url(#clip3)">
      <path
         inkscape:connector-curvature="0"
         id="path158"
         d="m 42.488281,305.83594 331.113279,0"
         style="fill:none;stroke:#fafafa;stroke-width:1.06299198;stroke-linecap:butt;stroke-linejoin:round;stroke-miterlimit:10;stroke-opacity:1" />
    </g>
    <g
       transform="matrix(1.25,0,0,1.25,28.316826,179.60603)"
       id="g160"
       clip-rule="nonzero"
       clip-path="url(#clip4)">
      <path
         inkscape:connector-curvature="0"
         id="path162"
         d="m 42.488281,230.58203 331.113279,0"
         style="fill:none;stroke:#fafafa;stroke-width:1.06299198;stroke-linecap:butt;stroke-linejoin:round;stroke-miterlimit:10;stroke-opacity:1" />
    </g>
    <g
       transform="matrix(1.25,0,0,1.25,28.316826,179.60603)"
       id="g164"
       clip-rule="nonzero"
       clip-path="url(#clip5)">
      <path
         inkscape:connector-curvature="0"
         id="path166"
         d="m 42.488281,155.33203 331.113279,0"
         style="fill:none;stroke:#fafafa;stroke-width:1.06299198;stroke-linecap:butt;stroke-linejoin:round;stroke-miterlimit:10;stroke-opacity:1" />
    </g>
    <g
       transform="matrix(1.25,0,0,1.25,28.316826,179.60603)"
       id="g168"
       clip-rule="nonzero"
       clip-path="url(#clip6)">
      <path
         inkscape:connector-curvature="0"
         id="path170"
         d="m 42.488281,80.078125 331.113279,0"
         style="fill:none;stroke:#fafafa;stroke-width:1.06299198;stroke-linecap:butt;stroke-linejoin:round;stroke-miterlimit:10;stroke-opacity:1" />
    </g>
    <g
       transform="matrix(1.25,0,0,1.25,28.316826,179.60603)"
       id="g172"
       clip-rule="nonzero"
       clip-path="url(#clip7)">
      <path
         inkscape:connector-curvature="0"
         id="path174"
         d="m 95.164062,358.51172 0,-331.113282"
         style="fill:none;stroke:#fafafa;stroke-width:1.06299198;stroke-linecap:butt;stroke-linejoin:round;stroke-miterlimit:10;stroke-opacity:1" />
    </g>
    <g
       transform="matrix(1.25,0,0,1.25,28.316826,179.60603)"
       id="g176"
       clip-rule="nonzero"
       clip-path="url(#clip8)">
      <path
         inkscape:connector-curvature="0"
         id="path178"
         d="m 170.41797,358.51172 0,-331.113282"
         style="fill:none;stroke:#fafafa;stroke-width:1.06299198;stroke-linecap:butt;stroke-linejoin:round;stroke-miterlimit:10;stroke-opacity:1" />
    </g>
    <g
       transform="matrix(1.25,0,0,1.25,28.316826,179.60603)"
       id="g180"
       clip-rule="nonzero"
       clip-path="url(#clip9)">
      <path
         inkscape:connector-curvature="0"
         id="path182"
         d="m 245.66797,358.51172 0,-331.113282"
         style="fill:none;stroke:#fafafa;stroke-width:1.06299198;stroke-linecap:butt;stroke-linejoin:round;stroke-miterlimit:10;stroke-opacity:1" />
    </g>
    <g
       transform="matrix(1.25,0,0,1.25,28.316826,179.60603)"
       id="g184"
       clip-rule="nonzero"
       clip-path="url(#clip10)">
      <path
         inkscape:connector-curvature="0"
         id="path186"
         d="m 320.92187,358.51172 0,-331.113282"
         style="fill:none;stroke:#fafafa;stroke-width:1.06299198;stroke-linecap:butt;stroke-linejoin:round;stroke-miterlimit:10;stroke-opacity:1" />
    </g>
    <g
       transform="matrix(1.25,0,0,1.25,28.316826,179.60603)"
       id="g188"
       clip-rule="nonzero"
       clip-path="url(#clip11)">
      <path
         inkscape:connector-curvature="0"
         id="path190"
         d="m 42.488281,343.46094 331.113279,0"
         style="fill:none;stroke:#e3e3e3;stroke-width:0.42519701;stroke-linecap:butt;stroke-linejoin:round;stroke-miterlimit:10;stroke-opacity:1" />
    </g>
    <g
       transform="matrix(1.25,0,0,1.25,28.316826,179.60603)"
       id="g192"
       clip-rule="nonzero"
       clip-path="url(#clip12)">
      <path
         inkscape:connector-curvature="0"
         id="path194"
         d="m 42.488281,268.21094 331.113279,0"
         style="fill:none;stroke:#e3e3e3;stroke-width:0.42519701;stroke-linecap:butt;stroke-linejoin:round;stroke-miterlimit:10;stroke-opacity:1" />
    </g>
    <g
       transform="matrix(1.25,0,0,1.25,28.316826,179.60603)"
       id="g196"
       clip-rule="nonzero"
       clip-path="url(#clip13)">
      <path
         inkscape:connector-curvature="0"
         id="path198"
         d="m 42.488281,192.95703 331.113279,0"
         style="fill:none;stroke:#e3e3e3;stroke-width:0.42519701;stroke-linecap:butt;stroke-linejoin:round;stroke-miterlimit:10;stroke-opacity:1" />
    </g>
    <g
       transform="matrix(1.25,0,0,1.25,28.316826,179.60603)"
       id="g200"
       clip-rule="nonzero"
       clip-path="url(#clip14)">
      <path
         inkscape:connector-curvature="0"
         id="path202"
         d="m 42.488281,117.70313 331.113279,0"
         style="fill:none;stroke:#e3e3e3;stroke-width:0.42519701;stroke-linecap:butt;stroke-linejoin:round;stroke-miterlimit:10;stroke-opacity:1" />
    </g>
    <g
       transform="matrix(1.25,0,0,1.25,28.316826,179.60603)"
       id="g204"
       clip-rule="nonzero"
       clip-path="url(#clip15)">
      <path
         inkscape:connector-curvature="0"
         id="path206"
         d="m 42.488281,42.449219 331.113279,0"
         style="fill:none;stroke:#e3e3e3;stroke-width:0.42519701;stroke-linecap:butt;stroke-linejoin:round;stroke-miterlimit:10;stroke-opacity:1" />
    </g>
    <g
       transform="matrix(1.25,0,0,1.25,28.316826,179.60603)"
       id="g208"
       clip-rule="nonzero"
       clip-path="url(#clip16)">
      <path
         inkscape:connector-curvature="0"
         id="path210"
         d="m 57.539062,358.51172 0,-331.113282"
         style="fill:none;stroke:#e3e3e3;stroke-width:0.42519701;stroke-linecap:butt;stroke-linejoin:round;stroke-miterlimit:10;stroke-opacity:1" />
    </g>
    <g
       transform="matrix(1.25,0,0,1.25,28.316826,179.60603)"
       id="g212"
       clip-rule="nonzero"
       clip-path="url(#clip17)">
      <path
         inkscape:connector-curvature="0"
         id="path214"
         d="m 132.78906,358.51172 0,-331.113282"
         style="fill:none;stroke:#e3e3e3;stroke-width:0.42519701;stroke-linecap:butt;stroke-linejoin:round;stroke-miterlimit:10;stroke-opacity:1" />
    </g>
    <g
       transform="matrix(1.25,0,0,1.25,28.316826,179.60603)"
       id="g216"
       clip-rule="nonzero"
       clip-path="url(#clip18)">
      <path
         inkscape:connector-curvature="0"
         id="path218"
         d="m 208.04297,358.51172 0,-331.113282"
         style="fill:none;stroke:#e3e3e3;stroke-width:0.42519701;stroke-linecap:butt;stroke-linejoin:round;stroke-miterlimit:10;stroke-opacity:1" />
    </g>
    <g
       transform="matrix(1.25,0,0,1.25,28.316826,179.60603)"
       id="g220"
       clip-rule="nonzero"
       clip-path="url(#clip19)">
      <path
         inkscape:connector-curvature="0"
         id="path222"
         d="m 283.29687,358.51172 0,-331.113282"
         style="fill:none;stroke:#e3e3e3;stroke-width:0.42519701;stroke-linecap:butt;stroke-linejoin:round;stroke-miterlimit:10;stroke-opacity:1" />
    </g>
    <g
       transform="matrix(1.25,0,0,1.25,28.316826,179.60603)"
       id="g224"
       clip-rule="nonzero"
       clip-path="url(#clip20)">
      <path
         inkscape:connector-curvature="0"
         id="path226"
         d="m 358.55078,358.51172 0,-331.113282"
         style="fill:none;stroke:#e3e3e3;stroke-width:0.42519701;stroke-linecap:butt;stroke-linejoin:round;stroke-miterlimit:10;stroke-opacity:1" />
    </g>
    <path
       inkscape:connector-curvature="0"
       id="path228"
       d="m 104.22503,608.93221 c 0,5.31737 -7.973634,5.31737 -7.973634,0 0,-5.3125 7.973634,-5.3125 7.973634,0"
       style="fill:#008000;fill-opacity:1;fill-rule:nonzero;stroke:none" />
    <path
       inkscape:connector-curvature="0"
       id="path230"
       d="m 151.25628,608.93221 c 0,5.31737 -7.96875,5.31737 -7.96875,0 0,-5.3125 7.96875,-5.3125 7.96875,0"
       style="fill:#008000;fill-opacity:1;fill-rule:nonzero;stroke:none" />
    <path
       inkscape:connector-curvature="0"
       id="path232"
       d="m 198.29242,561.90096 c 0,5.31737 -7.97364,5.31737 -7.97364,0 0,-5.3125 7.97364,-5.3125 7.97364,0"
       style="fill:#008000;fill-opacity:1;fill-rule:nonzero;stroke:none" />
    <path
       inkscape:connector-curvature="0"
       id="path234"
       d="m 386.42229,420.80232 c 0,5.3125 -7.97362,5.3125 -7.97362,0 0,-5.31739 7.97362,-5.31739 7.97362,0"
       style="fill:#d45500;fill-opacity:1;fill-rule:nonzero;stroke:none" />
    <path
       inkscape:connector-curvature="0"
       id="path236"
       d="m 480.48968,373.77107 c 0,5.3125 -7.97364,5.3125 -7.97364,0 0,-5.31739 7.97364,-5.31739 7.97364,0"
       style="fill:#d45500;fill-opacity:1;fill-rule:nonzero;stroke:none" />
    <path
       inkscape:connector-curvature="0"
       id="path238"
       d="m 292.35492,326.73495 c 0,5.31737 -7.96875,5.31737 -7.96875,0 0,-5.3125 7.96875,-5.3125 7.96875,0"
       style="fill:#d45500;fill-opacity:1;fill-rule:nonzero;stroke:none" />
    <path
       inkscape:connector-curvature="0"
       id="path240"
       d="m 433.45843,279.70369 c 0,5.3125 -7.97364,5.3125 -7.97364,0 0,-5.31739 7.97364,-5.31739 7.97364,0"
       style="fill:#d45500;fill-opacity:1;fill-rule:nonzero;stroke:none" />
    <path
       inkscape:connector-curvature="0"
       id="path242"
       d="m 386.42229,232.66755 c 0,5.31739 -7.97362,5.31739 -7.97362,0 0,-5.3125 7.97362,-5.3125 7.97362,0"
       style="fill:#d45500;fill-opacity:1;fill-rule:nonzero;stroke:none" />
    <g
       id="g248"
       clip-rule="nonzero"
       clip-path="url(#clip21)"
       transform="matrix(1.25,0,0,1.25,28.316826,175.60603)">
      <g
         id="g250"
         style="fill:#000000;fill-opacity:1">
        <use
           height="411"
           width="388"
           id="use252"
           y="359.23145"
           x="45.539062"
           xlink:href="#glyph0-1"
           style="fill:#4d4d4d" />
      </g>
    </g>
    <g
       id="g254"
       clip-rule="nonzero"
       clip-path="url(#clip22)"
       transform="matrix(1.25,0,0,1.25,28.316826,175.60603)">
      <g
         id="g256"
         style="fill:#000000;fill-opacity:1">
        <use
           height="411"
           width="388"
           id="use258"
           y="359.23145"
           x="83.164062"
           xlink:href="#glyph0-2"
           style="fill:#4d4d4d" />
      </g>
    </g>
    <g
       transform="matrix(1.25,0,0,1.25,28.316826,179.60603)"
       id="g260"
       style="fill:#000000;fill-opacity:1">
      <use
         height="411"
         width="388"
         id="use262"
         y="321.60645"
         x="120.78906"
         xlink:href="#glyph0-3"
         style="fill:#4d4d4d" />
    </g>
    <g
       transform="matrix(1.25,0,0,1.25,28.316826,179.60603)"
       id="g264"
       style="fill:#000000;fill-opacity:1">
      <use
         height="411"
         width="388"
         id="use266"
         y="208.72754"
         x="271.29688"
         xlink:href="#glyph0-4"
         style="fill:#4d4d4d" />
    </g>
    <g
       transform="matrix(1.25,0,0,1.25,28.316826,179.60603)"
       id="g268"
       style="fill:#000000;fill-opacity:1">
      <use
         height="411"
         width="388"
         id="use270"
         y="171.10254"
         x="346.55078"
         xlink:href="#glyph0-5"
         style="fill:#4d4d4d" />
    </g>
    <g
       transform="matrix(1.25,0,0,1.25,28.316826,179.60603)"
       id="g272"
       style="fill:#000000;fill-opacity:1">
      <use
         height="411"
         width="388"
         id="use274"
         y="133.47363"
         x="202.04297"
         xlink:href="#glyph0-6"
         style="fill:#4d4d4d" />
    </g>
    <g
       transform="matrix(1.25,0,0,1.25,28.316826,179.60603)"
       id="g276"
       style="fill:#000000;fill-opacity:1">
      <use
         height="411"
         width="388"
         id="use278"
         y="95.848633"
         x="308.92188"
         xlink:href="#glyph0-7"
         style="fill:#4d4d4d" />
    </g>
    <g
       transform="matrix(1.25,0,0,1.25,28.316826,179.60603)"
       id="g280"
       style="fill:#000000;fill-opacity:1">
      <use
         height="411"
         width="388"
         id="use282"
         y="58.219727"
         x="271.29688"
         xlink:href="#glyph0-8"
         style="fill:#4d4d4d" />
    </g>
    <g
       transform="matrix(1.25,0,0,1.25,28.316826,179.60603)"
       id="g284"
       style="fill:#000000;fill-opacity:1">
      <use
         height="411"
         width="388"
         id="use286"
         y="246.35254"
         x="107.97656"
         xlink:href="#glyph0-9"
         style="fill:#4d4d4d" />
    </g>
    <g
       transform="matrix(1.25,0,0,1.25,28.316826,179.60603)"
       id="g288"
       style="fill:#000000;fill-opacity:1">
      <use
         height="411"
         width="388"
         id="use290"
         y="246.35254"
         x="126.78906"
         xlink:href="#glyph0-10"
         style="fill:#4d4d4d" />
    </g>
    <g
       transform="matrix(1.25,0,0,1.25,28.316826,179.60603)"
       id="g292"
       clip-rule="nonzero"
       clip-path="url(#clip23)">
      <path
         inkscape:connector-curvature="0"
         id="path294"
         d="m 42.488281,358.51172 331.113279,0 0,-331.113282 -331.113279,0 z m 0,0"
         style="fill:none;stroke:#7d7d7d;stroke-width:1.06299198;stroke-linecap:round;stroke-linejoin:round;stroke-miterlimit:10;stroke-opacity:1" />
    </g>
    <g
       transform="matrix(1.25,0,0,1.25,28.316826,179.60603)"
       id="g296"
       style="fill:#000000;fill-opacity:1">
      <use
         height="411"
         width="388"
         id="use298"
         y="346.48047"
         x="29.398438"
         xlink:href="#glyph1-1"
         style="fill:#4d4d4d" />
    </g>
    <g
       transform="matrix(1.25,0,0,1.25,28.316826,179.60603)"
       id="g300"
       style="fill:#000000;fill-opacity:1">
      <use
         height="411"
         width="388"
         id="use302"
         y="271.23047"
         x="29.398438"
         xlink:href="#glyph1-2"
         style="fill:#4d4d4d" />
    </g>
    <g
       transform="matrix(1.25,0,0,1.25,28.316826,179.60603)"
       id="g304"
       style="fill:#000000;fill-opacity:1">
      <use
         height="411"
         width="388"
         id="use306"
         y="195.97656"
         x="29.398438"
         xlink:href="#glyph1-3"
         style="fill:#4d4d4d" />
    </g>
    <g
       transform="matrix(1.25,0,0,1.25,28.316826,179.60603)"
       id="g308"
       style="fill:#000000;fill-opacity:1">
      <use
         height="411"
         width="388"
         id="use310"
         y="120.72266"
         x="24.398438"
         xlink:href="#glyph1-4"
         style="fill:#4d4d4d" />
      <use
         height="411"
         width="388"
         id="use312"
         y="120.72266"
         x="29.732422"
         xlink:href="#glyph1-5"
         style="fill:#4d4d4d" />
    </g>
    <g
       transform="matrix(1.25,0,0,1.25,28.316826,179.60603)"
       id="g314"
       style="fill:#000000;fill-opacity:1">
      <use
         height="411"
         width="388"
         id="use316"
         y="45.46875"
         x="24.398438"
         xlink:href="#glyph1-4"
         style="fill:#4d4d4d" />
      <use
         height="411"
         width="388"
         id="use318"
         y="45.46875"
         x="29.732422"
         xlink:href="#glyph1-6"
         style="fill:#4d4d4d" />
    </g>
    <path
       inkscape:connector-curvature="0"
       id="path320"
       d="m 76.109795,608.93221 5.317383,0"
       style="fill:none;stroke:#4d4d4d;stroke-width:1.32874;stroke-linecap:butt;stroke-linejoin:round;stroke-miterlimit:10;stroke-opacity:1" />
    <path
       inkscape:connector-curvature="0"
       id="path322"
       d="m 76.109795,514.86971 5.317383,0"
       style="fill:none;stroke:#4d4d4d;stroke-width:1.32874;stroke-linecap:butt;stroke-linejoin:round;stroke-miterlimit:10;stroke-opacity:1" />
    <path
       inkscape:connector-curvature="0"
       id="path324"
       d="m 76.109795,420.80232 5.317383,0"
       style="fill:none;stroke:#4d4d4d;stroke-width:1.32874;stroke-linecap:butt;stroke-linejoin:round;stroke-miterlimit:10;stroke-opacity:1" />
    <path
       inkscape:connector-curvature="0"
       id="path326"
       d="m 76.109795,326.73495 5.317383,0"
       style="fill:none;stroke:#4d4d4d;stroke-width:1.32874;stroke-linecap:butt;stroke-linejoin:round;stroke-miterlimit:10;stroke-opacity:1" />
    <path
       inkscape:connector-curvature="0"
       id="path328"
       d="m 76.109795,232.66755 5.317383,0"
       style="fill:none;stroke:#4d4d4d;stroke-width:1.32874;stroke-linecap:butt;stroke-linejoin:round;stroke-miterlimit:10;stroke-opacity:1" />
    <path
       inkscape:connector-curvature="0"
       id="path330"
       d="m 100.24065,633.06306 0,-5.31738"
       style="fill:none;stroke:#4d4d4d;stroke-width:1.32874;stroke-linecap:butt;stroke-linejoin:round;stroke-miterlimit:10;stroke-opacity:1" />
    <path
       inkscape:connector-curvature="0"
       id="path332"
       d="m 194.30316,633.06306 0,-5.31738"
       style="fill:none;stroke:#4d4d4d;stroke-width:1.32874;stroke-linecap:butt;stroke-linejoin:round;stroke-miterlimit:10;stroke-opacity:1" />
    <path
       inkscape:connector-curvature="0"
       id="path334"
       d="m 288.37054,633.06306 0,-5.31738"
       style="fill:none;stroke:#4d4d4d;stroke-width:1.32874;stroke-linecap:butt;stroke-linejoin:round;stroke-miterlimit:10;stroke-opacity:1" />
    <path
       inkscape:connector-curvature="0"
       id="path336"
       d="m 382.43792,633.06306 0,-5.31738"
       style="fill:none;stroke:#4d4d4d;stroke-width:1.32874;stroke-linecap:butt;stroke-linejoin:round;stroke-miterlimit:10;stroke-opacity:1" />
    <path
       inkscape:connector-curvature="0"
       id="path338"
       d="m 476.50531,633.06306 0,-5.31738"
       style="fill:none;stroke:#4d4d4d;stroke-width:1.32874;stroke-linecap:butt;stroke-linejoin:round;stroke-miterlimit:10;stroke-opacity:1" />
    <g
       transform="matrix(1.25,0,0,1.25,28.316826,179.60603)"
       id="g340"
       style="fill:#000000;fill-opacity:1">
      <use
         height="411"
         width="388"
         id="use342"
         y="372.62109"
         x="54.539062"
         xlink:href="#glyph1-1"
         style="fill:#4d4d4d" />
    </g>
    <g
       transform="matrix(1.25,0,0,1.25,28.316826,179.60603)"
       id="g344"
       style="fill:#000000;fill-opacity:1">
      <use
         height="411"
         width="388"
         id="use346"
         y="372.62109"
         x="129.78906"
         xlink:href="#glyph1-2"
         style="fill:#4d4d4d" />
    </g>
    <g
       transform="matrix(1.25,0,0,1.25,28.316826,179.60603)"
       id="g348"
       style="fill:#000000;fill-opacity:1">
      <use
         height="411"
         width="388"
         id="use350"
         y="372.62109"
         x="205.04297"
         xlink:href="#glyph1-3"
         style="fill:#4d4d4d" />
    </g>
    <g
       transform="matrix(1.25,0,0,1.25,28.316826,179.60603)"
       id="g352"
       style="fill:#000000;fill-opacity:1">
      <use
         height="411"
         width="388"
         id="use354"
         y="372.62109"
         x="277.79688"
         xlink:href="#glyph1-4"
         style="fill:#4d4d4d" />
      <use
         height="411"
         width="388"
         id="use356"
         y="372.62109"
         x="283.13086"
         xlink:href="#glyph1-5"
         style="fill:#4d4d4d" />
    </g>
    <g
       transform="matrix(1.25,0,0,1.25,28.316826,179.60603)"
       id="g358"
       style="fill:#000000;fill-opacity:1">
      <use
         height="411"
         width="388"
         id="use360"
         y="372.62109"
         x="353.05078"
         xlink:href="#glyph1-4"
         style="fill:#4d4d4d" />
      <use
         height="411"
         width="388"
         id="use362"
         y="372.62109"
         x="358.38477"
         xlink:href="#glyph1-6"
         style="fill:#4d4d4d" />
    </g>
    <g
       transform="matrix(1.25,0,0,1.25,28.316826,179.60603)"
       id="g364"
       style="fill:#000000;fill-opacity:1">
      <use
         height="411"
         width="388"
         id="use366"
         y="386.97559"
         x="203.54297"
         xlink:href="#glyph2-1"
         style="fill:#4d4d4d" />
    </g>
    <g
       transform="matrix(1.25,0,0,1.25,28.316826,179.60603)"
       id="g368"
       style="fill:#000000;fill-opacity:1">
      <use
         height="411"
         width="388"
         id="use370"
         y="197.45703"
         x="20.577148"
         xlink:href="#glyph3-1"
         style="fill:#4d4d4d" />
    </g>
    <flowRoot
       xml:space="preserve"
       id="flowRoot4718"
       style="font-style:normal;font-variant:normal;font-weight:normal;font-stretch:normal;line-height:0.01%;font-family:Ubuntu;-inkscape-font-specification:Ubuntu;text-align:start;letter-spacing:0px;word-spacing:0px;writing-mode:lr-tb;text-anchor:start;fill:#4d4d4d;fill-opacity:1;stroke:none;"
       transform="translate(14.285714,-24.40633)"><flowRegion
         id="flowRegion4720"
         style="fill:#4d4d4d;"><rect
           id="rect4722"
           width="102.02541"
           height="96.974648"
           x="79.802048"
           y="656.38239"
           style="fill:#4d4d4d;" /></flowRegion><flowPara
         id="flowPara4724"
         style="font-size:18px;line-height:1.25;fill:#4d4d4d;">4</flowPara></flowRoot>    <flowRoot
       transform="translate(109.77235,-24.40633)"
       xml:space="preserve"
       id="flowRoot4718-1"
       style="font-style:normal;font-variant:normal;font-weight:normal;font-stretch:normal;line-height:0.01%;font-family:Ubuntu;-inkscape-font-specification:Ubuntu;text-align:start;letter-spacing:0px;word-spacing:0px;writing-mode:lr-tb;text-anchor:start;fill:#4d4d4d;fill-opacity:1;stroke:none;"><flowRegion
         id="flowRegion4720-0"
         style="fill:#4d4d4d;"><rect
           id="rect4722-0"
           width="102.02541"
           height="96.974648"
           x="79.802048"
           y="656.38239"
           style="fill:#4d4d4d;" /></flowRegion><flowPara
         id="flowPara4724-3"
         style="font-size:18px;line-height:1.25;fill:#4d4d4d;">6</flowPara></flowRoot>    <flowRoot
       transform="translate(203.16521,-24.40633)"
       xml:space="preserve"
       id="flowRoot4718-7"
       style="font-style:normal;font-variant:normal;font-weight:normal;font-stretch:normal;line-height:0.01%;font-family:Ubuntu;-inkscape-font-specification:Ubuntu;text-align:start;letter-spacing:0px;word-spacing:0px;writing-mode:lr-tb;text-anchor:start;fill:#4d4d4d;fill-opacity:1;stroke:none;"><flowRegion
         id="flowRegion4720-6"
         style="fill:#4d4d4d;"><rect
           id="rect4722-1"
           width="102.02541"
           height="96.974648"
           x="79.802048"
           y="656.38239"
           style="fill:#4d4d4d;" /></flowRegion><flowPara
         id="flowPara4724-6"
         style="font-size:18px;line-height:1.25;fill:#4d4d4d;">8</flowPara></flowRoot>    <flowRoot
       transform="translate(292.91521,-24.40633)"
       xml:space="preserve"
       id="flowRoot4718-2"
       style="font-style:normal;font-variant:normal;font-weight:normal;font-stretch:normal;line-height:0.01%;font-family:Ubuntu;-inkscape-font-specification:Ubuntu;text-align:start;letter-spacing:0px;word-spacing:0px;writing-mode:lr-tb;text-anchor:start;fill:#4d4d4d;fill-opacity:1;stroke:none;"><flowRegion
         id="flowRegion4720-9"
         style="fill:#4d4d4d;"><rect
           id="rect4722-5"
           width="102.02541"
           height="96.974648"
           x="79.802048"
           y="656.38239"
           style="fill:#4d4d4d;" /></flowRegion><flowPara
         id="flowPara4724-33"
         style="font-size:18px;line-height:1.25;fill:#4d4d4d;">10</flowPara></flowRoot>    <flowRoot
       transform="translate(387.27235,-24.40633)"
       xml:space="preserve"
       id="flowRoot4718-6"
       style="font-style:normal;font-variant:normal;font-weight:normal;font-stretch:normal;line-height:0.01%;font-family:Ubuntu;-inkscape-font-specification:Ubuntu;text-align:start;letter-spacing:0px;word-spacing:0px;writing-mode:lr-tb;text-anchor:start;fill:#4d4d4d;fill-opacity:1;stroke:none;"><flowRegion
         id="flowRegion4720-3"
         style="fill:#4d4d4d;"><rect
           id="rect4722-9"
           width="102.02541"
           height="96.974648"
           x="79.802048"
           y="656.38239"
           style="fill:#4d4d4d;" /></flowRegion><flowPara
         id="flowPara4724-63"
         style="font-size:18px;line-height:1.25;fill:#4d4d4d;">12</flowPara></flowRoot>    <flowRoot
       xml:space="preserve"
       id="flowRoot4718-19"
       style="font-style:normal;font-variant:normal;font-weight:normal;font-stretch:normal;line-height:0.01%;font-family:Ubuntu;-inkscape-font-specification:Ubuntu;text-align:end;letter-spacing:0px;word-spacing:0px;writing-mode:lr-tb;text-anchor:end;fill:#4d4d4d;fill-opacity:1;stroke:none;"
       transform="translate(-109.66964,-60.851591)"><flowRegion
         id="flowRegion4720-68"
         style="fill:#4d4d4d;"><rect
           id="rect4722-6"
           width="102.02541"
           height="96.974648"
           x="79.802048"
           y="656.38239"
           style="text-align:end;text-anchor:end;fill:#4d4d4d;" /></flowRegion><flowPara
         id="flowPara4724-37"
         style="font-size:18px;line-height:1.25;text-align:end;text-anchor:end;fill:#4d4d4d;">4</flowPara></flowRoot>    <flowRoot
       transform="translate(-109.66964,-154.06063)"
       xml:space="preserve"
       id="flowRoot4718-1-6"
       style="font-style:normal;font-variant:normal;font-weight:normal;font-stretch:normal;line-height:0.01%;font-family:Ubuntu;-inkscape-font-specification:Ubuntu;text-align:start;letter-spacing:0px;word-spacing:0px;writing-mode:lr-tb;text-anchor:start;fill:#4d4d4d;fill-opacity:1;stroke:none;"><flowRegion
         id="flowRegion4720-0-4"
         style="fill:#4d4d4d;"><rect
           id="rect4722-0-6"
           width="102.02541"
           height="96.974648"
           x="79.802048"
           y="656.38239"
           style="fill:#4d4d4d;" /></flowRegion><flowPara
         id="flowPara4724-3-3"
         style="font-size:18px;line-height:1.25;text-align:end;text-anchor:end;fill:#4d4d4d;">6</flowPara></flowRoot>    <flowRoot
       transform="translate(-109.66964,-248.03035)"
       xml:space="preserve"
       id="flowRoot4718-7-9"
       style="font-style:normal;font-variant:normal;font-weight:normal;font-stretch:normal;line-height:0.01%;font-family:Ubuntu;-inkscape-font-specification:Ubuntu;text-align:end;letter-spacing:0px;word-spacing:0px;writing-mode:lr-tb;text-anchor:end;fill:#4d4d4d;fill-opacity:1;stroke:none;"><flowRegion
         id="flowRegion4720-6-8"
         style="fill:#4d4d4d;"><rect
           id="rect4722-1-4"
           width="102.02541"
           height="96.974648"
           x="79.802048"
           y="656.38239"
           style="text-align:end;text-anchor:end;fill:#4d4d4d;" /></flowRegion><flowPara
         id="flowPara4724-6-1"
         style="font-size:18px;line-height:1.25;text-align:end;text-anchor:end;fill:#4d4d4d;">8</flowPara></flowRoot>    <flowRoot
       transform="translate(-109.66964,-341.80573)"
       xml:space="preserve"
       id="flowRoot4718-2-0"
       style="font-style:normal;font-variant:normal;font-weight:normal;font-stretch:normal;line-height:0.01%;font-family:Ubuntu;-inkscape-font-specification:Ubuntu;text-align:end;letter-spacing:0px;word-spacing:0px;writing-mode:lr-tb;text-anchor:end;fill:#4d4d4d;fill-opacity:1;stroke:none;"><flowRegion
         id="flowRegion4720-9-9"
         style="fill:#4d4d4d;"><rect
           id="rect4722-5-1"
           width="102.02541"
           height="96.974648"
           x="79.802048"
           y="656.38239"
           style="text-align:end;text-anchor:end;fill:#4d4d4d;" /></flowRegion><flowPara
         id="flowPara4724-33-8"
         style="font-size:18px;line-height:1.25;text-align:end;text-anchor:end;fill:#4d4d4d;">10</flowPara></flowRoot>    <flowRoot
       transform="translate(-109.66964,-436.50722)"
       xml:space="preserve"
       id="flowRoot4718-6-3"
       style="font-style:normal;font-variant:normal;font-weight:normal;font-stretch:normal;line-height:0.01%;font-family:Ubuntu;-inkscape-font-specification:Ubuntu;text-align:end;letter-spacing:0px;word-spacing:0px;writing-mode:lr-tb;text-anchor:end;fill:#4d4d4d;fill-opacity:1;stroke:none;"><flowRegion
         id="flowRegion4720-3-7"
         style="fill:#4d4d4d;"><rect
           id="rect4722-9-1"
           width="102.02541"
           height="96.974648"
           x="79.802048"
           y="656.38239"
           style="text-align:end;text-anchor:end;fill:#4d4d4d;" /></flowRegion><flowPara
         id="flowPara4724-63-4"
         style="font-size:18px;line-height:1.25;text-align:end;text-anchor:end;fill:#4d4d4d;">12</flowPara></flowRoot>    <flowRoot
       transform="translate(25.834181,-52.814305)"
       xml:space="preserve"
       id="flowRoot4718-1-4"
       style="font-style:normal;font-variant:normal;font-weight:500;font-stretch:normal;line-height:0.01%;font-family:Ubuntu;-inkscape-font-specification:'Ubuntu Medium';text-align:start;letter-spacing:0px;word-spacing:0px;writing-mode:lr-tb;text-anchor:start;fill:#008000;fill-opacity:1;stroke:none"><flowRegion
         id="flowRegion4720-0-47"><rect
           id="rect4722-0-1"
           width="102.02541"
           height="96.974648"
           x="79.802048"
           y="656.38239"
           style="font-style:normal;font-variant:normal;font-weight:500;font-stretch:normal;font-size:18px;line-height:125%;font-family:Ubuntu;-inkscape-font-specification:'Ubuntu Medium';text-align:start;writing-mode:lr-tb;text-anchor:start;fill:#008000" /></flowRegion><flowPara
         id="flowPara4724-3-9"
         style="font-style:normal;font-variant:normal;font-weight:500;font-stretch:normal;font-size:18px;line-height:125%;font-family:Ubuntu;-inkscape-font-specification:'Ubuntu Medium';text-align:start;writing-mode:lr-tb;text-anchor:start;fill:#008000">a</flowPara></flowRoot>    <flowRoot
       transform="translate(75.943091,-52.695457)"
       xml:space="preserve"
       id="flowRoot4718-1-4-8"
       style="font-style:normal;font-variant:normal;font-weight:500;font-stretch:normal;line-height:0.01%;font-family:Ubuntu;-inkscape-font-specification:'Ubuntu Medium';text-align:start;letter-spacing:0px;word-spacing:0px;writing-mode:lr-tb;text-anchor:start;fill:#008000;fill-opacity:1;stroke:none"><flowRegion
         id="flowRegion4720-0-47-9"><rect
           id="rect4722-0-1-5"
           width="102.02541"
           height="96.974648"
           x="79.802048"
           y="656.38239"
           style="font-style:normal;font-variant:normal;font-weight:500;font-stretch:normal;font-size:18px;line-height:125%;font-family:Ubuntu;-inkscape-font-specification:'Ubuntu Medium';text-align:start;writing-mode:lr-tb;text-anchor:start;fill:#008000" /></flowRegion><flowPara
         id="flowPara4724-3-9-9"
         style="font-style:normal;font-variant:normal;font-weight:500;font-stretch:normal;font-size:18px;line-height:125%;font-family:Ubuntu;-inkscape-font-specification:'Ubuntu Medium';text-align:start;writing-mode:lr-tb;text-anchor:start;fill:#008000">b</flowPara></flowRoot>    <flowRoot
       transform="translate(122.91135,-98.994042)"
       xml:space="preserve"
       id="flowRoot4718-1-4-0"
       style="font-style:normal;font-variant:normal;font-weight:500;font-stretch:normal;line-height:0.01%;font-family:Ubuntu;-inkscape-font-specification:'Ubuntu Medium';text-align:start;letter-spacing:0px;word-spacing:0px;writing-mode:lr-tb;text-anchor:start;fill:#008000;fill-opacity:1;stroke:none"><flowRegion
         id="flowRegion4720-0-47-1"><rect
           id="rect4722-0-1-9"
           width="102.02541"
           height="96.974648"
           x="79.802048"
           y="656.38239"
           style="font-style:normal;font-variant:normal;font-weight:500;font-stretch:normal;font-size:18px;line-height:125%;font-family:Ubuntu;-inkscape-font-specification:'Ubuntu Medium';text-align:start;writing-mode:lr-tb;text-anchor:start;fill:#008000" /></flowRegion><flowPara
         id="flowPara4724-3-9-6"
         style="font-style:normal;font-variant:normal;font-weight:500;font-stretch:normal;font-size:18px;line-height:125%;font-family:Ubuntu;-inkscape-font-specification:'Ubuntu Medium';text-align:start;writing-mode:lr-tb;text-anchor:start;fill:#008000">c</flowPara></flowRoot>    <flowRoot
       transform="translate(305.19707,-235.42261)"
       xml:space="preserve"
       id="flowRoot4718-1-4-6"
       style="font-style:normal;font-variant:normal;font-weight:500;font-stretch:normal;line-height:0.01%;font-family:Ubuntu;-inkscape-font-specification:'Ubuntu Medium';text-align:start;letter-spacing:0px;word-spacing:0px;writing-mode:lr-tb;text-anchor:start;fill:#d45500;fill-opacity:1;stroke:none"><flowRegion
         id="flowRegion4720-0-47-6"><rect
           id="rect4722-0-1-2"
           width="102.02541"
           height="96.974648"
           x="79.802048"
           y="656.38239"
           style="font-style:normal;font-variant:normal;font-weight:500;font-stretch:normal;font-size:18px;line-height:125%;font-family:Ubuntu;-inkscape-font-specification:'Ubuntu Medium';text-align:start;writing-mode:lr-tb;text-anchor:start;fill:#d45500" /></flowRegion><flowPara
         id="flowPara4724-3-9-0"
         style="font-style:normal;font-variant:normal;font-weight:500;font-stretch:normal;font-size:18px;line-height:125%;font-family:Ubuntu;-inkscape-font-specification:'Ubuntu Medium';text-align:start;writing-mode:lr-tb;text-anchor:start;fill:#d45500">d</flowPara></flowRoot>    <flowRoot
       transform="translate(385.48278,-283.27976)"
       xml:space="preserve"
       id="flowRoot4718-1-4-4"
       style="font-style:normal;font-variant:normal;font-weight:500;font-stretch:normal;line-height:0.01%;font-family:Ubuntu;-inkscape-font-specification:'Ubuntu Medium';text-align:start;letter-spacing:0px;word-spacing:0px;writing-mode:lr-tb;text-anchor:start;fill:#d45500;fill-opacity:1;stroke:none"><flowRegion
         id="flowRegion4720-0-47-8"><rect
           id="rect4722-0-1-24"
           width="102.02541"
           height="96.974648"
           x="79.802048"
           y="656.38239"
           style="font-style:normal;font-variant:normal;font-weight:500;font-stretch:normal;font-size:18px;line-height:125%;font-family:Ubuntu;-inkscape-font-specification:'Ubuntu Medium';text-align:start;writing-mode:lr-tb;text-anchor:start;fill:#d45500" /></flowRegion><flowPara
         id="flowPara4724-3-9-2"
         style="font-style:normal;font-variant:normal;font-weight:500;font-stretch:normal;font-size:18px;line-height:125%;font-family:Ubuntu;-inkscape-font-specification:'Ubuntu Medium';text-align:start;writing-mode:lr-tb;text-anchor:start;fill:#d45500">e</flowPara></flowRoot>    <flowRoot
       transform="translate(207.7685,-325.1369)"
       xml:space="preserve"
       id="flowRoot4718-1-4-3"
       style="font-style:normal;font-variant:normal;font-weight:500;font-stretch:normal;line-height:0.01%;font-family:Ubuntu;-inkscape-font-specification:'Ubuntu Medium';text-align:start;letter-spacing:0px;word-spacing:0px;writing-mode:lr-tb;text-anchor:start;fill:#d45500;fill-opacity:1;stroke:none"><flowRegion
         id="flowRegion4720-0-47-4"><rect
           id="rect4722-0-1-4"
           width="102.02541"
           height="96.974648"
           x="79.802048"
           y="656.38239"
           style="font-style:normal;font-variant:normal;font-weight:500;font-stretch:normal;font-size:18px;line-height:125%;font-family:Ubuntu;-inkscape-font-specification:'Ubuntu Medium';text-align:start;writing-mode:lr-tb;text-anchor:start;fill:#d45500" /></flowRegion><flowPara
         id="flowPara4724-3-9-4"
         style="font-style:normal;font-variant:normal;font-weight:500;font-stretch:normal;font-size:18px;line-height:125%;font-family:Ubuntu;-inkscape-font-specification:'Ubuntu Medium';text-align:start;writing-mode:lr-tb;text-anchor:start;fill:#d45500">f</flowPara></flowRoot>    <flowRoot
       transform="translate(357.91136,-386.42262)"
       xml:space="preserve"
       id="flowRoot4718-1-4-37"
       style="font-style:normal;font-variant:normal;font-weight:500;font-stretch:normal;line-height:0.01%;font-family:Ubuntu;-inkscape-font-specification:'Ubuntu Medium';text-align:start;letter-spacing:0px;word-spacing:0px;writing-mode:lr-tb;text-anchor:start;fill:#d45500;fill-opacity:1;stroke:none"><flowRegion
         id="flowRegion4720-0-47-3"><rect
           id="rect4722-0-1-41"
           width="102.02541"
           height="96.974648"
           x="79.802048"
           y="656.38239"
           style="font-style:normal;font-variant:normal;font-weight:500;font-stretch:normal;font-size:18px;line-height:125%;font-family:Ubuntu;-inkscape-font-specification:'Ubuntu Medium';text-align:start;writing-mode:lr-tb;text-anchor:start;fill:#d45500" /></flowRegion><flowPara
         id="flowPara4724-3-9-8"
         style="font-style:normal;font-variant:normal;font-weight:500;font-stretch:normal;font-size:18px;line-height:125%;font-family:Ubuntu;-inkscape-font-specification:'Ubuntu Medium';text-align:start;writing-mode:lr-tb;text-anchor:start;fill:#d45500">g</flowPara></flowRoot>    <flowRoot
       transform="translate(285.96078,-424.89075)"
       xml:space="preserve"
       id="flowRoot4718-1-4-37-0"
       style="font-style:normal;font-variant:normal;font-weight:500;font-stretch:normal;line-height:0.01%;font-family:Ubuntu;-inkscape-font-specification:'Ubuntu Medium';text-align:start;letter-spacing:0px;word-spacing:0px;writing-mode:lr-tb;text-anchor:start;fill:#d45500;fill-opacity:1;stroke:none"><flowRegion
         id="flowRegion4720-0-47-3-0"><rect
           id="rect4722-0-1-41-1"
           width="102.02541"
           height="96.974648"
           x="79.802048"
           y="656.38239"
           style="font-style:normal;font-variant:normal;font-weight:500;font-stretch:normal;font-size:18px;line-height:125%;font-family:Ubuntu;-inkscape-font-specification:'Ubuntu Medium';text-align:start;writing-mode:lr-tb;text-anchor:start;fill:#d45500" /></flowRegion><flowPara
         id="flowPara4724-3-9-8-1"
         style="font-style:normal;font-variant:normal;font-weight:500;font-stretch:normal;font-size:18px;line-height:125%;font-family:Ubuntu;-inkscape-font-specification:'Ubuntu Medium';text-align:start;writing-mode:lr-tb;text-anchor:start;fill:#d45500">h</flowPara></flowRoot>    <flowRoot
       transform="translate(77.771882,-192.84071)"
       xml:space="preserve"
       id="flowRoot4718-1-4-37-8"
       style="font-style:normal;font-variant:normal;font-weight:500;font-stretch:normal;line-height:0.01%;font-family:Ubuntu;-inkscape-font-specification:'Ubuntu Medium';text-align:start;letter-spacing:0px;word-spacing:0px;writing-mode:lr-tb;text-anchor:start;fill:#008000;fill-opacity:1;stroke:none"><flowRegion
         id="flowRegion4720-0-47-3-2"><rect
           id="rect4722-0-1-41-6"
           width="102.02541"
           height="96.974648"
           x="79.802048"
           y="656.38239"
           style="font-style:normal;font-variant:normal;font-weight:500;font-stretch:normal;font-size:18px;line-height:125%;font-family:Ubuntu;-inkscape-font-specification:'Ubuntu Medium';text-align:start;writing-mode:lr-tb;text-anchor:start;fill:#008000" /></flowRegion><flowPara
         id="flowPara4724-3-9-8-7"
         style="font-style:normal;font-variant:normal;font-weight:500;font-stretch:normal;font-size:18px;line-height:125%;font-family:Ubuntu;-inkscape-font-specification:'Ubuntu Medium';text-align:start;writing-mode:lr-tb;text-anchor:start;fill:#008000">i</flowPara></flowRoot>    <flowRoot
       transform="translate(123.13954,-192.58817)"
       xml:space="preserve"
       id="flowRoot4718-1-4-37-3"
       style="font-style:normal;font-variant:normal;font-weight:500;font-stretch:normal;line-height:0.01%;font-family:Ubuntu;-inkscape-font-specification:'Ubuntu Medium';text-align:start;letter-spacing:0px;word-spacing:0px;writing-mode:lr-tb;text-anchor:start;fill:#008000;fill-opacity:1;stroke:none"><flowRegion
         id="flowRegion4720-0-47-3-06"><rect
           id="rect4722-0-1-41-16"
           width="102.02541"
           height="96.974648"
           x="79.802048"
           y="656.38239"
           style="font-style:normal;font-variant:normal;font-weight:500;font-stretch:normal;font-size:18px;line-height:125%;font-family:Ubuntu;-inkscape-font-specification:'Ubuntu Medium';text-align:start;writing-mode:lr-tb;text-anchor:start;fill:#008000" /></flowRegion><flowPara
         id="flowPara4724-3-9-8-4"
         style="font-style:normal;font-variant:normal;font-weight:500;font-stretch:normal;font-size:18px;line-height:125%;font-family:Ubuntu;-inkscape-font-specification:'Ubuntu Medium';text-align:start;writing-mode:lr-tb;text-anchor:start;fill:#008000">j</flowPara></flowRoot>    <g
       transform="matrix(1.5172221,0,0,1.5173821,523.03258,155.21146)"
       id="g242"
       style="fill:#000000;fill-opacity:1">
      <use
         height="411"
         width="388"
         id="use244"
         y="287.20703"
         x="73.071289"
         xlink:href="#glyph0-1"
         style="fill:#4d4d4d" />
    </g>
    <g
       transform="matrix(1.5172221,0,0,1.5173821,523.03258,155.21146)"
       id="g246"
       style="fill:#000000;fill-opacity:1">
      <use
         height="411"
         width="388"
         id="use248"
         y="287.20703"
         x="103.80566"
         xlink:href="#glyph0-2"
         style="fill:#4d4d4d" />
    </g>
    <g
       transform="matrix(1.5172221,0,0,1.5173821,523.03258,155.21146)"
       id="g252"
       style="fill:#000000;fill-opacity:1">
      <use
         height="411"
         width="388"
         id="use254"
         y="259.52734"
         x="134.53613"
         xlink:href="#glyph0-3"
         style="fill:#4d4d4d" />
    </g>
    <path
       inkscape:connector-curvature="0"
       id="path256"
       d="m 626.70763,514.62287 0,-41.99474 69.94628,0 0,31.48568"
       style="fill:none;stroke:#008000;stroke-width:3;stroke-linecap:round;stroke-linejoin:round;stroke-miterlimit:10;stroke-opacity:1;stroke-dasharray:none" />
    <g
       transform="matrix(1.5172221,0,0,1.5173821,523.03258,155.21146)"
       id="g258"
       style="fill:#000000;fill-opacity:1">
      <use
         height="411"
         width="388"
         id="use260"
         y="320.61328"
         x="165.27051"
         xlink:href="#glyph0-4"
         style="fill:#4d4d4d" />
    </g>
    <g
       transform="matrix(1.5172221,0,0,1.5173821,523.03258,155.21146)"
       id="g262"
       style="fill:#000000;fill-opacity:1">
      <use
         height="411"
         width="388"
         id="use264"
         y="329.61328"
         x="196.00098"
         xlink:href="#glyph0-1"
         style="fill:#4d4d4d" />
      <use
         height="411"
         width="388"
         id="use266-4"
         y="320.7168"
         x="196.00098"
         xlink:href="#glyph0-5"
         style="fill:#4d4d4d" />
    </g>
    <g
       transform="matrix(1.5172221,0,0,1.5173821,523.03258,155.21146)"
       id="g272-9"
       style="fill:#000000;fill-opacity:1">
      <use
         height="411"
         width="388"
         id="use274-0"
         y="204.61328"
         x="226.73535"
         xlink:href="#glyph0-6"
         style="fill:#4d4d4d" />
    </g>
    <g
       transform="matrix(1.5172221,0,0,1.5173821,523.03258,155.21146)"
       id="g276-4"
       style="fill:#000000;fill-opacity:1">
      <use
         height="411"
         width="388"
         id="use278-3"
         y="204.61328"
         x="257.46582"
         xlink:href="#glyph0-7"
         style="fill:#4d4d4d" />
    </g>
    <g
       transform="matrix(1.5172221,0,0,1.5173821,523.03258,155.21146)"
       id="g280-4"
       style="fill:#000000;fill-opacity:1">
      <use
         height="411"
         width="388"
         id="use282-8"
         y="259.52734"
         x="288.2002"
         xlink:href="#glyph0-8"
         style="fill:#4d4d4d" />
    </g>
    <g
       transform="matrix(1.5172221,0,0,1.5173821,523.03258,155.21146)"
       id="g284-6"
       style="fill:#000000;fill-opacity:1">
      <use
         height="411"
         width="388"
         id="use286-0"
         y="259.52734"
         x="318.93066"
         xlink:href="#glyph0-9"
         style="fill:#4d4d4d" />
    </g>
    <path
       inkscape:connector-curvature="0"
       id="path290"
       d="m 883.16553,420.78821 0,-31.48568 69.94041,0 0,83.3256"
       style="fill:none;stroke:#d45500;stroke-width:3;stroke-linecap:round;stroke-linejoin:round;stroke-miterlimit:10;stroke-opacity:1;stroke-dasharray:none" />
    <path
       inkscape:connector-curvature="0"
       id="path292"
       d="m 836.53474,420.78821 0,-31.48568 81.59801,0"
       style="fill:none;stroke:#d45500;stroke-width:3;stroke-linecap:round;stroke-linejoin:round;stroke-miterlimit:10;stroke-opacity:1;stroke-dasharray:none" />
    <g
       transform="matrix(1.5172221,0,0,1.5173821,523.03258,155.21146)"
       id="g294"
       style="fill:#000000;fill-opacity:1">
      <use
         height="411"
         width="388"
         id="use296"
         y="165.03125"
         x="349.66504"
         xlink:href="#glyph0-10"
         style="fill:#4d4d4d" />
    </g>
    <path
       inkscape:connector-curvature="0"
       id="path300"
       d="m 714.13754,413.23685 0,-162.78663 236.05254,0 0,78.79124"
       style="fill:none;stroke:#4d4d4d;stroke-width:3;stroke-linecap:round;stroke-linejoin:round;stroke-miterlimit:10;stroke-opacity:1;stroke-dasharray:none" />
    <path
       inkscape:connector-curvature="0"
       id="path302"
       d="m 586.60793,615.60657 0,-380.59038"
       style="fill:none;stroke:#4d4d4d;stroke-width:3;stroke-linecap:round;stroke-linejoin:round;stroke-miterlimit:10;stroke-opacity:1;stroke-dasharray:none" />
    <path
       inkscape:connector-curvature="0"
       id="path306"
       d="m 586.60793,514.62287 -10.92283,0"
       style="fill:none;stroke:#4d4d4d;stroke-width:3;stroke-linecap:round;stroke-linejoin:round;stroke-miterlimit:10;stroke-opacity:1;stroke-dasharray:none" />
    <path
       inkscape:connector-curvature="0"
       id="path310"
       d="m 586.60793,413.23685 -10.92283,0"
       style="fill:none;stroke:#4d4d4d;stroke-width:3;stroke-linecap:round;stroke-linejoin:round;stroke-miterlimit:10;stroke-opacity:1;stroke-dasharray:none" />
    <path
       inkscape:connector-curvature="0"
       id="path314"
       d="m 586.60793,311.84491 -10.92283,0"
       style="fill:none;stroke:#4d4d4d;stroke-width:3;stroke-linecap:round;stroke-linejoin:round;stroke-miterlimit:10;stroke-opacity:1;stroke-dasharray:none" />
    <g
       transform="matrix(1.5172221,0,0,1.5173821,523.03258,155.21146)"
       id="g318"
       style="fill:#000000;fill-opacity:1">
      <use
         height="411"
         width="388"
         id="use320"
         y="288.36328"
         x="41.129883"
         xlink:href="#glyph0-5"
         style="fill:#4d4d4d" />
      <use
         height="411"
         width="388"
         id="use322"
         y="279.4668"
         x="41.129883"
         xlink:href="#glyph0-11"
         style="fill:#4d4d4d" />
      <use
         height="411"
         width="388"
         id="use324"
         y="275.01855"
         x="41.129883"
         xlink:href="#glyph0-7"
         style="fill:#4d4d4d" />
    </g>
    <g
       transform="matrix(1.5172221,0,0,1.5173821,523.03258,155.21146)"
       id="g326"
       style="fill:#000000;fill-opacity:1">
      <use
         height="411"
         width="388"
         id="use328"
         y="221.54688"
         x="41.129883"
         xlink:href="#glyph0-1"
         style="fill:#4d4d4d" />
      <use
         height="411"
         width="388"
         id="use330"
         y="212.65039"
         x="41.129883"
         xlink:href="#glyph0-11"
         style="fill:#4d4d4d" />
      <use
         height="411"
         width="388"
         id="use332"
         y="208.20215"
         x="41.129883"
         xlink:href="#glyph0-7"
         style="fill:#4d4d4d" />
    </g>
    <g
       transform="matrix(1.5172221,0,0,1.5173821,523.03258,155.21146)"
       id="g334"
       style="fill:#000000;fill-opacity:1">
      <use
         height="411"
         width="388"
         id="use336"
         y="154.72656"
         x="41.129883"
         xlink:href="#glyph0-2"
         style="fill:#4d4d4d" />
      <use
         height="411"
         width="388"
         id="use338"
         y="145.83008"
         x="41.129883"
         xlink:href="#glyph0-11"
         style="fill:#4d4d4d" />
      <use
         height="411"
         width="388"
         id="use340"
         y="141.38184"
         x="41.129883"
         xlink:href="#glyph0-7"
         style="fill:#4d4d4d" />
    </g>
    <g
       transform="matrix(1.5172221,0,0,1.5173821,523.03258,155.21146)"
       id="g342"
       style="fill:#000000;fill-opacity:1">
      <use
         height="411"
         width="388"
         id="use344"
         y="87.910156"
         x="41.129883"
         xlink:href="#glyph0-3"
         style="fill:#4d4d4d" />
      <use
         height="411"
         width="388"
         id="use346-2"
         y="79.013672"
         x="41.129883"
         xlink:href="#glyph0-11"
         style="fill:#4d4d4d" />
      <use
         height="411"
         width="388"
         id="use348"
         y="74.56543"
         x="41.129883"
         xlink:href="#glyph0-7"
         style="fill:#4d4d4d" />
    </g>
    <g
       transform="matrix(1.5172221,0,0,1.5173821,523.03258,155.21146)"
       id="g600"
       style="fill:#000000;fill-opacity:1">
      <use
         height="411"
         width="388"
         id="use602"
         y="221.80078"
         x="12.329102"
         xlink:href="#glyph0-12"
         style="fill:#4d4d4d" />
      <use
         height="411"
         width="388"
         id="use604"
         y="210.24902"
         x="12.329102"
         xlink:href="#glyph0-13"
         style="fill:#4d4d4d" />
      <use
         height="411"
         width="388"
         id="use606"
         y="201.35254"
         x="12.329102"
         xlink:href="#glyph0-14"
         style="fill:#4d4d4d" />
      <use
         height="411"
         width="388"
         id="use608"
         y="197.80078"
         x="12.329102"
         xlink:href="#glyph0-15"
         style="fill:#4d4d4d" />
      <use
         height="411"
         width="388"
         id="use610"
         y="188.9043"
         x="12.329102"
         xlink:href="#glyph0-16"
         style="fill:#4d4d4d" />
      <use
         height="411"
         width="388"
         id="use612"
         y="180.00781"
         x="12.329102"
         xlink:href="#glyph0-17"
         style="fill:#4d4d4d" />
    </g>
    <path
       inkscape:connector-curvature="0"
       id="path304-3"
       d="m 586.60008,615.59506 -10.92283,0"
       style="fill:none;stroke:#4d4d4d;stroke-width:3;stroke-linecap:round;stroke-linejoin:round;stroke-miterlimit:10;stroke-opacity:1;stroke-dasharray:none" />
    <flowRoot
       transform="translate(387.16735,-54.296768)"
       xml:space="preserve"
       id="flowRoot4718-2-5"
       style="font-style:normal;font-variant:normal;font-weight:normal;font-stretch:normal;line-height:0.01%;font-family:Ubuntu;-inkscape-font-specification:Ubuntu;text-align:end;letter-spacing:0px;word-spacing:0px;writing-mode:lr-tb;text-anchor:end;fill:#4d4d4d;fill-opacity:1;stroke:none;"><flowRegion
         id="flowRegion4720-9-1"
         style="fill:#4d4d4d;"><rect
           id="rect4722-5-6"
           width="102.02541"
           height="96.974648"
           x="79.802048"
           y="656.38239"
           style="text-align:end;text-anchor:end;fill:#4d4d4d;" /></flowRegion><flowPara
         id="flowPara4724-33-1"
         style="font-size:18px;line-height:1.25;text-align:end;text-anchor:end;fill:#4d4d4d;">0</flowPara></flowRoot>    <flowRoot
       transform="translate(387.16735,-154.32725)"
       xml:space="preserve"
       id="flowRoot4718-2-2"
       style="font-style:normal;font-variant:normal;font-weight:normal;font-stretch:normal;line-height:0.01%;font-family:Ubuntu;-inkscape-font-specification:Ubuntu;text-align:end;letter-spacing:0px;word-spacing:0px;writing-mode:lr-tb;text-anchor:end;fill:#4d4d4d;fill-opacity:1;stroke:none;"><flowRegion
         id="flowRegion4720-9-6"
         style="fill:#4d4d4d;"><rect
           id="rect4722-5-14"
           width="102.02541"
           height="96.974648"
           x="79.802048"
           y="656.38239"
           style="text-align:end;text-anchor:end;fill:#4d4d4d;" /></flowRegion><flowPara
         id="flowPara4724-33-9"
         style="font-size:18px;line-height:1.25;text-align:end;text-anchor:end;fill:#4d4d4d;">1</flowPara></flowRoot>    <flowRoot
       transform="translate(387.16735,-255.85658)"
       xml:space="preserve"
       id="flowRoot4718-2-2-5"
       style="font-style:normal;font-variant:normal;font-weight:normal;font-stretch:normal;line-height:0.01%;font-family:Ubuntu;-inkscape-font-specification:Ubuntu;text-align:end;letter-spacing:0px;word-spacing:0px;writing-mode:lr-tb;text-anchor:end;fill:#4d4d4d;fill-opacity:1;stroke:none;"><flowRegion
         id="flowRegion4720-9-6-0"
         style="fill:#4d4d4d;"><rect
           id="rect4722-5-14-2"
           width="102.02541"
           height="96.974648"
           x="79.802048"
           y="656.38239"
           style="text-align:end;text-anchor:end;fill:#4d4d4d;" /></flowRegion><flowPara
         id="flowPara4724-33-9-0"
         style="font-size:18px;line-height:1.25;text-align:end;text-anchor:end;fill:#4d4d4d;">2</flowPara></flowRoot>    <flowRoot
       transform="translate(387.16735,-356.87183)"
       xml:space="preserve"
       id="flowRoot4718-2-2-0"
       style="font-style:normal;font-variant:normal;font-weight:normal;font-stretch:normal;line-height:0.01%;font-family:Ubuntu;-inkscape-font-specification:Ubuntu;text-align:end;letter-spacing:0px;word-spacing:0px;writing-mode:lr-tb;text-anchor:end;fill:#4d4d4d;fill-opacity:1;stroke:none;"><flowRegion
         id="flowRegion4720-9-6-7"
         style="fill:#4d4d4d;"><rect
           id="rect4722-5-14-4"
           width="102.02541"
           height="96.974648"
           x="79.802048"
           y="656.38239"
           style="text-align:end;text-anchor:end;fill:#4d4d4d;" /></flowRegion><flowPara
         id="flowPara4724-33-9-21"
         style="font-size:18px;line-height:1.25;text-align:end;text-anchor:end;fill:#4d4d4d;">3</flowPara></flowRoot>    <flowRoot
       transform="rotate(-90,217.42703,349.12853)"
       xml:space="preserve"
       id="flowRoot4718-2-2-3"
       style="font-style:normal;font-variant:normal;font-weight:500;font-stretch:normal;line-height:0.01%;font-family:Ubuntu;-inkscape-font-specification:'Ubuntu Medium';text-align:end;letter-spacing:0px;word-spacing:0px;writing-mode:lr-tb;text-anchor:end;fill:#4d4d4d;fill-opacity:1;stroke:none;"><flowRegion
         id="flowRegion4720-9-6-2"
         style="fill:#4d4d4d;"><rect
           id="rect4722-5-14-7"
           width="102.02541"
           height="96.974648"
           x="79.802048"
           y="656.38239"
           style="font-style:normal;font-variant:normal;font-weight:500;font-stretch:normal;font-size:22px;line-height:125%;font-family:Ubuntu;-inkscape-font-specification:'Ubuntu Medium';text-align:end;writing-mode:lr-tb;text-anchor:end;fill:#4d4d4d;" /></flowRegion><flowPara
         id="flowPara4724-33-9-8"
         style="font-style:normal;font-variant:normal;font-weight:500;font-stretch:normal;font-size:22px;line-height:125%;font-family:Ubuntu;-inkscape-font-specification:'Ubuntu Medium';text-align:end;writing-mode:lr-tb;text-anchor:end;fill:#4d4d4d;">Distance</flowPara></flowRoot>    <flowRoot
       transform="translate(519.21624,-107.03517)"
       xml:space="preserve"
       id="flowRoot4718-1-4-01"
       style="font-style:normal;font-variant:normal;font-weight:500;font-stretch:normal;line-height:0.01%;font-family:Ubuntu;-inkscape-font-specification:'Ubuntu Medium';text-align:start;letter-spacing:0px;word-spacing:0px;writing-mode:lr-tb;text-anchor:start;fill:#008000;fill-opacity:1;stroke:none"><flowRegion
         id="flowRegion4720-0-47-0"><rect
           id="rect4722-0-1-7"
           width="102.02541"
           height="96.974648"
           x="79.802048"
           y="656.38239"
           style="font-style:normal;font-variant:normal;font-weight:500;font-stretch:normal;font-size:18px;line-height:125%;font-family:Ubuntu;-inkscape-font-specification:'Ubuntu Medium';text-align:start;writing-mode:lr-tb;text-anchor:start;fill:#008000" /></flowRegion><flowPara
         id="flowPara4724-3-9-42"
         style="font-style:normal;font-variant:normal;font-weight:500;font-stretch:normal;font-size:18px;line-height:125%;font-family:Ubuntu;-inkscape-font-specification:'Ubuntu Medium';text-align:start;writing-mode:lr-tb;text-anchor:start;fill:#008000">a</flowPara></flowRoot>    <flowRoot
       transform="translate(565.59526,-107.03517)"
       xml:space="preserve"
       id="flowRoot4718-1-4-8-9"
       style="font-style:normal;font-variant:normal;font-weight:500;font-stretch:normal;line-height:0.01%;font-family:Ubuntu;-inkscape-font-specification:'Ubuntu Medium';text-align:start;letter-spacing:0px;word-spacing:0px;writing-mode:lr-tb;text-anchor:start;fill:#008000;fill-opacity:1;stroke:none"><flowRegion
         id="flowRegion4720-0-47-9-1"><rect
           id="rect4722-0-1-5-1"
           width="102.02541"
           height="96.974648"
           x="79.802048"
           y="656.38239"
           style="font-style:normal;font-variant:normal;font-weight:500;font-stretch:normal;font-size:18px;line-height:125%;font-family:Ubuntu;-inkscape-font-specification:'Ubuntu Medium';text-align:start;writing-mode:lr-tb;text-anchor:start;fill:#008000" /></flowRegion><flowPara
         id="flowPara4724-3-9-9-2"
         style="font-style:normal;font-variant:normal;font-weight:500;font-stretch:normal;font-size:18px;line-height:125%;font-family:Ubuntu;-inkscape-font-specification:'Ubuntu Medium';text-align:start;writing-mode:lr-tb;text-anchor:start;fill:#008000">b</flowPara></flowRoot>    <flowRoot
       transform="translate(611.84924,-152.61772)"
       xml:space="preserve"
       id="flowRoot4718-1-4-0-5"
       style="font-style:normal;font-variant:normal;font-weight:500;font-stretch:normal;line-height:0.01%;font-family:Ubuntu;-inkscape-font-specification:'Ubuntu Medium';text-align:start;letter-spacing:0px;word-spacing:0px;writing-mode:lr-tb;text-anchor:start;fill:#008000;fill-opacity:1;stroke:none"><flowRegion
         id="flowRegion4720-0-47-1-0"><rect
           id="rect4722-0-1-9-9"
           width="102.02541"
           height="96.974648"
           x="79.802048"
           y="656.38239"
           style="font-style:normal;font-variant:normal;font-weight:500;font-stretch:normal;font-size:18px;line-height:125%;font-family:Ubuntu;-inkscape-font-specification:'Ubuntu Medium';text-align:start;writing-mode:lr-tb;text-anchor:start;fill:#008000" /></flowRegion><flowPara
         id="flowPara4724-3-9-6-6"
         style="font-style:normal;font-variant:normal;font-weight:500;font-stretch:normal;font-size:18px;line-height:125%;font-family:Ubuntu;-inkscape-font-specification:'Ubuntu Medium';text-align:start;writing-mode:lr-tb;text-anchor:start;fill:#008000">c</flowPara></flowRoot>    <flowRoot
       transform="translate(750.71655,-232.29408)"
       xml:space="preserve"
       id="flowRoot4718-1-4-6-5"
       style="font-style:normal;font-variant:normal;font-weight:500;font-stretch:normal;line-height:0.01%;font-family:Ubuntu;-inkscape-font-specification:'Ubuntu Medium';text-align:start;letter-spacing:0px;word-spacing:0px;writing-mode:lr-tb;text-anchor:start;fill:#d45500;fill-opacity:1;stroke:none"><flowRegion
         id="flowRegion4720-0-47-6-1"><rect
           id="rect4722-0-1-2-6"
           width="102.02541"
           height="96.974648"
           x="79.802048"
           y="656.38239"
           style="font-style:normal;font-variant:normal;font-weight:500;font-stretch:normal;font-size:18px;line-height:125%;font-family:Ubuntu;-inkscape-font-specification:'Ubuntu Medium';text-align:start;writing-mode:lr-tb;text-anchor:start;fill:#d45500" /></flowRegion><flowPara
         id="flowPara4724-3-9-0-2"
         style="font-style:normal;font-variant:normal;font-weight:500;font-stretch:normal;font-size:18px;line-height:125%;font-family:Ubuntu;-inkscape-font-specification:'Ubuntu Medium';text-align:start;writing-mode:lr-tb;text-anchor:start;fill:#d45500">d</flowPara></flowRoot>    <flowRoot
       transform="translate(797.73684,-232.29408)"
       xml:space="preserve"
       id="flowRoot4718-1-4-4-6"
       style="font-style:normal;font-variant:normal;font-weight:500;font-stretch:normal;line-height:0.01%;font-family:Ubuntu;-inkscape-font-specification:'Ubuntu Medium';text-align:start;letter-spacing:0px;word-spacing:0px;writing-mode:lr-tb;text-anchor:start;fill:#d45500;fill-opacity:1;stroke:none"><flowRegion
         id="flowRegion4720-0-47-8-0"><rect
           id="rect4722-0-1-24-3"
           width="102.02541"
           height="96.974648"
           x="79.802048"
           y="656.38239"
           style="font-style:normal;font-variant:normal;font-weight:500;font-stretch:normal;font-size:18px;line-height:125%;font-family:Ubuntu;-inkscape-font-specification:'Ubuntu Medium';text-align:start;writing-mode:lr-tb;text-anchor:start;fill:#d45500" /></flowRegion><flowPara
         id="flowPara4724-3-9-2-2"
         style="font-style:normal;font-variant:normal;font-weight:500;font-stretch:normal;font-size:18px;line-height:125%;font-family:Ubuntu;-inkscape-font-specification:'Ubuntu Medium';text-align:start;writing-mode:lr-tb;text-anchor:start;fill:#d45500">e</flowPara></flowRoot>    <flowRoot
       transform="translate(938.93777,-292.39816)"
       xml:space="preserve"
       id="flowRoot4718-1-4-3-1"
       style="font-style:normal;font-variant:normal;font-weight:500;font-stretch:normal;line-height:0.01%;font-family:Ubuntu;-inkscape-font-specification:'Ubuntu Medium';text-align:start;letter-spacing:0px;word-spacing:0px;writing-mode:lr-tb;text-anchor:start;fill:#d45500;fill-opacity:1;stroke:none"><flowRegion
         id="flowRegion4720-0-47-4-0"><rect
           id="rect4722-0-1-4-9"
           width="102.02541"
           height="96.974648"
           x="79.802048"
           y="656.38239"
           style="font-style:normal;font-variant:normal;font-weight:500;font-stretch:normal;font-size:18px;line-height:125%;font-family:Ubuntu;-inkscape-font-specification:'Ubuntu Medium';text-align:start;writing-mode:lr-tb;text-anchor:start;fill:#d45500" /></flowRegion><flowPara
         id="flowPara4724-3-9-4-8"
         style="font-style:normal;font-variant:normal;font-weight:500;font-stretch:normal;font-size:18px;line-height:125%;font-family:Ubuntu;-inkscape-font-specification:'Ubuntu Medium';text-align:start;writing-mode:lr-tb;text-anchor:start;fill:#d45500">f</flowPara></flowRoot>    <flowRoot
       transform="translate(845.20171,-148.9565)"
       xml:space="preserve"
       id="flowRoot4718-1-4-37-6"
       style="font-style:normal;font-variant:normal;font-weight:500;font-stretch:normal;line-height:0.01%;font-family:Ubuntu;-inkscape-font-specification:'Ubuntu Medium';text-align:start;letter-spacing:0px;word-spacing:0px;writing-mode:lr-tb;text-anchor:start;fill:#d45500;fill-opacity:1;stroke:none"><flowRegion
         id="flowRegion4720-0-47-3-20"><rect
           id="rect4722-0-1-41-4"
           width="102.02541"
           height="96.974648"
           x="79.802048"
           y="656.38239"
           style="font-style:normal;font-variant:normal;font-weight:500;font-stretch:normal;font-size:18px;line-height:125%;font-family:Ubuntu;-inkscape-font-specification:'Ubuntu Medium';text-align:start;writing-mode:lr-tb;text-anchor:start;fill:#d45500" /></flowRegion><flowPara
         id="flowPara4724-3-9-8-3"
         style="font-style:normal;font-variant:normal;font-weight:500;font-stretch:normal;font-size:18px;line-height:125%;font-family:Ubuntu;-inkscape-font-specification:'Ubuntu Medium';text-align:start;writing-mode:lr-tb;text-anchor:start;fill:#d45500">g</flowPara></flowRoot>    <flowRoot
       transform="translate(891.94405,-148.9565)"
       xml:space="preserve"
       id="flowRoot4718-1-4-37-0-3"
       style="font-style:normal;font-variant:normal;font-weight:500;font-stretch:normal;line-height:0.01%;font-family:Ubuntu;-inkscape-font-specification:'Ubuntu Medium';text-align:start;letter-spacing:0px;word-spacing:0px;writing-mode:lr-tb;text-anchor:start;fill:#d45500;fill-opacity:1;stroke:none"><flowRegion
         id="flowRegion4720-0-47-3-0-7"><rect
           id="rect4722-0-1-41-1-3"
           width="102.02541"
           height="96.974648"
           x="79.802048"
           y="656.38239"
           style="font-style:normal;font-variant:normal;font-weight:500;font-stretch:normal;font-size:18px;line-height:125%;font-family:Ubuntu;-inkscape-font-specification:'Ubuntu Medium';text-align:start;writing-mode:lr-tb;text-anchor:start;fill:#d45500" /></flowRegion><flowPara
         id="flowPara4724-3-9-8-1-2"
         style="font-style:normal;font-variant:normal;font-weight:500;font-stretch:normal;font-size:18px;line-height:125%;font-family:Ubuntu;-inkscape-font-specification:'Ubuntu Medium';text-align:start;writing-mode:lr-tb;text-anchor:start;fill:#d45500">h</flowPara></flowRoot>    <flowRoot
       transform="translate(661.4139,-56.02246)"
       xml:space="preserve"
       id="flowRoot4718-1-4-37-8-3"
       style="font-style:normal;font-variant:normal;font-weight:500;font-stretch:normal;line-height:0.01%;font-family:Ubuntu;-inkscape-font-specification:'Ubuntu Medium';text-align:start;letter-spacing:0px;word-spacing:0px;writing-mode:lr-tb;text-anchor:start;fill:#008000;fill-opacity:1;stroke:none"><flowRegion
         id="flowRegion4720-0-47-3-2-7"><rect
           id="rect4722-0-1-41-6-1"
           width="102.02541"
           height="96.974648"
           x="79.802048"
           y="656.38239"
           style="font-style:normal;font-variant:normal;font-weight:500;font-stretch:normal;font-size:18px;line-height:125%;font-family:Ubuntu;-inkscape-font-specification:'Ubuntu Medium';text-align:start;writing-mode:lr-tb;text-anchor:start;fill:#008000" /></flowRegion><flowPara
         id="flowPara4724-3-9-8-7-5"
         style="font-style:normal;font-variant:normal;font-weight:500;font-stretch:normal;font-size:18px;line-height:125%;font-family:Ubuntu;-inkscape-font-specification:'Ubuntu Medium';text-align:start;writing-mode:lr-tb;text-anchor:start;fill:#008000">i</flowPara></flowRoot>    <flowRoot
       transform="translate(707.86351,-56.02246)"
       xml:space="preserve"
       id="flowRoot4718-1-4-37-3-8"
       style="font-style:normal;font-variant:normal;font-weight:500;font-stretch:normal;line-height:0.01%;font-family:Ubuntu;-inkscape-font-specification:'Ubuntu Medium';text-align:start;letter-spacing:0px;word-spacing:0px;writing-mode:lr-tb;text-anchor:start;fill:#008000;fill-opacity:1;stroke:none"><flowRegion
         id="flowRegion4720-0-47-3-06-5"><rect
           id="rect4722-0-1-41-16-0"
           width="102.02541"
           height="96.974648"
           x="79.802048"
           y="656.38239"
           style="font-style:normal;font-variant:normal;font-weight:500;font-stretch:normal;font-size:18px;line-height:125%;font-family:Ubuntu;-inkscape-font-specification:'Ubuntu Medium';text-align:start;writing-mode:lr-tb;text-anchor:start;fill:#008000" /></flowRegion><flowPara
         id="flowPara4724-3-9-8-4-1"
         style="font-style:normal;font-variant:normal;font-weight:500;font-stretch:normal;font-size:18px;line-height:125%;font-family:Ubuntu;-inkscape-font-specification:'Ubuntu Medium';text-align:start;writing-mode:lr-tb;text-anchor:start;fill:#008000">j</flowPara></flowRoot>    <flowRoot
       xml:space="preserve"
       id="flowRoot6041"
       style="font-style:normal;font-variant:normal;font-weight:normal;font-stretch:normal;line-height:0.01%;font-family:Ubuntu;-inkscape-font-specification:Ubuntu;text-align:start;letter-spacing:0px;word-spacing:0px;writing-mode:lr-tb;text-anchor:start;fill:#4d4d4d;fill-opacity:1;stroke:none;stroke-width:1px;stroke-linecap:butt;stroke-linejoin:miter;stroke-opacity:1;"><flowRegion
         id="flowRegion6043"
         style="fill:#4d4d4d;"><rect
           id="rect6045"
           width="658.57141"
           height="101.42857"
           x="115.71429"
           y="99.505043"
           style="fill:#4d4d4d;" /></flowRegion><flowPara
         id="flowPara6047"
         style="font-size:12px;line-height:1.25;fill:#4d4d4d;"> </flowPara></flowRoot>    <path
       style="fill:none;stroke:#666666;stroke-width:4;stroke-linecap:butt;stroke-linejoin:miter;stroke-miterlimit:4;stroke-opacity:1;stroke-dasharray:4.00000008, 4.00000008;stroke-dashoffset:0"
       d="m 589.74412,311.6479 459.69538,0"
       id="path6051"
       inkscape:connector-curvature="0" />
    <path
       style="fill:#800000;stroke:#008000;stroke-width:2;stroke-linecap:butt;stroke-linejoin:miter;stroke-opacity:1;stroke-miterlimit:4;stroke-dasharray:none"
       d="m 170.71578,467.7364 20.96067,0"
       id="path6053"
       inkscape:connector-curvature="0" />
    <rect
       style="fill:none;stroke:#666666;stroke-width:1.20000005;stroke-linecap:round;stroke-linejoin:miter;stroke-miterlimit:4;stroke-opacity:1;stroke-dasharray:none;stroke-dashoffset:0"
       id="rect3344"
       width="541.62555"
       height="413.13074"
       x="513.98383"
       y="214.94571" />
    <path
       style="fill:none;stroke:#008000;stroke-width:2;stroke-linecap:butt;stroke-linejoin:miter;stroke-miterlimit:4;stroke-opacity:1;stroke-dasharray:none"
       d="m 100.25764,609.03148 46.97209,0"
       id="path3345"
       inkscape:connector-curvature="0" />
    <path
       inkscape:connector-curvature="0"
       id="path250"
       d="m 603.39812,546.11448 0,-31.49161 46.62494,0 0,31.49161"
       style="fill:none;stroke:#008000;stroke-width:3;stroke-linecap:round;stroke-linejoin:round;stroke-miterlimit:10;stroke-opacity:1;stroke-dasharray:none" />
    <path
       inkscape:connector-curvature="0"
       id="path268"
       d="m 743.27887,596.80452 0,-31.48568 46.63088,0 0,31.48568"
       style="fill:none;stroke:#008000;stroke-width:3;stroke-linecap:round;stroke-linejoin:round;stroke-miterlimit:10;stroke-opacity:1;stroke-dasharray:none" />
    <path
       style="fill:none;stroke:#008000;stroke-width:2;stroke-linecap:butt;stroke-linejoin:miter;stroke-miterlimit:4;stroke-opacity:1;stroke-dasharray:none"
       d="m 149.61919,607.44111 43.61875,-44.44433"
       id="path3345-9"
       inkscape:connector-curvature="0" />
    <path
       inkscape:connector-curvature="0"
       id="path288"
       d="m 929.79048,504.11381 0,-31.48568 46.63092,0 0,31.48568"
       style="fill:none;stroke:#d45500;stroke-width:3;stroke-linecap:round;stroke-linejoin:round;stroke-miterlimit:10;stroke-opacity:1;stroke-dasharray:none" />
    <path
       style="fill:none;stroke:#d45500;stroke-width:2;stroke-linecap:butt;stroke-linejoin:miter;stroke-miterlimit:4;stroke-opacity:1;stroke-dasharray:none"
       d="m 383.9049,233.9058 43.97589,44.4128"
       id="path3345-9-8"
       inkscape:connector-curvature="0" />
    <path
       inkscape:connector-curvature="0"
       id="path244"
       d="m 174.7719,467.83357 c 0,5.31739 -7.96875,5.31739 -7.96875,0 0,-5.3125 7.96875,-5.3125 7.96875,0"
       style="fill:#008000;fill-opacity:1;fill-rule:nonzero;stroke:none" />
    <path
       inkscape:connector-curvature="0"
       id="path246"
       d="m 198.29242,467.83357 c 0,5.31739 -7.97364,5.31739 -7.97364,0 0,-5.3125 7.97364,-5.3125 7.97364,0"
       style="fill:#008000;fill-opacity:1;fill-rule:nonzero;stroke:none" />
    <path
       style="fill:none;stroke:#008000;stroke-width:1.99999964;stroke-linecap:butt;stroke-linejoin:miter;stroke-miterlimit:4;stroke-opacity:1;stroke-dasharray:none"
       d="m 194.47635,559.2272 -0.0241,-88.90861"
       id="path3345-9-1"
       inkscape:connector-curvature="0" />
    <path
       inkscape:connector-curvature="0"
       id="path298"
       d="m 877.33368,389.30253 0,-60.06107 145.71262,0 0,31.48568"
       style="fill:none;stroke:#d45500;stroke-width:3;stroke-linecap:round;stroke-linejoin:round;stroke-miterlimit:10;stroke-opacity:1;stroke-dasharray:none" />
    <path
       inkscape:connector-curvature="0"
       id="path270"
       d="m 661.68077,472.62813 0,-59.39128 104.91354,0 0,152.08199"
       style="fill:none;stroke:#008000;stroke-width:3;stroke-linecap:round;stroke-linejoin:round;stroke-miterlimit:10;stroke-opacity:1;stroke-dasharray:none" />
    <path
       style="fill:none;stroke:#d45500;stroke-width:2;stroke-linecap:butt;stroke-linejoin:miter;stroke-miterlimit:4;stroke-opacity:1;stroke-dasharray:none"
       d="m 430.88714,282.32402 44.83811,90.18348"
       id="path3345-9-8-1"
       inkscape:connector-curvature="0" />
    <path
       style="fill:none;stroke:#d45500;stroke-width:2;stroke-linecap:butt;stroke-linejoin:miter;stroke-miterlimit:4;stroke-opacity:1;stroke-dasharray:none"
       d="m 384.59847,420.04396 91.45306,-45.53138"
       id="path3345-9-8-0"
       inkscape:connector-curvature="0" />
    <path
       style="fill:none;stroke:#d45500;stroke-width:2;stroke-linecap:butt;stroke-linejoin:miter;stroke-miterlimit:4;stroke-opacity:1;stroke-dasharray:none"
       d="m 290.1492,328.09977 92.46321,92.90012"
       id="path3345-9-8-4"
       inkscape:connector-curvature="0" />
  </g>
</svg>
